%!PS-Adobe-3.0 EPSF-3.0
%%Creator: cairo 1.10.2 (http://cairographics.org)
%%CreationDate: Fri Aug 14 10:44:15 2015
%%Pages: 1
%%BoundingBox: 0 -1 396 336
%%DocumentData: Clean7Bit
%%LanguageLevel: 2
%%EndComments
%%BeginProlog
/cairo_eps_state save def
/dict_count countdictstack def
/op_count count 1 sub def
userdict begin
/q { gsave } bind def
/Q { grestore } bind def
/cm { 6 array astore concat } bind def
/w { setlinewidth } bind def
/J { setlinecap } bind def
/j { setlinejoin } bind def
/M { setmiterlimit } bind def
/d { setdash } bind def
/m { moveto } bind def
/l { lineto } bind def
/c { curveto } bind def
/h { closepath } bind def
/re { exch dup neg 3 1 roll 5 3 roll moveto 0 rlineto
      0 exch rlineto 0 rlineto closepath } bind def
/S { stroke } bind def
/f { fill } bind def
/f* { eofill } bind def
/n { newpath } bind def
/W { clip } bind def
/W* { eoclip } bind def
/BT { } bind def
/ET { } bind def
/pdfmark where { pop globaldict /?pdfmark /exec load put }
    { globaldict begin /?pdfmark /pop load def /pdfmark
    /cleartomark load def end } ifelse
/BDC { mark 3 1 roll /BDC pdfmark } bind def
/EMC { mark /EMC pdfmark } bind def
/cairo_store_point { /cairo_point_y exch def /cairo_point_x exch def } def
/Tj { show currentpoint cairo_store_point } bind def
/TJ {
  {
    dup
    type /stringtype eq
    { show } { -0.001 mul 0 cairo_font_matrix dtransform rmoveto } ifelse
  } forall
  currentpoint cairo_store_point
} bind def
/cairo_selectfont { cairo_font_matrix aload pop pop pop 0 0 6 array astore
    cairo_font exch selectfont cairo_point_x cairo_point_y moveto } bind def
/Tf { pop /cairo_font exch def /cairo_font_matrix where
      { pop cairo_selectfont } if } bind def
/Td { matrix translate cairo_font_matrix matrix concatmatrix dup
      /cairo_font_matrix exch def dup 4 get exch 5 get cairo_store_point
      /cairo_font where { pop cairo_selectfont } if } bind def
/Tm { 2 copy 8 2 roll 6 array astore /cairo_font_matrix exch def
      cairo_store_point /cairo_font where { pop cairo_selectfont } if } bind def
/g { setgray } bind def
/rg { setrgbcolor } bind def
/d1 { setcachedevice } bind def
%%EndProlog
%%Page: 1 1
%%BeginPageSetup
%%PageBoundingBox: 0 -1 396 336
%%EndPageSetup
q 0 -1 396 337 rectclip q
0 335.353 396 -336 re W n
0 g
335.371 167.681 m 335.371 260.138 260.141 335.353 167.688 335.353 c 
75.23 335.353 0 260.138 0 167.681 c 0 75.224 75.23 0.001 167.684 0.001 
c 179 0.001 188.18 9.173 188.18 20.497 c 188.18 31.818 179 40.99 
167.684 40.99 c 97.82 40.99 40.992 97.822 40.992 167.681 c 40.992 
237.533 97.82 294.361 167.684 294.361 c 237.551 294.361 294.379 237.533 
294.379 167.681 c 294.379 156.357 303.562 147.185 314.875 147.185 c 
326.191 147.185 335.371 156.357 335.371 167.681 c h
335.371 167.681 m f
279.637 39.517 m 247.023 39.517 l 247.023 39.868 l 257.742 48.818 l 
274.555 63.829 288.672 79.38 288.672 98.861 c 288.672 119.95 274.18 
135.329 247.906 135.329 c 236.336 135.329 225.93 132.427 217.75 128.263 
c 213.094 125.896 211 120.396 212.922 115.533 c 213.188 114.872 l 
214.188 112.31 216.242 110.29 218.805 109.294 c 221.379 108.294 224.25 
108.415 226.719 109.63 c 231.363 111.892 236.66 113.517 242.367 113.517 
c 255.766 113.517 261.488 106.021 261.488 96.54 c 261.145 82.954 
248.801 69.908 223.422 47.208 c 210.41 35.431 l 209.145 34.279 208.41 
32.638 208.41 30.908 c 208.41 23.279 l 208.41 19.908 211.145 17.173 
214.52 17.173 c 279.637 17.173 l 285.805 17.173 290.805 22.177 290.805 
28.341 c 290.805 34.513 285.805 39.517 279.637 39.517 c h
279.637 39.517 m f
385.25 65.255 m 381.488 65.255 l 381.488 127.255 l 381.488 130.626 
378.75 133.361 375.375 133.361 c 351.637 133.361 l 349.527 133.361 
347.566 132.275 346.461 130.478 c 305.188 64.056 l 304.586 63.087 
304.27 61.974 304.27 60.833 c 304.27 50.986 l 304.27 47.615 307.004 
44.88 310.379 44.88 c 355.746 44.88 l 355.746 30.036 l 355.746 22.931 
361.512 17.173 368.609 17.173 c 375.723 17.173 381.488 22.939 381.488 
30.048 c 381.488 44.88 l 385.234 44.88 l 390.867 44.88 395.43 49.443 
395.43 55.068 c 395.43 60.693 390.867 65.255 385.25 65.255 c h
355.746 90.99 m 355.746 65.255 l 329.645 65.255 l 329.645 65.611 l 
345.207 90.99 l 349.129 98.322 352.172 105.118 355.934 112.618 c 
356.641 112.618 l 356.109 105.118 355.746 97.958 355.746 90.99 c h
355.746 90.99 m f
167.688 273.29 m 159.512 273.29 152.887 266.665 152.887 258.49 c 
152.887 176.798 l 152.887 163.384 163.801 152.47 177.215 152.47 c 
236.578 152.47 l 244.754 152.47 251.379 159.095 251.379 167.271 c 
251.379 175.443 244.754 182.072 236.578 182.072 c 182.484 182.072 l 
182.484 258.49 l 182.484 266.665 175.859 273.29 167.688 273.29 c h
167.688 273.29 m f
Q Q
showpage
%%Trailer
count op_count sub {pop} repeat
countdictstack dict_count sub {end} repeat
cairo_eps_state restore
%%EOF
