%!PS-Adobe-3.0 EPSF-3.0
%%Creator: cairo 1.10.2 (http://cairographics.org)
%%CreationDate: Fri Aug 14 10:44:13 2015
%%Pages: 1
%%BoundingBox: 0 -1 397 397
%%DocumentData: Clean7Bit
%%LanguageLevel: 2
%%EndComments
%%BeginProlog
/cairo_eps_state save def
/dict_count countdictstack def
/op_count count 1 sub def
userdict begin
/q { gsave } bind def
/Q { grestore } bind def
/cm { 6 array astore concat } bind def
/w { setlinewidth } bind def
/J { setlinecap } bind def
/j { setlinejoin } bind def
/M { setmiterlimit } bind def
/d { setdash } bind def
/m { moveto } bind def
/l { lineto } bind def
/c { curveto } bind def
/h { closepath } bind def
/re { exch dup neg 3 1 roll 5 3 roll moveto 0 rlineto
      0 exch rlineto 0 rlineto closepath } bind def
/S { stroke } bind def
/f { fill } bind def
/f* { eofill } bind def
/n { newpath } bind def
/W { clip } bind def
/W* { eoclip } bind def
/BT { } bind def
/ET { } bind def
/pdfmark where { pop globaldict /?pdfmark /exec load put }
    { globaldict begin /?pdfmark /pop load def /pdfmark
    /cleartomark load def end } ifelse
/BDC { mark 3 1 roll /BDC pdfmark } bind def
/EMC { mark /EMC pdfmark } bind def
/cairo_store_point { /cairo_point_y exch def /cairo_point_x exch def } def
/Tj { show currentpoint cairo_store_point } bind def
/TJ {
  {
    dup
    type /stringtype eq
    { show } { -0.001 mul 0 cairo_font_matrix dtransform rmoveto } ifelse
  } forall
  currentpoint cairo_store_point
} bind def
/cairo_selectfont { cairo_font_matrix aload pop pop pop 0 0 6 array astore
    cairo_font exch selectfont cairo_point_x cairo_point_y moveto } bind def
/Tf { pop /cairo_font exch def /cairo_font_matrix where
      { pop cairo_selectfont } if } bind def
/Td { matrix translate cairo_font_matrix matrix concatmatrix dup
      /cairo_font_matrix exch def dup 4 get exch 5 get cairo_store_point
      /cairo_font where { pop cairo_selectfont } if } bind def
/Tm { 2 copy 8 2 roll 6 array astore /cairo_font_matrix exch def
      cairo_store_point /cairo_font where { pop cairo_selectfont } if } bind def
/g { setgray } bind def
/rg { setrgbcolor } bind def
/d1 { setcachedevice } bind def
%%EndProlog
%%Page: 1 1
%%BeginPageSetup
%%PageBoundingBox: 0 -1 397 397
%%EndPageSetup
q 0 -1 397 398 rectclip q
0 396.454 397 -397 re W n
0 g
359.543 198.216 m 359.543 205.536 365.48 211.474 372.801 211.474 c 
396.453 211.482 l 394.691 238.06 387.742 263.165 376.562 285.872 c 
356.043 274.025 l 353.961 272.814 351.676 272.243 349.43 272.243 c 
344.844 272.243 340.391 274.618 337.938 278.872 c 334.27 285.212 
336.441 293.326 342.785 296.982 c 363.461 308.919 l 349.008 330.447 
330.473 348.99 308.945 363.447 c 297.012 342.775 l 294.559 338.521 
290.098 336.146 285.512 336.146 c 283.266 336.146 280.988 336.716 
278.898 337.919 c 272.559 341.583 270.383 349.689 274.043 356.033 c 
285.883 376.56 l 263.176 387.747 238.07 394.693 211.484 396.454 c 
211.484 372.818 l 211.484 365.493 205.547 359.556 198.227 359.556 c 
190.902 359.556 184.965 365.493 184.965 372.818 c 184.965 396.454 l 
158.383 394.693 133.289 387.747 110.574 376.56 c 122.41 356.052 l 
126.066 349.708 123.895 341.603 117.555 337.939 c 115.465 336.732 
113.184 336.165 110.938 336.165 c 106.355 336.165 101.891 338.54 99.438 
342.794 c 87.516 363.454 l 65.988 349.005 47.449 330.454 32.996 308.927 
c 53.656 297.001 l 60 293.337 62.168 285.224 58.508 278.884 c 56.047 
274.63 51.594 272.255 47.012 272.255 c 44.766 272.255 42.477 272.826 
40.395 274.029 c 19.891 285.872 l 8.707 263.158 1.762 238.06 0 211.482 
c 23.625 211.474 l 30.945 211.474 36.883 205.536 36.883 198.216 c 
36.883 190.892 30.945 184.954 23.625 184.954 c 0.004 184.962 l 1.758 
158.384 8.707 133.283 19.895 110.579 c 40.379 122.4 l 46.723 126.064 
54.824 123.888 58.496 117.544 c 62.152 111.201 59.977 103.095 53.641 
99.427 c 33 87.517 l 47.457 65.986 66 47.451 87.527 33.001 c 99.441 
53.634 l 103.105 59.974 111.211 62.165 117.555 58.49 c 123.898 54.826 
126.07 46.712 122.41 40.372 c 110.582 19.888 l 133.289 8.708 158.391 
1.759 184.969 0.001 c 184.969 23.638 l 184.969 30.962 190.902 36.9 
198.227 36.9 c 205.547 36.9 211.488 30.962 211.488 23.638 c 211.488 
0.001 l 238.07 1.763 263.164 8.708 285.875 19.896 c 274.035 40.396 l 
270.371 46.732 272.539 54.845 278.887 58.501 c 285.223 62.189 293.336 
59.993 296.996 53.654 c 308.926 32.993 l 330.453 47.447 348.996 65.986 
363.445 87.517 c 342.785 99.443 l 336.445 103.107 334.27 111.212 337.93 
117.556 c 341.59 123.896 349.688 126.083 356.043 122.411 c 376.559 
110.572 l 387.742 133.283 394.691 158.376 396.445 184.962 c 372.801 
184.954 l 365.48 184.954 359.543 190.892 359.543 198.216 c h
315.355 184.966 m 215.863 184.966 l 211.836 179.622 205.438 176.161 
198.227 176.161 c 186.039 176.161 176.16 186.044 176.16 198.228 c 
176.16 207.173 181.488 214.868 189.141 218.333 c 224.375 375.712 l 
225.98 382.857 233.129 387.314 240.211 385.759 c 247.359 384.154 
251.859 377.064 250.262 369.915 c 215.016 212.536 l 215.309 212.197 
215.594 211.849 215.863 211.486 c 315.352 211.486 l 322.676 211.486 
328.613 205.552 328.613 198.228 c 328.613 190.904 322.676 184.966 
315.355 184.966 c h
315.355 184.966 m f
Q Q
showpage
%%Trailer
count op_count sub {pop} repeat
countdictstack dict_count sub {end} repeat
cairo_eps_state restore
%%EOF
