%!PS-Adobe-3.0 EPSF-3.0
%%Creator: cairo 1.10.2 (http://cairographics.org)
%%CreationDate: Fri Aug 14 10:45:12 2015
%%Pages: 1
%%BoundingBox: 0 -1 396 259
%%DocumentData: Clean7Bit
%%LanguageLevel: 2
%%EndComments
%%BeginProlog
/cairo_eps_state save def
/dict_count countdictstack def
/op_count count 1 sub def
userdict begin
/q { gsave } bind def
/Q { grestore } bind def
/cm { 6 array astore concat } bind def
/w { setlinewidth } bind def
/J { setlinecap } bind def
/j { setlinejoin } bind def
/M { setmiterlimit } bind def
/d { setdash } bind def
/m { moveto } bind def
/l { lineto } bind def
/c { curveto } bind def
/h { closepath } bind def
/re { exch dup neg 3 1 roll 5 3 roll moveto 0 rlineto
      0 exch rlineto 0 rlineto closepath } bind def
/S { stroke } bind def
/f { fill } bind def
/f* { eofill } bind def
/n { newpath } bind def
/W { clip } bind def
/W* { eoclip } bind def
/BT { } bind def
/ET { } bind def
/pdfmark where { pop globaldict /?pdfmark /exec load put }
    { globaldict begin /?pdfmark /pop load def /pdfmark
    /cleartomark load def end } ifelse
/BDC { mark 3 1 roll /BDC pdfmark } bind def
/EMC { mark /EMC pdfmark } bind def
/cairo_store_point { /cairo_point_y exch def /cairo_point_x exch def } def
/Tj { show currentpoint cairo_store_point } bind def
/TJ {
  {
    dup
    type /stringtype eq
    { show } { -0.001 mul 0 cairo_font_matrix dtransform rmoveto } ifelse
  } forall
  currentpoint cairo_store_point
} bind def
/cairo_selectfont { cairo_font_matrix aload pop pop pop 0 0 6 array astore
    cairo_font exch selectfont cairo_point_x cairo_point_y moveto } bind def
/Tf { pop /cairo_font exch def /cairo_font_matrix where
      { pop cairo_selectfont } if } bind def
/Td { matrix translate cairo_font_matrix matrix concatmatrix dup
      /cairo_font_matrix exch def dup 4 get exch 5 get cairo_store_point
      /cairo_font where { pop cairo_selectfont } if } bind def
/Tm { 2 copy 8 2 roll 6 array astore /cairo_font_matrix exch def
      cairo_store_point /cairo_font where { pop cairo_selectfont } if } bind def
/g { setgray } bind def
/rg { setrgbcolor } bind def
/d1 { setcachedevice } bind def
%%EndProlog
%%Page: 1 1
%%BeginPageSetup
%%PageBoundingBox: 0 -1 396 259
%%EndPageSetup
q 0 -1 396 260 rectclip q
0 258.573 396 -259 re W n
0 g
374.629 258.573 m 20.645 258.573 l 9.246 258.573 0 249.331 0 237.928 c 
0 20.643 l 0 9.245 9.246 -0.001 20.645 -0.001 c 374.625 -0.001 l 
386.027 -0.001 395.27 9.245 395.27 20.643 c 395.27 237.928 l 395.273 
249.331 386.027 258.573 374.629 258.573 c h
361.09 53.667 m 366.688 49.014 367.461 40.71 362.812 35.112 c 360.207 
31.975 356.453 30.35 352.668 30.35 c 349.703 30.35 346.719 31.35 
344.262 33.389 c 251.344 110.514 l 206.051 72.924 l 203.613 70.897 
200.621 69.885 197.637 69.885 c 194.652 69.885 191.66 70.897 189.223 
72.924 c 143.93 110.514 l 51.012 33.389 l 45.422 28.737 37.113 29.502 
32.457 35.112 c 27.812 40.71 28.586 49.014 34.18 53.667 c 123.297 
127.639 l 34.18 201.612 l 28.586 206.264 27.812 214.569 32.457 220.167 
c 37.113 225.764 45.422 226.53 51.012 221.889 c 197.637 100.186 l 
344.262 221.889 l 349.859 226.53 358.168 225.764 362.812 220.167 c 
367.461 214.569 366.688 206.264 361.09 201.612 c 271.973 127.639 l h
361.09 53.667 m f
Q Q
showpage
%%Trailer
count op_count sub {pop} repeat
countdictstack dict_count sub {end} repeat
cairo_eps_state restore
%%EOF
