%!PS-Adobe-3.0 EPSF-3.0
%%Creator: cairo 1.10.2 (http://cairographics.org)
%%CreationDate: Fri Aug 14 10:44:47 2015
%%Pages: 1
%%BoundingBox: 0 -1 396 299
%%DocumentData: Clean7Bit
%%LanguageLevel: 2
%%EndComments
%%BeginProlog
/cairo_eps_state save def
/dict_count countdictstack def
/op_count count 1 sub def
userdict begin
/q { gsave } bind def
/Q { grestore } bind def
/cm { 6 array astore concat } bind def
/w { setlinewidth } bind def
/J { setlinecap } bind def
/j { setlinejoin } bind def
/M { setmiterlimit } bind def
/d { setdash } bind def
/m { moveto } bind def
/l { lineto } bind def
/c { curveto } bind def
/h { closepath } bind def
/re { exch dup neg 3 1 roll 5 3 roll moveto 0 rlineto
      0 exch rlineto 0 rlineto closepath } bind def
/S { stroke } bind def
/f { fill } bind def
/f* { eofill } bind def
/n { newpath } bind def
/W { clip } bind def
/W* { eoclip } bind def
/BT { } bind def
/ET { } bind def
/pdfmark where { pop globaldict /?pdfmark /exec load put }
    { globaldict begin /?pdfmark /pop load def /pdfmark
    /cleartomark load def end } ifelse
/BDC { mark 3 1 roll /BDC pdfmark } bind def
/EMC { mark /EMC pdfmark } bind def
/cairo_store_point { /cairo_point_y exch def /cairo_point_x exch def } def
/Tj { show currentpoint cairo_store_point } bind def
/TJ {
  {
    dup
    type /stringtype eq
    { show } { -0.001 mul 0 cairo_font_matrix dtransform rmoveto } ifelse
  } forall
  currentpoint cairo_store_point
} bind def
/cairo_selectfont { cairo_font_matrix aload pop pop pop 0 0 6 array astore
    cairo_font exch selectfont cairo_point_x cairo_point_y moveto } bind def
/Tf { pop /cairo_font exch def /cairo_font_matrix where
      { pop cairo_selectfont } if } bind def
/Td { matrix translate cairo_font_matrix matrix concatmatrix dup
      /cairo_font_matrix exch def dup 4 get exch 5 get cairo_store_point
      /cairo_font where { pop cairo_selectfont } if } bind def
/Tm { 2 copy 8 2 roll 6 array astore /cairo_font_matrix exch def
      cairo_store_point /cairo_font where { pop cairo_selectfont } if } bind def
/g { setgray } bind def
/rg { setrgbcolor } bind def
/d1 { setcachedevice } bind def
%%EndProlog
%%Page: 1 1
%%BeginPageSetup
%%PageBoundingBox: 0 -1 396 299
%%EndPageSetup
q 0 -1 396 300 rectclip q
0 298.322 396 -299 re W n
0 g
225.66 107.541 m 222.828 110.377 218.996 111.959 214.98 111.959 c 
210.973 111.959 207.141 110.377 204.305 107.541 c 184.387 87.608 l 
87.613 184.397 l 107.531 204.315 l 113.434 210.205 113.434 219.764 
107.531 225.658 c 49.176 284.014 l 46.23 286.963 42.367 288.444 38.504 
288.444 c 34.641 288.444 30.777 286.959 27.832 284.014 c 7.91 264.084 l 
-17.27 238.889 19.652 161.139 90.402 90.397 c 146.074 34.733 206.094 
-0.002 241.406 -0.002 c 250.965 -0.002 258.711 2.545 264.074 7.916 c 
264.039 7.955 l 284.012 27.834 l 289.906 33.733 289.906 43.287 284.012 
49.186 c h
225.66 107.541 m f
380.027 298.322 m 111.328 298.322 l 102.676 298.322 95.66 291.307 95.66 
282.654 c 95.66 275.643 l 126.578 244.725 l 134.523 236.783 138.902 
226.217 138.902 214.99 c 138.902 203.756 134.52 193.19 126.582 185.264 
c 125.715 184.397 l 146.516 163.592 l 189.098 198.932 l 121.543 255.006 
l 117.246 258.569 116.656 264.94 120.219 269.233 c 123.785 273.529 
130.16 274.115 134.449 270.557 c 245.684 178.225 l 356.914 270.557 l 
361.207 274.115 367.582 273.529 371.141 269.233 c 374.707 264.94 
374.117 258.569 369.816 255.006 c 302.266 198.932 l 369.699 142.736 l 
373.98 139.17 374.566 132.811 371.008 128.522 c 367.438 124.221 361.055 
123.635 356.762 127.213 c 286.449 185.803 l 252.133 157.319 l 250.266 
155.768 247.973 154.99 245.684 154.99 c 243.391 154.99 241.098 155.768 
239.23 157.319 c 204.918 185.803 l 160.863 149.24 l 184.379 125.725 l 
185.254 126.592 l 188.898 130.236 193.137 133.026 197.695 135.092 c 
203.066 137.526 208.902 138.908 214.98 138.908 c 221.066 138.908 226.91 
137.526 232.273 135.092 c 236.84 133.026 241.078 130.236 244.707 
126.592 c 269.25 102.049 l 380.031 102.049 l 388.684 102.049 395.699 
109.065 395.699 117.717 c 395.699 282.654 l 395.699 291.307 388.684 
298.322 380.027 298.322 c h
380.027 298.322 m f
Q Q
showpage
%%Trailer
count op_count sub {pop} repeat
countdictstack dict_count sub {end} repeat
cairo_eps_state restore
%%EOF
