%!PS-Adobe-3.0 EPSF-3.0
%%Creator: cairo 1.10.2 (http://cairographics.org)
%%CreationDate: Fri Aug 14 10:45:07 2015
%%Pages: 1
%%BoundingBox: 0 -1 390 394
%%DocumentData: Clean7Bit
%%LanguageLevel: 2
%%EndComments
%%BeginProlog
/cairo_eps_state save def
/dict_count countdictstack def
/op_count count 1 sub def
userdict begin
/q { gsave } bind def
/Q { grestore } bind def
/cm { 6 array astore concat } bind def
/w { setlinewidth } bind def
/J { setlinecap } bind def
/j { setlinejoin } bind def
/M { setmiterlimit } bind def
/d { setdash } bind def
/m { moveto } bind def
/l { lineto } bind def
/c { curveto } bind def
/h { closepath } bind def
/re { exch dup neg 3 1 roll 5 3 roll moveto 0 rlineto
      0 exch rlineto 0 rlineto closepath } bind def
/S { stroke } bind def
/f { fill } bind def
/f* { eofill } bind def
/n { newpath } bind def
/W { clip } bind def
/W* { eoclip } bind def
/BT { } bind def
/ET { } bind def
/pdfmark where { pop globaldict /?pdfmark /exec load put }
    { globaldict begin /?pdfmark /pop load def /pdfmark
    /cleartomark load def end } ifelse
/BDC { mark 3 1 roll /BDC pdfmark } bind def
/EMC { mark /EMC pdfmark } bind def
/cairo_store_point { /cairo_point_y exch def /cairo_point_x exch def } def
/Tj { show currentpoint cairo_store_point } bind def
/TJ {
  {
    dup
    type /stringtype eq
    { show } { -0.001 mul 0 cairo_font_matrix dtransform rmoveto } ifelse
  } forall
  currentpoint cairo_store_point
} bind def
/cairo_selectfont { cairo_font_matrix aload pop pop pop 0 0 6 array astore
    cairo_font exch selectfont cairo_point_x cairo_point_y moveto } bind def
/Tf { pop /cairo_font exch def /cairo_font_matrix where
      { pop cairo_selectfont } if } bind def
/Td { matrix translate cairo_font_matrix matrix concatmatrix dup
      /cairo_font_matrix exch def dup 4 get exch 5 get cairo_store_point
      /cairo_font where { pop cairo_selectfont } if } bind def
/Tm { 2 copy 8 2 roll 6 array astore /cairo_font_matrix exch def
      cairo_store_point /cairo_font where { pop cairo_selectfont } if } bind def
/g { setgray } bind def
/rg { setrgbcolor } bind def
/d1 { setcachedevice } bind def
%%EndProlog
%%Page: 1 1
%%BeginPageSetup
%%PageBoundingBox: 0 -1 390 394
%%EndPageSetup
q 0 -1 390 395 rectclip q
0 393.611 390 -394 re W n
0 g
269.441 25.959 m 25.961 25.959 l 25.961 367.654 l 269.441 367.654 l 
269.441 282.955 l 295.398 308.912 l 295.398 380.635 l 295.398 387.799 
289.59 393.611 282.422 393.611 c 12.98 393.611 l 5.812 393.611 0 
387.799 0 380.635 c 0 12.978 l 0 5.81 5.812 0.002 12.98 0.002 c 282.422 
0.002 l 289.59 0.002 295.398 5.81 295.398 12.978 c 295.398 155.799 l 
269.441 129.838 l h
269.441 25.959 m f
231.18 336.525 m 64.223 336.525 l 58.746 336.525 54.305 332.08 54.305 
326.607 c 54.305 321.131 58.746 316.689 64.223 316.689 c 231.176 
316.689 l 236.652 316.689 241.094 321.131 241.094 326.607 c 241.098 
332.08 236.652 336.525 231.18 336.525 c h
231.18 336.525 m f
241.098 273.709 m 241.098 279.185 236.652 283.631 231.18 283.631 c 
64.223 283.631 l 58.746 283.631 54.305 279.185 54.305 273.709 c 54.305 
268.236 58.746 263.791 64.223 263.791 c 231.176 263.791 l 236.652 
263.791 241.098 268.232 241.098 273.709 c h
241.098 273.709 m f
217.227 230.732 m 64.223 230.732 l 58.746 230.732 54.305 226.287 54.305 
220.814 c 54.305 215.338 58.746 210.896 64.223 210.896 c 197.387 
210.896 l h
217.227 230.732 m f
161.746 164.978 m 163.09 169.474 165.008 173.779 167.344 177.834 c 
64.223 177.834 l 58.75 177.834 54.305 173.392 54.305 167.916 c 54.305 
162.443 58.75 157.998 64.223 157.998 c 159.668 157.998 l h
161.746 164.978 m f
64.223 124.939 m 58.746 124.939 54.305 120.494 54.305 115.017 c 54.305 
109.545 58.746 105.103 64.223 105.103 c 151.344 105.103 l 148.773 
111.338 148.105 118.228 149.922 124.939 c h
64.223 124.939 m f
381.543 318.49 m 376.348 323.689 369.301 326.607 361.961 326.607 c 
354.621 326.607 347.574 323.689 342.383 318.494 c 195.652 171.76 l 
191.645 167.756 188.711 162.83 187.09 157.404 c 175.395 118.209 l 
174.898 116.549 175.348 114.756 176.578 113.529 c 177.473 112.631 
178.676 112.146 179.906 112.146 c 180.355 112.146 180.812 112.209 
181.258 112.346 c 220.453 124.041 l 225.875 125.662 230.805 128.599 
234.805 132.603 c 381.543 279.334 l 386.734 284.525 389.652 291.568 
389.652 298.912 c 389.652 306.252 386.734 313.299 381.543 318.49 c h
381.543 318.49 m f
Q Q
showpage
%%Trailer
count op_count sub {pop} repeat
countdictstack dict_count sub {end} repeat
cairo_eps_state restore
%%EOF
