%!PS-Adobe-3.0 EPSF-3.0
%%Creator: cairo 1.10.2 (http://cairographics.org)
%%CreationDate: Fri Aug 14 10:44:44 2015
%%Pages: 1
%%BoundingBox: 0 -1 382 395
%%DocumentData: Clean7Bit
%%LanguageLevel: 2
%%EndComments
%%BeginProlog
/cairo_eps_state save def
/dict_count countdictstack def
/op_count count 1 sub def
userdict begin
/q { gsave } bind def
/Q { grestore } bind def
/cm { 6 array astore concat } bind def
/w { setlinewidth } bind def
/J { setlinecap } bind def
/j { setlinejoin } bind def
/M { setmiterlimit } bind def
/d { setdash } bind def
/m { moveto } bind def
/l { lineto } bind def
/c { curveto } bind def
/h { closepath } bind def
/re { exch dup neg 3 1 roll 5 3 roll moveto 0 rlineto
      0 exch rlineto 0 rlineto closepath } bind def
/S { stroke } bind def
/f { fill } bind def
/f* { eofill } bind def
/n { newpath } bind def
/W { clip } bind def
/W* { eoclip } bind def
/BT { } bind def
/ET { } bind def
/pdfmark where { pop globaldict /?pdfmark /exec load put }
    { globaldict begin /?pdfmark /pop load def /pdfmark
    /cleartomark load def end } ifelse
/BDC { mark 3 1 roll /BDC pdfmark } bind def
/EMC { mark /EMC pdfmark } bind def
/cairo_store_point { /cairo_point_y exch def /cairo_point_x exch def } def
/Tj { show currentpoint cairo_store_point } bind def
/TJ {
  {
    dup
    type /stringtype eq
    { show } { -0.001 mul 0 cairo_font_matrix dtransform rmoveto } ifelse
  } forall
  currentpoint cairo_store_point
} bind def
/cairo_selectfont { cairo_font_matrix aload pop pop pop 0 0 6 array astore
    cairo_font exch selectfont cairo_point_x cairo_point_y moveto } bind def
/Tf { pop /cairo_font exch def /cairo_font_matrix where
      { pop cairo_selectfont } if } bind def
/Td { matrix translate cairo_font_matrix matrix concatmatrix dup
      /cairo_font_matrix exch def dup 4 get exch 5 get cairo_store_point
      /cairo_font where { pop cairo_selectfont } if } bind def
/Tm { 2 copy 8 2 roll 6 array astore /cairo_font_matrix exch def
      cairo_store_point /cairo_font where { pop cairo_selectfont } if } bind def
/g { setgray } bind def
/rg { setrgbcolor } bind def
/d1 { setcachedevice } bind def
%%EndProlog
%%Page: 1 1
%%BeginPageSetup
%%PageBoundingBox: 0 -1 382 395
%%EndPageSetup
q 0 -1 382 396 rectclip q
0 394.605 382 -395 re W n
0 g
376.469 257.109 m 201.168 391.051 l 194.961 395.789 186.34 395.789 
180.133 391.051 c 131.398 353.82 l 131.398 354.918 l 131.398 359.863 
127.395 363.867 122.457 363.867 c 83.328 363.867 l 78.387 363.867 
74.387 359.863 74.387 354.918 c 74.387 310.261 l 4.82 257.109 l 0.641 
253.918 -1.035 248.414 0.645 243.429 c 2.336 238.453 7.008 235.097 
12.266 235.097 c 43.086 235.097 l 43.086 12.261 l 43.086 5.488 48.57 -0 
55.344 -0 c 325.938 -0 l 332.711 -0 338.203 5.488 338.203 12.261 c 
338.203 235.101 l 369.016 235.101 l 374.277 235.101 378.953 238.453 
380.637 243.429 c 382.324 248.418 380.648 253.918 376.469 257.109 c h
251.008 207.113 m 251.008 172.429 l 204.059 172.429 l 204.059 219.379 l 
238.746 219.379 l 245.52 219.379 251.008 213.89 251.008 207.113 c h
142.539 219.379 m 177.23 219.379 l 177.23 172.429 l 130.277 172.429 l 
130.277 207.113 l 130.277 213.89 135.766 219.379 142.539 219.379 c h
130.277 110.918 m 130.277 145.601 l 177.23 145.601 l 177.23 98.648 l 
142.539 98.648 l 135.766 98.652 130.277 104.14 130.277 110.918 c h
238.746 98.652 m 204.059 98.652 l 204.059 145.601 l 251.008 145.601 l 
251.008 110.918 l 251.008 104.14 245.52 98.652 238.746 98.652 c h
238.746 98.652 m f
Q Q
showpage
%%Trailer
count op_count sub {pop} repeat
countdictstack dict_count sub {end} repeat
cairo_eps_state restore
%%EOF
