%!PS-Adobe-3.0 EPSF-3.0
%%Creator: cairo 1.10.2 (http://cairographics.org)
%%CreationDate: Fri Aug 14 10:45:09 2015
%%Pages: 1
%%BoundingBox: 0 -1 397 275
%%DocumentData: Clean7Bit
%%LanguageLevel: 2
%%EndComments
%%BeginProlog
/cairo_eps_state save def
/dict_count countdictstack def
/op_count count 1 sub def
userdict begin
/q { gsave } bind def
/Q { grestore } bind def
/cm { 6 array astore concat } bind def
/w { setlinewidth } bind def
/J { setlinecap } bind def
/j { setlinejoin } bind def
/M { setmiterlimit } bind def
/d { setdash } bind def
/m { moveto } bind def
/l { lineto } bind def
/c { curveto } bind def
/h { closepath } bind def
/re { exch dup neg 3 1 roll 5 3 roll moveto 0 rlineto
      0 exch rlineto 0 rlineto closepath } bind def
/S { stroke } bind def
/f { fill } bind def
/f* { eofill } bind def
/n { newpath } bind def
/W { clip } bind def
/W* { eoclip } bind def
/BT { } bind def
/ET { } bind def
/pdfmark where { pop globaldict /?pdfmark /exec load put }
    { globaldict begin /?pdfmark /pop load def /pdfmark
    /cleartomark load def end } ifelse
/BDC { mark 3 1 roll /BDC pdfmark } bind def
/EMC { mark /EMC pdfmark } bind def
/cairo_store_point { /cairo_point_y exch def /cairo_point_x exch def } def
/Tj { show currentpoint cairo_store_point } bind def
/TJ {
  {
    dup
    type /stringtype eq
    { show } { -0.001 mul 0 cairo_font_matrix dtransform rmoveto } ifelse
  } forall
  currentpoint cairo_store_point
} bind def
/cairo_selectfont { cairo_font_matrix aload pop pop pop 0 0 6 array astore
    cairo_font exch selectfont cairo_point_x cairo_point_y moveto } bind def
/Tf { pop /cairo_font exch def /cairo_font_matrix where
      { pop cairo_selectfont } if } bind def
/Td { matrix translate cairo_font_matrix matrix concatmatrix dup
      /cairo_font_matrix exch def dup 4 get exch 5 get cairo_store_point
      /cairo_font where { pop cairo_selectfont } if } bind def
/Tm { 2 copy 8 2 roll 6 array astore /cairo_font_matrix exch def
      cairo_store_point /cairo_font where { pop cairo_selectfont } if } bind def
/g { setgray } bind def
/rg { setrgbcolor } bind def
/d1 { setcachedevice } bind def
%%EndProlog
%%Page: 1 1
%%BeginPageSetup
%%PageBoundingBox: 0 -1 397 275
%%EndPageSetup
q 0 -1 397 276 rectclip q
0 274.257 397 -275 re W n
0 g
373.234 274.257 m 23.199 274.257 l 10.387 274.257 0 263.87 0 251.061 c 
0 23.198 l 0 10.386 10.387 -0.001 23.199 -0.001 c 373.234 -0.001 l 
386.047 -0.001 396.43 10.386 396.43 23.198 c 396.43 251.061 l 396.43 
263.87 386.047 274.257 373.234 274.257 c h
202.113 235.253 m 289.199 235.253 l 294.645 235.253 299.059 230.835 
299.059 225.394 c 299.059 219.948 294.641 215.534 289.199 215.534 c 
202.113 215.534 l 196.668 215.534 192.254 219.948 192.254 225.394 c 
192.254 230.835 196.668 235.253 202.113 235.253 c h
154.254 163.651 m 152.031 152.788 144.215 145.202 136.797 146.71 c 
136.062 146.858 135.395 147.155 134.742 147.456 c 128.645 134.19 
119.797 122.39 109.348 115.339 c 109.348 108.542 l 109.348 96.577 
116.77 85.862 127.965 81.647 c 128.941 81.28 129.723 80.511 130.109 
79.534 c 130.492 78.558 130.441 77.46 129.98 76.522 c 114.293 44.815 l 
109.492 35.097 99.582 28.956 88.746 28.956 c 77.91 28.956 68 35.097 
63.199 44.815 c 47.512 76.522 l 47.047 77.46 46.996 78.558 47.383 
79.534 c 47.766 80.511 48.551 81.28 49.527 81.647 c 60.723 85.862 
68.141 96.577 68.141 108.542 c 68.141 115.339 l 57.691 122.39 48.848 
134.19 42.75 147.456 c 42.094 147.155 41.426 146.858 40.695 146.71 c 
33.273 145.202 25.457 152.788 23.238 163.651 c 21.043 174.519 25.266 
184.55 32.711 186.065 c 33.094 186.144 33.48 186.097 33.879 186.128 c 
34.277 218.87 58.641 245.304 88.746 245.304 c 118.852 245.304 143.215 
218.87 143.613 186.128 c 144.012 186.097 144.398 186.144 144.781 
186.065 c 152.227 184.55 156.449 174.519 154.254 163.651 c h
328.637 31.495 m 241.547 31.495 l 236.105 31.495 231.691 35.913 231.691 
41.354 c 231.691 46.8 236.105 51.214 241.547 51.214 c 328.637 51.214 l 
334.078 51.214 338.496 46.8 338.496 41.354 c 338.496 35.913 334.078 
31.495 328.637 31.495 c h
354.926 84.077 m 202.113 84.077 l 196.668 84.077 192.254 88.495 192.254 
93.936 c 192.254 99.382 196.668 103.796 202.113 103.796 c 354.926 
103.796 l 360.371 103.796 364.785 99.382 364.785 93.936 c 364.785 
88.495 360.371 84.077 354.926 84.077 c h
354.926 136.659 m 202.113 136.659 l 196.668 136.659 192.254 141.077 
192.254 146.519 c 192.254 151.964 196.668 156.378 202.113 156.378 c 
354.926 156.378 l 360.371 156.378 364.785 151.964 364.785 146.519 c 
364.785 141.077 360.371 136.659 354.926 136.659 c h
354.926 136.659 m f
Q Q
showpage
%%Trailer
count op_count sub {pop} repeat
countdictstack dict_count sub {end} repeat
cairo_eps_state restore
%%EOF
