%!PS-Adobe-3.0 EPSF-3.0
%%Creator: cairo 1.10.2 (http://cairographics.org)
%%CreationDate: Fri Aug 14 10:44:50 2015
%%Pages: 1
%%BoundingBox: 0 -1 393 396
%%DocumentData: Clean7Bit
%%LanguageLevel: 2
%%EndComments
%%BeginProlog
/cairo_eps_state save def
/dict_count countdictstack def
/op_count count 1 sub def
userdict begin
/q { gsave } bind def
/Q { grestore } bind def
/cm { 6 array astore concat } bind def
/w { setlinewidth } bind def
/J { setlinecap } bind def
/j { setlinejoin } bind def
/M { setmiterlimit } bind def
/d { setdash } bind def
/m { moveto } bind def
/l { lineto } bind def
/c { curveto } bind def
/h { closepath } bind def
/re { exch dup neg 3 1 roll 5 3 roll moveto 0 rlineto
      0 exch rlineto 0 rlineto closepath } bind def
/S { stroke } bind def
/f { fill } bind def
/f* { eofill } bind def
/n { newpath } bind def
/W { clip } bind def
/W* { eoclip } bind def
/BT { } bind def
/ET { } bind def
/pdfmark where { pop globaldict /?pdfmark /exec load put }
    { globaldict begin /?pdfmark /pop load def /pdfmark
    /cleartomark load def end } ifelse
/BDC { mark 3 1 roll /BDC pdfmark } bind def
/EMC { mark /EMC pdfmark } bind def
/cairo_store_point { /cairo_point_y exch def /cairo_point_x exch def } def
/Tj { show currentpoint cairo_store_point } bind def
/TJ {
  {
    dup
    type /stringtype eq
    { show } { -0.001 mul 0 cairo_font_matrix dtransform rmoveto } ifelse
  } forall
  currentpoint cairo_store_point
} bind def
/cairo_selectfont { cairo_font_matrix aload pop pop pop 0 0 6 array astore
    cairo_font exch selectfont cairo_point_x cairo_point_y moveto } bind def
/Tf { pop /cairo_font exch def /cairo_font_matrix where
      { pop cairo_selectfont } if } bind def
/Td { matrix translate cairo_font_matrix matrix concatmatrix dup
      /cairo_font_matrix exch def dup 4 get exch 5 get cairo_store_point
      /cairo_font where { pop cairo_selectfont } if } bind def
/Tm { 2 copy 8 2 roll 6 array astore /cairo_font_matrix exch def
      cairo_store_point /cairo_font where { pop cairo_selectfont } if } bind def
/g { setgray } bind def
/rg { setrgbcolor } bind def
/d1 { setcachedevice } bind def
%%EndProlog
%%Page: 1 1
%%BeginPageSetup
%%PageBoundingBox: 0 -1 393 396
%%EndPageSetup
q 0 -1 393 397 rectclip q
0 395.657 393 -396 re W n
0 g
203.863 395.657 m 99.922 395.657 15.66 311.392 15.66 207.446 c 15.66 
174.634 24.09 143.813 38.84 116.962 c 1.273 23.989 l -1.355 17.493 0.16 
10.067 5.113 5.114 c 10.055 0.161 17.488 -1.355 23.98 1.27 c 118.949 
39.634 l 144.492 26.685 173.277 19.231 203.863 19.231 c 307.82 19.231 
392.086 103.497 392.086 207.446 c 392.086 311.392 307.82 395.657 
203.863 395.657 c h
203.656 319.774 m 221.949 319.774 236.777 304.946 236.777 286.653 c 
236.777 268.36 221.949 253.528 203.656 253.528 c 185.363 253.528 
170.531 268.36 170.531 286.653 c 170.531 304.946 185.363 319.774 
203.656 319.774 c h
237.105 110.462 m 237.105 101.981 230.234 95.106 221.754 95.106 c 
185.559 95.106 l 177.078 95.106 170.207 101.981 170.207 110.462 c 
170.207 237.009 l 179.758 230.548 191.285 226.77 203.656 226.77 c 
216.031 226.77 227.555 230.548 237.109 237.009 c 237.109 110.462 l h
237.105 110.462 m f
Q Q
showpage
%%Trailer
count op_count sub {pop} repeat
countdictstack dict_count sub {end} repeat
cairo_eps_state restore
%%EOF
