%!PS-Adobe-3.0 EPSF-3.0
%%Creator: cairo 1.10.2 (http://cairographics.org)
%%CreationDate: Fri Aug 14 10:45:03 2015
%%Pages: 1
%%BoundingBox: 0 -1 395 395
%%DocumentData: Clean7Bit
%%LanguageLevel: 2
%%EndComments
%%BeginProlog
/cairo_eps_state save def
/dict_count countdictstack def
/op_count count 1 sub def
userdict begin
/q { gsave } bind def
/Q { grestore } bind def
/cm { 6 array astore concat } bind def
/w { setlinewidth } bind def
/J { setlinecap } bind def
/j { setlinejoin } bind def
/M { setmiterlimit } bind def
/d { setdash } bind def
/m { moveto } bind def
/l { lineto } bind def
/c { curveto } bind def
/h { closepath } bind def
/re { exch dup neg 3 1 roll 5 3 roll moveto 0 rlineto
      0 exch rlineto 0 rlineto closepath } bind def
/S { stroke } bind def
/f { fill } bind def
/f* { eofill } bind def
/n { newpath } bind def
/W { clip } bind def
/W* { eoclip } bind def
/BT { } bind def
/ET { } bind def
/pdfmark where { pop globaldict /?pdfmark /exec load put }
    { globaldict begin /?pdfmark /pop load def /pdfmark
    /cleartomark load def end } ifelse
/BDC { mark 3 1 roll /BDC pdfmark } bind def
/EMC { mark /EMC pdfmark } bind def
/cairo_store_point { /cairo_point_y exch def /cairo_point_x exch def } def
/Tj { show currentpoint cairo_store_point } bind def
/TJ {
  {
    dup
    type /stringtype eq
    { show } { -0.001 mul 0 cairo_font_matrix dtransform rmoveto } ifelse
  } forall
  currentpoint cairo_store_point
} bind def
/cairo_selectfont { cairo_font_matrix aload pop pop pop 0 0 6 array astore
    cairo_font exch selectfont cairo_point_x cairo_point_y moveto } bind def
/Tf { pop /cairo_font exch def /cairo_font_matrix where
      { pop cairo_selectfont } if } bind def
/Td { matrix translate cairo_font_matrix matrix concatmatrix dup
      /cairo_font_matrix exch def dup 4 get exch 5 get cairo_store_point
      /cairo_font where { pop cairo_selectfont } if } bind def
/Tm { 2 copy 8 2 roll 6 array astore /cairo_font_matrix exch def
      cairo_store_point /cairo_font where { pop cairo_selectfont } if } bind def
/g { setgray } bind def
/rg { setrgbcolor } bind def
/d1 { setcachedevice } bind def
%%EndProlog
%%Page: 1 1
%%BeginPageSetup
%%PageBoundingBox: 0 -1 395 395
%%EndPageSetup
q 0 -1 395 396 rectclip q
0 394.307 395 -395 re W n
0 g
190.152 67.245 m 42.664 67.245 l 39.82 67.245 37.512 69.557 37.512 
72.405 c 37.512 352.565 l 37.512 355.413 39.82 357.725 42.664 357.725 c 
253.051 357.725 l 255.902 357.725 258.211 355.413 258.211 352.565 c 
258.211 315.444 l 295.73 315.444 l 295.73 369.6 l 295.73 383.245 
284.668 394.307 271.02 394.307 c 24.707 394.307 l 11.062 394.307 0 
383.241 0 369.6 c 0 24.71 l 0 11.065 11.062 -0.001 24.707 -0.001 c 
195.922 -0.001 l 192.359 6.772 190.152 14.362 190.152 22.534 c h
147.863 18.073 m 139.246 18.073 132.258 25.061 132.258 33.678 c 132.258 
42.299 139.246 49.288 147.863 49.288 c 156.484 49.288 163.473 42.299 
163.473 33.678 c 163.473 25.061 156.484 18.073 147.863 18.073 c h
147.863 18.073 m f
372.199 289.159 m 238.969 289.159 l 226.527 289.159 216.438 279.069 
216.438 266.624 c 216.438 22.534 l 216.438 10.088 226.527 -0.001 
238.969 -0.001 c 372.199 -0.001 l 384.641 -0.001 394.73 10.088 394.73 
22.534 c 394.73 266.624 l 394.73 279.069 384.641 289.159 372.199 
289.159 c h
305.582 12.737 m 297.719 12.737 291.355 19.112 291.355 26.975 c 291.355 
34.835 297.719 41.21 305.582 41.21 c 313.438 41.21 319.816 34.835 
319.816 26.975 c 319.816 19.112 313.438 12.737 305.582 12.737 c h
369.527 55.647 m 369.527 53.049 367.422 50.944 364.824 50.944 c 246.344 
50.944 l 243.746 50.944 241.641 53.049 241.641 55.647 c 241.641 260.483 
l 241.641 263.085 243.746 265.186 246.344 265.186 c 364.824 265.186 l 
367.422 265.186 369.527 263.085 369.527 260.483 c h
369.527 55.647 m f
Q Q
showpage
%%Trailer
count op_count sub {pop} repeat
countdictstack dict_count sub {end} repeat
cairo_eps_state restore
%%EOF
