%!PS-Adobe-3.0 EPSF-3.0
%%Creator: cairo 1.10.2 (http://cairographics.org)
%%CreationDate: Fri Aug 14 10:44:33 2015
%%Pages: 1
%%BoundingBox: 0 -1 395 398
%%DocumentData: Clean7Bit
%%LanguageLevel: 2
%%EndComments
%%BeginProlog
/cairo_eps_state save def
/dict_count countdictstack def
/op_count count 1 sub def
userdict begin
/q { gsave } bind def
/Q { grestore } bind def
/cm { 6 array astore concat } bind def
/w { setlinewidth } bind def
/J { setlinecap } bind def
/j { setlinejoin } bind def
/M { setmiterlimit } bind def
/d { setdash } bind def
/m { moveto } bind def
/l { lineto } bind def
/c { curveto } bind def
/h { closepath } bind def
/re { exch dup neg 3 1 roll 5 3 roll moveto 0 rlineto
      0 exch rlineto 0 rlineto closepath } bind def
/S { stroke } bind def
/f { fill } bind def
/f* { eofill } bind def
/n { newpath } bind def
/W { clip } bind def
/W* { eoclip } bind def
/BT { } bind def
/ET { } bind def
/pdfmark where { pop globaldict /?pdfmark /exec load put }
    { globaldict begin /?pdfmark /pop load def /pdfmark
    /cleartomark load def end } ifelse
/BDC { mark 3 1 roll /BDC pdfmark } bind def
/EMC { mark /EMC pdfmark } bind def
/cairo_store_point { /cairo_point_y exch def /cairo_point_x exch def } def
/Tj { show currentpoint cairo_store_point } bind def
/TJ {
  {
    dup
    type /stringtype eq
    { show } { -0.001 mul 0 cairo_font_matrix dtransform rmoveto } ifelse
  } forall
  currentpoint cairo_store_point
} bind def
/cairo_selectfont { cairo_font_matrix aload pop pop pop 0 0 6 array astore
    cairo_font exch selectfont cairo_point_x cairo_point_y moveto } bind def
/Tf { pop /cairo_font exch def /cairo_font_matrix where
      { pop cairo_selectfont } if } bind def
/Td { matrix translate cairo_font_matrix matrix concatmatrix dup
      /cairo_font_matrix exch def dup 4 get exch 5 get cairo_store_point
      /cairo_font where { pop cairo_selectfont } if } bind def
/Tm { 2 copy 8 2 roll 6 array astore /cairo_font_matrix exch def
      cairo_store_point /cairo_font where { pop cairo_selectfont } if } bind def
/g { setgray } bind def
/rg { setrgbcolor } bind def
/d1 { setcachedevice } bind def
%%EndProlog
%%Page: 1 1
%%BeginPageSetup
%%PageBoundingBox: 0 -1 395 398
%%EndPageSetup
q 0 -1 395 399 rectclip q
0 397.443 395 -398 re W n
0 g
372.375 50.908 m 368.398 61.084 358.594 67.779 347.668 67.779 c 39.441 
67.779 l 28.516 67.779 18.707 61.084 14.73 50.908 c 0.766 15.178 l 
-0.574 11.752 -0.137 7.892 1.941 4.853 c 4.012 1.818 7.453 0.002 11.129 
0.002 c 375.98 0.002 l 379.656 0.002 383.098 1.818 385.164 4.853 c 
387.242 7.892 387.684 11.752 386.344 15.178 c h
372.375 50.908 m f
49.793 95.162 m 337.309 95.162 l 351.961 95.162 363.84 107.041 363.84 
121.689 c 363.84 245.31 l 337.328 245.31 l 337.309 121.658 l 49.758 
121.689 l 49.793 306.693 l 178.52 306.693 l 178.52 333.189 l 49.793 
333.189 l 35.141 333.189 23.262 321.314 23.262 306.662 c 23.262 121.689 
l 23.262 107.041 35.137 95.162 49.793 95.162 c h
49.793 95.162 m f
371 397.443 m 228.078 397.443 l 215.34 397.443 205.016 387.119 205.016 
374.381 c 205.016 294.869 l 205.016 282.131 215.34 271.806 228.078 
271.806 c 261.656 271.806 l 247.387 233.4 l 247.012 232.385 247.309 
231.24 248.137 230.541 c 248.617 230.135 249.211 229.924 249.812 
229.924 c 250.246 229.924 250.688 230.033 251.082 230.26 c 324.527 
271.806 l 371 271.806 l 383.738 271.806 394.062 282.131 394.062 294.869 
c 394.062 374.381 l 394.062 387.119 383.734 397.443 371 397.443 c h
371 397.443 m f
Q Q
showpage
%%Trailer
count op_count sub {pop} repeat
countdictstack dict_count sub {end} repeat
cairo_eps_state restore
%%EOF
