%!PS-Adobe-3.0 EPSF-3.0
%%Creator: cairo 1.10.2 (http://cairographics.org)
%%CreationDate: Fri Aug 14 10:44:55 2015
%%Pages: 1
%%BoundingBox: 0 -1 396 334
%%DocumentData: Clean7Bit
%%LanguageLevel: 2
%%EndComments
%%BeginProlog
/cairo_eps_state save def
/dict_count countdictstack def
/op_count count 1 sub def
userdict begin
/q { gsave } bind def
/Q { grestore } bind def
/cm { 6 array astore concat } bind def
/w { setlinewidth } bind def
/J { setlinecap } bind def
/j { setlinejoin } bind def
/M { setmiterlimit } bind def
/d { setdash } bind def
/m { moveto } bind def
/l { lineto } bind def
/c { curveto } bind def
/h { closepath } bind def
/re { exch dup neg 3 1 roll 5 3 roll moveto 0 rlineto
      0 exch rlineto 0 rlineto closepath } bind def
/S { stroke } bind def
/f { fill } bind def
/f* { eofill } bind def
/n { newpath } bind def
/W { clip } bind def
/W* { eoclip } bind def
/BT { } bind def
/ET { } bind def
/pdfmark where { pop globaldict /?pdfmark /exec load put }
    { globaldict begin /?pdfmark /pop load def /pdfmark
    /cleartomark load def end } ifelse
/BDC { mark 3 1 roll /BDC pdfmark } bind def
/EMC { mark /EMC pdfmark } bind def
/cairo_store_point { /cairo_point_y exch def /cairo_point_x exch def } def
/Tj { show currentpoint cairo_store_point } bind def
/TJ {
  {
    dup
    type /stringtype eq
    { show } { -0.001 mul 0 cairo_font_matrix dtransform rmoveto } ifelse
  } forall
  currentpoint cairo_store_point
} bind def
/cairo_selectfont { cairo_font_matrix aload pop pop pop 0 0 6 array astore
    cairo_font exch selectfont cairo_point_x cairo_point_y moveto } bind def
/Tf { pop /cairo_font exch def /cairo_font_matrix where
      { pop cairo_selectfont } if } bind def
/Td { matrix translate cairo_font_matrix matrix concatmatrix dup
      /cairo_font_matrix exch def dup 4 get exch 5 get cairo_store_point
      /cairo_font where { pop cairo_selectfont } if } bind def
/Tm { 2 copy 8 2 roll 6 array astore /cairo_font_matrix exch def
      cairo_store_point /cairo_font where { pop cairo_selectfont } if } bind def
/g { setgray } bind def
/rg { setrgbcolor } bind def
/d1 { setcachedevice } bind def
%%EndProlog
%%Page: 1 1
%%BeginPageSetup
%%PageBoundingBox: 0 -1 396 334
%%EndPageSetup
q 0 -1 396 335 rectclip q
0 333.535 396 -334 re W n
0 g
378.113 281.41 m 343.496 316.035 l 343.48 316.05 l 320.129 339.367 
282.438 339.363 259.098 316.042 c 152.023 208.976 l 140.746 197.706 
134.543 182.722 134.543 166.777 c 134.543 151.21 140.531 136.617 
151.309 125.445 c 182.438 156.578 l 176.523 163.378 177.523 172.402 
183.066 177.925 c 290.141 284.988 l 296.285 291.156 306.277 291.156 
312.438 284.996 c 312.449 284.988 l 347.07 250.355 l 353.203 244.246 
353.262 234.234 347.07 228.066 c 282.707 163.71 l 281.938 143.062 
273.789 123.726 259.098 109.039 c 223.09 73.035 l 242.758 71.124 
259.051 77.964 271.043 89.949 c 378.113 197.015 l 401.43 220.312 
401.457 258.105 378.113 281.41 c h
378.113 281.41 m f
261.055 166.769 m 261.055 182.706 254.848 197.691 243.574 208.964 c 
212.527 177.917 l 215.5 174.937 217.145 170.98 217.145 166.769 c 
217.145 162.558 215.516 158.601 212.527 155.621 c 105.457 48.546 l 
105.441 48.542 l 99.707 42.804 89.289 42.41 83.156 48.546 c 48.539 
83.183 l 42.406 89.292 42.352 99.3 48.539 105.464 c 112.902 169.828 l 
113.66 190.476 121.82 209.812 136.516 224.499 c 172.504 260.492 l 
152.836 262.398 136.543 255.558 124.551 243.574 c 17.496 136.515 l 
-5.816 113.234 -5.844 75.433 17.496 52.128 c 52.113 17.503 l 75.426 
-5.801 113.145 -5.868 136.5 17.503 c 243.574 124.566 l 254.848 135.835 
261.055 150.824 261.055 166.769 c h
261.055 166.769 m f
Q Q
showpage
%%Trailer
count op_count sub {pop} repeat
countdictstack dict_count sub {end} repeat
cairo_eps_state restore
%%EOF
