%!PS-Adobe-3.0 EPSF-3.0
%%Creator: cairo 1.10.2 (http://cairographics.org)
%%CreationDate: Fri Aug 14 10:44:49 2015
%%Pages: 1
%%BoundingBox: 0 -1 390 389
%%DocumentData: Clean7Bit
%%LanguageLevel: 2
%%EndComments
%%BeginProlog
/cairo_eps_state save def
/dict_count countdictstack def
/op_count count 1 sub def
userdict begin
/q { gsave } bind def
/Q { grestore } bind def
/cm { 6 array astore concat } bind def
/w { setlinewidth } bind def
/J { setlinecap } bind def
/j { setlinejoin } bind def
/M { setmiterlimit } bind def
/d { setdash } bind def
/m { moveto } bind def
/l { lineto } bind def
/c { curveto } bind def
/h { closepath } bind def
/re { exch dup neg 3 1 roll 5 3 roll moveto 0 rlineto
      0 exch rlineto 0 rlineto closepath } bind def
/S { stroke } bind def
/f { fill } bind def
/f* { eofill } bind def
/n { newpath } bind def
/W { clip } bind def
/W* { eoclip } bind def
/BT { } bind def
/ET { } bind def
/pdfmark where { pop globaldict /?pdfmark /exec load put }
    { globaldict begin /?pdfmark /pop load def /pdfmark
    /cleartomark load def end } ifelse
/BDC { mark 3 1 roll /BDC pdfmark } bind def
/EMC { mark /EMC pdfmark } bind def
/cairo_store_point { /cairo_point_y exch def /cairo_point_x exch def } def
/Tj { show currentpoint cairo_store_point } bind def
/TJ {
  {
    dup
    type /stringtype eq
    { show } { -0.001 mul 0 cairo_font_matrix dtransform rmoveto } ifelse
  } forall
  currentpoint cairo_store_point
} bind def
/cairo_selectfont { cairo_font_matrix aload pop pop pop 0 0 6 array astore
    cairo_font exch selectfont cairo_point_x cairo_point_y moveto } bind def
/Tf { pop /cairo_font exch def /cairo_font_matrix where
      { pop cairo_selectfont } if } bind def
/Td { matrix translate cairo_font_matrix matrix concatmatrix dup
      /cairo_font_matrix exch def dup 4 get exch 5 get cairo_store_point
      /cairo_font where { pop cairo_selectfont } if } bind def
/Tm { 2 copy 8 2 roll 6 array astore /cairo_font_matrix exch def
      cairo_store_point /cairo_font where { pop cairo_selectfont } if } bind def
/g { setgray } bind def
/rg { setrgbcolor } bind def
/d1 { setcachedevice } bind def
%%EndProlog
%%Page: 1 1
%%BeginPageSetup
%%PageBoundingBox: 0 -1 390 389
%%EndPageSetup
q 0 -1 390 390 rectclip q
0 388.83 390 -389 re W n
0 g
365.785 388.83 m 352.559 388.83 341.84 378.111 341.84 364.888 c 341.84 
362.248 l 311.691 338.818 l 253.387 293.517 180.383 271.392 106.742 
276.708 c 63.012 279.865 l 46.73 281.041 30.695 275.388 18.738 264.271 
c 6.785 253.154 0 237.56 0 221.228 c 0 204.9 6.785 189.314 18.738 
178.193 c 30.691 167.076 46.73 161.423 63.012 162.599 c 95.961 164.982 
l 138.301 28.255 l 143.504 11.455 159.039 0.001 176.629 0.001 c 189.375 
0.001 201.363 6.06 208.93 16.318 c 216.488 26.576 218.727 39.822 
214.961 51.994 c 206.258 80.091 l 212.578 80.091 l 223.715 80.091 
232.738 89.119 232.738 100.255 c 232.738 111.392 223.715 120.416 
212.578 120.416 c 193.773 120.416 l 181.02 161.583 l 228.27 153.103 
273.203 133.544 311.684 103.65 c 341.84 80.216 l 341.84 77.572 l 341.84 
64.345 352.559 53.63 365.785 53.63 c 379.008 53.63 389.727 64.345 
389.727 77.572 c 389.727 364.888 l 389.727 378.111 379.008 388.83 
365.785 388.83 c h
365.785 388.83 m f
Q Q
showpage
%%Trailer
count op_count sub {pop} repeat
countdictstack dict_count sub {end} repeat
cairo_eps_state restore
%%EOF
