%!PS-Adobe-3.0 EPSF-3.0
%%Creator: cairo 1.10.2 (http://cairographics.org)
%%CreationDate: Fri Aug 14 10:44:39 2015
%%Pages: 1
%%BoundingBox: 0 -1 255 395
%%DocumentData: Clean7Bit
%%LanguageLevel: 2
%%EndComments
%%BeginProlog
/cairo_eps_state save def
/dict_count countdictstack def
/op_count count 1 sub def
userdict begin
/q { gsave } bind def
/Q { grestore } bind def
/cm { 6 array astore concat } bind def
/w { setlinewidth } bind def
/J { setlinecap } bind def
/j { setlinejoin } bind def
/M { setmiterlimit } bind def
/d { setdash } bind def
/m { moveto } bind def
/l { lineto } bind def
/c { curveto } bind def
/h { closepath } bind def
/re { exch dup neg 3 1 roll 5 3 roll moveto 0 rlineto
      0 exch rlineto 0 rlineto closepath } bind def
/S { stroke } bind def
/f { fill } bind def
/f* { eofill } bind def
/n { newpath } bind def
/W { clip } bind def
/W* { eoclip } bind def
/BT { } bind def
/ET { } bind def
/pdfmark where { pop globaldict /?pdfmark /exec load put }
    { globaldict begin /?pdfmark /pop load def /pdfmark
    /cleartomark load def end } ifelse
/BDC { mark 3 1 roll /BDC pdfmark } bind def
/EMC { mark /EMC pdfmark } bind def
/cairo_store_point { /cairo_point_y exch def /cairo_point_x exch def } def
/Tj { show currentpoint cairo_store_point } bind def
/TJ {
  {
    dup
    type /stringtype eq
    { show } { -0.001 mul 0 cairo_font_matrix dtransform rmoveto } ifelse
  } forall
  currentpoint cairo_store_point
} bind def
/cairo_selectfont { cairo_font_matrix aload pop pop pop 0 0 6 array astore
    cairo_font exch selectfont cairo_point_x cairo_point_y moveto } bind def
/Tf { pop /cairo_font exch def /cairo_font_matrix where
      { pop cairo_selectfont } if } bind def
/Td { matrix translate cairo_font_matrix matrix concatmatrix dup
      /cairo_font_matrix exch def dup 4 get exch 5 get cairo_store_point
      /cairo_font where { pop cairo_selectfont } if } bind def
/Tm { 2 copy 8 2 roll 6 array astore /cairo_font_matrix exch def
      cairo_store_point /cairo_font where { pop cairo_selectfont } if } bind def
/g { setgray } bind def
/rg { setrgbcolor } bind def
/d1 { setcachedevice } bind def
%%EndProlog
%%Page: 1 1
%%BeginPageSetup
%%PageBoundingBox: 0 -1 255 395
%%EndPageSetup
q 0 -1 255 396 rectclip q
0 394.842 255 -395 re W n
0 g
52.508 241.643 m 53.652 241.874 54.691 242.331 55.738 242.811 c 62.895 
227.229 72.379 212.831 83.652 201.991 c 87.547 198.237 91.633 194.901 
95.898 192.081 c 104.883 182.124 l 127.312 157.241 l 149.742 182.124 l 
158.727 192.081 l 162.992 194.901 167.078 198.237 170.977 201.987 c 
182.246 212.831 191.73 227.225 198.891 242.811 c 199.93 242.327 200.973 
241.874 202.117 241.639 c 213.684 239.288 225.855 251.1 229.301 268.014 
c 232.73 284.928 226.137 300.553 214.555 302.909 c 213.965 303.034 
213.375 302.956 212.785 303.006 c 212.039 353.862 174.086 394.842 
127.312 394.842 c 80.539 394.842 42.586 353.862 41.84 303.006 c 41.25 
302.956 40.66 303.034 40.066 302.913 c 28.488 300.553 21.891 284.928 
25.324 268.014 c 28.77 251.1 40.941 239.288 52.508 241.643 c h
52.508 241.643 m f
199.492 147.874 m 198.504 145.178 l 181.012 97.565 l 179.262 92.835 
175.316 89.198 170.512 87.85 c 169.109 87.444 167.645 87.241 166.164 
87.241 c 162.633 87.241 159.164 88.448 156.414 90.612 c 150 95.643 l 
138.418 75.061 l 143.66 -0.001 l 247 -0.001 l 254.336 78.12 l 257.551 
112.331 233.363 142.885 199.492 147.874 c h
212.859 26.323 m 181.512 26.323 l 176.062 26.323 171.641 30.745 171.641 
36.194 c 171.641 41.643 176.062 46.065 181.512 46.065 c 212.859 46.065 
l 218.312 46.065 222.73 41.643 222.73 36.194 c 222.73 30.745 218.312 
26.323 212.859 26.323 c h
212.859 26.323 m f
98.238 90.631 m 95.461 88.448 91.992 87.241 88.457 87.241 c 86.98 
87.241 85.516 87.444 84.164 87.831 c 79.309 89.202 75.359 92.839 73.602 
97.604 c 56.121 145.182 l 55.133 147.874 l 21.262 142.885 -2.926 
112.331 0.285 78.12 c 7.625 0.003 l 110.77 0.003 l 114.973 75.061 l 
104.359 95.436 l h
98.238 90.631 m f
166.164 100.401 m 166.41 100.401 166.656 100.432 166.898 100.503 c 
167.723 100.737 168.379 101.346 168.676 102.143 c 186.152 149.717 l 
180.781 150.417 l 169.035 151.952 160.23 161.639 159.523 173.315 c 
127.312 137.589 l 95.102 173.315 l 94.395 161.639 85.59 151.956 73.844 
150.417 c 68.473 149.717 l 85.953 102.143 l 86.246 101.346 86.902 
100.737 87.727 100.503 c 87.973 100.432 88.215 100.401 88.457 100.401 c 
89.039 100.401 89.617 100.592 90.09 100.967 c 127.312 130.194 l 164.535 
100.967 l 165.012 100.592 165.59 100.401 166.164 100.401 c h
166.164 100.401 m f
Q Q
showpage
%%Trailer
count op_count sub {pop} repeat
countdictstack dict_count sub {end} repeat
cairo_eps_state restore
%%EOF
