%!PS-Adobe-3.0 EPSF-3.0
%%Creator: cairo 1.10.2 (http://cairographics.org)
%%CreationDate: Fri Aug 14 10:44:52 2015
%%Pages: 1
%%BoundingBox: 0 -1 397 303
%%DocumentData: Clean7Bit
%%LanguageLevel: 2
%%EndComments
%%BeginProlog
/cairo_eps_state save def
/dict_count countdictstack def
/op_count count 1 sub def
userdict begin
/q { gsave } bind def
/Q { grestore } bind def
/cm { 6 array astore concat } bind def
/w { setlinewidth } bind def
/J { setlinecap } bind def
/j { setlinejoin } bind def
/M { setmiterlimit } bind def
/d { setdash } bind def
/m { moveto } bind def
/l { lineto } bind def
/c { curveto } bind def
/h { closepath } bind def
/re { exch dup neg 3 1 roll 5 3 roll moveto 0 rlineto
      0 exch rlineto 0 rlineto closepath } bind def
/S { stroke } bind def
/f { fill } bind def
/f* { eofill } bind def
/n { newpath } bind def
/W { clip } bind def
/W* { eoclip } bind def
/BT { } bind def
/ET { } bind def
/pdfmark where { pop globaldict /?pdfmark /exec load put }
    { globaldict begin /?pdfmark /pop load def /pdfmark
    /cleartomark load def end } ifelse
/BDC { mark 3 1 roll /BDC pdfmark } bind def
/EMC { mark /EMC pdfmark } bind def
/cairo_store_point { /cairo_point_y exch def /cairo_point_x exch def } def
/Tj { show currentpoint cairo_store_point } bind def
/TJ {
  {
    dup
    type /stringtype eq
    { show } { -0.001 mul 0 cairo_font_matrix dtransform rmoveto } ifelse
  } forall
  currentpoint cairo_store_point
} bind def
/cairo_selectfont { cairo_font_matrix aload pop pop pop 0 0 6 array astore
    cairo_font exch selectfont cairo_point_x cairo_point_y moveto } bind def
/Tf { pop /cairo_font exch def /cairo_font_matrix where
      { pop cairo_selectfont } if } bind def
/Td { matrix translate cairo_font_matrix matrix concatmatrix dup
      /cairo_font_matrix exch def dup 4 get exch 5 get cairo_store_point
      /cairo_font where { pop cairo_selectfont } if } bind def
/Tm { 2 copy 8 2 roll 6 array astore /cairo_font_matrix exch def
      cairo_store_point /cairo_font where { pop cairo_selectfont } if } bind def
/g { setgray } bind def
/rg { setrgbcolor } bind def
/d1 { setcachedevice } bind def
%%EndProlog
%%Page: 1 1
%%BeginPageSetup
%%PageBoundingBox: 0 -1 397 303
%%EndPageSetup
q 0 -1 397 304 rectclip q
0 302.707 397 -303 re W n
0 g
380.027 302.707 m 105.598 302.707 l 96.754 302.707 89.586 295.539 
89.586 286.699 c 89.586 227.848 l 290.438 227.848 l 314.367 227.848 
333.836 208.375 333.836 184.445 c 333.836 102.254 l 380.027 102.254 l 
388.867 102.254 396.035 109.422 396.035 118.262 c 396.035 286.699 l 
396.035 295.539 388.867 302.707 380.027 302.707 c h
380.027 302.707 m f
290.438 200.453 m 16.008 200.453 l 7.168 200.453 0 193.285 0 184.445 c 
0 16.008 l 0 7.168 7.168 0 16.008 0 c 290.438 0 l 299.281 0 306.445 
7.168 306.445 16.008 c 306.445 184.445 l 306.445 193.285 299.281 
200.453 290.438 200.453 c h
280.68 26.52 m 280.68 26.52 l 276.938 22.695 270.898 22.36 266.766 
25.75 c 243.332 44.965 194.863 85.61 194.863 85.61 c 159.781 56.492 l 
157.875 54.91 155.559 54.121 153.223 54.121 c 150.891 54.121 148.57 
54.91 146.664 56.492 c 111.586 85.61 l 39.59 25.84 l 35.246 22.211 
28.766 22.797 25.121 27.184 c 21.508 31.547 22.102 38.02 26.469 41.645 
c 95.512 98.953 l 26.469 156.258 l 22.102 159.879 21.508 166.356 25.121 
170.719 c 28.75 175.113 35.234 175.676 39.59 172.059 c 153.223 77.738 l 
266.855 172.059 l 271.211 175.664 277.695 175.098 281.324 170.719 c 
284.941 166.356 284.344 159.879 279.977 156.258 c 210.934 98.953 l 
279.895 41.668 l 284.527 37.817 284.891 30.832 280.68 26.52 c h
280.68 26.52 m f
Q Q
showpage
%%Trailer
count op_count sub {pop} repeat
countdictstack dict_count sub {end} repeat
cairo_eps_state restore
%%EOF
