%!PS-Adobe-3.0 EPSF-3.0
%%Creator: cairo 1.10.2 (http://cairographics.org)
%%CreationDate: Fri Aug 14 10:44:30 2015
%%Pages: 1
%%BoundingBox: 0 -1 315 398
%%DocumentData: Clean7Bit
%%LanguageLevel: 2
%%EndComments
%%BeginProlog
/cairo_eps_state save def
/dict_count countdictstack def
/op_count count 1 sub def
userdict begin
/q { gsave } bind def
/Q { grestore } bind def
/cm { 6 array astore concat } bind def
/w { setlinewidth } bind def
/J { setlinecap } bind def
/j { setlinejoin } bind def
/M { setmiterlimit } bind def
/d { setdash } bind def
/m { moveto } bind def
/l { lineto } bind def
/c { curveto } bind def
/h { closepath } bind def
/re { exch dup neg 3 1 roll 5 3 roll moveto 0 rlineto
      0 exch rlineto 0 rlineto closepath } bind def
/S { stroke } bind def
/f { fill } bind def
/f* { eofill } bind def
/n { newpath } bind def
/W { clip } bind def
/W* { eoclip } bind def
/BT { } bind def
/ET { } bind def
/pdfmark where { pop globaldict /?pdfmark /exec load put }
    { globaldict begin /?pdfmark /pop load def /pdfmark
    /cleartomark load def end } ifelse
/BDC { mark 3 1 roll /BDC pdfmark } bind def
/EMC { mark /EMC pdfmark } bind def
/cairo_store_point { /cairo_point_y exch def /cairo_point_x exch def } def
/Tj { show currentpoint cairo_store_point } bind def
/TJ {
  {
    dup
    type /stringtype eq
    { show } { -0.001 mul 0 cairo_font_matrix dtransform rmoveto } ifelse
  } forall
  currentpoint cairo_store_point
} bind def
/cairo_selectfont { cairo_font_matrix aload pop pop pop 0 0 6 array astore
    cairo_font exch selectfont cairo_point_x cairo_point_y moveto } bind def
/Tf { pop /cairo_font exch def /cairo_font_matrix where
      { pop cairo_selectfont } if } bind def
/Td { matrix translate cairo_font_matrix matrix concatmatrix dup
      /cairo_font_matrix exch def dup 4 get exch 5 get cairo_store_point
      /cairo_font where { pop cairo_selectfont } if } bind def
/Tm { 2 copy 8 2 roll 6 array astore /cairo_font_matrix exch def
      cairo_store_point /cairo_font where { pop cairo_selectfont } if } bind def
/g { setgray } bind def
/rg { setrgbcolor } bind def
/d1 { setcachedevice } bind def
%%EndProlog
%%Page: 1 1
%%BeginPageSetup
%%PageBoundingBox: 0 -1 315 398
%%EndPageSetup
q 0 -1 315 399 rectclip q
0 397.852 315 -398 re W n
0 g
313.809 161.375 m 306.023 239.227 l 210.398 239.227 l 210.398 265.789 l 
303.363 265.789 l 303.312 266.317 l 296.246 336.887 239.961 391.602 
170.551 397.852 c 170.551 363.661 l 166.285 364.77 161.887 365.539 
157.27 365.539 c 152.652 365.539 148.254 364.77 143.984 363.661 c 
143.984 397.852 l 74.574 391.602 18.293 336.887 11.223 266.317 c 11.172 
265.789 l 104.137 265.789 l 104.137 239.227 l 8.512 239.227 l 0.727 
161.375 l -3.395 120.114 10.121 79.036 37.945 48.286 c 65.781 17.543 
105.305 0 146.773 0 c 167.762 0 l 209.23 0 248.754 17.543 276.594 
48.286 c 304.414 79.036 317.93 120.114 313.809 161.375 c h
157.27 338.973 m 171.938 338.973 183.832 327.082 183.832 312.411 c 
183.832 239.227 l 183.832 224.555 171.938 212.661 157.27 212.661 c 
142.598 212.661 130.703 224.555 130.703 239.227 c 130.703 312.411 l 
130.703 327.082 142.598 338.973 157.27 338.973 c h
157.27 338.973 m f
Q Q
showpage
%%Trailer
count op_count sub {pop} repeat
countdictstack dict_count sub {end} repeat
cairo_eps_state restore
%%EOF
