%!PS-Adobe-3.0 EPSF-3.0
%%Creator: cairo 1.10.2 (http://cairographics.org)
%%CreationDate: Fri Aug 14 10:44:11 2015
%%Pages: 1
%%BoundingBox: 0 -1 394 394
%%DocumentData: Clean7Bit
%%LanguageLevel: 2
%%EndComments
%%BeginProlog
/cairo_eps_state save def
/dict_count countdictstack def
/op_count count 1 sub def
userdict begin
/q { gsave } bind def
/Q { grestore } bind def
/cm { 6 array astore concat } bind def
/w { setlinewidth } bind def
/J { setlinecap } bind def
/j { setlinejoin } bind def
/M { setmiterlimit } bind def
/d { setdash } bind def
/m { moveto } bind def
/l { lineto } bind def
/c { curveto } bind def
/h { closepath } bind def
/re { exch dup neg 3 1 roll 5 3 roll moveto 0 rlineto
      0 exch rlineto 0 rlineto closepath } bind def
/S { stroke } bind def
/f { fill } bind def
/f* { eofill } bind def
/n { newpath } bind def
/W { clip } bind def
/W* { eoclip } bind def
/BT { } bind def
/ET { } bind def
/pdfmark where { pop globaldict /?pdfmark /exec load put }
    { globaldict begin /?pdfmark /pop load def /pdfmark
    /cleartomark load def end } ifelse
/BDC { mark 3 1 roll /BDC pdfmark } bind def
/EMC { mark /EMC pdfmark } bind def
/cairo_store_point { /cairo_point_y exch def /cairo_point_x exch def } def
/Tj { show currentpoint cairo_store_point } bind def
/TJ {
  {
    dup
    type /stringtype eq
    { show } { -0.001 mul 0 cairo_font_matrix dtransform rmoveto } ifelse
  } forall
  currentpoint cairo_store_point
} bind def
/cairo_selectfont { cairo_font_matrix aload pop pop pop 0 0 6 array astore
    cairo_font exch selectfont cairo_point_x cairo_point_y moveto } bind def
/Tf { pop /cairo_font exch def /cairo_font_matrix where
      { pop cairo_selectfont } if } bind def
/Td { matrix translate cairo_font_matrix matrix concatmatrix dup
      /cairo_font_matrix exch def dup 4 get exch 5 get cairo_store_point
      /cairo_font where { pop cairo_selectfont } if } bind def
/Tm { 2 copy 8 2 roll 6 array astore /cairo_font_matrix exch def
      cairo_store_point /cairo_font where { pop cairo_selectfont } if } bind def
/g { setgray } bind def
/rg { setrgbcolor } bind def
/d1 { setcachedevice } bind def
%%EndProlog
%%Page: 1 1
%%BeginPageSetup
%%PageBoundingBox: 0 -1 394 394
%%EndPageSetup
q 0 -1 394 395 rectclip q
0 393.231 394 -394 re W n
0 g
314.934 128.719 m 312.148 131.512 308.375 133.071 304.422 133.071 c 
300.48 133.071 296.703 131.509 293.91 128.719 c 274.297 109.094 l 
179.012 204.391 l 198.629 224.005 l 204.438 229.805 204.438 239.219 
198.629 245.024 c 141.168 302.481 l 138.27 305.384 134.465 306.841 
130.664 306.841 c 126.855 306.841 123.051 305.384 120.152 302.481 c 
100.539 282.856 l 75.742 258.048 112.102 181.497 181.762 111.841 c 
236.574 57.032 295.672 22.833 330.441 22.833 c 339.855 22.833 347.484 
25.337 352.762 30.622 c 352.73 30.661 l 372.395 50.235 l 378.199 56.044 
378.199 65.45 372.395 71.262 c h
314.934 128.719 m f
196.613 39.798 m 110.141 39.798 39.797 110.141 39.797 196.618 c 39.797 
288.2 115 353.434 196.613 353.434 c 283.09 353.434 353.438 283.091 
353.438 196.618 c 353.438 176.223 349.398 156.778 342.281 138.887 c 
372.309 108.868 l 385.574 135.321 393.23 165.063 393.23 196.622 c 
393.23 305.032 305.027 393.231 196.613 393.231 c 88.199 393.231 0 
305.032 0 196.618 c 0 88.204 88.199 0.001 196.613 0.001 c 222.055 0.001 
246.312 5.012 268.648 13.856 c 253.805 21.192 238.266 30.68 222.438 
42.106 c 214.016 40.7 205.426 39.798 196.613 39.798 c h
196.613 39.798 m f
Q Q
showpage
%%Trailer
count op_count sub {pop} repeat
countdictstack dict_count sub {end} repeat
cairo_eps_state restore
%%EOF
