%!PS-Adobe-3.0 EPSF-3.0
%%Creator: cairo 1.10.2 (http://cairographics.org)
%%CreationDate: Fri Aug 14 10:44:33 2015
%%Pages: 1
%%BoundingBox: 0 -1 395 340
%%DocumentData: Clean7Bit
%%LanguageLevel: 2
%%EndComments
%%BeginProlog
/cairo_eps_state save def
/dict_count countdictstack def
/op_count count 1 sub def
userdict begin
/q { gsave } bind def
/Q { grestore } bind def
/cm { 6 array astore concat } bind def
/w { setlinewidth } bind def
/J { setlinecap } bind def
/j { setlinejoin } bind def
/M { setmiterlimit } bind def
/d { setdash } bind def
/m { moveto } bind def
/l { lineto } bind def
/c { curveto } bind def
/h { closepath } bind def
/re { exch dup neg 3 1 roll 5 3 roll moveto 0 rlineto
      0 exch rlineto 0 rlineto closepath } bind def
/S { stroke } bind def
/f { fill } bind def
/f* { eofill } bind def
/n { newpath } bind def
/W { clip } bind def
/W* { eoclip } bind def
/BT { } bind def
/ET { } bind def
/pdfmark where { pop globaldict /?pdfmark /exec load put }
    { globaldict begin /?pdfmark /pop load def /pdfmark
    /cleartomark load def end } ifelse
/BDC { mark 3 1 roll /BDC pdfmark } bind def
/EMC { mark /EMC pdfmark } bind def
/cairo_store_point { /cairo_point_y exch def /cairo_point_x exch def } def
/Tj { show currentpoint cairo_store_point } bind def
/TJ {
  {
    dup
    type /stringtype eq
    { show } { -0.001 mul 0 cairo_font_matrix dtransform rmoveto } ifelse
  } forall
  currentpoint cairo_store_point
} bind def
/cairo_selectfont { cairo_font_matrix aload pop pop pop 0 0 6 array astore
    cairo_font exch selectfont cairo_point_x cairo_point_y moveto } bind def
/Tf { pop /cairo_font exch def /cairo_font_matrix where
      { pop cairo_selectfont } if } bind def
/Td { matrix translate cairo_font_matrix matrix concatmatrix dup
      /cairo_font_matrix exch def dup 4 get exch 5 get cairo_store_point
      /cairo_font where { pop cairo_selectfont } if } bind def
/Tm { 2 copy 8 2 roll 6 array astore /cairo_font_matrix exch def
      cairo_store_point /cairo_font where { pop cairo_selectfont } if } bind def
/g { setgray } bind def
/rg { setrgbcolor } bind def
/d1 { setcachedevice } bind def
%%EndProlog
%%Page: 1 1
%%BeginPageSetup
%%PageBoundingBox: 0 -1 395 340
%%EndPageSetup
q 0 -1 395 341 rectclip q
0 339.47 395 -340 re W n
0 g
387.918 107.97 m 348.332 199.942 l 284.766 199.942 l 261.457 199.942 
242.496 218.903 242.496 242.212 c 242.496 245.364 l 151.703 245.364 l 
151.703 242.216 l 151.703 230.927 147.305 220.313 139.316 212.329 c 
131.453 204.458 120.566 199.95 109.438 199.95 c 45.676 199.95 l 6.242 
107.825 l -3.988 83.919 -1.531 56.47 12.789 34.763 c 27.105 13.063 
51.371 0.001 77.375 0.001 c 316.852 0.001 l 342.879 0.001 367.168 
13.091 381.473 34.837 c 395.789 56.575 398.207 84.056 387.918 107.97 c 
h
156.906 45.052 m 156.906 41.763 154.238 39.091 150.949 39.091 c 131.203 
39.091 l 127.91 39.091 125.238 41.763 125.238 45.052 c 125.238 64.798 l 
125.238 68.091 127.91 70.759 131.203 70.759 c 150.949 70.759 l 154.238 
70.759 156.906 68.091 156.906 64.798 c h
156.906 101.087 m 156.906 97.794 154.238 95.126 150.949 95.126 c 
131.203 95.126 l 127.91 95.126 125.238 97.794 125.238 101.087 c 125.238 
120.837 l 125.238 124.13 127.91 126.798 131.203 126.798 c 150.949 
126.798 l 154.238 126.798 156.906 124.13 156.906 120.837 c h
156.906 157.126 m 156.906 153.833 154.238 151.165 150.949 151.165 c 
131.203 151.165 l 127.91 151.165 125.238 153.833 125.238 157.126 c 
125.238 176.868 l 125.238 180.161 127.91 182.829 131.203 182.829 c 
150.949 182.829 l 154.238 182.829 156.906 180.161 156.906 176.868 c h
212.945 45.052 m 212.945 41.763 210.277 39.091 206.988 39.091 c 187.238 
39.091 l 183.949 39.091 181.277 41.763 181.277 45.052 c 181.277 64.806 
l 181.277 68.095 183.949 70.766 187.238 70.766 c 206.984 70.766 l 
210.273 70.766 212.945 68.095 212.945 64.806 c h
212.945 101.087 m 212.945 97.794 210.277 95.126 206.988 95.126 c 
187.234 95.126 l 183.945 95.126 181.273 97.794 181.273 101.087 c 
181.273 120.837 l 181.273 124.13 183.945 126.798 187.234 126.798 c 
206.988 126.798 l 210.277 126.798 212.945 124.13 212.945 120.837 c h
212.945 157.126 m 212.945 153.833 210.277 151.165 206.988 151.165 c 
187.238 151.165 l 183.949 151.165 181.277 153.833 181.277 157.126 c 
181.277 176.876 l 181.277 180.165 183.949 182.837 187.238 182.837 c 
206.984 182.837 l 210.273 182.837 212.945 180.165 212.945 176.876 c h
268.98 45.052 m 268.98 41.763 266.309 39.091 263.016 39.091 c 243.273 
39.091 l 239.98 39.091 237.312 41.763 237.312 45.052 c 237.312 64.798 l 
237.312 68.091 239.98 70.759 243.273 70.759 c 263.016 70.759 l 266.309 
70.759 268.98 68.091 268.98 64.798 c h
268.98 101.087 m 268.98 97.794 266.309 95.126 263.016 95.126 c 243.273 
95.126 l 239.98 95.126 237.312 97.794 237.312 101.087 c 237.312 120.837 
l 237.312 124.13 239.98 126.798 243.273 126.798 c 263.016 126.798 l 
266.309 126.798 268.98 124.13 268.98 120.837 c h
268.98 157.126 m 268.98 153.833 266.309 151.165 263.016 151.165 c 
243.273 151.165 l 239.98 151.165 237.312 153.833 237.312 157.126 c 
237.312 176.868 l 237.312 180.161 239.98 182.829 243.273 182.829 c 
263.016 182.829 l 266.309 182.829 268.98 180.161 268.98 176.868 c h
268.98 157.126 m f
22.828 226.372 m 109.438 226.372 l 113.637 226.372 117.668 228.044 
120.637 231.013 c 123.609 233.985 125.281 238.016 125.281 242.216 c 
125.273 271.786 l 268.918 271.786 l 268.918 242.212 l 268.918 233.462 
276.016 226.368 284.766 226.368 c 371.383 226.368 l 380.133 226.368 
387.23 233.462 387.23 242.212 c 387.23 271.786 l 387.23 309.157 302.125 
339.47 197.125 339.47 c 197.09 339.47 l 92.098 339.47 6.973 309.165 
6.984 271.786 c 7.035 271.786 l 6.984 242.216 l 6.984 233.462 14.074 
226.372 22.828 226.372 c h
22.828 226.372 m f
Q Q
showpage
%%Trailer
count op_count sub {pop} repeat
countdictstack dict_count sub {end} repeat
cairo_eps_state restore
%%EOF
