%!PS-Adobe-3.0 EPSF-3.0
%%Creator: cairo 1.10.2 (http://cairographics.org)
%%CreationDate: Fri Aug 14 10:45:02 2015
%%Pages: 1
%%BoundingBox: 0 -1 322 399
%%DocumentData: Clean7Bit
%%LanguageLevel: 2
%%EndComments
%%BeginProlog
/cairo_eps_state save def
/dict_count countdictstack def
/op_count count 1 sub def
userdict begin
/q { gsave } bind def
/Q { grestore } bind def
/cm { 6 array astore concat } bind def
/w { setlinewidth } bind def
/J { setlinecap } bind def
/j { setlinejoin } bind def
/M { setmiterlimit } bind def
/d { setdash } bind def
/m { moveto } bind def
/l { lineto } bind def
/c { curveto } bind def
/h { closepath } bind def
/re { exch dup neg 3 1 roll 5 3 roll moveto 0 rlineto
      0 exch rlineto 0 rlineto closepath } bind def
/S { stroke } bind def
/f { fill } bind def
/f* { eofill } bind def
/n { newpath } bind def
/W { clip } bind def
/W* { eoclip } bind def
/BT { } bind def
/ET { } bind def
/pdfmark where { pop globaldict /?pdfmark /exec load put }
    { globaldict begin /?pdfmark /pop load def /pdfmark
    /cleartomark load def end } ifelse
/BDC { mark 3 1 roll /BDC pdfmark } bind def
/EMC { mark /EMC pdfmark } bind def
/cairo_store_point { /cairo_point_y exch def /cairo_point_x exch def } def
/Tj { show currentpoint cairo_store_point } bind def
/TJ {
  {
    dup
    type /stringtype eq
    { show } { -0.001 mul 0 cairo_font_matrix dtransform rmoveto } ifelse
  } forall
  currentpoint cairo_store_point
} bind def
/cairo_selectfont { cairo_font_matrix aload pop pop pop 0 0 6 array astore
    cairo_font exch selectfont cairo_point_x cairo_point_y moveto } bind def
/Tf { pop /cairo_font exch def /cairo_font_matrix where
      { pop cairo_selectfont } if } bind def
/Td { matrix translate cairo_font_matrix matrix concatmatrix dup
      /cairo_font_matrix exch def dup 4 get exch 5 get cairo_store_point
      /cairo_font where { pop cairo_selectfont } if } bind def
/Tm { 2 copy 8 2 roll 6 array astore /cairo_font_matrix exch def
      cairo_store_point /cairo_font where { pop cairo_selectfont } if } bind def
/g { setgray } bind def
/rg { setrgbcolor } bind def
/d1 { setcachedevice } bind def
%%EndProlog
%%Page: 1 1
%%BeginPageSetup
%%PageBoundingBox: 0 -1 322 399
%%EndPageSetup
q 0 -1 322 400 rectclip q
0 398.21 322 -399 re W n
0 g
283.984 310.371 m 274.688 310.371 l 274.688 384.644 l 274.688 392.136 
268.613 398.21 261.121 398.21 c 59.918 398.21 l 52.426 398.21 46.352 
392.136 46.352 384.644 c 46.352 310.371 l 37.047 310.371 l 16.586 
310.371 0 293.785 0 273.328 c 0 171.261 l 0 150.8 16.586 134.214 37.047 
134.214 c 46.352 134.214 l 46.352 13.566 l 46.352 6.074 52.426 -0.001 
59.918 -0.001 c 261.121 -0.001 l 268.613 -0.001 274.688 6.074 274.688 
13.566 c 274.688 134.214 l 283.984 134.214 l 304.445 134.214 321.031 
150.8 321.031 171.261 c 321.031 273.328 l 321.031 293.785 304.445 
310.371 283.984 310.371 c h
53.977 168.035 m 51.254 168.035 48.684 168.652 46.352 169.699 c 39.859 
172.617 35.324 179.109 35.324 186.687 c 35.324 194.265 39.859 200.753 
46.352 203.675 c 48.684 204.722 51.254 205.339 53.977 205.339 c 64.273 
205.339 72.625 196.988 72.625 186.687 c 72.625 176.386 64.273 168.035 
53.977 168.035 c h
247.559 27.128 m 73.48 27.128 l 73.48 134.214 l 247.559 134.214 l h
247.559 310.371 m 73.48 310.371 l 73.48 371.082 l 247.559 371.082 l h
247.559 310.371 m f
110.777 92.421 m 210.254 92.421 l 215.871 92.421 220.43 96.98 220.43 
102.597 c 220.43 108.21 215.871 112.769 210.254 112.769 c 110.777 
112.769 l 105.16 112.769 100.602 108.21 100.602 102.597 c 100.602 96.98 
105.16 92.421 110.777 92.421 c h
110.777 92.421 m f
110.777 51.73 m 210.254 51.73 l 215.871 51.73 220.43 56.285 220.43 
61.902 c 220.43 67.519 215.871 72.074 210.254 72.074 c 110.777 72.074 l 
105.16 72.074 100.602 67.519 100.602 61.902 c 100.602 56.285 105.16 
51.73 110.777 51.73 c h
110.777 51.73 m f
Q Q
showpage
%%Trailer
count op_count sub {pop} repeat
countdictstack dict_count sub {end} repeat
cairo_eps_state restore
%%EOF
