%!PS-Adobe-3.0 EPSF-3.0
%%Creator: cairo 1.10.2 (http://cairographics.org)
%%CreationDate: Fri Aug 14 10:44:23 2015
%%Pages: 1
%%BoundingBox: 0 -1 395 304
%%DocumentData: Clean7Bit
%%LanguageLevel: 2
%%EndComments
%%BeginProlog
/cairo_eps_state save def
/dict_count countdictstack def
/op_count count 1 sub def
userdict begin
/q { gsave } bind def
/Q { grestore } bind def
/cm { 6 array astore concat } bind def
/w { setlinewidth } bind def
/J { setlinecap } bind def
/j { setlinejoin } bind def
/M { setmiterlimit } bind def
/d { setdash } bind def
/m { moveto } bind def
/l { lineto } bind def
/c { curveto } bind def
/h { closepath } bind def
/re { exch dup neg 3 1 roll 5 3 roll moveto 0 rlineto
      0 exch rlineto 0 rlineto closepath } bind def
/S { stroke } bind def
/f { fill } bind def
/f* { eofill } bind def
/n { newpath } bind def
/W { clip } bind def
/W* { eoclip } bind def
/BT { } bind def
/ET { } bind def
/pdfmark where { pop globaldict /?pdfmark /exec load put }
    { globaldict begin /?pdfmark /pop load def /pdfmark
    /cleartomark load def end } ifelse
/BDC { mark 3 1 roll /BDC pdfmark } bind def
/EMC { mark /EMC pdfmark } bind def
/cairo_store_point { /cairo_point_y exch def /cairo_point_x exch def } def
/Tj { show currentpoint cairo_store_point } bind def
/TJ {
  {
    dup
    type /stringtype eq
    { show } { -0.001 mul 0 cairo_font_matrix dtransform rmoveto } ifelse
  } forall
  currentpoint cairo_store_point
} bind def
/cairo_selectfont { cairo_font_matrix aload pop pop pop 0 0 6 array astore
    cairo_font exch selectfont cairo_point_x cairo_point_y moveto } bind def
/Tf { pop /cairo_font exch def /cairo_font_matrix where
      { pop cairo_selectfont } if } bind def
/Td { matrix translate cairo_font_matrix matrix concatmatrix dup
      /cairo_font_matrix exch def dup 4 get exch 5 get cairo_store_point
      /cairo_font where { pop cairo_selectfont } if } bind def
/Tm { 2 copy 8 2 roll 6 array astore /cairo_font_matrix exch def
      cairo_store_point /cairo_font where { pop cairo_selectfont } if } bind def
/g { setgray } bind def
/rg { setrgbcolor } bind def
/d1 { setcachedevice } bind def
%%EndProlog
%%Page: 1 1
%%BeginPageSetup
%%PageBoundingBox: 0 -1 395 304
%%EndPageSetup
q 0 -1 395 305 rectclip q
0 303.071 395 -304 re W n
0 g
107.711 301.306 m 4.906 257.985 l 1.934 256.735 0 253.817 0 250.595 c 0 
8.016 l 0 5.333 1.348 2.821 3.582 1.337 c 5.824 -0.148 8.656 -0.417 
11.133 0.63 c 113.938 43.954 l 116.91 45.208 118.844 48.122 118.844 
51.345 c 118.844 293.919 l 118.844 296.602 117.492 299.114 115.258 
300.599 c 113.02 302.087 110.188 302.349 107.711 301.306 c h
107.711 301.306 m f
251.082 270.208 m 148.273 302.696 l 145.84 303.47 143.18 303.032 
141.117 301.524 c 139.059 300.013 137.84 297.614 137.84 295.056 c 
137.84 51.891 l 137.84 48.391 140.102 45.298 143.438 44.243 c 246.246 
11.759 l 248.68 10.989 251.34 11.423 253.398 12.934 c 255.461 14.442 
256.68 16.845 256.68 19.399 c 256.68 262.559 l 256.68 266.056 254.414 
269.153 251.082 270.208 c h
251.082 270.208 m f
391.238 301.52 m 389.176 303.032 386.52 303.47 384.086 302.696 c 
281.273 270.208 l 277.941 269.153 275.676 266.056 275.676 262.556 c 
275.676 19.399 l 275.676 16.845 276.895 14.442 278.957 12.934 c 281.02 
11.423 283.676 10.989 286.109 11.759 c 388.918 44.243 l 392.254 45.298 
394.52 48.391 394.52 51.891 c 394.52 295.056 l 394.52 297.61 393.301 
300.013 391.238 301.52 c h
391.238 301.52 m f
Q Q
showpage
%%Trailer
count op_count sub {pop} repeat
countdictstack dict_count sub {end} repeat
cairo_eps_state restore
%%EOF
