%!PS-Adobe-3.0 EPSF-3.0
%%Creator: cairo 1.10.2 (http://cairographics.org)
%%CreationDate: Fri Aug 14 10:45:05 2015
%%Pages: 1
%%BoundingBox: 0 -1 298 397
%%DocumentData: Clean7Bit
%%LanguageLevel: 2
%%EndComments
%%BeginProlog
/cairo_eps_state save def
/dict_count countdictstack def
/op_count count 1 sub def
userdict begin
/q { gsave } bind def
/Q { grestore } bind def
/cm { 6 array astore concat } bind def
/w { setlinewidth } bind def
/J { setlinecap } bind def
/j { setlinejoin } bind def
/M { setmiterlimit } bind def
/d { setdash } bind def
/m { moveto } bind def
/l { lineto } bind def
/c { curveto } bind def
/h { closepath } bind def
/re { exch dup neg 3 1 roll 5 3 roll moveto 0 rlineto
      0 exch rlineto 0 rlineto closepath } bind def
/S { stroke } bind def
/f { fill } bind def
/f* { eofill } bind def
/n { newpath } bind def
/W { clip } bind def
/W* { eoclip } bind def
/BT { } bind def
/ET { } bind def
/pdfmark where { pop globaldict /?pdfmark /exec load put }
    { globaldict begin /?pdfmark /pop load def /pdfmark
    /cleartomark load def end } ifelse
/BDC { mark 3 1 roll /BDC pdfmark } bind def
/EMC { mark /EMC pdfmark } bind def
/cairo_store_point { /cairo_point_y exch def /cairo_point_x exch def } def
/Tj { show currentpoint cairo_store_point } bind def
/TJ {
  {
    dup
    type /stringtype eq
    { show } { -0.001 mul 0 cairo_font_matrix dtransform rmoveto } ifelse
  } forall
  currentpoint cairo_store_point
} bind def
/cairo_selectfont { cairo_font_matrix aload pop pop pop 0 0 6 array astore
    cairo_font exch selectfont cairo_point_x cairo_point_y moveto } bind def
/Tf { pop /cairo_font exch def /cairo_font_matrix where
      { pop cairo_selectfont } if } bind def
/Td { matrix translate cairo_font_matrix matrix concatmatrix dup
      /cairo_font_matrix exch def dup 4 get exch 5 get cairo_store_point
      /cairo_font where { pop cairo_selectfont } if } bind def
/Tm { 2 copy 8 2 roll 6 array astore /cairo_font_matrix exch def
      cairo_store_point /cairo_font where { pop cairo_selectfont } if } bind def
/g { setgray } bind def
/rg { setrgbcolor } bind def
/d1 { setcachedevice } bind def
%%EndProlog
%%Page: 1 1
%%BeginPageSetup
%%PageBoundingBox: 0 -1 298 397
%%EndPageSetup
q 0 -1 298 398 rectclip q
0 396.8 298 -397 re W n
0 g
238.398 262.644 m 238.398 267.812 234.211 271.999 229.043 271.999 c 
68.559 271.999 l 63.391 271.999 59.199 267.812 59.199 262.644 c 59.199 
164.558 l 59.199 159.39 63.391 155.202 68.559 155.202 c 229.043 155.202 
l 234.211 155.202 238.398 159.39 238.398 164.558 c h
222.664 179.382 m 225.199 177.277 225.547 173.511 223.445 170.972 c 
222.262 169.55 220.559 168.816 218.848 168.816 c 217.5 168.816 216.148 
169.269 215.035 170.191 c 172.922 205.148 l 152.391 188.109 l 151.285 
187.191 149.93 186.734 148.578 186.734 c 147.223 186.734 145.867 
187.191 144.762 188.109 c 124.234 205.148 l 82.121 170.191 l 79.586 
168.085 75.82 168.433 73.711 170.972 c 71.605 173.511 71.957 177.277 
74.492 179.382 c 114.883 212.909 l 74.492 246.437 l 71.957 248.546 
71.605 252.312 73.711 254.847 c 75.824 257.386 79.586 257.73 82.121 
255.628 c 148.578 200.468 l 215.035 255.628 l 217.57 257.73 221.336 
257.386 223.441 254.847 c 225.547 252.312 225.199 248.546 222.66 
246.437 c 182.27 212.909 l h
222.664 179.382 m f
272.477 396.8 m 24.68 396.8 l 10.945 396.8 0 385.882 0 372.155 c 0 
25.167 l 0 11.441 10.945 -0.001 24.68 -0.001 c 272.477 -0.001 l 286.211 
-0.001 297.602 11.441 297.602 25.167 c 297.602 372.155 l 297.602 
385.882 286.211 396.8 272.477 396.8 c h
148.578 18.491 m 139.906 18.491 132.875 25.523 132.875 34.195 c 132.875 
42.866 139.906 49.898 148.578 49.898 c 157.25 49.898 164.281 42.866 
164.281 34.195 c 164.281 25.523 157.25 18.491 148.578 18.491 c h
259.199 73.155 m 259.199 70.288 257.27 67.999 254.41 67.999 c 42.742 
67.999 l 39.879 67.999 37.602 70.288 37.602 73.155 c 37.602 355.019 l 
37.602 357.886 39.879 359.999 42.742 359.999 c 254.41 359.999 l 257.27 
359.999 259.199 357.886 259.199 355.019 c h
259.199 73.155 m f
Q Q
showpage
%%Trailer
count op_count sub {pop} repeat
countdictstack dict_count sub {end} repeat
cairo_eps_state restore
%%EOF
