%!PS-Adobe-3.0 EPSF-3.0
%%Creator: cairo 1.10.2 (http://cairographics.org)
%%CreationDate: Fri Aug 14 10:44:13 2015
%%Pages: 1
%%BoundingBox: 0 -1 337 397
%%DocumentData: Clean7Bit
%%LanguageLevel: 2
%%EndComments
%%BeginProlog
/cairo_eps_state save def
/dict_count countdictstack def
/op_count count 1 sub def
userdict begin
/q { gsave } bind def
/Q { grestore } bind def
/cm { 6 array astore concat } bind def
/w { setlinewidth } bind def
/J { setlinecap } bind def
/j { setlinejoin } bind def
/M { setmiterlimit } bind def
/d { setdash } bind def
/m { moveto } bind def
/l { lineto } bind def
/c { curveto } bind def
/h { closepath } bind def
/re { exch dup neg 3 1 roll 5 3 roll moveto 0 rlineto
      0 exch rlineto 0 rlineto closepath } bind def
/S { stroke } bind def
/f { fill } bind def
/f* { eofill } bind def
/n { newpath } bind def
/W { clip } bind def
/W* { eoclip } bind def
/BT { } bind def
/ET { } bind def
/pdfmark where { pop globaldict /?pdfmark /exec load put }
    { globaldict begin /?pdfmark /pop load def /pdfmark
    /cleartomark load def end } ifelse
/BDC { mark 3 1 roll /BDC pdfmark } bind def
/EMC { mark /EMC pdfmark } bind def
/cairo_store_point { /cairo_point_y exch def /cairo_point_x exch def } def
/Tj { show currentpoint cairo_store_point } bind def
/TJ {
  {
    dup
    type /stringtype eq
    { show } { -0.001 mul 0 cairo_font_matrix dtransform rmoveto } ifelse
  } forall
  currentpoint cairo_store_point
} bind def
/cairo_selectfont { cairo_font_matrix aload pop pop pop 0 0 6 array astore
    cairo_font exch selectfont cairo_point_x cairo_point_y moveto } bind def
/Tf { pop /cairo_font exch def /cairo_font_matrix where
      { pop cairo_selectfont } if } bind def
/Td { matrix translate cairo_font_matrix matrix concatmatrix dup
      /cairo_font_matrix exch def dup 4 get exch 5 get cairo_store_point
      /cairo_font where { pop cairo_selectfont } if } bind def
/Tm { 2 copy 8 2 roll 6 array astore /cairo_font_matrix exch def
      cairo_store_point /cairo_font where { pop cairo_selectfont } if } bind def
/g { setgray } bind def
/rg { setrgbcolor } bind def
/d1 { setcachedevice } bind def
%%EndProlog
%%Page: 1 1
%%BeginPageSetup
%%PageBoundingBox: 0 -1 337 397
%%EndPageSetup
q 0 -1 337 398 rectclip q
0 396.064 337 -397 re W n
0 g
172.227 206.939 m 171.734 207.353 171.457 207.912 170.996 208.357 c 
170.996 62.15 l 170.996 59.251 168.645 56.9 165.742 56.9 c 33.402 56.9 
l 30.504 56.9 28.148 59.251 28.148 62.15 c 28.148 290.962 l 28.148 
293.857 30.504 296.209 33.402 296.209 c 119.145 296.209 l 119.145 
322.986 l 25.168 322.986 l 11.27 322.986 0 311.716 0 297.81 c 0 25.173 
l 0 11.271 11.27 0.001 25.168 0.001 c 173.98 0.001 l 187.875 0.001 
199.148 11.271 199.148 25.173 c 199.148 201.162 l 196.559 200.427 
193.891 199.998 191.191 199.998 c 184.176 199.998 177.383 202.513 
172.227 206.939 c h
99.574 14.232 m 90.789 14.232 83.676 21.353 83.676 30.13 c 83.676 
38.908 90.789 46.029 99.574 46.029 c 108.348 46.029 115.473 38.908 
115.473 30.13 c 115.473 21.353 108.344 14.232 99.574 14.232 c h
99.574 14.232 m f
313.656 396.064 m 169.227 396.064 l 156.355 396.064 145.922 385.63 
145.922 372.759 c 145.922 292.404 l 145.922 279.533 156.355 269.099 
169.227 269.099 c 203.16 269.099 l 188.738 230.291 l 188.359 229.263 
188.66 228.103 189.496 227.4 c 189.98 226.99 190.582 226.771 191.191 
226.771 c 191.629 226.771 192.074 226.884 192.473 227.111 c 266.695 
269.099 l 313.656 269.099 l 326.527 269.099 336.961 279.533 336.961 
292.404 c 336.961 372.759 l 336.961 385.63 326.527 396.064 313.656 
396.064 c h
313.656 396.064 m f
Q Q
showpage
%%Trailer
count op_count sub {pop} repeat
countdictstack dict_count sub {end} repeat
cairo_eps_state restore
%%EOF
