%!PS-Adobe-3.0 EPSF-3.0
%%Creator: cairo 1.10.2 (http://cairographics.org)
%%CreationDate: Fri Aug 14 10:44:17 2015
%%Pages: 1
%%BoundingBox: 0 -1 396 396
%%DocumentData: Clean7Bit
%%LanguageLevel: 2
%%EndComments
%%BeginProlog
/cairo_eps_state save def
/dict_count countdictstack def
/op_count count 1 sub def
userdict begin
/q { gsave } bind def
/Q { grestore } bind def
/cm { 6 array astore concat } bind def
/w { setlinewidth } bind def
/J { setlinecap } bind def
/j { setlinejoin } bind def
/M { setmiterlimit } bind def
/d { setdash } bind def
/m { moveto } bind def
/l { lineto } bind def
/c { curveto } bind def
/h { closepath } bind def
/re { exch dup neg 3 1 roll 5 3 roll moveto 0 rlineto
      0 exch rlineto 0 rlineto closepath } bind def
/S { stroke } bind def
/f { fill } bind def
/f* { eofill } bind def
/n { newpath } bind def
/W { clip } bind def
/W* { eoclip } bind def
/BT { } bind def
/ET { } bind def
/pdfmark where { pop globaldict /?pdfmark /exec load put }
    { globaldict begin /?pdfmark /pop load def /pdfmark
    /cleartomark load def end } ifelse
/BDC { mark 3 1 roll /BDC pdfmark } bind def
/EMC { mark /EMC pdfmark } bind def
/cairo_store_point { /cairo_point_y exch def /cairo_point_x exch def } def
/Tj { show currentpoint cairo_store_point } bind def
/TJ {
  {
    dup
    type /stringtype eq
    { show } { -0.001 mul 0 cairo_font_matrix dtransform rmoveto } ifelse
  } forall
  currentpoint cairo_store_point
} bind def
/cairo_selectfont { cairo_font_matrix aload pop pop pop 0 0 6 array astore
    cairo_font exch selectfont cairo_point_x cairo_point_y moveto } bind def
/Tf { pop /cairo_font exch def /cairo_font_matrix where
      { pop cairo_selectfont } if } bind def
/Td { matrix translate cairo_font_matrix matrix concatmatrix dup
      /cairo_font_matrix exch def dup 4 get exch 5 get cairo_store_point
      /cairo_font where { pop cairo_selectfont } if } bind def
/Tm { 2 copy 8 2 roll 6 array astore /cairo_font_matrix exch def
      cairo_store_point /cairo_font where { pop cairo_selectfont } if } bind def
/g { setgray } bind def
/rg { setrgbcolor } bind def
/d1 { setcachedevice } bind def
%%EndProlog
%%Page: 1 1
%%BeginPageSetup
%%PageBoundingBox: 0 -1 396 396
%%EndPageSetup
q 0 -1 396 397 rectclip q
0 395.62 396 -396 re W n
0 g
259.07 72.64 m 259.07 69.788 256.754 67.468 253.895 67.468 c 42.805 
67.468 l 39.949 67.468 37.629 69.788 37.629 72.64 c 37.629 353.749 l 
37.629 356.6 39.949 358.917 42.805 358.917 c 253.895 358.917 l 256.754 
358.917 259.07 356.6 259.07 353.749 c 259.07 335.628 l 296.715 335.628 
l 296.715 370.823 l 296.715 384.518 285.613 395.62 271.926 395.62 c 
24.789 395.62 l 11.102 395.62 0 384.518 0 370.823 c 0 24.796 l 0 11.1 
11.102 -0.001 24.789 -0.001 c 271.926 -0.001 l 285.613 -0.001 296.715 
11.1 296.715 24.796 c 296.715 90.753 l 259.07 90.753 l h
148.355 18.132 m 139.703 18.132 132.699 25.143 132.699 33.792 c 132.699 
42.44 139.703 49.452 148.355 49.452 c 157.012 49.452 164.02 42.44 
164.02 33.792 c 164.02 25.143 157.012 18.132 148.355 18.132 c h
148.355 18.132 m f
380.305 309.253 m 117.676 309.253 l 109.215 309.253 102.355 302.39 
102.355 293.929 c 102.355 132.737 l 102.355 124.276 109.215 117.417 
117.676 117.417 c 380.305 117.417 l 388.766 117.417 395.625 124.276 
395.625 132.737 c 395.625 293.929 l 395.625 302.39 388.766 309.253 
380.305 309.253 c h
370.215 157.292 m 374.652 153.608 374.996 146.921 370.965 142.796 c 
367.387 139.136 361.605 138.815 357.648 142.057 c 335.227 160.448 
288.84 199.343 288.84 199.343 c 255.27 171.479 l 253.445 169.964 
251.223 169.21 248.992 169.21 c 246.758 169.21 244.539 169.964 242.715 
171.479 c 209.145 199.343 l 140.242 142.147 l 136.086 138.671 129.887 
139.229 126.398 143.429 c 122.938 147.604 123.508 153.8 127.688 157.268 
c 193.762 212.112 l 127.688 266.956 l 123.508 270.421 122.938 276.616 
126.398 280.792 c 129.871 284.999 136.074 285.538 140.242 282.077 c 
248.992 191.811 l 357.738 282.077 l 361.906 285.526 368.109 284.987 
371.586 280.792 c 375.047 276.616 374.477 270.421 370.293 266.956 c 
304.223 212.112 l h
370.215 157.292 m f
Q Q
showpage
%%Trailer
count op_count sub {pop} repeat
countdictstack dict_count sub {end} repeat
cairo_eps_state restore
%%EOF
