%!PS-Adobe-3.0 EPSF-3.0
%%Creator: cairo 1.10.2 (http://cairographics.org)
%%CreationDate: Fri Aug 14 10:44:46 2015
%%Pages: 1
%%BoundingBox: 0 -1 319 398
%%DocumentData: Clean7Bit
%%LanguageLevel: 2
%%EndComments
%%BeginProlog
/cairo_eps_state save def
/dict_count countdictstack def
/op_count count 1 sub def
userdict begin
/q { gsave } bind def
/Q { grestore } bind def
/cm { 6 array astore concat } bind def
/w { setlinewidth } bind def
/J { setlinecap } bind def
/j { setlinejoin } bind def
/M { setmiterlimit } bind def
/d { setdash } bind def
/m { moveto } bind def
/l { lineto } bind def
/c { curveto } bind def
/h { closepath } bind def
/re { exch dup neg 3 1 roll 5 3 roll moveto 0 rlineto
      0 exch rlineto 0 rlineto closepath } bind def
/S { stroke } bind def
/f { fill } bind def
/f* { eofill } bind def
/n { newpath } bind def
/W { clip } bind def
/W* { eoclip } bind def
/BT { } bind def
/ET { } bind def
/pdfmark where { pop globaldict /?pdfmark /exec load put }
    { globaldict begin /?pdfmark /pop load def /pdfmark
    /cleartomark load def end } ifelse
/BDC { mark 3 1 roll /BDC pdfmark } bind def
/EMC { mark /EMC pdfmark } bind def
/cairo_store_point { /cairo_point_y exch def /cairo_point_x exch def } def
/Tj { show currentpoint cairo_store_point } bind def
/TJ {
  {
    dup
    type /stringtype eq
    { show } { -0.001 mul 0 cairo_font_matrix dtransform rmoveto } ifelse
  } forall
  currentpoint cairo_store_point
} bind def
/cairo_selectfont { cairo_font_matrix aload pop pop pop 0 0 6 array astore
    cairo_font exch selectfont cairo_point_x cairo_point_y moveto } bind def
/Tf { pop /cairo_font exch def /cairo_font_matrix where
      { pop cairo_selectfont } if } bind def
/Td { matrix translate cairo_font_matrix matrix concatmatrix dup
      /cairo_font_matrix exch def dup 4 get exch 5 get cairo_store_point
      /cairo_font where { pop cairo_selectfont } if } bind def
/Tm { 2 copy 8 2 roll 6 array astore /cairo_font_matrix exch def
      cairo_store_point /cairo_font where { pop cairo_selectfont } if } bind def
/g { setgray } bind def
/rg { setrgbcolor } bind def
/d1 { setcachedevice } bind def
%%EndProlog
%%Page: 1 1
%%BeginPageSetup
%%PageBoundingBox: 0 -1 319 398
%%EndPageSetup
q 0 -1 319 399 rectclip q
0 397.52 319 -398 re W n
0 g
289.68 397.52 m 28.594 397.52 l 12.809 397.52 0 384.719 0 368.922 c 0 
134.364 l 0 118.567 12.809 105.766 28.594 105.766 c 84.711 105.766 l 
146.188 7.188 l 148.973 2.719 153.867 0 159.137 0 c 164.41 0 169.305 
2.719 172.09 7.188 c 233.566 105.766 l 289.68 105.766 l 305.465 105.766 
318.273 118.567 318.273 134.364 c 318.273 368.922 l 318.273 384.719 
305.465 397.52 289.68 397.52 c h
257.473 280.493 m 256.605 277.915 254.184 276.18 251.461 276.18 c 
235.508 276.18 l 235.508 160.852 l 235.508 157.344 232.672 154.5 
229.176 154.5 c 89.102 154.5 l 85.605 154.5 82.77 157.344 82.77 160.852 
c 82.77 276.18 l 66.812 276.18 l 64.094 276.18 61.672 277.915 60.805 
280.493 c 59.934 283.075 60.805 285.918 62.953 287.567 c 98.957 315.075 
l 98.957 338.2 l 98.957 340.75 101.027 342.829 103.594 342.829 c 
123.836 342.829 l 126.387 342.829 128.473 340.75 128.473 338.2 c 
128.473 337.618 l 153.688 356.899 l 156.91 359.348 161.367 359.348 
164.594 356.899 c 255.324 287.571 l 257.473 285.918 258.34 283.075 
257.473 280.493 c h
257.473 280.493 m f
Q Q
showpage
%%Trailer
count op_count sub {pop} repeat
countdictstack dict_count sub {end} repeat
cairo_eps_state restore
%%EOF
