%!PS-Adobe-3.0 EPSF-3.0
%%Creator: cairo 1.10.2 (http://cairographics.org)
%%CreationDate: Fri Aug 14 10:44:09 2015
%%Pages: 1
%%BoundingBox: 0 -1 246 398
%%DocumentData: Clean7Bit
%%LanguageLevel: 2
%%EndComments
%%BeginProlog
/cairo_eps_state save def
/dict_count countdictstack def
/op_count count 1 sub def
userdict begin
/q { gsave } bind def
/Q { grestore } bind def
/cm { 6 array astore concat } bind def
/w { setlinewidth } bind def
/J { setlinecap } bind def
/j { setlinejoin } bind def
/M { setmiterlimit } bind def
/d { setdash } bind def
/m { moveto } bind def
/l { lineto } bind def
/c { curveto } bind def
/h { closepath } bind def
/re { exch dup neg 3 1 roll 5 3 roll moveto 0 rlineto
      0 exch rlineto 0 rlineto closepath } bind def
/S { stroke } bind def
/f { fill } bind def
/f* { eofill } bind def
/n { newpath } bind def
/W { clip } bind def
/W* { eoclip } bind def
/BT { } bind def
/ET { } bind def
/pdfmark where { pop globaldict /?pdfmark /exec load put }
    { globaldict begin /?pdfmark /pop load def /pdfmark
    /cleartomark load def end } ifelse
/BDC { mark 3 1 roll /BDC pdfmark } bind def
/EMC { mark /EMC pdfmark } bind def
/cairo_store_point { /cairo_point_y exch def /cairo_point_x exch def } def
/Tj { show currentpoint cairo_store_point } bind def
/TJ {
  {
    dup
    type /stringtype eq
    { show } { -0.001 mul 0 cairo_font_matrix dtransform rmoveto } ifelse
  } forall
  currentpoint cairo_store_point
} bind def
/cairo_selectfont { cairo_font_matrix aload pop pop pop 0 0 6 array astore
    cairo_font exch selectfont cairo_point_x cairo_point_y moveto } bind def
/Tf { pop /cairo_font exch def /cairo_font_matrix where
      { pop cairo_selectfont } if } bind def
/Td { matrix translate cairo_font_matrix matrix concatmatrix dup
      /cairo_font_matrix exch def dup 4 get exch 5 get cairo_store_point
      /cairo_font where { pop cairo_selectfont } if } bind def
/Tm { 2 copy 8 2 roll 6 array astore /cairo_font_matrix exch def
      cairo_store_point /cairo_font where { pop cairo_selectfont } if } bind def
/g { setgray } bind def
/rg { setrgbcolor } bind def
/d1 { setcachedevice } bind def
%%EndProlog
%%Page: 1 1
%%BeginPageSetup
%%PageBoundingBox: 0 -1 246 398
%%EndPageSetup
q 0 -1 246 399 rectclip q
0 397.6 246 -398 re W n
0 g
141.562 206.143 m 141.562 195.948 133.297 187.682 123.102 187.682 c 
112.906 187.682 104.641 195.948 104.641 206.143 c 104.641 216.338 
112.906 224.604 123.102 224.604 c 133.297 224.604 141.562 216.338 
141.562 206.143 c h
141.562 206.143 m f
194.281 206.143 m 194.281 195.948 186.016 187.682 175.82 187.682 c 
165.621 187.682 157.355 195.948 157.355 206.143 c 157.355 216.338 
165.621 224.604 175.82 224.604 c 186.016 224.604 194.281 216.338 
194.281 206.143 c h
194.281 206.143 m f
88.848 206.143 m 88.848 195.948 80.582 187.682 70.387 187.682 c 60.188 
187.682 51.922 195.948 51.922 206.143 c 51.922 216.338 60.188 224.604 
70.387 224.604 c 80.582 224.604 88.848 216.338 88.848 206.143 c h
88.848 206.143 m f
214.43 397.6 m 31 397.6 l 13.867 397.6 0 383.983 0 366.85 c 0 30.776 l 
0 13.643 13.867 -0.002 31 -0.002 c 214.43 -0.002 l 231.562 -0.002 
245.602 13.643 245.602 30.776 c 245.602 366.85 l 245.602 383.983 
231.562 397.6 214.43 397.6 c h
122.715 17.295 m 111.887 17.295 103.121 26.069 103.121 36.889 c 103.121 
47.713 111.887 56.487 122.715 56.487 c 133.531 56.487 142.312 47.713 
142.312 36.889 c 142.312 26.069 133.527 17.295 122.715 17.295 c h
210.398 76.366 m 210.398 72.788 207.855 69.6 204.277 69.6 c 41.156 69.6 
l 37.574 69.6 34.398 72.788 34.398 76.366 c 34.398 358.389 l 34.398 
361.967 37.574 364.799 41.156 364.799 c 204.277 364.799 l 207.855 
364.799 210.398 361.967 210.398 358.389 c h
210.398 76.366 m f
Q Q
showpage
%%Trailer
count op_count sub {pop} repeat
countdictstack dict_count sub {end} repeat
cairo_eps_state restore
%%EOF
