%!PS-Adobe-3.0 EPSF-3.0
%%Creator: cairo 1.10.2 (http://cairographics.org)
%%CreationDate: Fri Aug 14 10:44:22 2015
%%Pages: 1
%%BoundingBox: 0 -1 395 335
%%DocumentData: Clean7Bit
%%LanguageLevel: 2
%%EndComments
%%BeginProlog
/cairo_eps_state save def
/dict_count countdictstack def
/op_count count 1 sub def
userdict begin
/q { gsave } bind def
/Q { grestore } bind def
/cm { 6 array astore concat } bind def
/w { setlinewidth } bind def
/J { setlinecap } bind def
/j { setlinejoin } bind def
/M { setmiterlimit } bind def
/d { setdash } bind def
/m { moveto } bind def
/l { lineto } bind def
/c { curveto } bind def
/h { closepath } bind def
/re { exch dup neg 3 1 roll 5 3 roll moveto 0 rlineto
      0 exch rlineto 0 rlineto closepath } bind def
/S { stroke } bind def
/f { fill } bind def
/f* { eofill } bind def
/n { newpath } bind def
/W { clip } bind def
/W* { eoclip } bind def
/BT { } bind def
/ET { } bind def
/pdfmark where { pop globaldict /?pdfmark /exec load put }
    { globaldict begin /?pdfmark /pop load def /pdfmark
    /cleartomark load def end } ifelse
/BDC { mark 3 1 roll /BDC pdfmark } bind def
/EMC { mark /EMC pdfmark } bind def
/cairo_store_point { /cairo_point_y exch def /cairo_point_x exch def } def
/Tj { show currentpoint cairo_store_point } bind def
/TJ {
  {
    dup
    type /stringtype eq
    { show } { -0.001 mul 0 cairo_font_matrix dtransform rmoveto } ifelse
  } forall
  currentpoint cairo_store_point
} bind def
/cairo_selectfont { cairo_font_matrix aload pop pop pop 0 0 6 array astore
    cairo_font exch selectfont cairo_point_x cairo_point_y moveto } bind def
/Tf { pop /cairo_font exch def /cairo_font_matrix where
      { pop cairo_selectfont } if } bind def
/Td { matrix translate cairo_font_matrix matrix concatmatrix dup
      /cairo_font_matrix exch def dup 4 get exch 5 get cairo_store_point
      /cairo_font where { pop cairo_selectfont } if } bind def
/Tm { 2 copy 8 2 roll 6 array astore /cairo_font_matrix exch def
      cairo_store_point /cairo_font where { pop cairo_selectfont } if } bind def
/g { setgray } bind def
/rg { setrgbcolor } bind def
/d1 { setcachedevice } bind def
%%EndProlog
%%Page: 1 1
%%BeginPageSetup
%%PageBoundingBox: 0 -1 395 335
%%EndPageSetup
q 0 -1 395 336 rectclip q
0 334.091 395 -335 re W n
0 g
179.961 334.091 m 26.031 334.091 l 11.656 334.091 0 322.435 0 308.052 c 
0 26.04 l 0 11.658 11.656 0.001 26.031 0.001 c 179.961 0.001 l 194.336 
0.001 205.992 11.658 205.992 26.04 c 205.992 308.052 l 205.992 322.435 
194.336 334.091 179.961 334.091 c h
102.996 14.72 m 93.91 14.72 86.551 22.083 86.551 31.165 c 86.551 40.247 
93.91 47.611 102.996 47.611 c 112.07 47.611 119.441 40.247 119.441 
31.165 c 119.441 22.083 112.07 14.72 102.996 14.72 c h
176.875 64.286 m 176.875 61.29 174.441 58.857 171.441 58.857 c 34.555 
58.857 l 31.551 58.857 29.113 61.29 29.113 64.286 c 29.113 300.966 l 
29.113 303.962 31.551 306.396 34.555 306.396 c 171.441 306.396 l 
174.441 306.396 176.875 303.962 176.875 300.966 c h
176.875 64.286 m f
343.516 299.701 m 338.105 305.111 329.344 305.111 323.934 299.701 c 
318.523 294.29 318.523 285.529 323.934 280.119 c 380.559 223.482 
380.559 131.337 323.934 74.701 c 318.523 69.29 318.523 60.525 323.934 
55.119 c 326.641 52.411 330.184 51.06 333.727 51.06 c 337.27 51.06 
340.812 52.411 343.516 55.119 c 410.945 122.544 410.945 232.271 343.516 
299.701 c h
343.516 299.701 m f
303.133 259.306 m 297.727 264.716 288.961 264.716 283.555 259.306 c 
278.145 253.904 278.145 245.13 283.555 239.724 c 317.902 205.365 
317.902 149.451 283.555 115.095 c 278.145 109.685 278.145 100.915 
283.555 95.513 c 286.258 92.806 289.801 91.454 293.344 91.454 c 296.887 
91.454 300.43 92.806 303.133 95.513 c 348.293 140.665 348.293 214.15 
303.133 259.306 c h
303.133 259.306 m f
242.766 218.525 m 237.355 213.122 237.355 204.349 242.766 198.943 c 
254.625 187.068 254.625 167.751 242.766 155.876 c 237.355 150.466 
237.355 141.697 242.766 136.294 c 245.469 133.587 249.012 132.236 
252.555 132.236 c 256.098 132.236 259.641 133.587 262.348 136.294 c 
285.012 158.966 285.012 195.853 262.348 218.525 c 256.938 223.935 
248.176 223.935 242.766 218.525 c h
242.766 218.525 m f
Q Q
showpage
%%Trailer
count op_count sub {pop} repeat
countdictstack dict_count sub {end} repeat
cairo_eps_state restore
%%EOF
