%!PS-Adobe-3.0 EPSF-3.0
%%Creator: cairo 1.10.2 (http://cairographics.org)
%%CreationDate: Fri Aug 14 10:44:35 2015
%%Pages: 1
%%BoundingBox: 0 -1 395 343
%%DocumentData: Clean7Bit
%%LanguageLevel: 2
%%EndComments
%%BeginProlog
/cairo_eps_state save def
/dict_count countdictstack def
/op_count count 1 sub def
userdict begin
/q { gsave } bind def
/Q { grestore } bind def
/cm { 6 array astore concat } bind def
/w { setlinewidth } bind def
/J { setlinecap } bind def
/j { setlinejoin } bind def
/M { setmiterlimit } bind def
/d { setdash } bind def
/m { moveto } bind def
/l { lineto } bind def
/c { curveto } bind def
/h { closepath } bind def
/re { exch dup neg 3 1 roll 5 3 roll moveto 0 rlineto
      0 exch rlineto 0 rlineto closepath } bind def
/S { stroke } bind def
/f { fill } bind def
/f* { eofill } bind def
/n { newpath } bind def
/W { clip } bind def
/W* { eoclip } bind def
/BT { } bind def
/ET { } bind def
/pdfmark where { pop globaldict /?pdfmark /exec load put }
    { globaldict begin /?pdfmark /pop load def /pdfmark
    /cleartomark load def end } ifelse
/BDC { mark 3 1 roll /BDC pdfmark } bind def
/EMC { mark /EMC pdfmark } bind def
/cairo_store_point { /cairo_point_y exch def /cairo_point_x exch def } def
/Tj { show currentpoint cairo_store_point } bind def
/TJ {
  {
    dup
    type /stringtype eq
    { show } { -0.001 mul 0 cairo_font_matrix dtransform rmoveto } ifelse
  } forall
  currentpoint cairo_store_point
} bind def
/cairo_selectfont { cairo_font_matrix aload pop pop pop 0 0 6 array astore
    cairo_font exch selectfont cairo_point_x cairo_point_y moveto } bind def
/Tf { pop /cairo_font exch def /cairo_font_matrix where
      { pop cairo_selectfont } if } bind def
/Td { matrix translate cairo_font_matrix matrix concatmatrix dup
      /cairo_font_matrix exch def dup 4 get exch 5 get cairo_store_point
      /cairo_font where { pop cairo_selectfont } if } bind def
/Tm { 2 copy 8 2 roll 6 array astore /cairo_font_matrix exch def
      cairo_store_point /cairo_font where { pop cairo_selectfont } if } bind def
/g { setgray } bind def
/rg { setrgbcolor } bind def
/d1 { setcachedevice } bind def
%%EndProlog
%%Page: 1 1
%%BeginPageSetup
%%PageBoundingBox: 0 -1 395 343
%%EndPageSetup
q 0 -1 395 344 rectclip q
0 342.598 395 -343 re W n
0 g
375.98 304.285 m 348.07 304.285 l 348.07 268.164 l 348.07 250.027 
333.367 235.328 315.23 235.328 c 297.094 235.328 282.395 250.027 
282.395 268.164 c 282.395 304.285 l 111.645 304.285 l 111.645 268.164 l 
111.645 250.027 96.945 235.328 78.805 235.328 c 60.672 235.328 45.969 
250.027 45.969 268.164 c 45.969 304.285 l 18.059 304.285 l 8.094 
304.285 0 296.195 0 286.219 c 0 18.066 l 0 8.086 8.094 -0 18.059 -0 c 
375.98 -0 l 385.945 -0 394.039 8.086 394.039 18.066 c 394.039 286.219 l 
394.039 296.195 385.945 304.285 375.98 304.285 c h
99.062 76.062 m 99.062 74.555 97.844 73.332 96.328 73.332 c 61.297 
73.332 l 59.785 73.332 58.566 74.555 58.566 76.062 c 58.566 111.094 l 
58.566 112.605 59.785 113.832 61.297 113.832 c 96.328 113.832 l 97.84 
113.832 99.062 112.605 99.062 111.094 c h
99.062 154.871 m 99.062 153.363 97.844 152.141 96.328 152.141 c 61.297 
152.141 l 59.785 152.141 58.566 153.363 58.566 154.871 c 58.566 189.902 
l 58.566 191.414 59.785 192.641 61.297 192.641 c 96.328 192.641 l 97.84 
192.641 99.062 191.414 99.062 189.902 c h
294.992 189.902 m 294.992 191.414 296.207 192.641 297.723 192.641 c 
332.754 192.641 l 334.266 192.641 335.484 191.414 335.484 189.902 c 
335.484 154.871 l 335.484 153.363 334.266 152.141 332.754 152.141 c 
297.723 152.141 l 296.207 152.141 294.992 153.363 294.992 154.871 c h
177.871 76.062 m 177.871 74.555 176.652 73.332 175.137 73.332 c 140.105 
73.332 l 138.594 73.332 137.375 74.555 137.375 76.062 c 137.375 111.094 
l 137.375 112.605 138.594 113.832 140.105 113.832 c 175.137 113.832 l 
176.652 113.832 177.871 112.605 177.871 111.094 c h
177.871 154.871 m 177.871 153.363 176.652 152.141 175.137 152.141 c 
140.105 152.141 l 138.594 152.141 137.375 153.363 137.375 154.871 c 
137.375 189.902 l 137.375 191.414 138.594 192.641 140.105 192.641 c 
175.137 192.641 l 176.652 192.641 177.871 191.414 177.871 189.902 c h
256.676 76.062 m 256.676 74.555 255.461 73.332 253.945 73.332 c 218.914 
73.332 l 217.402 73.332 216.184 74.555 216.184 76.062 c 216.184 111.094 
l 216.184 112.605 217.402 113.832 218.914 113.832 c 253.945 113.832 l 
255.461 113.832 256.676 112.605 256.676 111.094 c h
256.676 154.871 m 256.676 153.363 255.461 152.141 253.945 152.141 c 
218.914 152.141 l 217.402 152.141 216.184 153.363 216.184 154.871 c 
216.184 189.902 l 216.184 191.414 217.402 192.641 218.914 192.641 c 
253.945 192.641 l 255.461 192.641 256.676 191.414 256.676 189.902 c h
348.352 42.148 m 339.141 52.199 330.457 62.68 321.98 73.328 c 317.156 
73.328 l 308.461 65.723 299.891 57.984 291.965 49.535 c 286.156 43.355 
276.879 52.66 282.676 58.824 c 287.438 63.891 292.414 68.727 297.508 
73.422 c 296.105 73.555 294.992 74.637 294.992 76.062 c 294.992 108.996 
l 292.184 112.875 289.348 116.742 286.578 120.641 c 281.652 127.562 
293.055 134.109 297.914 127.273 c 301.121 122.773 304.379 118.301 
307.625 113.832 c 332.754 113.832 l 334.27 113.832 335.484 112.605 
335.484 111.094 c 335.484 106.762 l 338.426 109.375 341.387 111.945 
344.246 114.644 c 350.402 120.457 359.703 111.184 353.535 105.359 c 
347.656 99.816 341.594 94.492 335.484 89.223 c 335.484 77.402 l 342.641 
68.559 349.941 59.836 357.637 51.434 c 363.344 45.203 354.086 35.891 
348.352 42.148 c h
348.352 42.148 m f
78.805 248.461 m 89.684 248.461 98.508 257.281 98.508 268.164 c 98.508 
322.894 l 98.508 333.777 89.684 342.598 78.805 342.598 c 67.93 342.598 
59.105 333.777 59.105 322.894 c 59.105 268.164 l 59.105 257.281 67.93 
248.461 78.805 248.461 c h
78.805 248.461 m f
315.23 248.461 m 326.109 248.461 334.934 257.281 334.934 268.164 c 
334.934 322.894 l 334.934 333.777 326.109 342.598 315.23 342.598 c 
304.352 342.598 295.531 333.777 295.531 322.894 c 295.531 268.164 l 
295.531 257.281 304.352 248.461 315.23 248.461 c h
315.23 248.461 m f
Q Q
showpage
%%Trailer
count op_count sub {pop} repeat
countdictstack dict_count sub {end} repeat
cairo_eps_state restore
%%EOF
