%!PS-Adobe-3.0 EPSF-3.0
%%Creator: cairo 1.10.2 (http://cairographics.org)
%%CreationDate: Fri Aug 14 10:44:22 2015
%%Pages: 1
%%BoundingBox: 0 -1 204 396
%%DocumentData: Clean7Bit
%%LanguageLevel: 2
%%EndComments
%%BeginProlog
/cairo_eps_state save def
/dict_count countdictstack def
/op_count count 1 sub def
userdict begin
/q { gsave } bind def
/Q { grestore } bind def
/cm { 6 array astore concat } bind def
/w { setlinewidth } bind def
/J { setlinecap } bind def
/j { setlinejoin } bind def
/M { setmiterlimit } bind def
/d { setdash } bind def
/m { moveto } bind def
/l { lineto } bind def
/c { curveto } bind def
/h { closepath } bind def
/re { exch dup neg 3 1 roll 5 3 roll moveto 0 rlineto
      0 exch rlineto 0 rlineto closepath } bind def
/S { stroke } bind def
/f { fill } bind def
/f* { eofill } bind def
/n { newpath } bind def
/W { clip } bind def
/W* { eoclip } bind def
/BT { } bind def
/ET { } bind def
/pdfmark where { pop globaldict /?pdfmark /exec load put }
    { globaldict begin /?pdfmark /pop load def /pdfmark
    /cleartomark load def end } ifelse
/BDC { mark 3 1 roll /BDC pdfmark } bind def
/EMC { mark /EMC pdfmark } bind def
/cairo_store_point { /cairo_point_y exch def /cairo_point_x exch def } def
/Tj { show currentpoint cairo_store_point } bind def
/TJ {
  {
    dup
    type /stringtype eq
    { show } { -0.001 mul 0 cairo_font_matrix dtransform rmoveto } ifelse
  } forall
  currentpoint cairo_store_point
} bind def
/cairo_selectfont { cairo_font_matrix aload pop pop pop 0 0 6 array astore
    cairo_font exch selectfont cairo_point_x cairo_point_y moveto } bind def
/Tf { pop /cairo_font exch def /cairo_font_matrix where
      { pop cairo_selectfont } if } bind def
/Td { matrix translate cairo_font_matrix matrix concatmatrix dup
      /cairo_font_matrix exch def dup 4 get exch 5 get cairo_store_point
      /cairo_font where { pop cairo_selectfont } if } bind def
/Tm { 2 copy 8 2 roll 6 array astore /cairo_font_matrix exch def
      cairo_store_point /cairo_font where { pop cairo_selectfont } if } bind def
/g { setgray } bind def
/rg { setrgbcolor } bind def
/d1 { setcachedevice } bind def
%%EndProlog
%%Page: 1 1
%%BeginPageSetup
%%PageBoundingBox: 0 -1 204 396
%%EndPageSetup
q 0 -1 204 397 rectclip q
0 395.21 204 -396 re W n
0 g
25.793 224.675 m 25.793 189.507 l 25.793 185.886 28.719 182.96 32.34 
182.96 c 35.957 182.96 38.887 185.886 38.887 189.507 c 38.887 217.781 l 
47.402 201.695 58.703 187.66 71.793 178.785 c 71.793 159.953 l 71.793 
149.769 64.352 141.113 54.293 139.585 c 53.715 139.496 l 62.832 123.546 
79.82 112.648 99.473 112.648 c 119.586 112.648 136.91 124.058 145.855 
140.621 c 137.445 143.3 131.375 150.871 131.375 159.953 c 131.375 
178.644 l 144.555 187.503 155.934 201.589 164.5 217.753 c 164.5 189.507 
l 164.5 185.886 167.426 182.96 171.043 182.96 c 174.66 182.96 177.59 
185.886 177.59 189.507 c 177.59 224.671 l 186.078 226.871 193.828 
236.265 196.387 248.828 c 199.57 264.531 193.445 279.031 182.691 
281.226 c 182.141 281.335 181.605 281.269 181.055 281.316 c 180.633 
309.226 168.141 333.863 149.016 349.398 c 151.523 353.3 152.941 357.585 
152.941 362.078 c 152.941 380.378 129.992 395.21 101.695 395.21 c 
73.391 395.21 50.457 380.378 50.457 362.078 c 50.457 357.585 51.875 
353.3 54.383 349.394 c 35.254 333.863 22.762 309.222 22.34 281.316 c 
21.789 281.269 21.238 281.335 20.691 281.226 c 9.953 279.031 3.828 
264.527 7.012 248.828 c 9.57 236.281 17.305 226.882 25.793 224.675 c h
25.793 224.675 m f
194.414 117.757 m 187.602 127.429 177.41 133.98 165.969 136.621 c 
154.754 110.988 129.184 93.011 99.473 93.011 c 70.133 93.011 44.883 
110.546 33.449 135.656 c 23.555 132.511 14.812 126.359 8.75 117.757 c 
1.234 107.085 -1.617 93.808 0.887 80.999 c 16.652 -0.001 l 186.512 
-0.001 l 202.277 80.999 l 204.781 93.808 201.934 107.085 194.414 
117.757 c h
171.043 41.73 m 139.859 41.73 l 134.441 41.73 130.043 46.128 130.043 
51.55 c 130.043 56.968 134.441 61.367 139.859 61.367 c 171.043 61.367 l 
176.465 61.367 180.859 56.968 180.859 51.55 c 180.863 46.128 176.465 
41.73 171.043 41.73 c h
171.043 41.73 m f
Q Q
showpage
%%Trailer
count op_count sub {pop} repeat
countdictstack dict_count sub {end} repeat
cairo_eps_state restore
%%EOF
