%!PS-Adobe-3.0 EPSF-3.0
%%Creator: cairo 1.10.2 (http://cairographics.org)
%%CreationDate: Fri Aug 14 10:44:39 2015
%%Pages: 1
%%BoundingBox: 0 -1 391 391
%%DocumentData: Clean7Bit
%%LanguageLevel: 2
%%EndComments
%%BeginProlog
/cairo_eps_state save def
/dict_count countdictstack def
/op_count count 1 sub def
userdict begin
/q { gsave } bind def
/Q { grestore } bind def
/cm { 6 array astore concat } bind def
/w { setlinewidth } bind def
/J { setlinecap } bind def
/j { setlinejoin } bind def
/M { setmiterlimit } bind def
/d { setdash } bind def
/m { moveto } bind def
/l { lineto } bind def
/c { curveto } bind def
/h { closepath } bind def
/re { exch dup neg 3 1 roll 5 3 roll moveto 0 rlineto
      0 exch rlineto 0 rlineto closepath } bind def
/S { stroke } bind def
/f { fill } bind def
/f* { eofill } bind def
/n { newpath } bind def
/W { clip } bind def
/W* { eoclip } bind def
/BT { } bind def
/ET { } bind def
/pdfmark where { pop globaldict /?pdfmark /exec load put }
    { globaldict begin /?pdfmark /pop load def /pdfmark
    /cleartomark load def end } ifelse
/BDC { mark 3 1 roll /BDC pdfmark } bind def
/EMC { mark /EMC pdfmark } bind def
/cairo_store_point { /cairo_point_y exch def /cairo_point_x exch def } def
/Tj { show currentpoint cairo_store_point } bind def
/TJ {
  {
    dup
    type /stringtype eq
    { show } { -0.001 mul 0 cairo_font_matrix dtransform rmoveto } ifelse
  } forall
  currentpoint cairo_store_point
} bind def
/cairo_selectfont { cairo_font_matrix aload pop pop pop 0 0 6 array astore
    cairo_font exch selectfont cairo_point_x cairo_point_y moveto } bind def
/Tf { pop /cairo_font exch def /cairo_font_matrix where
      { pop cairo_selectfont } if } bind def
/Td { matrix translate cairo_font_matrix matrix concatmatrix dup
      /cairo_font_matrix exch def dup 4 get exch 5 get cairo_store_point
      /cairo_font where { pop cairo_selectfont } if } bind def
/Tm { 2 copy 8 2 roll 6 array astore /cairo_font_matrix exch def
      cairo_store_point /cairo_font where { pop cairo_selectfont } if } bind def
/g { setgray } bind def
/rg { setrgbcolor } bind def
/d1 { setcachedevice } bind def
%%EndProlog
%%Page: 1 1
%%BeginPageSetup
%%PageBoundingBox: 0 -1 391 391
%%EndPageSetup
q 0 -1 391 392 rectclip q
0 390.83 391 -391 re W n
0 g
390.836 195.431 m 390.836 195.451 l 390.812 303.189 303.156 390.83 
195.418 390.83 c 87.668 390.83 0 303.169 0 195.419 c 0 87.666 87.668 
0.001 195.418 0.001 c 303.172 0.001 390.836 87.666 390.836 195.419 c h
309.043 208.603 m 308.336 227.541 306.121 245.623 302.605 262.595 c 
307.91 260.283 313.07 257.837 317.914 255.158 c 341.863 241.908 357.039 
225.72 362.281 208.603 c h
282.688 208.603 m 209.953 208.603 l 209.953 282.654 l 232.141 281.654 
253.383 278.353 272.863 272.998 c 278.285 253.341 281.723 231.541 
282.688 208.603 c h
209.953 309.013 m 209.953 361.83 l 230.789 354.775 249.391 333.119 
262.602 302.533 c 245.801 306.048 228.148 308.248 209.953 309.013 c h
183.586 362.654 m 183.586 309.068 l 164.172 308.416 145.641 306.201 
128.273 302.595 c 142.051 334.462 161.672 356.638 183.586 362.654 c h
183.586 282.716 m 183.586 208.603 l 108.164 208.603 l 109.129 231.494 
112.555 253.251 117.961 272.873 c 137.973 278.384 160.203 281.83 
183.586 282.716 c h
81.809 208.603 m 28.609 208.603 l 35.148 229.962 57.039 249.068 88.246 
262.56 c 84.719 245.599 82.516 227.529 81.809 208.603 c h
81.809 182.232 m 82.516 163.306 84.719 145.232 88.246 128.267 c 57.039 
141.759 35.148 160.873 28.609 182.232 c h
108.164 182.232 m 183.586 182.232 l 183.586 108.119 l 160.203 109.005 
137.969 112.443 117.961 117.955 c 112.555 137.583 109.129 159.341 
108.164 182.232 c h
183.586 81.763 m 183.586 28.177 l 161.672 34.189 142.051 56.365 128.273 
88.232 c 145.633 84.626 164.172 82.416 183.586 81.763 c h
209.953 29.001 m 209.953 81.822 l 228.148 82.587 245.801 84.791 262.602 
88.302 c 249.391 57.712 230.789 36.056 209.953 29.001 c h
209.953 108.181 m 209.953 182.232 l 282.688 182.232 l 281.723 159.298 
278.285 137.498 272.863 117.845 c 253.383 112.49 232.141 109.185 
209.953 108.181 c h
309.043 182.232 m 362.281 182.232 l 357.039 165.111 341.848 148.927 
317.898 135.677 c 313.059 133.001 307.91 130.56 302.605 128.248 c 
306.133 145.216 308.336 163.302 309.043 182.232 c h
348.465 266.751 m 342.969 270.755 337.16 274.638 330.672 278.232 c 
319.562 284.376 307.254 289.568 294.211 293.962 c 287.207 314.912 
278.039 333.318 267.133 348.279 c 302.863 331.443 331.715 302.525 
348.465 266.751 c h
123.73 348.283 m 112.836 333.369 103.699 315.017 96.707 294.142 c 
75.824 287.142 57.477 277.994 42.555 267.107 c 59.328 302.724 88.105 
331.509 123.73 348.283 c h
42.539 123.728 m 57.465 112.837 75.824 103.697 96.707 96.693 c 103.711 
75.814 112.836 57.462 123.73 42.544 c 88.105 59.322 59.316 88.103 
42.539 123.728 c h
267.121 42.552 m 278.039 57.513 287.207 75.923 294.207 96.873 c 307.254 
101.267 319.562 106.458 330.672 112.603 c 337.16 116.197 342.969 120.08 
348.465 124.091 c 331.715 88.302 302.863 59.388 267.121 42.552 c h
267.121 42.552 m f
Q Q
showpage
%%Trailer
count op_count sub {pop} repeat
countdictstack dict_count sub {end} repeat
cairo_eps_state restore
%%EOF
