%!PS-Adobe-3.0 EPSF-3.0
%%Creator: cairo 1.10.2 (http://cairographics.org)
%%CreationDate: Fri Aug 14 10:44:53 2015
%%Pages: 1
%%BoundingBox: 0 -1 310 397
%%DocumentData: Clean7Bit
%%LanguageLevel: 2
%%EndComments
%%BeginProlog
/cairo_eps_state save def
/dict_count countdictstack def
/op_count count 1 sub def
userdict begin
/q { gsave } bind def
/Q { grestore } bind def
/cm { 6 array astore concat } bind def
/w { setlinewidth } bind def
/J { setlinecap } bind def
/j { setlinejoin } bind def
/M { setmiterlimit } bind def
/d { setdash } bind def
/m { moveto } bind def
/l { lineto } bind def
/c { curveto } bind def
/h { closepath } bind def
/re { exch dup neg 3 1 roll 5 3 roll moveto 0 rlineto
      0 exch rlineto 0 rlineto closepath } bind def
/S { stroke } bind def
/f { fill } bind def
/f* { eofill } bind def
/n { newpath } bind def
/W { clip } bind def
/W* { eoclip } bind def
/BT { } bind def
/ET { } bind def
/pdfmark where { pop globaldict /?pdfmark /exec load put }
    { globaldict begin /?pdfmark /pop load def /pdfmark
    /cleartomark load def end } ifelse
/BDC { mark 3 1 roll /BDC pdfmark } bind def
/EMC { mark /EMC pdfmark } bind def
/cairo_store_point { /cairo_point_y exch def /cairo_point_x exch def } def
/Tj { show currentpoint cairo_store_point } bind def
/TJ {
  {
    dup
    type /stringtype eq
    { show } { -0.001 mul 0 cairo_font_matrix dtransform rmoveto } ifelse
  } forall
  currentpoint cairo_store_point
} bind def
/cairo_selectfont { cairo_font_matrix aload pop pop pop 0 0 6 array astore
    cairo_font exch selectfont cairo_point_x cairo_point_y moveto } bind def
/Tf { pop /cairo_font exch def /cairo_font_matrix where
      { pop cairo_selectfont } if } bind def
/Td { matrix translate cairo_font_matrix matrix concatmatrix dup
      /cairo_font_matrix exch def dup 4 get exch 5 get cairo_store_point
      /cairo_font where { pop cairo_selectfont } if } bind def
/Tm { 2 copy 8 2 roll 6 array astore /cairo_font_matrix exch def
      cairo_store_point /cairo_font where { pop cairo_selectfont } if } bind def
/g { setgray } bind def
/rg { setrgbcolor } bind def
/d1 { setcachedevice } bind def
%%EndProlog
%%Page: 1 1
%%BeginPageSetup
%%PageBoundingBox: 0 -1 310 397
%%EndPageSetup
q 0 -1 310 398 rectclip q
0 396.922 310 -397 re W n
0 g
270.391 172.79 m 273.492 168.547 276.074 164.215 277.438 159.743 c 
258.219 159.743 l 249.719 152.461 242.422 150.27 234.895 150.27 c 
227.395 150.27 219.961 152.489 211.367 159.743 c 160.793 159.743 l 
160.793 216.45 l 164.531 216.278 168.09 215.708 171.746 215.372 c 
158.676 239.028 142.066 273.665 136.852 296.286 c 136.668 297.067 
136.602 297.844 136.434 298.622 c 60.086 291.903 0 227.696 0 149.645 c 
0 67.133 67.133 0.001 149.66 0.001 c 232.172 0.001 299.289 67.133 
299.289 149.645 c 299.289 149.665 l 299.289 167.985 295.812 185.469 
289.766 201.708 c 282.484 189.481 276.125 180.04 270.391 172.79 c h
94.75 266.711 m 86.418 255.282 79.422 241.235 74.062 225.247 c 58.062 
219.879 44.008 212.872 32.574 204.528 c 45.422 231.813 67.473 253.864 
94.75 266.711 c h
67.586 201.071 m 64.891 188.079 63.203 174.239 62.656 159.743 c 21.922 
159.743 l 26.93 176.102 43.684 190.735 67.586 201.071 c h
21.922 139.551 m 62.656 139.551 l 63.203 125.059 64.891 111.219 67.586 
98.227 c 43.695 108.567 26.941 123.192 21.922 139.551 c h
32.574 94.77 m 43.996 86.418 58.062 79.411 74.051 74.047 c 79.422 
58.059 86.418 44.008 94.75 32.583 c 67.473 45.43 45.422 67.477 32.574 
94.77 c h
140.602 21.583 m 123.82 26.184 108.793 43.165 98.242 67.567 c 111.543 
64.805 125.727 63.11 140.602 62.618 c h
140.602 82.797 m 122.691 83.481 105.664 86.11 90.352 90.333 c 86.199 
105.36 83.574 122.024 82.836 139.551 c 140.602 139.551 l h
140.602 159.743 m 82.836 159.743 l 83.578 177.278 86.199 193.938 90.352 
208.965 c 105.668 213.192 122.691 215.817 140.602 216.501 c h
140.602 236.68 m 125.727 236.18 111.543 234.489 98.242 231.731 c 
108.793 256.129 123.832 273.11 140.602 277.711 c h
160.793 139.551 m 216.48 139.551 l 215.742 121.993 213.105 105.293 
208.953 90.247 c 194.043 86.149 177.781 83.614 160.793 82.852 c h
160.793 21.583 m 160.793 62.665 l 174.719 63.247 188.242 64.934 201.102 
67.622 c 190.98 44.204 176.742 26.989 160.793 21.583 c h
204.566 32.586 m 212.926 44.047 219.945 58.141 225.305 74.18 c 235.297 
77.547 244.719 81.528 253.223 86.231 c 258.191 88.981 262.641 91.954 
266.844 95.028 c 254.023 67.622 231.938 45.481 204.566 32.586 c h
243.445 103.899 m 239.734 101.852 235.793 99.981 231.73 98.211 c 234.43 
111.208 236.113 125.047 236.66 139.551 c 277.422 139.551 l 273.414 
126.442 261.785 114.043 243.445 103.899 c h
243.445 103.899 m f
234.895 396.922 m 181.688 396.922 151.488 351.04 162.742 302.262 c 
170.762 267.528 219.168 176.848 234.895 176.848 c 249.602 176.848 
298.914 267.555 307.051 302.262 c 318.395 350.559 288.441 396.922 
234.895 396.922 c h
235.738 303.458 m 220.141 303.458 207.5 316.098 207.5 331.696 c 207.5 
347.297 220.141 359.934 235.738 359.934 c 251.34 359.934 263.977 
347.297 263.977 331.696 c 263.977 316.098 251.34 303.458 235.738 
303.458 c h
235.738 303.458 m f
Q Q
showpage
%%Trailer
count op_count sub {pop} repeat
countdictstack dict_count sub {end} repeat
cairo_eps_state restore
%%EOF
