\relax 
\@writefile{toc}{\contentsline {part}{I\hspace  {1em}Problem Statement}{4}}
\@writefile{toc}{\contentsline {section}{\numberline {1}What is the problem that needs to be solved?}{4}}
\@writefile{toc}{\contentsline {section}{\numberline {2}What is the operational objective you are setting out to achieve?}{4}}
\@writefile{toc}{\contentsline {section}{\numberline {3}What is the vision for improvement you are seeking to achieve?}{4}}
\@writefile{toc}{\contentsline {section}{\numberline {4}What has been done already to solve the problem, issue or improvement you are seeking to make?}{4}}
\@writefile{toc}{\contentsline {section}{\numberline {5}What has happened as a result of what has been done already?}{4}}
\@writefile{toc}{\contentsline {section}{\numberline {6}What are the symptoms of any failure to deliver expected performance?}{4}}
\@writefile{toc}{\contentsline {part}{II\hspace  {1em}Organizational history}{5}}
\@writefile{toc}{\contentsline {part}{III\hspace  {1em}External environment}{6}}
\@writefile{toc}{\contentsline {part}{IV\hspace  {1em}Organizational purpose}{7}}
\@writefile{toc}{\contentsline {part}{V\hspace  {1em}Mission}{8}}
\@writefile{toc}{\contentsline {part}{VI\hspace  {1em}Vision}{9}}
\@writefile{toc}{\contentsline {part}{VII\hspace  {1em}Strategy}{10}}
\@writefile{toc}{\contentsline {part}{VIII\hspace  {1em}Organizational goals and objectives}{11}}
\@writefile{toc}{\contentsline {part}{IX\hspace  {1em}Operational drivers}{12}}
\@writefile{toc}{\contentsline {part}{X\hspace  {1em}Structure}{13}}
\@writefile{toc}{\contentsline {part}{XI\hspace  {1em}Criteria for success}{14}}
\@writefile{toc}{\contentsline {part}{XII\hspace  {1em}Scope \IeC {\textendash } Boundaries}{15}}
\@writefile{toc}{\contentsline {part}{XIII\hspace  {1em}Scope \IeC {\textendash } Constraints}{16}}
\@writefile{toc}{\contentsline {part}{XIV\hspace  {1em}Approach}{17}}
\@writefile{toc}{\contentsline {part}{XV\hspace  {1em}Risks}{18}}
\@writefile{toc}{\contentsline {part}{XVI\hspace  {1em}Timescales}{19}}
\@writefile{toc}{\contentsline {part}{XVII\hspace  {1em}Anything Else}{20}}
\@writefile{toc}{\contentsline {part}{XVIII\hspace  {1em}Governance And Policy Working Groups}{21}}
\@writefile{toc}{\contentsline {section}{\numberline {7}IT Policy Working Group}{21}}
\@writefile{toc}{\contentsline {section}{\numberline {8}Enterprise Architecture Group}{21}}
\@writefile{toc}{\contentsline {part}{XIX\hspace  {1em}Data Governance Unified Process}{21}}
\@writefile{toc}{\contentsline {section}{\numberline {9}Define The Business Problem}{21}}
\@writefile{toc}{\contentsline {section}{\numberline {10}Obtain Executive Sponsorship}{21}}
\@writefile{toc}{\contentsline {subsection}{\numberline {10.1}Create A Virtual Governance Working Team}{21}}
\@writefile{toc}{\contentsline {subsection}{\numberline {10.2}Obtain Support From Senior Management Within IT And The Business}{21}}
\@writefile{toc}{\contentsline {subsection}{\numberline {10.3}Identify An Owner For Data Governance}{21}}
\@writefile{toc}{\contentsline {section}{\numberline {11}People And Organization Working Group}{21}}
\@writefile{toc}{\contentsline {paragraph}{The People and Organization Working Group is responsible \GenericError  {(inputenc)                }{Package inputenc Error: Unicode char \u8: not set up for use with LaTeX}{See the inputenc package documentation for explanation.}{Your command was ignored.\MessageBreak Type  I <command> <return>  to replace it with another command,\MessageBreak or  <return>  to continue without it.}or examining and recommending an organizational structureand human resources development plan to the CIOC. This group will plan \GenericError  {(inputenc)                }{Package inputenc Error: Unicode char \u8: not set up for use with LaTeX}{See the inputenc package documentation for explanation.}{Your command was ignored.\MessageBreak Type  I <command> <return>  to replace it with another command,\MessageBreak or  <return>  to continue without it.}or the integration o\GenericError  {(inputenc)                }{Package inputenc Error: Unicode char \u8: not set up for use with LaTeX}{See the inputenc package documentation for explanation.}{Your command was ignored.\MessageBreak Type  I <command> <return>  to replace it with another command,\MessageBreak or  <return>  to continue without it.} ICSD into OIMT, as well as the longer-term structure \GenericError  {(inputenc)                }{Package inputenc Error: Unicode char \u8: not set up for use with LaTeX}{See the inputenc package documentation for explanation.}{Your command was ignored.\MessageBreak Type  I <command> <return>  to replace it with another command,\MessageBreak or  <return>  to continue without it.}or managing the IT support personnel throughout each o\GenericError  {(inputenc)                }{Package inputenc Error: Unicode char \u8: not set up for use with LaTeX}{See the inputenc package documentation for explanation.}{Your command was ignored.\MessageBreak Type  I <command> <return>  to replace it with another command,\MessageBreak or  <return>  to continue without it.} the Departments. The Working Groupwill address not only organizational structure, but sta\GenericError  {(inputenc)                }{Package inputenc Error: Unicode char \u8: not set up for use with LaTeX}{See the inputenc package documentation for explanation.}{Your command was ignored.\MessageBreak Type  I <command> <return>  to replace it with another command,\MessageBreak or  <return>  to continue without it.}\GenericError  {(inputenc)                }{Package inputenc Error: Unicode char \u8: not set up for use with LaTeX}{See the inputenc package documentation for explanation.}{Your command was ignored.\MessageBreak Type  I <command> <return>  to replace it with another command,\MessageBreak or  <return>  to continue without it.}ng levels, reporting relationships, position descriptions, personnelevaluation standards and practices, career development, recruiting and retention strategies, and relationship with theemployees\IeC {\textquoteright } union.}{21}}
\@writefile{toc}{\contentsline {section}{\numberline {12}Innovation Working Group}{21}}
\@writefile{toc}{\contentsline {paragraph}{The Innovation Working Group provides a \GenericError  {(inputenc)                }{Package inputenc Error: Unicode char \u8: not set up for use with LaTeX}{See the inputenc package documentation for explanation.}{Your command was ignored.\MessageBreak Type  I <command> <return>  to replace it with another command,\MessageBreak or  <return>  to continue without it.}ormal mechanism \GenericError  {(inputenc)                }{Package inputenc Error: Unicode char \u8: not set up for use with LaTeX}{See the inputenc package documentation for explanation.}{Your command was ignored.\MessageBreak Type  I <command> <return>  to replace it with another command,\MessageBreak or  <return>  to continue without it.}or new ideas to be introduced into the state\IeC {\textquoteright }s business andIT enterprise. The initial \GenericError  {(inputenc)                }{Package inputenc Error: Unicode char \u8: not set up for use with LaTeX}{See the inputenc package documentation for explanation.}{Your command was ignored.\MessageBreak Type  I <command> <return>  to replace it with another command,\MessageBreak or  <return>  to continue without it.}ocus o\GenericError  {(inputenc)                }{Package inputenc Error: Unicode char \u8: not set up for use with LaTeX}{See the inputenc package documentation for explanation.}{Your command was ignored.\MessageBreak Type  I <command> <return>  to replace it with another command,\MessageBreak or  <return>  to continue without it.} the group will be on potential e-Government and Open Government initiatives and socialmedia. The Working Group should \GenericError  {(inputenc)                }{Package inputenc Error: Unicode char \u8: not set up for use with LaTeX}{See the inputenc package documentation for explanation.}{Your command was ignored.\MessageBreak Type  I <command> <return>  to replace it with another command,\MessageBreak or  <return>  to continue without it.}nd ways to encourage innovation throughout the State and among the citizens throughchallenges, outreach events, industry days, conducts con\GenericError  {(inputenc)                }{Package inputenc Error: Unicode char \u8: not set up for use with LaTeX}{See the inputenc package documentation for explanation.}{Your command was ignored.\MessageBreak Type  I <command> <return>  to replace it with another command,\MessageBreak or  <return>  to continue without it.}erences with thought leaders, etc. Eventually, an Innovation Labwithin OIMT could be established as a test bed or incubator \GenericError  {(inputenc)                }{Package inputenc Error: Unicode char \u8: not set up for use with LaTeX}{See the inputenc package documentation for explanation.}{Your command was ignored.\MessageBreak Type  I <command> <return>  to replace it with another command,\MessageBreak or  <return>  to continue without it.}or new ideas, which could provide programmatic support \GenericError  {(inputenc)                }{Package inputenc Error: Unicode char \u8: not set up for use with LaTeX}{See the inputenc package documentation for explanation.}{Your command was ignored.\MessageBreak Type  I <command> <return>  to replace it with another command,\MessageBreak or  <return>  to continue without it.}orproo\GenericError  {(inputenc)                }{Package inputenc Error: Unicode char \u8: not set up for use with LaTeX}{See the inputenc package documentation for explanation.}{Your command was ignored.\MessageBreak Type  I <command> <return>  to replace it with another command,\MessageBreak or  <return>  to continue without it.}-o\GenericError  {(inputenc)                }{Package inputenc Error: Unicode char \u8: not set up for use with LaTeX}{See the inputenc package documentation for explanation.}{Your command was ignored.\MessageBreak Type  I <command> <return>  to replace it with another command,\MessageBreak or  <return>  to continue without it.}-concept pilots identi\GenericError  {(inputenc)                }{Package inputenc Error: Unicode char \u8: not set up for use with LaTeX}{See the inputenc package documentation for explanation.}{Your command was ignored.\MessageBreak Type  I <command> <return>  to replace it with another command,\MessageBreak or  <return>  to continue without it.}ed by the group.}{22}}
\@writefile{toc}{\contentsline {section}{\numberline {13}IT Acquisition Working Group}{22}}
\@writefile{toc}{\contentsline {paragraph}{The IT Acquisition Working Group will work with the SPO to identi\GenericError  {(inputenc)                }{Package inputenc Error: Unicode char \u8: not set up for use with LaTeX}{See the inputenc package documentation for explanation.}{Your command was ignored.\MessageBreak Type  I <command> <return>  to replace it with another command,\MessageBreak or  <return>  to continue without it.}y ways to make procurement o\GenericError  {(inputenc)                }{Package inputenc Error: Unicode char \u8: not set up for use with LaTeX}{See the inputenc package documentation for explanation.}{Your command was ignored.\MessageBreak Type  I <command> <return>  to replace it with another command,\MessageBreak or  <return>  to continue without it.} IT products and servicesby the state more agile and responsive to customer needs. Potential areas to explore include supplementing SPO sta\GenericError  {(inputenc)                }{Package inputenc Error: Unicode char \u8: not set up for use with LaTeX}{See the inputenc package documentation for explanation.}{Your command was ignored.\MessageBreak Type  I <command> <return>  to replace it with another command,\MessageBreak or  <return>  to continue without it.}\GenericError  {(inputenc)                }{Package inputenc Error: Unicode char \u8: not set up for use with LaTeX}{See the inputenc package documentation for explanation.}{Your command was ignored.\MessageBreak Type  I <command> <return>  to replace it with another command,\MessageBreak or  <return>  to continue without it.} withPIMT personnel to assist with processing o\GenericError  {(inputenc)                }{Package inputenc Error: Unicode char \u8: not set up for use with LaTeX}{See the inputenc package documentation for explanation.}{Your command was ignored.\MessageBreak Type  I <command> <return>  to replace it with another command,\MessageBreak or  <return>  to continue without it.} IT procurements; proposing changes to acquisition regulations and legislation;negotiating enterprise license agreements, GWACS, and BPAs; and/or establishing a web-enabled product and servicecatalog with pre-negotiated prices.}{22}}
\@writefile{toc}{\contentsline {part}{XX\hspace  {1em}Technology Working Groups}{23}}
\@writefile{toc}{\contentsline {section}{\numberline {14}Networks Working Groups}{23}}
\@writefile{toc}{\contentsline {section}{\numberline {15}Compuiting And Storage Group}{23}}
\@writefile{toc}{\contentsline {section}{\numberline {16}Information Assurance and Privacy Working Group}{23}}
\@writefile{toc}{\contentsline {section}{\numberline {17}Service Management and Operations Working Group}{23}}
\@writefile{toc}{\contentsline {section}{\numberline {18}Development Group}{23}}
\@writefile{toc}{\contentsline {part}{XXI\hspace  {1em}Shared Services Working Group}{24}}
\@writefile{toc}{\contentsline {section}{\numberline {19}Enterprise Resource Planning Working Group}{24}}
\@writefile{toc}{\contentsline {section}{\numberline {20}Records Management Working Group}{24}}
\@writefile{toc}{\contentsline {section}{\numberline {21}Email and Collaboration (Unified Communications) Working Group}{24}}
\@writefile{toc}{\contentsline {part}{XXII\hspace  {1em}Organizational History}{25}}
