\relax 
\@writefile{toc}{\contentsline {part}{I\hspace  {1em}Introduction}{2}}
\@writefile{toc}{\contentsline {part}{II\hspace  {1em}Information Governance}{3}}
\@writefile{toc}{\contentsline {section}{\numberline {1}Records Management}{4}}
\@writefile{toc}{\contentsline {section}{\numberline {2}Content Management}{5}}
\@writefile{toc}{\contentsline {section}{\numberline {3}Information / File Sharing}{6}}
\@writefile{toc}{\contentsline {section}{\numberline {4}Collaboration}{7}}
\@writefile{toc}{\contentsline {section}{\numberline {5}Archiving}{8}}
\@writefile{toc}{\contentsline {section}{\numberline {6}eDiscovery}{9}}
