\contentsline {part}{I\hspace {1em}Introduction}{2}
\contentsline {part}{II\hspace {1em}Information Governance}{3}
\contentsline {section}{\numberline {1}Records Management}{4}
\contentsline {section}{\numberline {2}Content Management}{5}
\contentsline {section}{\numberline {3}Information / File Sharing}{6}
\contentsline {section}{\numberline {4}Collaboration}{7}
\contentsline {section}{\numberline {5}Archiving}{8}
\contentsline {section}{\numberline {6}eDiscovery}{9}
