\relax 
\@writefile{toc}{\contentsline {section}{\numberline {1}Definition}{3}}
\@writefile{toc}{\contentsline {section}{\numberline {2}The Security Policy Committee}{3}}
\@writefile{toc}{\contentsline {section}{\numberline {3}What Are We Protecting?}{3}}
\@writefile{toc}{\contentsline {section}{\numberline {4}Classification of Information}{3}}
\@writefile{toc}{\contentsline {section}{\numberline {5}User Responsibilities}{4}}
\@writefile{toc}{\contentsline {subsection}{\numberline {5.1}Acceptable Use Policy}{4}}
\@writefile{toc}{\contentsline {subsection}{\numberline {5.2}Use Of The Internet}{4}}
\@writefile{toc}{\contentsline {subsection}{\numberline {5.3}User Classification}{4}}
\@writefile{toc}{\contentsline {section}{\numberline {6}Access Control Policy}{5}}
\@writefile{toc}{\contentsline {subsection}{\numberline {6.1}Departmental User System And Network Access}{5}}
\@writefile{toc}{\contentsline {subsubsection}{\numberline {6.1.1}Normal User Identification}{5}}
\@writefile{toc}{\contentsline {subsubsection}{\numberline {6.1.2}System Administrator Access}{5}}
\@writefile{toc}{\contentsline {subsubsection}{\numberline {6.1.3}Special Access}{5}}
\@writefile{toc}{\contentsline {subsection}{\numberline {6.2}Connecting To Third-Party Networks}{5}}
\@writefile{toc}{\contentsline {subsection}{\numberline {6.3}Connecting To Devices To The Network}{5}}
\@writefile{toc}{\contentsline {subsection}{\numberline {6.4}Remote Access Policy}{5}}
\@writefile{toc}{\contentsline {subsection}{\numberline {6.5}Unauthorized Remote Access}{5}}
\@writefile{toc}{\contentsline {section}{\numberline {7}Penalty For Security Violation}{5}}
\@writefile{toc}{\contentsline {section}{\numberline {8}Security Incident Handling Procedures}{6}}
\@writefile{toc}{\contentsline {subsection}{\numberline {8.1}Create Security Log}{6}}
\@writefile{toc}{\contentsline {subsection}{\numberline {8.2}Five-Step Procedure}{6}}
\@writefile{toc}{\contentsline {subsubsection}{\numberline {8.2.1}Protect The Systems}{6}}
\@writefile{toc}{\contentsline {subsubsection}{\numberline {8.2.2}Identify The Problem}{6}}
\@writefile{toc}{\contentsline {subsubsection}{\numberline {8.2.3}Isolate The Problem}{6}}
\@writefile{toc}{\contentsline {subsubsection}{\numberline {8.2.4}Remove The Problem}{6}}
\@writefile{toc}{\contentsline {subsubsection}{\numberline {8.2.5}Forensics And Recovery}{6}}
\@writefile{toc}{\contentsline {subsection}{\numberline {8.3}Virus and Worm Incidents}{7}}
\@writefile{toc}{\contentsline {subsubsection}{\numberline {8.3.1}Protect The Systems}{7}}
\@writefile{toc}{\contentsline {subsubsection}{\numberline {8.3.2}Identify The Problem}{7}}
\@writefile{toc}{\contentsline {subsubsection}{\numberline {8.3.3}Isolate The Problem}{7}}
\@writefile{toc}{\contentsline {subsubsection}{\numberline {8.3.4}Remove The Problem}{7}}
\@writefile{toc}{\contentsline {subsubsection}{\numberline {8.3.5}Forensics And Recovery}{7}}
\@writefile{toc}{\contentsline {subsection}{\numberline {8.4}Malicious Hacker Incidents}{8}}
\@writefile{toc}{\contentsline {subsubsection}{\numberline {8.4.1}Protect The Systems}{8}}
\@writefile{toc}{\contentsline {subsubsection}{\numberline {8.4.2}Identify The Problem}{8}}
\@writefile{toc}{\contentsline {subsubsection}{\numberline {8.4.3}Isolate The Problem}{8}}
\@writefile{toc}{\contentsline {subsubsection}{\numberline {8.4.4}Remove The Problem}{8}}
\@writefile{toc}{\contentsline {subsubsection}{\numberline {8.4.5}Forensics And Recovery}{8}}
