\contentsline {section}{\numberline {1}Enterprise Content Management System}{2}
\contentsline {section}{\numberline {2}Portals}{2}
\contentsline {section}{\numberline {3}Web Development Platform}{3}
\contentsline {section}{\numberline {4}Social Media Platforms}{3}
\contentsline {section}{\numberline {5}Features and Functions I Believe Would Be Beneficial To AAOS}{4}
\contentsline {section}{\numberline {6}Scale Solutions}{8}
\contentsline {section}{\numberline {7}Comparison Based Off Of Features and Functions}{11}
