\relax 
\@writefile{toc}{\contentsline {section}{\numberline {1}Overview}{2}}
\@writefile{toc}{\contentsline {paragraph}{Service Applications provide a flexible design for delivering services, such as Managed Metadata or PerformancePoint, to users who need them.}{2}}
\@writefile{toc}{\contentsline {subsection}{\numberline {1.1}Introduction To Service Architecture}{2}}
\@writefile{toc}{\contentsline {paragraph}{A service application has the following components:}{2}}
\@writefile{toc}{\contentsline {paragraph}{The structure of service provisioning is a little more complex. A service application is a logical term for facilities offered in SharePoint 2013 to deliver functionality to users.}{2}}
\@writefile{toc}{\contentsline {subparagraph}{It is made up of the following elements:}{2}}
\@writefile{toc}{\contentsline {subsection}{\numberline {1.2}Creating and Configuring Service Applications}{2}}
