\relax 
\@writefile{toc}{\contentsline {section}{\numberline {1}Git Encourages Modularization}{2}}
\@writefile{toc}{\contentsline {paragraph}{In even the smallest development projects, developers are often required to work on multiple components in parallel.}{2}}
\@writefile{toc}{\contentsline {subparagraph}{Among many others, here are a couple of major issues with projects that aren\IeC {\textquoteright }t version-controlled:}{2}}
\@writefile{toc}{\contentsline {paragraph}{How do you get code removed safely from your code base?}{2}}
\@writefile{toc}{\contentsline {subparagraph}{Using branches is the solution to these commonplace development problems. Although Git wasn\IeC {\textquoteright }t the version control system (VCS) that introduced the concept of branching, it\IeC {\textquoteright }s the first of its kind that makes it user-friendly.}{2}}
\@writefile{toc}{\contentsline {section}{\numberline {2}Git Encourages Creativity}{2}}
\@writefile{toc}{\contentsline {paragraph}{Git branching will improve your code-quality and productivity. It facilitates creativity and experimentation by removing your fear that the current version of the project will be affected while you are trying out ideas, giving you an environment where you can confidently explore and develop your project\IeC {\textquoteright }s future features.}{2}}
\@writefile{toc}{\contentsline {subparagraph}{With Git, you can even create multiple branches that approach a given problem in different ways, test each of them with your master branch (the most current version of your project), and then choose the best option.}{2}}
\@writefile{toc}{\contentsline {section}{\numberline {3}Git Allows You to Undo Your Mistakes}{2}}
\@writefile{toc}{\contentsline {paragraph}{One of the greatest aspects about Git is that you can undo almost anything. In the end, this means that you actually can't mess up: Git always provides a safety net for you.}{2}}
\@writefile{toc}{\contentsline {subparagraph}{Being able to undo things gives your team the courage to try out ideas and concepts without the risk of breaking stuff, which in turn fosters a culture of innovation.}{2}}
\@writefile{toc}{\contentsline {section}{\numberline {4}Git Makes Your Progress Clear}{3}}
\@writefile{toc}{\contentsline {paragraph}{A commit in Git refers to the act of recording changes you have made in your source code.}{3}}
\@writefile{toc}{\contentsline {subparagraph}{When used properly, Git makes it easy to craft very granular commits. You can see what changes have occurred down to the microscopic level: Git will tell you what characters and lines in your source code have been altered. If you want to compare two versions of a file or the difference between two of your commits, you can issue Git\IeC {\textquoteright }s diff command, which will highlight the differences between them.}{3}}
\@writefile{toc}{\contentsline {subparagraph}{For instance, if you\IeC {\textquoteright }re fixing a specific bug \IeC {\textemdash } let\IeC {\textquoteright }s call it bug ##200 \IeC {\textemdash } that requires multiple source code changes across several files, all those changes should be under one commit in order for you to easily track changes to your project related to that bug. This way, you can document that "commit X fixed bug ##200". A side benefit of this commit policy is, when you encounter another bug similar to bug ##200 somewhere else in your project months from now, you can review how you resolved the first bug.}{3}}
\@writefile{toc}{\contentsline {paragraph}{Mixing different topics in one commit makes it hard to see what things were added or resolved.}{3}}
\@writefile{toc}{\contentsline {subparagraph}{Also, multi-topic commits makes it more difficult to roll back to a previous version if you ever find the need to do so. Imagine a commit that contains changes for both feature A and feature B. If you find out later on that you introduced a severe security leak with feature B, you\IeC {\textquoteright }ll have to roll back the code for both topics just to get rid of the problem.}{3}}
\@writefile{toc}{\contentsline {section}{\numberline {5}You Can Work Offline}{3}}
\@writefile{toc}{\contentsline {paragraph}{A lot of companies underestimate the benefits that can be had if their developers were to be able to work offline.}{3}}
\@writefile{toc}{\contentsline {subparagraph}{Being able to code on your laptop without having to connect to your company\IeC {\textquoteright }s servers is not only about being able to work during a commute or while at home (which a lot of companies don\IeC {\textquoteright }t permit due to security restrictions).}{3}}
\@writefile{toc}{\contentsline {paragraph}{More importantly, being able to work offline makes you more fail-safe as a team: While with a VCS like Subversion or CVS, a developer can\IeC {\textquoteright }t continue their work when a central server goes down, this is not an issue with Git.}{3}}
\@writefile{toc}{\contentsline {subparagraph}{In Git, developers can perform everything on their personal computer, making them independent of possible infrastructure downtimes.}{4}}
\@writefile{toc}{\contentsline {section}{\numberline {6}Never Lose Data Ever Again}{4}}
\@writefile{toc}{\contentsline {paragraph}{Losing data and not being able to recover it can break a dev project.}{4}}
\@writefile{toc}{\contentsline {subparagraph}{We\IeC {\textquoteright }ve all heard or experienced our own set of horror stories about failed backups and servers. It\IeC {\textquoteright }s good to know that when using Git, every developer working on a project has a full-fledged copy on their machine, including the project\IeC {\textquoteright }s complete change history.}{4}}
\@writefile{toc}{\contentsline {paragraph}{And if the team uses a remote source code repository such as GitHub, then the chances of losing your work in the event that the on-site backups fail is much smaller.}{4}}
\@writefile{toc}{\contentsline {subparagraph}{With version control systems, file versions are stored in a special database (usually called a repository). The fact that the history of a file is stored separately from the file itself adds extra safety: even if the file becomes corrupted, you can always restore any of its other versions from the history.}{4}}
\@writefile{toc}{\contentsline {section}{\numberline {7}Distributed vs. Centralized}{4}}
\@writefile{toc}{\contentsline {paragraph}{There are generally two models in version control systems: centralized and distributed.Tools such as Subversion typically require a network connection to a centralized server.You make a change to your project and then commit that change, which is sent to the centralized server to track. Other developers can then immediately access your changes.}{4}}
\@writefile{toc}{\contentsline {paragraph}{Distributed version control systems, such as Git, break the process of committing code and sharing it with others into two parts.You can commit your code to your local private repository without having to talk to a centralized server, removing the need to be connected to a network to make a change.}{4}}
\@writefile{toc}{\contentsline {section}{\numberline {8}Commit IDs Instead of Revision Numbers}{4}}
\@writefile{toc}{\contentsline {paragraph}{Centralized VCS have the benefit of having one system that doles out revision numbers. Because everyone is committing and sharing their code in one repository, that repository can control what numbers it assigns to a particular commit.}{4}}
\@writefile{toc}{\contentsline {subparagraph}{That model doesn\IeC {\textquoteright }t work in a decentralized system.Who\IeC {\textquoteright }s to say which commit is actually the second commit, me or you? Git uses commit IDs that are SHA-1 hashes instead. The hash is based on the code, what came before it, who made the commit, when they made it, and a few other pieces of metadata. The chances are incredibly small of there being two different commits with the same commit ID.}{5}}
\@writefile{toc}{\contentsline {section}{\numberline {9}Uses Are Endless}{5}}
\@writefile{toc}{\contentsline {section}{\numberline {10}The Benefits For Graphic Designers Designers}{6}}
\@writefile{toc}{\contentsline {paragraph}{There are multiple benefits of using version control, and some of the benefits make it especially attractive for designers. }{6}}
\@writefile{toc}{\contentsline {subparagraph}{The most obvious benefits are:}{6}}
