<?xml version="1.0" encoding="iso-8859-1"?>
<!-- Generator: Adobe Illustrator 17.1.0, SVG Export Plug-In . SVG Version: 6.00 Build 0)  -->
<!DOCTYPE svg PUBLIC "-//W3C//DTD SVG 1.1//EN" "http://www.w3.org/Graphics/SVG/1.1/DTD/svg11.dtd">
<svg version="1.1" id="Capa_1" xmlns="http://www.w3.org/2000/svg" xmlns:xlink="http://www.w3.org/1999/xlink" x="0px" y="0px"
	 viewBox="0 0 367.271 367.271" style="enable-background:new 0 0 367.271 367.271;" xml:space="preserve">
<path d="M319.929,152.636c0-4.971,4.029-9,9-9h0.748c4.971,0,9,4.029,9,9s-4.029,9-9,9h-0.748
	C323.958,161.636,319.929,157.606,319.929,152.636z M289.325,88.636h0.749c4.971,0,9-4.029,9-9s-4.029-9-9-9h-0.749
	c-4.971,0-9,4.029-9,9S284.354,88.636,289.325,88.636z M328.929,198.636h0.748c4.971,0,9-4.029,9-9s-4.029-9-9-9h-0.748
	c-4.971,0-9,4.029-9,9S323.958,198.636,328.929,198.636z M358.271,320.636H230.913c-4.971,0-9,4.029-9,9s4.029,9,9,9h127.358
	c4.971,0,9-4.029,9-9S363.242,320.636,358.271,320.636z M328.929,88.636h0.75c4.971,0,9-4.029,9-9s-4.029-9-9-9h-0.75
	c-4.971,0-9,4.029-9,9S323.958,88.636,328.929,88.636z M360.886,295.636c0,4.971-4.029,9-9,9h-115c-4.971,0-9-4.029-9-9v-68
	c0-4.971,4.029-9,9-9h115c4.971,0,9,4.029,9,9V295.636z M245.886,286.636h97v-50h-97V286.636z M328.929,124.636h0.748
	c4.971,0,9-4.029,9-9s-4.029-9-9-9h-0.748c-4.971,0-9,4.029-9,9S323.958,124.636,328.929,124.636z M249.886,105.636
	c0,4.971-4.029,9-9,9h-115c-4.971,0-9-4.029-9-9v-68c0-4.971,4.029-9,9-9h115c4.971,0,9,4.029,9,9V105.636z M134.886,97.636h97v-51
	h-97V97.636z M77.197,88.636h0.749c4.971,0,9-4.029,9-9s-4.029-9-9-9h-0.749c-4.971,0-9,4.029-9,9S72.227,88.636,77.197,88.636z
	 M138.886,295.636c0,4.971-4.029,9-9,9h-115c-4.971,0-9-4.029-9-9v-68c0-4.971,4.029-9,9-9h115c4.971,0,9,4.029,9,9V295.636z
	 M23.886,286.636h97v-50h-97V286.636z M119.956,149.636h127.358c4.971,0,9-4.029,9-9s-4.029-9-9-9H119.956c-4.971,0-9,4.029-9,9
	S114.985,149.636,119.956,149.636z M203.813,256.636h-0.75c-4.971,0-9,4.029-9,9s4.029,9,9,9h0.75c4.971,0,9-4.029,9-9
	S208.783,256.636,203.813,256.636z M136.357,320.636H9c-4.971,0-9,4.029-9,9s4.029,9,9,9h127.357c4.971,0,9-4.029,9-9
	S141.328,320.636,136.357,320.636z M38.342,106.636h-0.748c-4.971,0-9,4.029-9,9s4.029,9,9,9h0.748c4.971,0,9-4.029,9-9
	S43.313,106.636,38.342,106.636z M164.21,256.636h-0.751c-4.971,0-9,4.029-9,9s4.029,9,9,9h0.751c4.971,0,9-4.029,9-9
	S169.181,256.636,164.21,256.636z M37.593,88.636h0.751c4.971,0,9-4.029,9-9s-4.029-9-9-9h-0.751c-4.971,0-9,4.029-9,9
	S32.622,88.636,37.593,88.636z M38.342,180.636h-0.748c-4.971,0-9,4.029-9,9s4.029,9,9,9h0.748c4.971,0,9-4.029,9-9
	S43.313,180.636,38.342,180.636z M38.342,143.636h-0.748c-4.971,0-9,4.029-9,9s4.029,9,9,9h0.748c4.971,0,9-4.029,9-9
	S43.313,143.636,38.342,143.636z"/>
<g>
</g>
<g>
</g>
<g>
</g>
<g>
</g>
<g>
</g>
<g>
</g>
<g>
</g>
<g>
</g>
<g>
</g>
<g>
</g>
<g>
</g>
<g>
</g>
<g>
</g>
<g>
</g>
<g>
</g>
</svg>
