<?xml version="1.0" encoding="iso-8859-1"?>
<!-- Generator: Adobe Illustrator 17.1.0, SVG Export Plug-In . SVG Version: 6.00 Build 0)  -->
<!DOCTYPE svg PUBLIC "-//W3C//DTD SVG 1.1//EN" "http://www.w3.org/Graphics/SVG/1.1/DTD/svg11.dtd">
<svg version="1.1" id="Capa_1" xmlns="http://www.w3.org/2000/svg" xmlns:xlink="http://www.w3.org/1999/xlink" x="0px" y="0px"
	 viewBox="0 0 512 512" style="enable-background:new 0 0 512 512;" xml:space="preserve">
<g>
	<path d="M502.073,53.281c-6.309-4.887-14.805-6.432-23.311-4.236L29.24,165.05C12.844,169.282,0,185.86,0,202.793v80
		c0,16.934,12.844,33.512,29.24,37.743L136,348.088v12.541c0,29.885,23.542,60.273,52.479,67.741l131.045,33.818
		c4.526,1.168,8.984,1.745,13.304,1.745c9.819,0,18.917-2.984,26.42-8.796C370.05,446.767,376,433.733,376,418.435v-8.412
		l102.762,26.519c2.537,0.655,5.072,0.977,7.549,0.977c5.829,0,11.334-1.783,15.762-5.213c6.309-4.888,9.927-12.729,9.927-21.513
		v-336C512,66.009,508.382,58.168,502.073,53.281z M360,418.435c0,10.239-3.748,18.781-10.552,24.052
		c-6.805,5.272-16.012,6.766-25.927,4.207l-131.045-33.819C170.536,407.215,152,383.288,152,360.629v-8.412l208,53.678V418.435z
		 M496,410.793c0,3.854-1.323,7.003-3.726,8.864c-2.403,1.861-5.781,2.355-9.514,1.393L33.238,305.044
		C24.055,302.674,16,292.277,16,282.793v-80c0-9.483,8.055-19.881,17.238-22.251L482.76,64.536c1.246-0.321,2.453-0.48,3.597-0.48
		c2.283,0,4.316,0.633,5.917,1.873c2.402,1.861,3.726,5.01,3.726,8.864V410.793z"/>
	<path d="M398,112.625l-111.993,28.901c-4.278,1.104-6.851,5.467-5.747,9.745c0.931,3.608,4.179,6.003,7.741,6.003
		c0.662,0,1.334-0.083,2.004-0.256l111.993-28.901c4.278-1.104,6.851-5.467,5.747-9.745C406.642,114.094,402.278,111.52,398,112.625
		z"/>
	<path d="M454.004,98.172l-24.006,6.195c-4.278,1.104-6.851,5.467-5.747,9.745c0.931,3.608,4.18,6.003,7.741,6.003
		c0.662,0,1.334-0.083,2.004-0.256l24.006-6.195c4.278-1.104,6.851-5.467,5.747-9.745S458.283,97.067,454.004,98.172z"/>
</g>
<g>
</g>
<g>
</g>
<g>
</g>
<g>
</g>
<g>
</g>
<g>
</g>
<g>
</g>
<g>
</g>
<g>
</g>
<g>
</g>
<g>
</g>
<g>
</g>
<g>
</g>
<g>
</g>
<g>
</g>
</svg>
