<?xml version="1.0" encoding="iso-8859-1"?>
<!-- Generator: Adobe Illustrator 17.1.0, SVG Export Plug-In . SVG Version: 6.00 Build 0)  -->
<!DOCTYPE svg PUBLIC "-//W3C//DTD SVG 1.1//EN" "http://www.w3.org/Graphics/SVG/1.1/DTD/svg11.dtd">
<svg version="1.1" id="Capa_1" xmlns="http://www.w3.org/2000/svg" xmlns:xlink="http://www.w3.org/1999/xlink" x="0px" y="0px"
	 viewBox="0 0 219 219" style="enable-background:new 0 0 219 219;" xml:space="preserve">
<path d="M186.985,0H32.015c-9.649,0-17.5,7.851-17.5,17.5v184c0,9.649,7.851,17.5,17.5,17.5h154.971c9.649,0,17.5-7.851,17.5-17.5
	v-184C204.485,7.851,196.635,0,186.985,0z M76.201,181.156c0,6.885-5.602,12.486-12.486,12.486H52.74
	c-6.885,0-12.486-5.602-12.486-12.486v-1.393c0-6.885,5.602-12.486,12.486-12.486h10.975c6.885,0,12.486,5.602,12.486,12.486
	V181.156z M76.201,133.575c0,6.885-5.602,12.486-12.486,12.486H52.74c-6.885,0-12.486-5.602-12.486-12.486v-1.393
	c0-6.885,5.602-12.486,12.486-12.486h10.975c6.885,0,12.486,5.602,12.486,12.486V133.575z M76.201,85.995
	c0,6.885-5.602,12.485-12.486,12.485H52.74c-6.885,0-12.486-5.601-12.486-12.485v-1.394c0-6.885,5.602-12.485,12.486-12.485h10.975
	c6.885,0,12.486,5.601,12.486,12.485V85.995z M127.474,181.156c0,6.885-5.602,12.486-12.486,12.486h-10.975
	c-6.885,0-12.486-5.602-12.486-12.486v-1.393c0-6.885,5.602-12.486,12.486-12.486h10.975c6.885,0,12.486,5.602,12.486,12.486
	V181.156z M127.474,133.575c0,6.885-5.602,12.486-12.486,12.486h-10.975c-6.885,0-12.486-5.602-12.486-12.486v-1.393
	c0-6.885,5.602-12.486,12.486-12.486h10.975c6.885,0,12.486,5.602,12.486,12.486V133.575z M127.474,85.995
	c0,6.885-5.602,12.485-12.486,12.485h-10.975c-6.885,0-12.486-5.601-12.486-12.485v-1.394c0-6.885,5.602-12.485,12.486-12.485
	h10.975c6.885,0,12.486,5.601,12.486,12.485V85.995z M178.746,181.156c0,6.885-5.602,12.486-12.486,12.486h-10.975
	c-6.885,0-12.486-5.602-12.486-12.486v-1.393c0-6.885,5.602-12.486,12.486-12.486h10.975c6.885,0,12.486,5.602,12.486,12.486
	V181.156z M178.746,133.575c0,6.885-5.602,12.486-12.486,12.486h-10.975c-6.885,0-12.486-5.602-12.486-12.486v-1.393
	c0-6.885,5.602-12.486,12.486-12.486h10.975c6.885,0,12.486,5.602,12.486,12.486V133.575z M178.746,85.995
	c0,6.885-5.602,12.485-12.486,12.485h-10.975c-6.885,0-12.486-5.601-12.486-12.485v-1.394c0-6.885,5.602-12.485,12.486-12.485
	h10.975c6.885,0,12.486,5.601,12.486,12.485V85.995z M185.38,42.832c0,3.693-3.004,6.697-6.697,6.697H40.317
	c-3.693,0-6.697-3.004-6.697-6.697V27.469c0-3.693,3.004-6.697,6.697-6.697h138.365c3.693,0,6.697,3.004,6.697,6.697V42.832z"/>
<g>
</g>
<g>
</g>
<g>
</g>
<g>
</g>
<g>
</g>
<g>
</g>
<g>
</g>
<g>
</g>
<g>
</g>
<g>
</g>
<g>
</g>
<g>
</g>
<g>
</g>
<g>
</g>
<g>
</g>
</svg>
