%!PS-Adobe-3.0 EPSF-3.0
%%Creator: cairo 1.10.2 (http://cairographics.org)
%%CreationDate: Thu Aug 13 09:20:35 2015
%%Pages: 1
%%BoundingBox: 0 -1 286 293
%%DocumentData: Clean7Bit
%%LanguageLevel: 2
%%EndComments
%%BeginProlog
/cairo_eps_state save def
/dict_count countdictstack def
/op_count count 1 sub def
userdict begin
/q { gsave } bind def
/Q { grestore } bind def
/cm { 6 array astore concat } bind def
/w { setlinewidth } bind def
/J { setlinecap } bind def
/j { setlinejoin } bind def
/M { setmiterlimit } bind def
/d { setdash } bind def
/m { moveto } bind def
/l { lineto } bind def
/c { curveto } bind def
/h { closepath } bind def
/re { exch dup neg 3 1 roll 5 3 roll moveto 0 rlineto
      0 exch rlineto 0 rlineto closepath } bind def
/S { stroke } bind def
/f { fill } bind def
/f* { eofill } bind def
/n { newpath } bind def
/W { clip } bind def
/W* { eoclip } bind def
/BT { } bind def
/ET { } bind def
/pdfmark where { pop globaldict /?pdfmark /exec load put }
    { globaldict begin /?pdfmark /pop load def /pdfmark
    /cleartomark load def end } ifelse
/BDC { mark 3 1 roll /BDC pdfmark } bind def
/EMC { mark /EMC pdfmark } bind def
/cairo_store_point { /cairo_point_y exch def /cairo_point_x exch def } def
/Tj { show currentpoint cairo_store_point } bind def
/TJ {
  {
    dup
    type /stringtype eq
    { show } { -0.001 mul 0 cairo_font_matrix dtransform rmoveto } ifelse
  } forall
  currentpoint cairo_store_point
} bind def
/cairo_selectfont { cairo_font_matrix aload pop pop pop 0 0 6 array astore
    cairo_font exch selectfont cairo_point_x cairo_point_y moveto } bind def
/Tf { pop /cairo_font exch def /cairo_font_matrix where
      { pop cairo_selectfont } if } bind def
/Td { matrix translate cairo_font_matrix matrix concatmatrix dup
      /cairo_font_matrix exch def dup 4 get exch 5 get cairo_store_point
      /cairo_font where { pop cairo_selectfont } if } bind def
/Tm { 2 copy 8 2 roll 6 array astore /cairo_font_matrix exch def
      cairo_store_point /cairo_font where { pop cairo_selectfont } if } bind def
/g { setgray } bind def
/rg { setrgbcolor } bind def
/d1 { setcachedevice } bind def
%%EndProlog
%%Page: 1 1
%%BeginPageSetup
%%PageBoundingBox: 0 -1 286 293
%%EndPageSetup
q 0 -1 286 294 rectclip q
0 292.378 286 -293 re W n
0 g
0 255.414 m 0 272.964 l 0 276.941 3.293 279.929 7.27 279.929 c 63.199 
279.929 l 63.199 285.179 l 63.199 289.156 66.422 292.378 70.398 292.378 
c 74.375 292.378 77.602 289.156 77.602 285.179 c 77.602 279.929 l 
189.602 279.929 l 189.602 285.179 l 189.602 289.156 192.824 292.378 
196.801 292.378 c 200.777 292.378 204 289.156 204 285.179 c 204 279.929 
l 260.215 279.929 l 264.191 279.929 267.199 276.941 267.199 272.964 c 
267.199 255.414 l 267.199 251.437 263.977 248.214 260 248.214 c 256.023 
248.214 252.801 251.437 252.801 255.414 c 252.801 265.531 l 204 265.531 
l 204 260.757 l 204 256.781 200.777 253.554 196.801 253.554 c 192.824 
253.554 189.602 256.781 189.602 260.757 c 189.602 265.531 l 77.602 
265.531 l 77.602 260.757 l 77.602 256.781 74.375 253.554 70.398 253.554 
c 66.422 253.554 63.199 256.781 63.199 260.757 c 63.199 265.531 l 
14.398 265.531 l 14.398 255.414 l 14.398 251.437 11.176 248.214 7.199 
248.214 c 3.223 248.214 0 251.437 0 255.414 c h
285.934 64.98 m 285.934 29.148 256.781 -0.001 220.949 -0.001 c 185.117 
-0.001 155.969 29.156 155.969 64.988 c 155.969 92.824 173.562 116.64 
198.211 125.878 c 197.277 127.093 196.723 128.636 196.723 130.285 c 
196.723 134.265 199.945 137.531 203.922 137.531 c 237.977 137.531 l 
241.953 137.531 245.176 134.265 245.176 130.285 c 245.176 128.636 
244.621 127.07 243.688 125.855 c 249.676 123.613 255.246 120.507 
260.254 116.695 c 263.809 120.249 l 266.621 123.062 271.18 123.062 
273.992 120.249 c 276.801 117.441 276.801 112.882 273.992 110.07 c 
270.68 106.761 l 280.195 95.457 285.934 80.878 285.934 64.98 c h
271.531 64.976 m 271.531 92.867 248.84 115.558 220.949 115.558 c 
193.059 115.558 170.367 92.871 170.367 64.976 c 170.367 37.085 193.059 
14.394 220.949 14.394 c 248.84 14.394 271.531 37.085 271.531 64.976 c h
230.691 82.765 m 228 80.148 l 228 91.285 l 228 95.261 224.777 98.484 
220.801 98.484 c 216.824 98.484 213.602 95.261 213.602 91.285 c 213.602 
62.765 l 213.602 61.785 213.871 60.851 214.227 59.999 c 214.574 59.152 
215.133 58.359 215.82 57.671 c 216.527 56.968 217.359 56.441 218.23 
56.089 c 218.23 56.089 218.242 56.089 218.242 56.085 c 218.246 56.085 
218.254 56.265 218.258 56.265 c 219.016 55.957 219.844 55.929 220.707 
55.929 c 220.723 55.929 l 220.797 55.929 220.875 55.925 220.949 55.925 
c 221.027 55.925 221.102 55.929 221.18 55.929 c 221.195 55.929 l 222.07 
55.929 222.906 55.964 223.676 56.281 c 224.539 56.632 225.344 57.066 
226.043 57.765 c 240.953 72.628 l 243.762 75.441 243.727 79.976 240.914 
82.789 c 238.102 85.601 233.504 85.578 230.691 82.765 c h
154.004 107.128 m 154.004 103.152 150.781 99.929 146.805 99.929 c 
140.801 99.929 l 140.801 47.019 l 140.801 43.042 137.648 39.847 133.672 
39.847 c 133.43 39.847 133.258 39.886 133.023 39.91 c 132.789 39.886 
132.547 39.929 132.305 39.929 c 7.27 39.929 l 3.293 39.929 0 43.042 0 
47.019 c 0 228.085 l 0 232.062 3.293 235.128 7.27 235.128 c 260.215 
235.128 l 264.191 235.128 267.199 232.062 267.199 228.085 c 267.199 
150.015 l 267.199 146.039 263.977 142.816 260 142.816 c 256.023 142.816 
252.801 146.039 252.801 150.015 c 252.801 160.73 l 204 160.73 l 204 
160.113 l 204 156.136 200.777 152.914 196.801 152.914 c 192.824 152.914 
189.602 156.136 189.602 160.113 c 189.602 160.73 l 140.801 160.73 l 
140.801 114.332 l 146.805 114.332 l 150.781 114.332 154.004 111.105 
154.004 107.128 c h
63.199 99.929 m 14.398 99.929 l 14.398 54.332 l 63.199 54.332 l h
63.199 160.73 m 14.398 160.73 l 14.398 114.332 l 63.199 114.332 l h
126.398 99.929 m 77.602 99.929 l 77.602 54.332 l 126.398 54.332 l h
126.398 160.73 m 77.602 160.73 l 77.602 114.332 l 126.398 114.332 l h
140.801 204.996 m 140.801 175.128 l 189.602 175.128 l 189.602 204.996 l 
189.602 208.972 192.824 212.195 196.801 212.195 c 200.777 212.195 204 
208.972 204 204.996 c 204 175.128 l 252.801 175.128 l 252.801 220.73 l 
14.398 220.73 l 14.398 175.128 l 63.199 175.128 l 63.199 204.996 l 
63.199 208.972 66.422 212.195 70.398 212.195 c 74.375 212.195 77.602 
208.972 77.602 204.996 c 77.602 175.128 l 126.398 175.128 l 126.398 
204.996 l 126.398 208.972 129.625 212.195 133.602 212.195 c 137.578 
212.195 140.801 208.972 140.801 204.996 c h
140.801 204.996 m f
Q Q
showpage
%%Trailer
count op_count sub {pop} repeat
countdictstack dict_count sub {end} repeat
cairo_eps_state restore
%%EOF
