%!PS-Adobe-3.0 EPSF-3.0
%%Creator: cairo 1.10.2 (http://cairographics.org)
%%CreationDate: Thu Aug 13 09:20:32 2015
%%Pages: 1
%%BoundingBox: 0 -1 300 262
%%DocumentData: Clean7Bit
%%LanguageLevel: 2
%%EndComments
%%BeginProlog
/cairo_eps_state save def
/dict_count countdictstack def
/op_count count 1 sub def
userdict begin
/q { gsave } bind def
/Q { grestore } bind def
/cm { 6 array astore concat } bind def
/w { setlinewidth } bind def
/J { setlinecap } bind def
/j { setlinejoin } bind def
/M { setmiterlimit } bind def
/d { setdash } bind def
/m { moveto } bind def
/l { lineto } bind def
/c { curveto } bind def
/h { closepath } bind def
/re { exch dup neg 3 1 roll 5 3 roll moveto 0 rlineto
      0 exch rlineto 0 rlineto closepath } bind def
/S { stroke } bind def
/f { fill } bind def
/f* { eofill } bind def
/n { newpath } bind def
/W { clip } bind def
/W* { eoclip } bind def
/BT { } bind def
/ET { } bind def
/pdfmark where { pop globaldict /?pdfmark /exec load put }
    { globaldict begin /?pdfmark /pop load def /pdfmark
    /cleartomark load def end } ifelse
/BDC { mark 3 1 roll /BDC pdfmark } bind def
/EMC { mark /EMC pdfmark } bind def
/cairo_store_point { /cairo_point_y exch def /cairo_point_x exch def } def
/Tj { show currentpoint cairo_store_point } bind def
/TJ {
  {
    dup
    type /stringtype eq
    { show } { -0.001 mul 0 cairo_font_matrix dtransform rmoveto } ifelse
  } forall
  currentpoint cairo_store_point
} bind def
/cairo_selectfont { cairo_font_matrix aload pop pop pop 0 0 6 array astore
    cairo_font exch selectfont cairo_point_x cairo_point_y moveto } bind def
/Tf { pop /cairo_font exch def /cairo_font_matrix where
      { pop cairo_selectfont } if } bind def
/Td { matrix translate cairo_font_matrix matrix concatmatrix dup
      /cairo_font_matrix exch def dup 4 get exch 5 get cairo_store_point
      /cairo_font where { pop cairo_selectfont } if } bind def
/Tm { 2 copy 8 2 roll 6 array astore /cairo_font_matrix exch def
      cairo_store_point /cairo_font where { pop cairo_selectfont } if } bind def
/g { setgray } bind def
/rg { setrgbcolor } bind def
/d1 { setcachedevice } bind def
%%EndProlog
%%Page: 1 1
%%BeginPageSetup
%%PageBoundingBox: 0 -1 300 262
%%EndPageSetup
q 0 -1 300 263 rectclip q
0 261.602 300 -262 re W n
0 g
150.199 120.161 m 165.305 120.161 177.594 132.45 177.594 147.556 c 
177.594 162.661 165.305 174.95 150.199 174.95 c 135.094 174.95 122.805 
162.661 122.805 147.556 c 122.805 132.45 135.094 120.161 150.199 
120.161 c h
150.199 160.548 m 157.367 160.548 163.195 154.72 163.195 147.556 c 
163.195 140.391 157.367 134.559 150.199 134.559 c 143.035 134.559 
137.207 140.391 137.207 147.556 c 137.207 154.72 143.035 160.548 
150.199 160.548 c h
80.484 107.235 m 87.41 95.235 95.793 90.009 102.477 93.462 c 113.012 
98.169 l 117.059 95.11 121.43 92.583 126.082 90.618 c 127.277 79.114 l 
127.66 71.618 136.379 66.985 150.199 66.985 c 164.051 66.985 172.766 
71.63 173.121 79.141 c 174.312 90.614 l 178.965 92.583 183.34 95.11 
187.383 98.165 c 197.945 93.446 l 204.629 90.032 213.004 95.263 219.914 
107.231 c 222.406 111.548 224.188 116.048 224.93 119.903 c 226.484 
127.954 223.238 131.606 220.859 133.153 c 211.543 139.907 l 211.855 
142.438 212.012 144.993 212.012 147.548 c 212.012 150.059 211.859 
152.575 211.559 155.067 c 220.863 161.813 l 223.242 163.364 226.484 
167.013 224.93 175.063 c 224.188 178.915 222.406 183.415 219.914 
187.731 c 213.008 199.7 204.637 204.931 197.953 201.52 c 187.492 
196.848 l 183.414 199.942 179 202.497 174.301 204.485 c 173.125 215.821 
l 172.766 223.337 164.055 227.981 150.199 227.981 c 136.387 227.981 
127.668 223.348 127.277 215.856 c 126.098 204.481 l 121.398 202.497 
116.984 199.942 112.906 196.845 c 102.48 201.505 l 95.793 204.958 87.41 
199.731 80.484 187.731 c 73.578 175.77 73.23 165.907 79.52 161.825 c 
88.844 155.067 l 88.539 152.579 88.387 150.063 88.387 147.548 c 88.387 
144.993 88.543 142.438 88.855 139.907 c 79.535 133.153 l 73.23 129.075 
73.574 119.204 80.484 107.235 c h
103.727 138.106 m 103.102 141.192 102.785 144.368 102.785 147.548 c 
102.785 150.692 103.098 153.837 103.707 156.895 c 104.258 159.653 
103.152 162.485 100.871 164.138 c 89.594 172.306 l 89.926 173.989 
90.887 176.946 92.953 180.532 c 95.023 184.118 97.105 186.431 98.398 
187.559 c 111.09 181.888 l 113.668 180.735 116.68 181.2 118.797 183.071 
c 123.586 187.309 129.07 190.481 135.094 192.505 c 137.77 193.403 
139.672 195.782 139.961 198.591 c 141.391 212.38 l 143.016 212.938 
146.059 213.583 150.199 213.583 c 154.336 213.583 157.379 212.938 
159.004 212.38 c 160.434 198.587 l 160.727 195.782 162.629 193.403 
165.305 192.505 c 171.328 190.485 176.809 187.309 181.602 183.071 c 
183.719 181.2 186.73 180.739 189.309 181.891 c 201.996 187.559 l 
203.293 186.431 205.375 184.122 207.441 180.536 c 209.512 176.95 
210.473 173.993 210.801 172.309 c 199.527 164.138 l 197.246 162.489 
196.141 159.657 196.691 156.899 c 197.301 153.837 197.613 150.692 
197.613 147.552 c 197.613 144.376 197.297 141.196 196.672 138.102 c 
196.113 135.341 197.219 132.505 199.504 130.848 c 210.801 122.665 l 
210.473 120.977 209.512 118.02 207.441 114.434 c 205.371 110.848 
203.293 108.54 201.996 107.411 c 189.211 113.126 l 186.641 114.274 
183.633 113.817 181.516 111.954 c 176.746 107.755 171.297 104.606 
165.316 102.598 c 162.645 101.696 160.738 99.321 160.449 96.516 c 
159.004 82.591 l 157.379 82.032 154.336 81.384 150.199 81.384 c 146.059 
81.384 143.016 82.032 141.391 82.591 c 139.945 96.513 l 139.656 99.321 
137.754 101.696 135.078 102.595 c 129.098 104.606 123.648 107.755 
118.879 111.954 c 116.766 113.813 113.762 114.274 111.188 113.122 c 
98.398 107.411 l 97.105 108.54 95.023 110.848 92.953 114.434 c 90.883 
118.02 89.922 120.977 89.594 122.665 c 100.891 130.848 l 103.18 132.505 
104.285 135.341 103.727 138.106 c h
293.02 261.602 m 7.379 261.602 l 3.402 261.602 0 258.575 0 254.598 c 0 
40.368 l 0 36.391 3.402 32.802 7.379 32.802 c 143.199 32.802 l 143.199 
14.403 l 101.664 14.403 l 97.688 14.403 94.461 11.177 94.461 7.2 c 
94.461 3.223 97.688 0.001 101.664 0.001 c 150.492 0.001 l 150.551 0.001 
150.605 0.001 150.66 0.001 c 150.719 0.001 150.773 0.001 150.828 0.001 
c 199.66 0.001 l 203.637 0.001 206.863 3.223 206.863 7.2 c 206.863 
11.177 203.637 14.403 199.66 14.403 c 157.602 14.403 l 157.602 32.802 l 
293.02 32.802 l 296.996 32.802 300 36.391 300 40.368 c 300 254.598 l 
300 258.575 296.996 261.602 293.02 261.602 c h
285.602 47.204 m 14.398 47.204 l 14.398 247.204 l 285.602 247.204 l h
285.602 47.204 m f
Q Q
showpage
%%Trailer
count op_count sub {pop} repeat
countdictstack dict_count sub {end} repeat
cairo_eps_state restore
%%EOF
