%!PS-Adobe-3.0 EPSF-3.0
%%Creator: cairo 1.10.2 (http://cairographics.org)
%%CreationDate: Thu Aug 13 09:20:53 2015
%%Pages: 1
%%BoundingBox: 0 -1 302 314
%%DocumentData: Clean7Bit
%%LanguageLevel: 2
%%EndComments
%%BeginProlog
/cairo_eps_state save def
/dict_count countdictstack def
/op_count count 1 sub def
userdict begin
/q { gsave } bind def
/Q { grestore } bind def
/cm { 6 array astore concat } bind def
/w { setlinewidth } bind def
/J { setlinecap } bind def
/j { setlinejoin } bind def
/M { setmiterlimit } bind def
/d { setdash } bind def
/m { moveto } bind def
/l { lineto } bind def
/c { curveto } bind def
/h { closepath } bind def
/re { exch dup neg 3 1 roll 5 3 roll moveto 0 rlineto
      0 exch rlineto 0 rlineto closepath } bind def
/S { stroke } bind def
/f { fill } bind def
/f* { eofill } bind def
/n { newpath } bind def
/W { clip } bind def
/W* { eoclip } bind def
/BT { } bind def
/ET { } bind def
/pdfmark where { pop globaldict /?pdfmark /exec load put }
    { globaldict begin /?pdfmark /pop load def /pdfmark
    /cleartomark load def end } ifelse
/BDC { mark 3 1 roll /BDC pdfmark } bind def
/EMC { mark /EMC pdfmark } bind def
/cairo_store_point { /cairo_point_y exch def /cairo_point_x exch def } def
/Tj { show currentpoint cairo_store_point } bind def
/TJ {
  {
    dup
    type /stringtype eq
    { show } { -0.001 mul 0 cairo_font_matrix dtransform rmoveto } ifelse
  } forall
  currentpoint cairo_store_point
} bind def
/cairo_selectfont { cairo_font_matrix aload pop pop pop 0 0 6 array astore
    cairo_font exch selectfont cairo_point_x cairo_point_y moveto } bind def
/Tf { pop /cairo_font exch def /cairo_font_matrix where
      { pop cairo_selectfont } if } bind def
/Td { matrix translate cairo_font_matrix matrix concatmatrix dup
      /cairo_font_matrix exch def dup 4 get exch 5 get cairo_store_point
      /cairo_font where { pop cairo_selectfont } if } bind def
/Tm { 2 copy 8 2 roll 6 array astore /cairo_font_matrix exch def
      cairo_store_point /cairo_font where { pop cairo_selectfont } if } bind def
/g { setgray } bind def
/rg { setrgbcolor } bind def
/d1 { setcachedevice } bind def
%%EndProlog
%%Page: 1 1
%%BeginPageSetup
%%PageBoundingBox: 0 -1 302 314
%%EndPageSetup
q 0 -1 302 315 rectclip q
0 313.567 302 -314 re W n
0 g
107.852 242.001 m 109.59 238.427 108.18 234.118 104.605 232.376 c 
67.621 214.38 44.801 177.665 44.801 136.559 c 44.801 107.493 l 44.801 
103.516 41.27 99.997 37.293 99.997 c 22.281 99.997 l 10.035 99.997 0 
110.259 0 122.501 c 0 155.337 l 0 165.013 6.23 173.509 15.461 176.481 c 
19.242 177.7 23.328 175.622 24.547 171.833 c 25.766 168.048 23.668 
163.993 19.883 162.774 c 16.676 161.743 14.398 158.684 14.398 155.337 c 
14.398 122.501 l 14.398 118.196 17.977 114.399 22.281 114.399 c 30.398 
114.399 l 30.398 136.559 l 30.398 159.669 36.789 182.138 49.172 201.532 
c 61.219 220.403 78.055 235.544 98.148 245.325 c 101.723 247.067 
106.109 245.579 107.852 242.001 c h
189.539 226.356 m 193.078 229.962 196.418 233.368 196.418 241.47 c 
196.418 252.716 187.27 261.864 176.023 261.864 c 164.773 261.864 
155.625 252.716 155.625 241.47 c 155.625 237.493 158.848 234.27 162.828 
234.27 c 166.805 234.27 170.027 237.493 170.027 241.47 c 170.027 
244.774 172.715 247.466 176.023 247.466 c 179.328 247.466 182.02 
244.774 182.02 241.47 c 182.02 239.251 182.02 239.251 179.262 236.438 c 
178.84 236.009 178.395 235.555 177.918 235.059 c 157.707 213.962 l 
157.652 213.899 157.602 213.841 157.602 213.778 c 157.602 213.774 
157.531 213.766 157.527 213.763 c 157.523 213.763 157.492 213.759 
157.488 213.755 c 157.484 213.755 157.469 213.751 157.469 213.747 c 
156.91 213.122 156.473 212.423 156.168 211.688 c 155.824 210.845 
155.629 209.923 155.629 208.958 c 155.629 207.946 155.836 206.985 
156.215 206.11 c 156.582 205.255 157.004 204.454 157.719 203.766 c 
157.719 203.766 157.602 203.763 157.602 203.763 c 157.602 203.755 
157.734 203.997 157.738 203.997 c 157.797 203.997 l 157.805 203.997 
157.84 203.864 157.844 203.856 c 157.844 203.856 157.859 203.794 
157.859 203.794 c 158.566 203.126 159.383 202.595 160.238 202.266 c 
160.945 201.993 161.711 201.813 162.504 201.778 c 162.512 201.778 
162.52 201.692 162.527 201.692 c 162.625 201.688 162.727 201.598 
162.824 201.598 c 188.711 201.598 l 192.688 201.598 195.91 204.821 
195.91 208.798 c 195.91 212.774 192.688 215.997 188.711 215.997 c 
179.727 215.997 l 188.305 225.001 l 188.742 225.458 189.152 225.958 
189.539 226.356 c h
301.602 155.337 m 301.602 122.505 l 301.602 110.259 291.965 100.001 
279.719 100.001 c 266.422 100.001 l 262.051 86.399 255.125 73.22 
245.789 61.45 c 230.457 42.11 209.355 28.048 185.887 20.97 c 184.832 
9.122 174.852 0.001 162.738 0.001 c 139.262 0.001 l 126.445 0.001 
116.023 10.388 116.023 23.2 c 116.023 36.016 126.445 46.399 139.262 
46.399 c 162.738 46.399 l 171.172 46.399 178.574 41.731 182.645 34.989 
c 227.023 48.72 257.508 89.548 257.508 136.559 c 257.508 147.192 
255.961 157.614 252.898 167.645 c 238.961 156.622 221.363 150.036 
202.258 150.036 c 157.168 150.036 120.48 186.712 120.48 231.802 c 
120.48 276.891 157.168 313.567 202.258 313.567 c 247.348 313.567 
284.031 276.864 284.031 231.774 c 284.031 211.505 276.621 192.899 
264.363 178.598 c 269.371 165.134 271.91 150.903 271.91 136.411 c 
271.91 128.989 271.254 121.598 269.961 114.399 c 279.719 114.399 l 
284.023 114.399 287.199 118.196 287.199 122.505 c 287.199 155.337 l 
287.199 158.684 285.082 161.743 281.875 162.774 c 278.094 163.993 
276.133 168.048 277.352 171.837 c 278.57 175.622 282.543 177.7 286.328 
176.481 c 295.562 173.513 301.602 165.013 301.602 155.337 c h
171.578 23.083 m 171.578 23.669 171.523 24.087 171.41 24.641 c 171.395 
24.727 171.375 24.891 171.359 24.973 c 170.461 28.903 166.938 31.997 
162.742 31.997 c 139.262 31.997 l 134.391 31.997 130.426 28.075 130.426 
23.2 c 130.426 18.325 134.391 14.399 139.262 14.399 c 162.742 14.399 l 
167.613 14.399 171.578 18.208 171.578 23.083 c h
269.633 231.813 m 269.633 268.962 239.406 299.184 202.258 299.184 c 
165.105 299.184 134.883 268.962 134.883 231.813 c 134.883 194.661 
165.105 164.438 202.258 164.438 c 239.406 164.438 269.633 194.661 
269.633 231.813 c h
241.645 261.598 m 241.668 261.598 l 241.633 261.598 l 237.656 261.598 
234.402 258.641 234.402 254.665 c 234.402 241.298 l 234.402 238.059 
231.66 235.442 228.402 235.442 c 225.098 235.442 222.402 238.134 
222.402 241.438 c 222.402 254.665 l 222.402 258.641 219.18 261.864 
215.203 261.864 c 211.227 261.864 208 258.641 208 254.665 c 208 241.438 
l 208 230.192 217.156 221.044 228.402 221.044 c 230.488 221.044 232.801 
221.36 234.402 221.942 c 234.402 208.958 l 234.402 204.981 237.625 
201.759 241.602 201.759 c 245.578 201.759 248.801 204.981 248.801 
208.958 c 248.801 254.665 l 248.801 258.641 245.621 261.598 241.645 
261.598 c h
241.645 261.598 m f
Q Q
showpage
%%Trailer
count op_count sub {pop} repeat
countdictstack dict_count sub {end} repeat
cairo_eps_state restore
%%EOF
