%!PS-Adobe-3.0 EPSF-3.0
%%Creator: cairo 1.10.2 (http://cairographics.org)
%%CreationDate: Thu Aug 13 09:20:46 2015
%%Pages: 1
%%BoundingBox: 0 -1 302 259
%%DocumentData: Clean7Bit
%%LanguageLevel: 2
%%EndComments
%%BeginProlog
/cairo_eps_state save def
/dict_count countdictstack def
/op_count count 1 sub def
userdict begin
/q { gsave } bind def
/Q { grestore } bind def
/cm { 6 array astore concat } bind def
/w { setlinewidth } bind def
/J { setlinecap } bind def
/j { setlinejoin } bind def
/M { setmiterlimit } bind def
/d { setdash } bind def
/m { moveto } bind def
/l { lineto } bind def
/c { curveto } bind def
/h { closepath } bind def
/re { exch dup neg 3 1 roll 5 3 roll moveto 0 rlineto
      0 exch rlineto 0 rlineto closepath } bind def
/S { stroke } bind def
/f { fill } bind def
/f* { eofill } bind def
/n { newpath } bind def
/W { clip } bind def
/W* { eoclip } bind def
/BT { } bind def
/ET { } bind def
/pdfmark where { pop globaldict /?pdfmark /exec load put }
    { globaldict begin /?pdfmark /pop load def /pdfmark
    /cleartomark load def end } ifelse
/BDC { mark 3 1 roll /BDC pdfmark } bind def
/EMC { mark /EMC pdfmark } bind def
/cairo_store_point { /cairo_point_y exch def /cairo_point_x exch def } def
/Tj { show currentpoint cairo_store_point } bind def
/TJ {
  {
    dup
    type /stringtype eq
    { show } { -0.001 mul 0 cairo_font_matrix dtransform rmoveto } ifelse
  } forall
  currentpoint cairo_store_point
} bind def
/cairo_selectfont { cairo_font_matrix aload pop pop pop 0 0 6 array astore
    cairo_font exch selectfont cairo_point_x cairo_point_y moveto } bind def
/Tf { pop /cairo_font exch def /cairo_font_matrix where
      { pop cairo_selectfont } if } bind def
/Td { matrix translate cairo_font_matrix matrix concatmatrix dup
      /cairo_font_matrix exch def dup 4 get exch 5 get cairo_store_point
      /cairo_font where { pop cairo_selectfont } if } bind def
/Tm { 2 copy 8 2 roll 6 array astore /cairo_font_matrix exch def
      cairo_store_point /cairo_font where { pop cairo_selectfont } if } bind def
/g { setgray } bind def
/rg { setrgbcolor } bind def
/d1 { setcachedevice } bind def
%%EndProlog
%%Page: 1 1
%%BeginPageSetup
%%PageBoundingBox: 0 -1 302 259
%%EndPageSetup
q 0 -1 302 260 rectclip q
0 258.05 302 -259 re W n
0 g
286.332 177.089 m 282.547 178.308 278.57 176.226 277.352 172.441 c 
276.133 168.656 278.094 164.601 281.879 163.382 c 285.086 162.351 
287.199 159.293 287.199 155.945 c 287.199 123.109 l 287.199 118.804 
284.023 115.199 279.719 115.199 c 269.961 115.199 l 271.254 122.398 
271.91 129.695 271.91 137.117 c 271.91 203.785 217.824 258.05 151.156 
258.05 c 84.484 258.05 30.398 203.836 30.398 137.168 c 30.398 115.199 l 
22.281 115.199 l 17.977 115.199 14.398 118.804 14.398 123.109 c 14.398 
155.945 l 14.398 159.293 16.676 162.351 19.883 163.382 c 23.668 164.601 
25.766 168.656 24.547 172.445 c 23.328 176.226 19.242 178.308 15.457 
177.089 c 6.23 174.117 0 165.621 0 155.945 c 0 123.109 l 0 110.863 
10.035 100.8 22.281 100.8 c 37.293 100.8 l 41.27 100.8 44.801 104.125 
44.801 108.101 c 44.801 137.168 l 44.801 195.898 92.426 243.675 151.156 
243.675 c 209.883 243.675 257.586 195.894 257.586 137.168 c 257.586 
90.156 227.062 49.023 182.684 35.293 c 178.609 42.031 171.172 46.398 
162.738 46.398 c 139.262 46.398 l 126.445 46.398 116.023 36.015 116.023 
23.199 c 116.023 10.386 126.445 -0 139.262 -0 c 162.738 -0 l 174.852 -0 
184.828 9.425 185.887 21.269 c 209.352 28.351 230.453 42.664 245.789 62 
c 255.121 73.769 262.051 87.199 266.422 100.8 c 279.719 100.8 l 291.965 
100.8 301.602 110.863 301.602 123.109 c 301.602 155.945 l 301.602 
165.621 295.562 174.117 286.332 177.089 c h
162.738 14.398 m 139.262 14.398 l 134.387 14.398 130.422 18.324 130.422 
23.203 c 130.422 28.074 134.387 32 139.262 32 c 162.738 32 l 166.945 32 
170.473 29.195 171.363 25.254 c 171.375 25.187 171.391 25.191 171.406 
25.125 c 171.52 24.562 171.578 23.906 171.578 23.312 c 171.578 18.437 
167.613 14.398 162.738 14.398 c h
162.738 14.398 m f
Q Q
showpage
%%Trailer
count op_count sub {pop} repeat
countdictstack dict_count sub {end} repeat
cairo_eps_state restore
%%EOF
