%!PS-Adobe-3.0 EPSF-3.0
%%Creator: cairo 1.10.2 (http://cairographics.org)
%%CreationDate: Thu Aug 13 09:20:19 2015
%%Pages: 1
%%BoundingBox: 0 -1 291 306
%%DocumentData: Clean7Bit
%%LanguageLevel: 2
%%EndComments
%%BeginProlog
/cairo_eps_state save def
/dict_count countdictstack def
/op_count count 1 sub def
userdict begin
/q { gsave } bind def
/Q { grestore } bind def
/cm { 6 array astore concat } bind def
/w { setlinewidth } bind def
/J { setlinecap } bind def
/j { setlinejoin } bind def
/M { setmiterlimit } bind def
/d { setdash } bind def
/m { moveto } bind def
/l { lineto } bind def
/c { curveto } bind def
/h { closepath } bind def
/re { exch dup neg 3 1 roll 5 3 roll moveto 0 rlineto
      0 exch rlineto 0 rlineto closepath } bind def
/S { stroke } bind def
/f { fill } bind def
/f* { eofill } bind def
/n { newpath } bind def
/W { clip } bind def
/W* { eoclip } bind def
/BT { } bind def
/ET { } bind def
/pdfmark where { pop globaldict /?pdfmark /exec load put }
    { globaldict begin /?pdfmark /pop load def /pdfmark
    /cleartomark load def end } ifelse
/BDC { mark 3 1 roll /BDC pdfmark } bind def
/EMC { mark /EMC pdfmark } bind def
/cairo_store_point { /cairo_point_y exch def /cairo_point_x exch def } def
/Tj { show currentpoint cairo_store_point } bind def
/TJ {
  {
    dup
    type /stringtype eq
    { show } { -0.001 mul 0 cairo_font_matrix dtransform rmoveto } ifelse
  } forall
  currentpoint cairo_store_point
} bind def
/cairo_selectfont { cairo_font_matrix aload pop pop pop 0 0 6 array astore
    cairo_font exch selectfont cairo_point_x cairo_point_y moveto } bind def
/Tf { pop /cairo_font exch def /cairo_font_matrix where
      { pop cairo_selectfont } if } bind def
/Td { matrix translate cairo_font_matrix matrix concatmatrix dup
      /cairo_font_matrix exch def dup 4 get exch 5 get cairo_store_point
      /cairo_font where { pop cairo_selectfont } if } bind def
/Tm { 2 copy 8 2 roll 6 array astore /cairo_font_matrix exch def
      cairo_store_point /cairo_font where { pop cairo_selectfont } if } bind def
/g { setgray } bind def
/rg { setrgbcolor } bind def
/d1 { setcachedevice } bind def
%%EndProlog
%%Page: 1 1
%%BeginPageSetup
%%PageBoundingBox: 0 -1 291 306
%%EndPageSetup
q 0 -1 291 307 rectclip q
0 305.136 291 -306 re W n
0 g
86.668 68.8 m 86.668 72.777 89.891 75.999 93.867 75.999 c 102.637 
75.999 l 106.613 75.999 109.836 72.777 109.836 68.8 c 109.836 64.824 
106.613 61.601 102.637 61.601 c 93.867 61.601 l 89.891 61.601 86.668 
64.824 86.668 68.8 c h
141.797 98.706 m 131.941 123.991 107.336 141.956 78.605 141.956 c 49.84 
141.956 25.195 123.949 15.367 98.613 c 5.984 96.628 0 91.062 0 84.167 c 
0 66.671 l 0 59.425 6.613 53.648 16.836 51.952 c 18.922 51.609 21.25 
52.199 22.863 53.566 c 24.477 54.933 25.602 56.941 25.602 59.058 c 
25.602 74.163 l 25.602 103.605 49.363 127.558 78.805 127.558 c 80.621 
127.558 82.324 127.464 84.098 127.288 c 76.68 115.288 65.598 106.605 
53.125 103.116 c 49.293 102.046 47.035 98.074 48.105 94.245 c 49.176 
90.413 53.137 88.175 56.969 89.249 c 74.297 94.097 89.344 106.593 
98.555 123.695 c 118.152 115.781 132.012 96.562 132.012 74.163 c 
132.012 51.163 117.461 31.074 96.086 23.718 c 93.684 25.866 90.512 
27.199 87.043 27.199 c 70.188 27.199 l 62.703 27.199 56.613 21.085 
56.613 13.601 c 56.613 6.116 62.703 -0.001 70.188 -0.001 c 87.043 
-0.001 l 93.238 -0.001 98.477 4.167 100.102 9.847 c 120.527 16.636 
136.125 32.558 142.816 52.355 c 151.875 54.441 157.598 59.917 157.598 
66.671 c 157.598 84.167 l 157.598 91.175 151.441 96.808 141.797 98.706 
c h
12 137.925 m 15.977 137.925 19.199 141.148 19.199 145.124 c 19.199 
225.601 l 84.605 225.601 l 83.863 225.011 l 81.016 222.234 80.961 
217.741 83.738 214.894 c 86.516 212.046 91.074 212.027 93.918 214.804 c 
107.227 227.804 l 107.305 227.874 107.223 227.956 107.293 228.031 c 
108.066 228.824 108.801 229.753 108.801 230.734 c 108.801 230.738 l 
108.801 230.741 108.961 230.745 108.961 230.753 c 109.176 231.382 
109.434 232.05 109.465 232.745 c 109.469 232.851 109.598 232.956 
109.598 233.062 c 109.598 233.413 l 109.598 234.101 109.383 234.765 
109.172 235.386 c 109.172 235.39 109.141 235.39 109.141 235.394 c 
109.141 235.394 109.125 235.398 109.125 235.402 c 108.789 236.382 
108.23 237.308 107.457 238.097 c 107.387 238.171 107.309 238.245 
107.234 238.316 c 93.922 251.304 l 91.074 254.077 86.516 254.023 83.738 
251.175 c 80.961 248.331 81.02 243.636 83.863 240.859 c 84.605 239.999 
l 12.004 239.999 l 11.953 239.999 11.977 240.136 11.926 240.136 c 7.949 
240.136 4.801 237.046 4.801 233.07 c 4.801 145.124 l 4.801 141.148 
8.023 137.925 12 137.925 c h
70.988 68.8 m 70.988 72.777 67.766 75.999 63.789 75.999 c 55.016 75.999 
l 51.039 75.999 47.816 72.777 47.816 68.8 c 47.816 64.824 51.039 61.601 
55.016 61.601 c 63.789 61.601 l 67.762 61.601 70.988 64.824 70.988 68.8 
c h
205.613 155.683 m 174.945 155.683 149.367 177.902 144.125 207.085 c 
143.875 207.034 143.617 206.999 143.355 206.98 c 139.398 206.644 135.91 
209.589 135.578 213.55 c 134.641 224.687 l 134.309 228.648 137.25 
232.132 141.211 232.464 c 142.426 232.57 143.594 232.359 144.641 
231.913 c 145.781 237.011 147.551 241.929 149.941 246.581 c 149.664 
246.808 149.387 247.054 149.148 247.324 c 148.883 247.616 148.613 
247.929 148.402 248.257 c 147.719 249.32 147.199 250.577 147.199 
251.925 c 147.199 251.941 l 147.199 252.011 147.266 252.066 147.266 
252.136 c 147.266 252.429 147.355 252.706 147.391 252.991 c 150.625 
282.745 175.633 305.136 205.613 305.136 c 233.438 305.136 256.977 
285.601 262.809 259.199 c 282.125 259.199 l 286.102 259.199 289.328 
255.976 289.328 251.999 c 289.328 248.023 286.102 244.8 282.125 244.8 c 
262.082 244.8 l 264.066 240.8 265.57 236.347 266.578 231.843 c 267.629 
232.292 268.797 232.566 270.012 232.464 c 273.977 232.132 276.918 
228.648 276.586 224.687 c 275.648 213.55 l 275.312 209.589 271.82 
206.652 267.871 206.98 c 267.609 206.999 267.352 207.034 267.102 
207.085 c 261.863 177.902 236.285 155.683 205.613 155.683 c h
163.285 259.199 m 247.945 259.199 l 242.473 277.601 225.492 290.667 
205.613 290.667 c 185.734 290.667 168.758 277.601 163.285 259.199 c h
205.613 170.015 m 232.121 170.015 253.684 191.581 253.684 218.085 c 
253.684 227.757 250.879 236.8 245.539 244.8 c 165.691 244.8 l 160.348 
236.8 157.543 227.761 157.543 218.085 c 157.543 191.581 179.109 170.015 
205.613 170.015 c h
219.527 212.8 m 227.527 212.8 l 231.504 212.8 234.727 216.023 234.727 
219.999 c 234.727 223.976 231.504 227.199 227.527 227.199 c 219.527 
227.199 l 215.551 227.199 212.328 223.976 212.328 219.999 c 212.328 
216.023 215.551 212.8 219.527 212.8 c h
214.816 191.199 m 214.816 195.175 211.594 198.402 207.613 198.402 c 
203.613 198.402 l 199.637 198.402 196.414 195.175 196.414 191.199 c 
196.414 187.222 199.637 183.999 203.613 183.999 c 207.613 183.999 l 
211.59 183.999 214.816 187.222 214.816 191.199 c h
283.199 172.23 m 279.223 172.23 276 169.007 276 165.031 c 276 83.999 l 
210.82 83.999 l 211.562 84.866 l 214.41 87.644 214.465 92.273 211.688 
95.12 c 208.91 97.968 204.355 98.058 201.508 95.281 c 188.199 82.316 l 
188.121 82.241 188.047 82.179 187.973 82.105 c 187.219 81.331 186.672 
80.433 186.336 79.476 c 186.082 78.761 185.773 77.991 185.766 77.191 c 
185.598 77.191 l 185.598 77.085 l 185.598 76.241 185.906 75.433 186.172 
74.683 c 186.176 74.683 186.258 74.679 186.258 74.679 c 186.258 74.675 
186.301 74.671 186.301 74.671 c 186.641 73.718 187.203 72.824 187.953 
72.054 c 188.027 71.98 188.109 71.909 188.184 71.839 c 201.5 58.851 l 
202.902 57.488 204.719 56.808 206.531 56.808 c 208.402 56.808 210.273 
57.531 211.688 58.98 c 214.465 61.827 214.406 66.241 211.562 69.019 c 
210.82 69.601 l 283.422 69.601 l 287.488 69.601 290.398 73.058 290.398 
77.085 c 290.398 165.031 l 290.398 169.003 287.176 172.23 283.199 
172.23 c h
199.289 219.999 m 199.289 223.976 196.066 227.199 192.09 227.199 c 
184.09 227.199 l 180.109 227.199 176.887 223.976 176.887 219.999 c 
176.887 216.023 180.109 212.8 184.09 212.8 c 192.09 212.8 l 196.066 
212.8 199.289 216.023 199.289 219.999 c h
199.289 219.999 m f
Q Q
showpage
%%Trailer
count op_count sub {pop} repeat
countdictstack dict_count sub {end} repeat
cairo_eps_state restore
%%EOF
