%!PS-Adobe-3.0 EPSF-3.0
%%Creator: cairo 1.10.2 (http://cairographics.org)
%%CreationDate: Thu Aug 13 09:20:11 2015
%%Pages: 1
%%BoundingBox: 0 -1 310 274
%%DocumentData: Clean7Bit
%%LanguageLevel: 2
%%EndComments
%%BeginProlog
/cairo_eps_state save def
/dict_count countdictstack def
/op_count count 1 sub def
userdict begin
/q { gsave } bind def
/Q { grestore } bind def
/cm { 6 array astore concat } bind def
/w { setlinewidth } bind def
/J { setlinecap } bind def
/j { setlinejoin } bind def
/M { setmiterlimit } bind def
/d { setdash } bind def
/m { moveto } bind def
/l { lineto } bind def
/c { curveto } bind def
/h { closepath } bind def
/re { exch dup neg 3 1 roll 5 3 roll moveto 0 rlineto
      0 exch rlineto 0 rlineto closepath } bind def
/S { stroke } bind def
/f { fill } bind def
/f* { eofill } bind def
/n { newpath } bind def
/W { clip } bind def
/W* { eoclip } bind def
/BT { } bind def
/ET { } bind def
/pdfmark where { pop globaldict /?pdfmark /exec load put }
    { globaldict begin /?pdfmark /pop load def /pdfmark
    /cleartomark load def end } ifelse
/BDC { mark 3 1 roll /BDC pdfmark } bind def
/EMC { mark /EMC pdfmark } bind def
/cairo_store_point { /cairo_point_y exch def /cairo_point_x exch def } def
/Tj { show currentpoint cairo_store_point } bind def
/TJ {
  {
    dup
    type /stringtype eq
    { show } { -0.001 mul 0 cairo_font_matrix dtransform rmoveto } ifelse
  } forall
  currentpoint cairo_store_point
} bind def
/cairo_selectfont { cairo_font_matrix aload pop pop pop 0 0 6 array astore
    cairo_font exch selectfont cairo_point_x cairo_point_y moveto } bind def
/Tf { pop /cairo_font exch def /cairo_font_matrix where
      { pop cairo_selectfont } if } bind def
/Td { matrix translate cairo_font_matrix matrix concatmatrix dup
      /cairo_font_matrix exch def dup 4 get exch 5 get cairo_store_point
      /cairo_font where { pop cairo_selectfont } if } bind def
/Tm { 2 copy 8 2 roll 6 array astore /cairo_font_matrix exch def
      cairo_store_point /cairo_font where { pop cairo_selectfont } if } bind def
/g { setgray } bind def
/rg { setrgbcolor } bind def
/d1 { setcachedevice } bind def
%%EndProlog
%%Page: 1 1
%%BeginPageSetup
%%PageBoundingBox: 0 -1 310 274
%%EndPageSetup
q 0 -1 310 275 rectclip q
0 273.544 310 -274 re W n
0 g
75.16 107.966 m 60.055 107.966 47.766 95.677 47.766 80.571 c 47.766 
65.466 60.055 53.177 75.16 53.177 c 90.266 53.177 102.555 65.466 
102.555 80.571 c 102.555 95.677 90.266 107.966 75.16 107.966 c h
75.16 67.575 m 67.996 67.575 62.164 73.407 62.164 80.571 c 62.164 
87.735 67.996 93.567 75.16 93.567 c 82.324 93.567 88.156 87.735 88.156 
80.571 c 88.156 73.407 82.324 67.575 75.16 67.575 c h
301.863 273.544 m 14.828 273.544 l 10.852 273.544 7.543 270.087 7.543 
266.11 c 7.543 157.341 l 7.543 153.364 10.766 150.142 14.742 150.142 c 
18.719 150.142 21.941 153.364 21.941 157.341 c 21.941 227.044 l 152.312 
150.739 l 154.527 149.442 157.324 149.423 159.559 150.689 c 294.742 
227.247 l 294.742 62.345 l 173.25 62.345 l 169.273 62.345 166.051 
59.122 166.051 55.146 c 166.051 51.169 169.273 47.942 173.25 47.942 c 
301.863 47.942 l 305.84 47.942 309.145 51.56 309.145 55.536 c 309.145 
266.11 l 309.141 270.087 305.84 273.544 301.863 273.544 c h
294.742 243.798 m 156.047 165.259 l 21.941 243.732 l 21.941 259.146 l 
294.742 259.146 l h
145.809 66.185 m 136.504 72.923 l 136.816 75.454 136.973 78.009 136.973 
80.564 c 136.973 83.079 136.82 85.595 136.52 88.087 c 145.824 94.829 l 
148.203 96.38 151.445 100.028 149.891 108.079 c 149.148 111.935 147.367 
116.435 144.875 120.751 c 137.969 132.712 129.598 137.946 122.918 
134.54 c 112.453 129.864 l 108.375 132.958 103.961 135.513 99.262 
137.501 c 98.086 148.841 l 97.73 156.353 89.016 160.997 75.16 160.997 c 
61.344 160.997 52.625 156.368 52.238 148.876 c 51.059 137.501 l 46.359 
135.513 41.945 132.958 37.867 129.864 c 27.422 134.532 l 24.891 135.817 
20.105 136.802 13.91 131.431 c 10.941 128.857 7.938 125.064 5.445 
120.751 c -1.465 108.782 -1.812 98.911 4.488 94.833 c 13.801 88.083 l 
13.5 85.591 13.348 83.075 13.348 80.564 c 13.348 78.009 13.504 75.454 
13.816 72.923 c 4.492 66.169 l -1.812 62.091 -1.469 52.22 5.445 40.251 
c 7.938 35.935 10.945 32.142 13.91 29.571 c 20.105 24.2 24.891 25.181 
27.422 26.47 c 37.977 31.185 l 42.02 28.13 46.395 25.603 51.043 23.634 
c 52.238 12.134 l 52.621 4.638 61.34 0.001 75.16 0.001 c 89.016 0.001 
97.73 4.646 98.086 12.161 c 99.277 23.634 l 103.93 25.603 108.301 28.13 
112.348 31.185 c 122.91 26.462 l 129.594 23.052 137.965 28.282 144.875 
40.251 c 151.801 52.247 152.137 62.118 145.809 66.185 c h
121.652 89.911 m 122.262 86.857 122.574 83.712 122.574 80.564 c 122.574 
77.384 122.258 74.204 121.633 71.114 c 121.078 68.353 122.184 65.517 
124.469 63.864 c 135.766 55.677 l 135.434 53.993 134.473 51.036 132.406 
47.45 c 130.336 43.864 128.254 41.552 126.957 40.427 c 114.172 46.138 l 
111.598 47.29 108.594 46.833 106.477 44.97 c 101.711 40.771 96.258 
37.622 90.277 35.61 c 87.605 34.712 85.703 32.337 85.41 29.528 c 83.965 
15.603 l 82.34 15.048 79.297 14.399 75.16 14.399 c 71.02 14.399 67.98 
15.048 66.355 15.607 c 64.91 29.528 l 64.617 32.337 62.715 34.712 
60.043 35.61 c 54.062 37.622 48.613 40.771 43.844 44.97 c 41.727 46.833 
38.719 47.29 36.148 46.142 c 23.363 40.427 l 22.066 41.556 19.984 
43.868 17.918 47.45 c 15.848 51.036 14.887 53.993 14.555 55.681 c 
25.855 63.864 l 28.137 65.521 29.246 68.357 28.688 71.122 c 28.062 
74.212 27.75 77.388 27.75 80.564 c 27.75 83.708 28.059 86.853 28.668 
89.911 c 29.219 92.673 28.113 95.501 25.832 97.153 c 14.559 105.321 l 
14.887 107.009 15.848 109.966 17.918 113.552 c 19.988 117.134 22.066 
119.446 23.363 120.575 c 36.051 114.903 l 38.629 113.755 41.645 114.216 
43.758 116.087 c 48.551 120.325 54.031 123.501 60.055 125.521 c 62.73 
126.423 64.633 128.798 64.926 131.607 c 66.355 145.396 l 67.98 145.954 
71.023 146.603 75.164 146.603 c 79.301 146.603 82.344 145.954 83.965 
145.396 c 85.398 131.607 l 85.691 128.798 87.594 126.423 90.27 125.524 
c 96.289 123.501 101.77 120.325 106.562 116.087 c 108.68 114.216 
111.691 113.755 114.27 114.907 c 126.961 120.575 l 128.254 119.446 
130.336 117.138 132.406 113.552 c 134.477 109.97 135.434 107.009 
135.766 105.325 c 124.488 97.153 l 122.207 95.501 121.102 92.673 
121.652 89.911 c h
121.652 89.911 m f
Q Q
showpage
%%Trailer
count op_count sub {pop} repeat
countdictstack dict_count sub {end} repeat
cairo_eps_state restore
%%EOF
