%!PS-Adobe-3.0 EPSF-3.0
%%Creator: cairo 1.10.2 (http://cairographics.org)
%%CreationDate: Thu Aug 13 09:20:51 2015
%%Pages: 1
%%BoundingBox: 0 -1 302 314
%%DocumentData: Clean7Bit
%%LanguageLevel: 2
%%EndComments
%%BeginProlog
/cairo_eps_state save def
/dict_count countdictstack def
/op_count count 1 sub def
userdict begin
/q { gsave } bind def
/Q { grestore } bind def
/cm { 6 array astore concat } bind def
/w { setlinewidth } bind def
/J { setlinecap } bind def
/j { setlinejoin } bind def
/M { setmiterlimit } bind def
/d { setdash } bind def
/m { moveto } bind def
/l { lineto } bind def
/c { curveto } bind def
/h { closepath } bind def
/re { exch dup neg 3 1 roll 5 3 roll moveto 0 rlineto
      0 exch rlineto 0 rlineto closepath } bind def
/S { stroke } bind def
/f { fill } bind def
/f* { eofill } bind def
/n { newpath } bind def
/W { clip } bind def
/W* { eoclip } bind def
/BT { } bind def
/ET { } bind def
/pdfmark where { pop globaldict /?pdfmark /exec load put }
    { globaldict begin /?pdfmark /pop load def /pdfmark
    /cleartomark load def end } ifelse
/BDC { mark 3 1 roll /BDC pdfmark } bind def
/EMC { mark /EMC pdfmark } bind def
/cairo_store_point { /cairo_point_y exch def /cairo_point_x exch def } def
/Tj { show currentpoint cairo_store_point } bind def
/TJ {
  {
    dup
    type /stringtype eq
    { show } { -0.001 mul 0 cairo_font_matrix dtransform rmoveto } ifelse
  } forall
  currentpoint cairo_store_point
} bind def
/cairo_selectfont { cairo_font_matrix aload pop pop pop 0 0 6 array astore
    cairo_font exch selectfont cairo_point_x cairo_point_y moveto } bind def
/Tf { pop /cairo_font exch def /cairo_font_matrix where
      { pop cairo_selectfont } if } bind def
/Td { matrix translate cairo_font_matrix matrix concatmatrix dup
      /cairo_font_matrix exch def dup 4 get exch 5 get cairo_store_point
      /cairo_font where { pop cairo_selectfont } if } bind def
/Tm { 2 copy 8 2 roll 6 array astore /cairo_font_matrix exch def
      cairo_store_point /cairo_font where { pop cairo_selectfont } if } bind def
/g { setgray } bind def
/rg { setrgbcolor } bind def
/d1 { setcachedevice } bind def
%%EndProlog
%%Page: 1 1
%%BeginPageSetup
%%PageBoundingBox: 0 -1 302 314
%%EndPageSetup
q 0 -1 302 315 rectclip q
0 313.599 302 -314 re W n
0 g
107.848 242.002 m 109.59 238.427 108.18 234.119 104.602 232.377 c 
67.621 214.38 44.801 177.666 44.801 136.56 c 44.801 107.494 l 44.801 
103.517 41.27 99.998 37.293 99.998 c 22.281 99.998 l 10.035 99.998 0 
110.259 0 122.505 c 0 155.337 l 0 165.013 6.23 173.509 15.461 176.482 c 
19.242 177.701 23.328 175.623 24.547 171.837 c 25.766 168.052 23.668 
163.994 19.883 162.775 c 16.676 161.744 14.398 158.685 14.398 155.337 c 
14.398 122.505 l 14.398 118.197 17.977 114.4 22.281 114.4 c 30.398 
114.4 l 30.398 136.56 l 30.398 159.673 36.789 182.138 49.172 201.533 c 
61.219 220.404 78.055 235.548 98.145 245.326 c 101.723 247.068 106.109 
245.58 107.848 242.002 c h
301.602 155.337 m 301.602 122.505 l 301.602 110.259 291.965 99.998 
279.719 99.998 c 266.422 99.998 l 262.055 86.4 255.125 73.216 245.789 
61.447 c 230.457 42.111 209.355 28.048 185.887 20.966 c 184.832 9.123 
174.852 0.002 162.738 0.002 c 139.262 0.002 l 126.445 0.002 116.023 
10.384 116.023 23.201 c 116.023 36.013 126.445 46.4 139.262 46.4 c 
162.738 46.4 l 171.172 46.4 178.574 41.732 182.645 34.99 c 227.023 
48.72 257.508 89.548 257.508 136.56 c 257.508 147.209 255.961 157.627 
252.898 167.65 c 238.965 156.627 221.363 150.041 202.258 150.041 c 
162.961 150.041 130.047 177.904 122.238 214.912 c 122.223 214.986 
122.207 215.056 122.191 215.13 c 121.703 217.486 121.316 219.869 
121.035 222.271 c 120.672 225.404 120.484 228.587 120.484 231.814 c 
120.484 245.513 123.871 258.439 129.852 269.795 c 129.93 269.974 
130.016 270.154 130.109 270.33 c 141.805 292.193 162.477 307.275 
186.191 312.009 c 191.273 313.025 196.523 313.599 201.891 313.599 c 
202.625 313.599 l 207.961 313.599 213.176 313.033 218.227 312.029 c 
241.98 307.314 262.695 292.216 274.406 270.326 c 274.496 270.154 
274.582 269.974 274.66 269.798 c 280.641 258.443 284.031 245.509 
284.031 231.806 c 284.031 228.412 283.824 225.064 283.418 221.775 c 
283.145 219.537 282.777 217.306 282.324 215.111 c 282.309 215.029 
282.289 214.931 282.27 214.849 c 279.391 201.228 273.109 188.81 264.363 
178.599 c 269.371 165.146 271.91 150.923 271.91 136.412 c 271.91 128.99 
271.254 121.599 269.961 114.4 c 279.719 114.4 l 284.023 114.4 287.199 
118.197 287.199 122.505 c 287.199 155.337 l 287.199 158.685 285.082 
161.744 281.875 162.775 c 278.094 163.994 276.133 168.052 277.355 
171.837 c 278.57 175.623 282.547 177.701 286.332 176.482 c 295.562 
173.513 301.602 165.013 301.602 155.337 c h
171.578 23.084 m 171.578 23.67 171.523 24.087 171.41 24.642 c 171.395 
24.728 171.375 24.892 171.359 24.974 c 170.461 28.904 166.938 31.998 
162.742 31.998 c 139.262 31.998 l 134.391 31.998 130.426 28.076 130.426 
23.201 c 130.426 18.326 134.391 14.4 139.262 14.4 c 162.742 14.4 l 
167.613 14.4 171.578 18.209 171.578 23.084 c h
237.684 251.033 m 238.305 244.814 238.625 238.369 238.625 231.81 c 
238.625 225.134 238.293 218.572 237.648 212.248 c 248.703 214.377 
259.199 217.525 268.863 221.63 c 269.098 223.17 269.281 224.728 269.406 
226.298 c 269.559 228.13 269.633 229.97 269.633 231.81 c 269.633 241.06 
267.762 249.873 264.375 257.904 c 255.898 254.982 246.949 252.685 
237.684 251.033 c h
226.125 294.822 m 227.352 292.474 228.508 289.92 229.586 287.166 c 
232.125 280.677 234.164 273.291 235.66 265.298 c 243.125 266.65 250.352 
268.455 257.246 270.701 c 249.555 281.545 238.742 290.025 226.125 
294.822 c h
183.121 263.298 m 195.691 262.041 208.824 262.037 221.395 263.298 c 
220.082 270.13 218.328 276.416 216.176 281.923 c 211.191 294.666 
205.562 299.185 202.258 299.185 c 198.953 299.185 193.324 294.666 
188.34 281.923 c 186.188 276.416 184.434 270.13 183.121 263.298 c h
135.734 221.634 m 145.398 217.525 155.812 214.38 166.867 212.248 c 
166.227 218.572 165.898 225.134 165.898 231.814 c 165.898 238.373 
166.223 244.818 166.84 251.033 c 157.578 252.685 148.637 254.986 140.16 
257.904 c 136.777 249.877 134.926 241.056 134.926 231.814 c 134.926 
230.295 135.016 228.775 135.117 227.263 c 135.117 227.255 135.199 
227.244 135.199 227.236 c 135.199 227.22 l 135.199 225.334 135.453 
223.474 135.734 221.634 c h
178.391 168.806 m 177.164 171.15 176.008 173.705 174.93 176.459 c 
172.508 182.646 170.539 189.658 169.066 197.228 c 159.23 198.857 
149.746 201.216 140.77 204.275 c 148.078 188.021 161.648 175.166 
178.391 168.806 c h
178.391 294.822 m 165.773 290.025 154.961 281.545 147.27 270.701 c 
154.164 268.455 161.391 266.65 168.855 265.298 c 170.352 273.291 
172.391 280.681 174.93 287.166 c 176.008 289.92 177.164 292.474 178.391 
294.822 c h
220.332 195.326 m 208.449 194.291 196.066 194.291 184.184 195.326 c 
185.332 190.412 186.723 185.837 188.34 181.705 c 193.324 168.959 
198.953 164.439 202.258 164.439 c 205.562 164.439 211.191 168.959 
216.176 181.705 c 217.793 185.837 219.184 190.412 220.332 195.326 c h
224.223 231.814 m 224.223 237.705 223.949 243.478 223.418 249.033 c 
209.508 247.595 195.008 247.595 181.098 249.033 c 180.566 243.478 
180.293 237.705 180.293 231.814 c 180.293 224.295 180.738 216.974 
181.598 210.045 c 188.348 209.318 195.254 208.947 202.258 208.947 c 
209.262 208.947 216.168 209.318 222.918 210.045 c 223.777 216.97 
224.223 224.295 224.223 231.814 c h
263.746 204.275 m 254.77 201.216 245.289 198.857 235.453 197.228 c 
233.977 189.658 232.008 182.646 229.586 176.459 c 228.512 173.705 
227.355 171.15 226.125 168.806 c 242.867 175.166 256.438 188.021 
263.746 204.275 c h
263.746 204.275 m f
Q Q
showpage
%%Trailer
count op_count sub {pop} repeat
countdictstack dict_count sub {end} repeat
cairo_eps_state restore
%%EOF
