%!PS-Adobe-3.0 EPSF-3.0
%%Creator: cairo 1.10.2 (http://cairographics.org)
%%CreationDate: Thu Aug 13 09:20:14 2015
%%Pages: 1
%%BoundingBox: 0 -1 302 313
%%DocumentData: Clean7Bit
%%LanguageLevel: 2
%%EndComments
%%BeginProlog
/cairo_eps_state save def
/dict_count countdictstack def
/op_count count 1 sub def
userdict begin
/q { gsave } bind def
/Q { grestore } bind def
/cm { 6 array astore concat } bind def
/w { setlinewidth } bind def
/J { setlinecap } bind def
/j { setlinejoin } bind def
/M { setmiterlimit } bind def
/d { setdash } bind def
/m { moveto } bind def
/l { lineto } bind def
/c { curveto } bind def
/h { closepath } bind def
/re { exch dup neg 3 1 roll 5 3 roll moveto 0 rlineto
      0 exch rlineto 0 rlineto closepath } bind def
/S { stroke } bind def
/f { fill } bind def
/f* { eofill } bind def
/n { newpath } bind def
/W { clip } bind def
/W* { eoclip } bind def
/BT { } bind def
/ET { } bind def
/pdfmark where { pop globaldict /?pdfmark /exec load put }
    { globaldict begin /?pdfmark /pop load def /pdfmark
    /cleartomark load def end } ifelse
/BDC { mark 3 1 roll /BDC pdfmark } bind def
/EMC { mark /EMC pdfmark } bind def
/cairo_store_point { /cairo_point_y exch def /cairo_point_x exch def } def
/Tj { show currentpoint cairo_store_point } bind def
/TJ {
  {
    dup
    type /stringtype eq
    { show } { -0.001 mul 0 cairo_font_matrix dtransform rmoveto } ifelse
  } forall
  currentpoint cairo_store_point
} bind def
/cairo_selectfont { cairo_font_matrix aload pop pop pop 0 0 6 array astore
    cairo_font exch selectfont cairo_point_x cairo_point_y moveto } bind def
/Tf { pop /cairo_font exch def /cairo_font_matrix where
      { pop cairo_selectfont } if } bind def
/Td { matrix translate cairo_font_matrix matrix concatmatrix dup
      /cairo_font_matrix exch def dup 4 get exch 5 get cairo_store_point
      /cairo_font where { pop cairo_selectfont } if } bind def
/Tm { 2 copy 8 2 roll 6 array astore /cairo_font_matrix exch def
      cairo_store_point /cairo_font where { pop cairo_selectfont } if } bind def
/g { setgray } bind def
/rg { setrgbcolor } bind def
/d1 { setcachedevice } bind def
%%EndProlog
%%Page: 1 1
%%BeginPageSetup
%%PageBoundingBox: 0 -1 302 313
%%EndPageSetup
q 0 -1 302 314 rectclip q
0 312.981 302 -313 re W n
0 g
112.668 236.508 m 71.98 220.735 44.801 180.813 44.801 137.164 c 44.801 
108.102 l 44.801 104.121 41.266 100.797 37.289 100.797 c 22.281 100.797 
l 10.035 100.797 0 110.864 0 123.11 c 0 155.942 l 0 165.618 6.23 
174.118 15.457 177.086 c 19.246 178.305 23.328 176.223 24.547 172.442 c 
25.766 168.657 23.668 164.598 19.879 163.379 c 16.676 162.348 14.398 
159.289 14.398 155.942 c 14.398 123.11 l 14.398 118.801 17.977 115.2 
22.281 115.2 c 30.398 115.2 l 30.398 137.164 l 30.398 162.032 37.738 
185.922 51.914 206.25 c 65.766 226.11 84.82 241.215 107.309 249.934 c 
111.016 251.371 115.188 249.532 116.625 245.821 c 118.062 242.118 
116.375 237.946 112.668 236.508 c h
229.652 232.41 m 229.652 217.305 217.363 205.016 202.258 205.016 c 
187.152 205.016 174.863 217.305 174.863 232.41 c 174.863 247.516 
187.152 259.805 202.258 259.805 c 217.363 259.805 229.652 247.516 
229.652 232.41 c h
215.254 232.41 m 215.254 239.575 209.422 245.403 202.258 245.403 c 
195.094 245.403 189.262 239.575 189.262 232.41 c 189.262 225.246 
195.094 219.414 202.258 219.414 c 209.422 219.414 215.254 225.246 
215.254 232.41 c h
301.602 155.942 m 301.602 123.11 l 301.602 110.864 291.965 100.801 
279.719 100.801 c 266.418 100.801 l 262.051 87.2 255.121 73.77 245.789 
62 c 230.453 42.66 209.352 28.352 185.887 21.27 c 184.832 9.426 174.852 
0 162.738 0 c 139.262 0 l 126.445 0 116.023 10.387 116.023 23.2 c 
116.023 36.016 126.445 46.399 139.262 46.399 c 162.738 46.399 l 171.172 
46.399 178.574 42.032 182.645 35.293 c 227.023 49.024 257.508 90.153 
257.508 137.168 c 257.508 151.657 254.656 165.684 249.023 178.887 c 
239.551 183.118 l 235.473 180.024 231.059 177.469 226.359 175.481 c 
225.18 164.11 l 224.793 156.618 216.074 151.985 202.258 151.985 c 
188.402 151.985 179.688 156.629 179.332 164.145 c 178.156 175.481 l 
173.457 177.469 169.043 180.024 164.965 183.118 c 154.492 178.438 l 
147.809 175.039 139.445 180.274 132.543 192.235 c 130.051 196.547 
128.27 201.047 127.527 204.903 c 125.973 212.953 129.215 216.602 
131.594 218.153 c 140.902 224.895 l 140.598 227.387 140.445 229.907 
140.445 232.418 c 140.445 234.973 140.602 237.528 140.914 240.059 c 
131.613 246.797 l 125.281 250.864 125.617 260.735 132.543 272.731 c 
139.449 284.696 147.816 289.93 154.496 286.524 c 165.074 281.797 l 
169.117 284.856 173.492 287.379 178.141 289.348 c 179.332 300.821 l 
179.688 308.336 188.402 312.981 202.258 312.981 c 216.078 312.981 
224.801 308.344 225.18 300.848 c 226.371 289.348 l 231.023 287.379 
235.398 284.852 239.441 281.797 c 250 286.512 l 252.531 287.797 257.316 
288.782 263.508 283.41 c 266.477 280.84 269.48 277.047 271.973 272.731 
c 278.883 260.766 279.23 250.899 272.934 246.817 c 263.602 240.055 l 
263.914 237.524 264.07 234.969 264.07 232.418 c 264.07 229.903 263.918 
227.383 263.617 224.895 c 272.941 218.137 l 279.23 214.051 278.879 
204.184 271.969 192.227 c 269.48 187.91 266.477 184.114 263.508 181.539 
c 263.508 181.535 263.504 181.52 263.5 181.516 c 269.082 167.403 
271.906 152.469 271.906 137.118 c 271.906 129.692 271.254 122.399 
269.961 115.2 c 279.719 115.2 l 284.023 115.2 287.199 118.805 287.199 
123.11 c 287.199 155.942 l 287.199 159.289 285.082 162.348 281.879 
163.383 c 278.094 164.602 276.133 168.657 277.352 172.442 c 278.57 
176.227 282.547 178.309 286.332 177.09 c 295.562 174.118 301.602 
165.618 301.602 155.942 c h
171.578 23.309 m 171.578 23.895 171.52 24.543 171.41 25.102 c 171.391 
25.184 171.375 25.192 171.359 25.278 c 170.461 29.207 166.938 32 
162.738 32 c 139.262 32 l 134.387 32 130.422 28.075 130.422 23.2 c 
130.422 18.325 134.387 14.399 139.262 14.399 c 162.738 14.399 l 167.613 
14.399 171.578 18.434 171.578 23.309 c h
251.562 249.118 m 262.859 257.301 l 262.531 258.985 261.57 261.946 
259.5 265.528 c 257.43 269.114 255.352 271.426 254.055 272.551 c 241.27 
266.84 l 238.695 265.692 235.691 266.149 233.574 268.012 c 228.805 
272.211 223.352 275.36 217.375 277.368 c 214.699 278.27 212.797 280.645 
212.508 283.453 c 211.062 297.375 l 209.438 297.934 206.398 298.582 
202.258 298.582 c 198.117 298.582 195.074 297.934 193.453 297.375 c 
192.008 283.453 l 191.715 280.645 189.812 278.27 187.141 277.371 c 
181.156 275.36 175.707 272.211 170.941 268.012 c 168.824 266.149 
165.816 265.692 163.242 266.844 c 150.461 272.555 l 149.164 271.426 
147.082 269.118 145.012 265.532 c 142.941 261.95 141.98 258.989 141.652 
257.305 c 152.949 249.118 l 155.234 247.461 156.344 244.625 155.785 
241.864 c 155.16 238.774 154.844 235.594 154.844 232.418 c 154.844 
229.274 155.152 226.129 155.766 223.067 c 156.316 220.309 155.207 
217.481 152.93 215.828 c 141.652 207.657 l 141.984 205.973 142.945 
203.016 145.012 199.43 c 147.082 195.844 149.164 193.535 150.461 
192.407 c 163.148 198.075 l 165.727 199.227 168.742 198.766 170.855 
196.895 c 175.648 192.657 181.129 189.481 187.152 187.461 c 189.828 
186.563 191.73 184.184 192.023 181.379 c 193.453 167.586 l 195.078 
167.028 198.121 166.383 202.258 166.383 c 206.398 166.383 209.441 
167.028 211.066 167.586 c 212.496 181.375 l 212.789 184.184 214.691 
186.559 217.363 187.461 c 223.387 189.481 228.871 192.657 233.66 
196.895 c 235.773 198.77 238.789 199.231 241.367 198.078 c 254.059 
192.41 l 255.352 193.539 257.434 195.848 259.5 199.43 c 261.57 203.016 
262.531 205.977 262.863 207.66 c 251.586 215.828 l 249.305 217.481 
248.199 220.313 248.75 223.075 c 249.363 226.125 249.672 229.27 249.672 
232.418 c 249.672 235.594 249.355 238.77 248.73 241.86 c 248.172 
244.625 249.277 247.461 251.562 249.118 c h
251.562 249.118 m f
Q Q
showpage
%%Trailer
count op_count sub {pop} repeat
countdictstack dict_count sub {end} repeat
cairo_eps_state restore
%%EOF
