%!PS-Adobe-3.0 EPSF-3.0
%%Creator: cairo 1.10.2 (http://cairographics.org)
%%CreationDate: Thu Aug 13 09:20:27 2015
%%Pages: 1
%%BoundingBox: 0 0 294 248
%%DocumentData: Clean7Bit
%%LanguageLevel: 2
%%EndComments
%%BeginProlog
/cairo_eps_state save def
/dict_count countdictstack def
/op_count count 1 sub def
userdict begin
/q { gsave } bind def
/Q { grestore } bind def
/cm { 6 array astore concat } bind def
/w { setlinewidth } bind def
/J { setlinecap } bind def
/j { setlinejoin } bind def
/M { setmiterlimit } bind def
/d { setdash } bind def
/m { moveto } bind def
/l { lineto } bind def
/c { curveto } bind def
/h { closepath } bind def
/re { exch dup neg 3 1 roll 5 3 roll moveto 0 rlineto
      0 exch rlineto 0 rlineto closepath } bind def
/S { stroke } bind def
/f { fill } bind def
/f* { eofill } bind def
/n { newpath } bind def
/W { clip } bind def
/W* { eoclip } bind def
/BT { } bind def
/ET { } bind def
/pdfmark where { pop globaldict /?pdfmark /exec load put }
    { globaldict begin /?pdfmark /pop load def /pdfmark
    /cleartomark load def end } ifelse
/BDC { mark 3 1 roll /BDC pdfmark } bind def
/EMC { mark /EMC pdfmark } bind def
/cairo_store_point { /cairo_point_y exch def /cairo_point_x exch def } def
/Tj { show currentpoint cairo_store_point } bind def
/TJ {
  {
    dup
    type /stringtype eq
    { show } { -0.001 mul 0 cairo_font_matrix dtransform rmoveto } ifelse
  } forall
  currentpoint cairo_store_point
} bind def
/cairo_selectfont { cairo_font_matrix aload pop pop pop 0 0 6 array astore
    cairo_font exch selectfont cairo_point_x cairo_point_y moveto } bind def
/Tf { pop /cairo_font exch def /cairo_font_matrix where
      { pop cairo_selectfont } if } bind def
/Td { matrix translate cairo_font_matrix matrix concatmatrix dup
      /cairo_font_matrix exch def dup 4 get exch 5 get cairo_store_point
      /cairo_font where { pop cairo_selectfont } if } bind def
/Tm { 2 copy 8 2 roll 6 array astore /cairo_font_matrix exch def
      cairo_store_point /cairo_font where { pop cairo_selectfont } if } bind def
/g { setgray } bind def
/rg { setrgbcolor } bind def
/d1 { setcachedevice } bind def
%%EndProlog
%%Page: 1 1
%%BeginPageSetup
%%PageBoundingBox: 0 0 294 248
%%EndPageSetup
q 0 0 294 248 rectclip q
0 g
255.941 148.801 m 255.941 152.777 259.168 156 263.145 156 c 263.742 156 
l 267.719 156 270.941 152.777 270.941 148.801 c 270.941 144.824 267.719 
141.602 263.742 141.602 c 263.145 141.602 l 259.168 141.602 255.941 
144.824 255.941 148.801 c h
231.461 200 m 232.059 200 l 236.035 200 239.258 203.223 239.258 207.199 
c 239.258 211.176 236.035 214.398 232.059 214.398 c 231.461 214.398 l 
227.484 214.398 224.262 211.176 224.262 207.199 c 224.262 203.223 
227.484 200 231.461 200 c h
263.145 112 m 263.742 112 l 267.719 112 270.941 115.223 270.941 119.199 
c 270.941 123.176 267.719 126.398 263.742 126.398 c 263.145 126.398 l 
259.168 126.398 255.941 123.176 255.941 119.199 c 255.941 115.223 
259.168 112 263.145 112 c h
286.617 14.398 m 184.73 14.398 l 180.754 14.398 177.531 11.176 177.531 
7.199 c 177.531 3.223 180.754 0 184.73 0 c 286.617 0 l 290.594 0 
293.816 3.223 293.816 7.199 c 293.816 11.176 290.594 14.398 286.617 
14.398 c h
263.145 200 m 263.742 200 l 267.719 200 270.941 203.223 270.941 207.199 
c 270.941 211.176 267.719 214.398 263.742 214.398 c 263.145 214.398 l 
259.168 214.398 255.941 211.176 255.941 207.199 c 255.941 203.223 
259.168 200 263.145 200 c h
288.707 34.398 m 288.707 30.422 285.484 27.199 281.508 27.199 c 189.508 
27.199 l 185.531 27.199 182.309 30.422 182.309 34.398 c 182.309 88.801 
l 182.309 92.777 185.531 96 189.508 96 c 281.508 96 l 285.484 96 
288.707 92.777 288.707 88.801 c h
196.707 41.602 m 274.309 41.602 l 274.309 81.602 l 196.707 81.602 l h
263.145 171.199 m 263.742 171.199 l 267.719 171.199 270.941 174.422 
270.941 178.398 c 270.941 182.375 267.719 185.602 263.742 185.602 c 
263.145 185.602 l 259.168 185.602 255.941 182.375 255.941 178.398 c 
255.941 174.422 259.168 171.199 263.145 171.199 c h
199.91 186.398 m 199.91 182.422 196.688 179.199 192.707 179.199 c 
100.707 179.199 l 96.73 179.199 93.508 182.422 93.508 186.398 c 93.508 
240.801 l 93.508 244.777 96.73 248 100.707 248 c 192.707 248 l 196.688 
248 199.91 244.777 199.91 240.801 c h
107.91 192.801 m 185.508 192.801 l 185.508 233.602 l 107.91 233.602 l h
61.758 200 m 62.355 200 l 66.332 200 69.559 203.223 69.559 207.199 c 
69.559 211.176 66.332 214.398 62.355 214.398 c 61.758 214.398 l 57.781 
214.398 54.559 211.176 54.559 207.199 c 54.559 203.223 57.781 200 
61.758 200 c h
111.109 34.398 m 111.109 30.422 107.887 27.199 103.91 27.199 c 11.91 
27.199 l 7.934 27.199 4.707 30.422 4.707 34.398 c 4.707 88.801 l 4.707 
92.777 7.934 96 11.91 96 c 103.91 96 l 107.887 96 111.109 92.777 
111.109 88.801 c h
19.109 41.602 m 96.707 41.602 l 96.707 81.602 l 19.109 81.602 l h
95.965 151.199 m 197.852 151.199 l 201.828 151.199 205.051 154.422 
205.051 158.398 c 205.051 162.375 201.828 165.602 197.852 165.602 c 
95.965 165.602 l 91.988 165.602 88.766 162.375 88.766 158.398 c 88.766 
154.422 91.988 151.199 95.965 151.199 c h
163.051 65.602 m 162.449 65.602 l 158.473 65.602 155.25 62.375 155.25 
58.398 c 155.25 54.422 158.473 51.199 162.449 51.199 c 163.051 51.199 l 
167.027 51.199 170.25 54.422 170.25 58.398 c 170.25 62.375 167.027 
65.602 163.051 65.602 c h
109.086 14.398 m 7.199 14.398 l 3.223 14.398 0 11.176 0 7.199 c 0 3.223 
3.223 0 7.199 0 c 109.086 0 l 113.062 0 116.285 3.223 116.285 7.199 c 
116.285 11.176 113.062 14.398 109.086 14.398 c h
30.672 185.602 m 30.074 185.602 l 26.098 185.602 22.875 182.375 22.875 
178.398 c 22.875 174.422 26.098 171.199 30.074 171.199 c 30.672 171.199 
l 34.652 171.199 37.875 174.422 37.875 178.398 c 37.875 182.375 34.652 
185.602 30.672 185.602 c h
131.367 65.602 m 130.766 65.602 l 126.789 65.602 123.566 62.375 123.566 
58.398 c 123.566 54.422 126.789 51.199 130.766 51.199 c 131.367 51.199 
l 135.344 51.199 138.566 54.422 138.566 58.398 c 138.566 62.375 135.344 
65.602 131.367 65.602 c h
30.074 200 m 30.676 200 l 34.652 200 37.875 203.223 37.875 207.199 c 
37.875 211.176 34.652 214.398 30.676 214.398 c 30.074 214.398 l 26.098 
214.398 22.875 211.176 22.875 207.199 c 22.875 203.223 26.098 200 
30.074 200 c h
30.672 126.398 m 30.074 126.398 l 26.098 126.398 22.875 123.176 22.875 
119.199 c 22.875 115.223 26.098 112 30.074 112 c 30.672 112 l 34.652 
112 37.875 115.223 37.875 119.199 c 37.875 123.176 34.652 126.398 
30.672 126.398 c h
30.672 156 m 30.074 156 l 26.098 156 22.875 152.777 22.875 148.801 c 
22.875 144.824 26.098 141.602 30.074 141.602 c 30.672 141.602 l 34.652 
141.602 37.875 144.824 37.875 148.801 c 37.875 152.777 34.652 156 
30.672 156 c h
30.672 156 m f
Q Q
showpage
%%Trailer
count op_count sub {pop} repeat
countdictstack dict_count sub {end} repeat
cairo_eps_state restore
%%EOF
