%!PS-Adobe-3.0 EPSF-3.0
%%Creator: cairo 1.10.2 (http://cairographics.org)
%%CreationDate: Thu Aug 13 09:20:12 2015
%%Pages: 1
%%BoundingBox: 0 -1 273 344
%%DocumentData: Clean7Bit
%%LanguageLevel: 2
%%EndComments
%%BeginProlog
/cairo_eps_state save def
/dict_count countdictstack def
/op_count count 1 sub def
userdict begin
/q { gsave } bind def
/Q { grestore } bind def
/cm { 6 array astore concat } bind def
/w { setlinewidth } bind def
/J { setlinecap } bind def
/j { setlinejoin } bind def
/M { setmiterlimit } bind def
/d { setdash } bind def
/m { moveto } bind def
/l { lineto } bind def
/c { curveto } bind def
/h { closepath } bind def
/re { exch dup neg 3 1 roll 5 3 roll moveto 0 rlineto
      0 exch rlineto 0 rlineto closepath } bind def
/S { stroke } bind def
/f { fill } bind def
/f* { eofill } bind def
/n { newpath } bind def
/W { clip } bind def
/W* { eoclip } bind def
/BT { } bind def
/ET { } bind def
/pdfmark where { pop globaldict /?pdfmark /exec load put }
    { globaldict begin /?pdfmark /pop load def /pdfmark
    /cleartomark load def end } ifelse
/BDC { mark 3 1 roll /BDC pdfmark } bind def
/EMC { mark /EMC pdfmark } bind def
/cairo_store_point { /cairo_point_y exch def /cairo_point_x exch def } def
/Tj { show currentpoint cairo_store_point } bind def
/TJ {
  {
    dup
    type /stringtype eq
    { show } { -0.001 mul 0 cairo_font_matrix dtransform rmoveto } ifelse
  } forall
  currentpoint cairo_store_point
} bind def
/cairo_selectfont { cairo_font_matrix aload pop pop pop 0 0 6 array astore
    cairo_font exch selectfont cairo_point_x cairo_point_y moveto } bind def
/Tf { pop /cairo_font exch def /cairo_font_matrix where
      { pop cairo_selectfont } if } bind def
/Td { matrix translate cairo_font_matrix matrix concatmatrix dup
      /cairo_font_matrix exch def dup 4 get exch 5 get cairo_store_point
      /cairo_font where { pop cairo_selectfont } if } bind def
/Tm { 2 copy 8 2 roll 6 array astore /cairo_font_matrix exch def
      cairo_store_point /cairo_font where { pop cairo_selectfont } if } bind def
/g { setgray } bind def
/rg { setrgbcolor } bind def
/d1 { setcachedevice } bind def
%%EndProlog
%%Page: 1 1
%%BeginPageSetup
%%PageBoundingBox: 0 -1 273 344
%%EndPageSetup
q 0 -1 273 345 rectclip q
0 343.027 273 -344 re W n
0 g
272.023 278.703 m 272.023 274.726 268.801 271.5 264.82 271.5 c 260.844 
271.5 257.621 274.726 257.621 278.703 c 257.621 306.23 235.227 328.629 
207.695 328.629 c 203.719 328.629 200.496 331.851 200.496 335.828 c 
200.496 339.805 203.719 343.027 207.695 343.027 c 243.164 343.027 
272.023 314.172 272.023 278.703 c h
102.555 80.57 m 102.555 65.465 90.266 53.176 75.16 53.176 c 60.055 
53.176 47.766 65.465 47.766 80.57 c 47.766 95.676 60.055 107.965 75.16 
107.965 c 90.266 107.965 102.555 95.676 102.555 80.57 c h
88.152 80.57 m 88.152 87.734 82.324 93.566 75.16 93.566 c 67.992 93.566 
62.164 87.734 62.164 80.57 c 62.164 73.406 67.992 67.574 75.16 67.574 c 
82.324 67.574 88.152 73.406 88.152 80.57 c h
134.949 249.914 m 138.926 249.914 142.148 253.137 142.148 257.113 c 
142.148 261.09 138.926 264.312 134.949 264.312 c 134.348 264.312 l 
130.371 264.312 127.148 261.09 127.148 257.113 c 127.148 253.137 
130.371 249.914 134.348 249.914 c h
149.891 52.918 m 149.148 49.066 147.367 44.566 144.875 40.25 c 137.961 
28.273 129.582 23.043 122.895 26.469 c 112.344 31.183 l 108.301 28.129 
103.926 25.601 99.273 23.633 c 98.086 12.16 l 97.727 4.644 89.012 -0 
75.16 -0 c 61.344 -0 52.625 4.633 52.238 12.125 c 51.043 23.633 l 
46.391 25.601 42.02 28.129 37.973 31.183 c 27.418 26.469 l 24.887 
25.183 20.102 24.199 13.906 29.57 c 10.941 32.14 7.938 35.933 5.445 
40.25 c -1.469 52.223 -1.812 62.094 4.492 66.172 c 13.816 72.926 l 
13.504 75.457 13.348 78.012 13.348 80.562 c 13.348 83.078 13.5 85.594 
13.801 88.086 c 4.484 94.836 l -1.812 98.918 -1.465 108.785 5.445 
120.75 c 7.938 125.066 10.941 128.859 13.906 131.43 c 20.102 136.801 
24.887 135.816 27.418 134.531 c 37.867 129.863 l 41.945 132.957 46.359 
135.512 51.059 137.5 c 52.238 148.875 l 52.625 156.367 61.344 160.996 
75.16 160.996 c 89.012 160.996 97.727 156.351 98.086 148.84 c 99.262 
137.5 l 103.961 135.515 108.375 132.961 112.453 129.863 c 122.902 
134.535 l 129.586 137.957 137.965 132.719 144.875 120.75 c 147.367 
116.433 149.148 111.933 149.891 108.082 c 151.445 100.031 148.203 
96.379 145.824 94.828 c 136.516 88.086 l 136.82 85.594 136.973 83.078 
136.973 80.562 c 136.973 78.008 136.816 75.453 136.504 72.922 c 145.82 
66.172 l 148.199 64.621 151.445 60.969 149.891 52.918 c h
124.488 97.152 m 135.766 105.32 l 135.434 107.008 134.473 109.965 
132.402 113.551 c 130.336 117.133 128.254 119.445 126.957 120.574 c 
114.27 114.902 l 111.691 113.75 108.676 114.211 106.559 116.086 c 
101.77 120.324 96.289 123.496 90.266 125.519 c 87.59 126.418 85.688 
128.797 85.398 131.601 c 83.965 145.394 l 82.34 145.953 79.301 146.598 
75.16 146.598 c 71.02 146.598 67.98 145.949 66.355 145.394 c 64.922 
131.601 l 64.633 128.797 62.73 126.418 60.055 125.519 c 54.031 123.496 
48.551 120.32 43.758 116.082 c 41.645 114.211 38.629 113.75 36.051 
114.902 c 23.359 120.57 l 22.066 119.441 19.984 117.133 17.914 113.547 
c 15.848 109.961 14.887 107.004 14.555 105.32 c 25.832 97.148 l 28.113 
95.496 29.219 92.668 28.668 89.906 c 28.059 86.848 27.746 83.703 27.746 
80.562 c 27.746 77.387 28.062 74.207 28.688 71.117 c 29.246 68.355 
28.137 65.519 25.852 63.863 c 14.555 55.676 l 14.887 53.992 15.844 
51.031 17.914 47.449 c 19.984 43.863 22.066 41.555 23.359 40.426 c 
36.148 46.137 l 38.719 47.285 41.727 46.828 43.844 44.965 c 48.613 
40.765 54.062 37.617 60.043 35.609 c 62.715 34.711 64.617 32.332 64.91 
29.527 c 66.355 15.601 l 67.977 15.047 71.02 14.398 75.16 14.398 c 
79.301 14.398 82.34 15.043 83.965 15.601 c 85.41 29.527 l 85.703 32.332 
87.605 34.711 90.277 35.609 c 96.258 37.617 101.707 40.765 106.477 
44.965 c 108.594 46.828 111.602 47.285 114.172 46.137 c 126.957 40.422 
l 128.254 41.551 130.336 43.863 132.406 47.449 c 134.473 51.031 135.434 
53.988 135.766 55.676 c 124.465 63.859 l 122.184 65.515 121.074 68.351 
121.633 71.117 c 122.258 74.203 122.574 77.383 122.574 80.562 c 122.574 
83.703 122.262 86.848 121.652 89.91 c 121.102 92.672 122.207 95.5 
124.488 97.152 c h
206.102 314.715 m 63.195 314.715 l 42.297 314.715 25.02 298.004 25.02 
277.105 c 25.02 160.019 l 25.02 156.043 28.246 152.82 32.223 152.82 c 
36.199 152.82 39.422 156.043 39.422 160.019 c 39.422 249.914 l 102.656 
249.914 l 106.633 249.914 109.855 253.137 109.855 257.113 c 109.855 
261.09 106.633 264.312 102.656 264.312 c 39.422 264.312 l 39.422 
277.105 l 39.422 290.066 50.238 300.312 63.195 300.312 c 206.102 
300.312 l 219.059 300.312 229.82 290.066 229.82 277.105 c 229.82 
264.312 l 166.641 264.312 l 162.664 264.312 159.441 261.09 159.441 
257.113 c 159.441 253.137 162.664 249.914 166.641 249.914 c 229.82 
249.914 l 229.82 87.512 l 164.305 87.512 l 160.328 87.512 157.105 
84.289 157.105 80.312 c 157.105 76.336 160.328 73.113 164.305 73.113 c 
229.82 73.113 l 229.82 60.012 l 229.82 47.051 219.062 36.312 206.102 
36.312 c 164.305 36.312 l 160.328 36.312 157.105 33.09 157.105 29.113 c 
157.105 25.137 160.328 21.914 164.305 21.914 c 206.102 21.914 l 227 
21.914 244.219 39.113 244.219 60.012 c 244.219 277.105 l 244.223 
298.004 227 314.715 206.102 314.715 c h
206.102 314.715 m f
Q Q
showpage
%%Trailer
count op_count sub {pop} repeat
countdictstack dict_count sub {end} repeat
cairo_eps_state restore
%%EOF
