%!PS-Adobe-3.0 EPSF-3.0
%%Creator: cairo 1.10.2 (http://cairographics.org)
%%CreationDate: Thu Aug 13 09:20:07 2015
%%Pages: 1
%%BoundingBox: 0 -1 269 320
%%DocumentData: Clean7Bit
%%LanguageLevel: 2
%%EndComments
%%BeginProlog
/cairo_eps_state save def
/dict_count countdictstack def
/op_count count 1 sub def
userdict begin
/q { gsave } bind def
/Q { grestore } bind def
/cm { 6 array astore concat } bind def
/w { setlinewidth } bind def
/J { setlinecap } bind def
/j { setlinejoin } bind def
/M { setmiterlimit } bind def
/d { setdash } bind def
/m { moveto } bind def
/l { lineto } bind def
/c { curveto } bind def
/h { closepath } bind def
/re { exch dup neg 3 1 roll 5 3 roll moveto 0 rlineto
      0 exch rlineto 0 rlineto closepath } bind def
/S { stroke } bind def
/f { fill } bind def
/f* { eofill } bind def
/n { newpath } bind def
/W { clip } bind def
/W* { eoclip } bind def
/BT { } bind def
/ET { } bind def
/pdfmark where { pop globaldict /?pdfmark /exec load put }
    { globaldict begin /?pdfmark /pop load def /pdfmark
    /cleartomark load def end } ifelse
/BDC { mark 3 1 roll /BDC pdfmark } bind def
/EMC { mark /EMC pdfmark } bind def
/cairo_store_point { /cairo_point_y exch def /cairo_point_x exch def } def
/Tj { show currentpoint cairo_store_point } bind def
/TJ {
  {
    dup
    type /stringtype eq
    { show } { -0.001 mul 0 cairo_font_matrix dtransform rmoveto } ifelse
  } forall
  currentpoint cairo_store_point
} bind def
/cairo_selectfont { cairo_font_matrix aload pop pop pop 0 0 6 array astore
    cairo_font exch selectfont cairo_point_x cairo_point_y moveto } bind def
/Tf { pop /cairo_font exch def /cairo_font_matrix where
      { pop cairo_selectfont } if } bind def
/Td { matrix translate cairo_font_matrix matrix concatmatrix dup
      /cairo_font_matrix exch def dup 4 get exch 5 get cairo_store_point
      /cairo_font where { pop cairo_selectfont } if } bind def
/Tm { 2 copy 8 2 roll 6 array astore /cairo_font_matrix exch def
      cairo_store_point /cairo_font where { pop cairo_selectfont } if } bind def
/g { setgray } bind def
/rg { setrgbcolor } bind def
/d1 { setcachedevice } bind def
%%EndProlog
%%Page: 1 1
%%BeginPageSetup
%%PageBoundingBox: 0 -1 269 320
%%EndPageSetup
q 0 -1 269 321 rectclip q
0 319.551 269 -320 re W n
0 g
189.738 297.794 m 187.16 300.821 187.527 305.364 190.559 307.942 c 
202.188 317.836 l 205.219 320.411 209.762 320.047 212.34 317.016 c 
214.914 313.989 214.547 309.446 211.52 306.868 c 199.887 296.973 l 
198.531 295.821 196.875 295.258 195.227 295.258 c 193.188 295.258 
191.16 296.118 189.738 297.794 c h
210.676 267.329 m 206.699 267.333 203.457 264.153 203.43 260.176 c 
203.402 256.2 206.605 252.93 210.582 252.903 c 225.852 252.774 l 
225.902 252.774 l 229.855 252.774 233.074 255.993 233.102 259.954 c 
233.125 263.926 229.926 267.188 225.949 267.211 c h
201.547 280.79 m 202.613 277.868 205.371 276.051 208.312 276.051 c 
209.133 276.051 209.965 276.192 210.777 276.489 c 236.078 285.696 l 
239.812 287.055 241.742 291.188 240.379 294.922 c 239.02 298.661 
234.887 300.586 231.152 299.227 c 205.852 290.02 l 202.113 288.661 
200.188 284.528 201.547 280.79 c h
149.891 52.919 m 149.148 49.063 147.363 44.563 144.875 40.251 c 137.965 
28.282 129.594 23.047 122.91 26.461 c 112.344 31.184 l 108.301 28.126 
103.926 25.602 99.273 23.633 c 98.082 12.161 l 97.73 4.645 89.016 0.001 
75.16 0.001 c 61.34 0.001 52.621 4.633 52.238 12.129 c 51.043 23.629 l 
46.391 25.598 42.02 28.126 37.973 31.184 c 27.438 26.473 l 20.75 23.024 
12.371 28.251 5.445 40.247 c -1.469 52.223 -1.812 62.094 4.496 66.172 c 
13.816 72.922 l 13.504 75.454 13.348 78.008 13.348 80.563 c 13.348 
83.075 13.5 85.59 13.801 88.083 c 4.48 94.833 l -1.812 98.919 -1.461 
108.782 5.445 120.747 c 12.371 132.743 20.75 137.969 27.438 134.52 c 
37.867 129.86 l 41.945 132.954 46.355 135.512 51.059 137.497 c 52.238 
148.872 l 52.625 156.364 61.344 160.997 75.16 160.997 c 89.012 160.997 
97.727 156.348 98.082 148.836 c 99.262 137.497 l 103.961 135.512 
108.375 132.958 112.453 129.86 c 122.906 134.532 l 129.59 137.95 
137.965 132.715 144.875 120.747 c 147.367 116.43 149.148 111.93 149.891 
108.079 c 151.445 100.028 148.199 96.376 145.82 94.825 c 136.516 88.083 
l 136.82 85.59 136.973 83.075 136.973 80.563 c 136.973 78.008 136.816 
75.45 136.504 72.922 c 145.824 66.169 l 148.199 64.622 151.445 60.969 
149.891 52.919 c h
124.484 97.153 m 135.762 105.321 l 135.434 107.008 134.473 109.965 
132.402 113.547 c 130.332 117.133 128.25 119.446 126.957 120.575 c 
114.27 114.903 l 111.688 113.751 108.676 114.211 106.559 116.086 c 
101.77 120.325 96.285 123.497 90.266 125.52 c 87.59 126.419 85.688 
128.794 85.395 131.602 c 83.965 145.395 l 82.34 145.95 79.297 146.598 
75.16 146.598 c 71.02 146.598 67.977 145.95 66.352 145.391 c 64.922 
131.602 l 64.629 128.797 62.727 126.419 60.055 125.52 c 54.031 123.497 
48.547 120.321 43.758 116.083 c 41.641 114.211 38.625 113.751 36.047 
114.903 c 23.359 120.571 l 22.066 119.442 19.984 117.133 17.914 113.547 
c 15.844 109.961 14.883 107.004 14.555 105.317 c 25.832 97.149 l 28.113 
95.497 29.219 92.669 28.668 89.907 c 28.055 86.852 27.746 83.708 27.746 
80.563 c 27.746 77.383 28.062 74.208 28.688 71.118 c 29.246 68.352 
28.137 65.516 25.852 63.864 c 14.555 55.676 l 14.887 53.993 15.848 
51.032 17.914 47.446 c 19.984 43.864 22.066 41.551 23.359 40.422 c 
36.145 46.137 l 38.719 47.286 41.727 46.829 43.84 44.965 c 48.609 
40.766 54.062 37.618 60.043 35.61 c 62.715 34.711 64.617 32.333 64.91 
29.528 c 66.352 15.602 l 67.977 15.047 71.02 14.399 75.16 14.399 c 
79.297 14.399 82.34 15.047 83.965 15.602 c 85.41 29.528 l 85.699 32.333 
87.605 34.711 90.277 35.61 c 96.258 37.622 101.707 40.77 106.477 44.969 
c 108.594 46.833 111.598 47.286 114.172 46.137 c 126.957 40.422 l 
128.25 41.551 130.332 43.864 132.402 47.45 c 134.473 51.032 135.434 
53.989 135.762 55.676 c 124.465 63.86 l 122.18 65.516 121.074 68.352 
121.633 71.118 c 122.254 74.208 122.57 77.383 122.57 80.563 c 122.57 
83.708 122.262 86.852 121.652 89.911 c 121.098 92.672 122.207 95.501 
124.484 97.153 c h
102.555 80.571 m 102.555 65.465 90.266 53.176 75.16 53.176 c 60.055 
53.176 47.762 65.465 47.762 80.571 c 47.762 95.676 60.055 107.965 75.16 
107.965 c 90.266 107.965 102.555 95.676 102.555 80.571 c h
88.152 80.571 m 88.152 87.735 82.324 93.563 75.16 93.563 c 67.992 
93.563 62.164 87.735 62.164 80.571 c 62.164 73.403 67.992 67.575 75.16 
67.575 c 82.324 67.575 88.152 73.403 88.152 80.571 c h
267.523 36.813 m 244.41 99.942 l 244.297 100.251 244.164 100.544 244.02 
100.825 c 241.77 105.985 237 109.563 231.379 110.251 c 227.867 110.684 
224.426 110.876 221.094 111.059 c 219.457 111.149 217.82 111.239 216.18 
111.36 c 210.547 111.77 205.68 112.524 201.305 113.661 c 192.277 
116.004 186.355 119.352 182.098 124.512 c 174.488 133.743 162.48 
166.536 162.332 178.497 c 162.25 185.188 164.613 191.571 169.992 
199.184 c 172.672 202.981 175.719 206.485 179.863 210.547 c 181.027 
211.684 182.211 212.801 183.395 213.919 c 185.555 215.958 187.785 
218.063 189.934 220.329 c 194.66 224.715 196.277 231.415 194.051 
237.493 c 170.938 300.626 l 167.914 308.879 158.738 313.133 150.484 
310.114 c 134.508 304.266 l 130.215 302.704 128.062 301.919 123.094 
298.891 c 94.293 281.317 78.504 247.219 78.629 202.879 c 78.652 194.934 
79.191 186.653 80.234 178.278 c 80.727 174.329 84.324 171.528 88.27 
172.02 c 92.215 172.512 95.016 176.11 94.523 180.055 c 93.555 187.86 
93.051 195.551 93.027 202.922 c 92.918 242.032 106.258 271.751 130.594 
286.598 c 134.332 288.879 135.414 289.274 139.434 290.735 c 155.434 
296.59 l 156.234 296.883 157.125 296.473 157.418 295.676 c 180.527 
232.54 l 180.793 231.813 180.465 231.176 180.105 230.856 c 179.941 
230.711 179.789 230.563 179.641 230.407 c 177.727 228.372 175.68 
226.438 173.512 224.391 c 172.262 223.215 171.016 222.036 169.789 
220.836 c 165.059 216.204 161.387 211.961 158.227 207.493 c 151.086 
197.376 147.812 188.106 147.934 178.321 c 148.121 163.04 161.266 
127.141 170.988 115.352 c 177.211 107.801 185.695 102.836 197.684 
99.723 c 202.91 98.364 208.617 97.473 215.125 96.997 c 216.852 96.872 
218.574 96.774 220.293 96.68 c 223.527 96.501 226.586 96.333 229.621 
95.958 c 230.293 95.872 230.699 95.395 230.855 94.973 c 230.938 94.747 
231.031 94.532 231.133 94.321 c 254 31.86 l 254.293 31.059 253.879 
30.172 253.078 29.879 c 238.547 24.559 l 232.945 22.508 231.254 21.887 
225.555 21.184 c 205.941 18.754 186.395 24.856 167.469 39.317 c 164.309 
41.731 159.789 41.126 157.375 37.965 c 154.961 34.805 155.566 30.29 
158.727 27.876 c 177.352 13.641 197.449 6.282 217.402 6.282 c 220.715 
6.282 224.023 6.481 227.32 6.891 c 234.375 7.762 237.207 8.735 243.496 
11.036 c 258.031 16.356 l 266.285 19.383 270.543 28.559 267.523 36.813 
c h
267.523 36.813 m f
Q Q
showpage
%%Trailer
count op_count sub {pop} repeat
countdictstack dict_count sub {end} repeat
cairo_eps_state restore
%%EOF
