%!PS-Adobe-3.0 EPSF-3.0
%%Creator: cairo 1.10.2 (http://cairographics.org)
%%CreationDate: Thu Aug 13 09:20:58 2015
%%Pages: 1
%%BoundingBox: 0 -1 307 308
%%DocumentData: Clean7Bit
%%LanguageLevel: 2
%%EndComments
%%BeginProlog
/cairo_eps_state save def
/dict_count countdictstack def
/op_count count 1 sub def
userdict begin
/q { gsave } bind def
/Q { grestore } bind def
/cm { 6 array astore concat } bind def
/w { setlinewidth } bind def
/J { setlinecap } bind def
/j { setlinejoin } bind def
/M { setmiterlimit } bind def
/d { setdash } bind def
/m { moveto } bind def
/l { lineto } bind def
/c { curveto } bind def
/h { closepath } bind def
/re { exch dup neg 3 1 roll 5 3 roll moveto 0 rlineto
      0 exch rlineto 0 rlineto closepath } bind def
/S { stroke } bind def
/f { fill } bind def
/f* { eofill } bind def
/n { newpath } bind def
/W { clip } bind def
/W* { eoclip } bind def
/BT { } bind def
/ET { } bind def
/pdfmark where { pop globaldict /?pdfmark /exec load put }
    { globaldict begin /?pdfmark /pop load def /pdfmark
    /cleartomark load def end } ifelse
/BDC { mark 3 1 roll /BDC pdfmark } bind def
/EMC { mark /EMC pdfmark } bind def
/cairo_store_point { /cairo_point_y exch def /cairo_point_x exch def } def
/Tj { show currentpoint cairo_store_point } bind def
/TJ {
  {
    dup
    type /stringtype eq
    { show } { -0.001 mul 0 cairo_font_matrix dtransform rmoveto } ifelse
  } forall
  currentpoint cairo_store_point
} bind def
/cairo_selectfont { cairo_font_matrix aload pop pop pop 0 0 6 array astore
    cairo_font exch selectfont cairo_point_x cairo_point_y moveto } bind def
/Tf { pop /cairo_font exch def /cairo_font_matrix where
      { pop cairo_selectfont } if } bind def
/Td { matrix translate cairo_font_matrix matrix concatmatrix dup
      /cairo_font_matrix exch def dup 4 get exch 5 get cairo_store_point
      /cairo_font where { pop cairo_selectfont } if } bind def
/Tm { 2 copy 8 2 roll 6 array astore /cairo_font_matrix exch def
      cairo_store_point /cairo_font where { pop cairo_selectfont } if } bind def
/g { setgray } bind def
/rg { setrgbcolor } bind def
/d1 { setcachedevice } bind def
%%EndProlog
%%Page: 1 1
%%BeginPageSetup
%%PageBoundingBox: 0 -1 307 308
%%EndPageSetup
q 0 -1 307 309 rectclip q
0 307.886 307 -308 re W n
0 g
171.91 186.639 m 156.805 186.639 144.512 174.35 144.512 159.245 c 
144.512 144.139 156.805 131.85 171.91 131.85 c 187.016 131.85 199.305 
144.139 199.305 159.245 c 199.305 174.35 187.016 186.639 171.91 186.639 
c h
171.91 146.253 m 164.742 146.253 158.914 152.081 158.914 159.245 c 
158.914 166.409 164.742 172.241 171.91 172.241 c 179.074 172.241 
184.902 166.409 184.902 159.245 c 184.902 152.081 179.074 146.253 
171.91 146.253 c h
242.555 144.858 m 233.254 151.597 l 233.566 154.128 233.723 156.686 
233.723 159.241 c 233.723 161.757 233.57 164.272 233.266 166.761 c 
242.574 173.503 l 244.953 175.054 248.195 178.706 246.641 186.757 c 
245.898 190.608 244.113 195.108 241.625 199.425 c 234.719 211.386 
226.355 216.62 219.672 213.222 c 209.199 208.542 l 205.121 211.636 
200.711 214.19 196.012 216.179 c 194.836 227.514 l 194.477 235.03 
185.762 239.675 171.91 239.675 c 158.098 239.675 149.379 235.042 
148.988 227.554 c 147.805 216.175 l 143.105 214.19 138.695 211.632 
134.617 208.538 c 124.168 213.206 l 121.637 214.491 116.852 215.475 
110.656 210.104 c 107.691 207.534 104.688 203.741 102.195 199.425 c 
95.293 187.468 94.938 177.608 101.219 173.518 c 110.551 166.757 l 
110.246 164.264 110.098 161.749 110.098 159.237 c 110.098 156.686 
110.254 154.132 110.566 151.6 c 101.23 144.835 l 94.938 140.753 95.289 
130.886 102.195 118.925 c 104.688 114.608 107.691 110.815 110.656 
108.245 c 116.852 102.874 121.637 103.858 124.168 105.143 c 134.723 
109.858 l 138.77 106.8 143.141 104.276 147.793 102.307 c 148.984 90.796 
l 149.375 83.307 158.094 78.675 171.91 78.675 c 185.762 78.675 194.477 
83.319 194.832 90.835 c 196.023 102.307 l 200.676 104.276 205.047 106.8 
209.094 109.858 c 219.672 105.128 l 226.355 101.729 234.719 106.964 
241.621 118.925 c 248.551 130.921 248.887 140.792 242.555 144.858 c h
218.402 168.585 m 219.012 165.534 219.32 162.389 219.32 159.241 c 
219.32 156.061 219.004 152.882 218.379 149.792 c 217.824 147.026 218.93 
144.19 221.215 142.538 c 232.512 134.354 l 232.18 132.667 231.223 
129.71 229.152 126.124 c 227.082 122.538 225 120.229 223.703 119.1 c 
210.922 124.815 l 208.348 125.964 205.34 125.507 203.223 123.643 c 
198.457 119.444 193.008 116.296 187.027 114.284 c 184.352 113.386 
182.449 111.011 182.16 108.206 c 180.711 94.28 l 179.09 93.722 176.047 
93.073 171.906 93.073 c 167.766 93.073 164.727 93.722 163.102 94.28 c 
161.656 108.202 l 161.367 111.011 159.465 113.386 156.789 114.284 c 
150.809 116.296 145.359 119.444 140.59 123.643 c 138.477 125.507 
135.469 125.964 132.895 124.815 c 120.109 119.104 l 118.812 120.229 
116.734 122.542 114.664 126.124 c 112.594 129.71 111.633 132.671 
111.305 134.354 c 122.602 142.542 l 124.883 144.194 125.992 147.03 
125.434 149.792 c 124.812 152.886 124.496 156.065 124.496 159.241 c 
124.496 162.378 124.805 165.522 125.414 168.589 c 125.965 171.347 
124.859 174.175 122.578 175.827 c 111.305 183.995 l 111.633 185.679 
112.594 188.639 114.664 192.225 c 116.73 195.807 118.812 198.12 120.109 
199.249 c 132.797 193.577 l 135.379 192.425 138.391 192.889 140.504 
194.761 c 145.297 198.999 150.777 202.175 156.801 204.194 c 159.473 
205.093 161.379 207.472 161.668 210.276 c 163.102 224.069 l 164.723 
224.628 167.766 225.272 171.906 225.272 c 176.047 225.272 179.086 
224.628 180.711 224.069 c 182.145 210.276 l 182.434 207.472 184.34 
205.093 187.012 204.194 c 193.035 202.175 198.516 198.999 203.309 
194.761 c 205.426 192.889 208.438 192.425 211.016 193.581 c 223.703 
199.249 l 225 198.12 227.082 195.811 229.152 192.225 c 231.219 188.639 
232.18 185.682 232.512 183.995 c 221.234 175.827 l 218.957 174.175 
217.848 171.347 218.402 168.585 c h
256.758 271.085 m 87.062 271.085 l 59.684 271.085 37.602 248.882 37.602 
221.507 c 37.602 81.175 l 14.402 60.534 l 14.402 223.237 l 14.398 
262.128 46.438 293.487 85.328 293.487 c 219.738 293.487 l 227.293 
293.487 234.512 291.241 240.609 286.729 c 243.805 284.362 248.312 
285.108 250.68 288.304 c 253.047 291.499 252.371 295.901 249.176 
298.268 c 240.578 304.628 230.398 307.886 219.734 307.886 c 85.328 
307.886 l 38.496 307.886 0 270.069 0 223.237 c 0 44.218 l 0 41.362 
1.879 38.78 4.492 37.628 c 7.102 36.479 10.336 36.975 12.445 38.897 c 
37.602 61.682 l 37.602 7.198 l 37.602 4.347 39.191 1.764 41.801 0.612 c 
42.734 0.202 43.676 -0.001 44.656 -0.001 c 46.422 -0.001 48.137 0.647 
49.488 1.882 c 91.328 40.077 l 92.629 41.264 93.734 42.3 94.703 43.206 
c 96.707 45.073 98.598 46.839 99.223 47.085 c 99.809 47.315 102.293 
47.222 104.922 47.186 c 106.34 47.167 107.992 47.085 109.934 47.085 c 
256.758 47.085 l 284.133 47.085 306.402 69.479 306.402 96.858 c 306.402 
221.507 l 306.398 248.882 284.133 271.085 256.758 271.085 c h
292 96.858 m 292 77.421 276.191 61.487 256.758 61.487 c 109.934 61.487 
l 108.066 61.487 106.477 61.569 105.109 61.585 c 94.5 61.729 92.793 
61.093 84.875 53.706 c 83.938 52.831 82.957 51.843 81.699 50.694 c 52 
23.518 l 52 221.507 l 52 240.944 67.625 256.686 87.062 256.686 c 
256.758 256.686 l 276.195 256.686 292 240.944 292 221.507 c h
292 96.858 m f
Q Q
showpage
%%Trailer
count op_count sub {pop} repeat
countdictstack dict_count sub {end} repeat
cairo_eps_state restore
%%EOF
