%!PS-Adobe-3.0 EPSF-3.0
%%Creator: cairo 1.10.2 (http://cairographics.org)
%%CreationDate: Thu Aug 13 09:20:13 2015
%%Pages: 1
%%BoundingBox: 0 -1 300 290
%%DocumentData: Clean7Bit
%%LanguageLevel: 2
%%EndComments
%%BeginProlog
/cairo_eps_state save def
/dict_count countdictstack def
/op_count count 1 sub def
userdict begin
/q { gsave } bind def
/Q { grestore } bind def
/cm { 6 array astore concat } bind def
/w { setlinewidth } bind def
/J { setlinecap } bind def
/j { setlinejoin } bind def
/M { setmiterlimit } bind def
/d { setdash } bind def
/m { moveto } bind def
/l { lineto } bind def
/c { curveto } bind def
/h { closepath } bind def
/re { exch dup neg 3 1 roll 5 3 roll moveto 0 rlineto
      0 exch rlineto 0 rlineto closepath } bind def
/S { stroke } bind def
/f { fill } bind def
/f* { eofill } bind def
/n { newpath } bind def
/W { clip } bind def
/W* { eoclip } bind def
/BT { } bind def
/ET { } bind def
/pdfmark where { pop globaldict /?pdfmark /exec load put }
    { globaldict begin /?pdfmark /pop load def /pdfmark
    /cleartomark load def end } ifelse
/BDC { mark 3 1 roll /BDC pdfmark } bind def
/EMC { mark /EMC pdfmark } bind def
/cairo_store_point { /cairo_point_y exch def /cairo_point_x exch def } def
/Tj { show currentpoint cairo_store_point } bind def
/TJ {
  {
    dup
    type /stringtype eq
    { show } { -0.001 mul 0 cairo_font_matrix dtransform rmoveto } ifelse
  } forall
  currentpoint cairo_store_point
} bind def
/cairo_selectfont { cairo_font_matrix aload pop pop pop 0 0 6 array astore
    cairo_font exch selectfont cairo_point_x cairo_point_y moveto } bind def
/Tf { pop /cairo_font exch def /cairo_font_matrix where
      { pop cairo_selectfont } if } bind def
/Td { matrix translate cairo_font_matrix matrix concatmatrix dup
      /cairo_font_matrix exch def dup 4 get exch 5 get cairo_store_point
      /cairo_font where { pop cairo_selectfont } if } bind def
/Tm { 2 copy 8 2 roll 6 array astore /cairo_font_matrix exch def
      cairo_store_point /cairo_font where { pop cairo_selectfont } if } bind def
/g { setgray } bind def
/rg { setrgbcolor } bind def
/d1 { setcachedevice } bind def
%%EndProlog
%%Page: 1 1
%%BeginPageSetup
%%PageBoundingBox: 0 -1 300 290
%%EndPageSetup
q 0 -1 300 291 rectclip q
0 289.685 300 -290 re W n
0 g
120.094 101.845 m 122.586 97.525 125.59 93.736 128.555 91.161 c 134.75 
85.79 139.535 86.775 142.066 88.06 c 152.516 92.728 l 156.594 89.634 
161.004 87.079 165.707 85.091 c 166.887 73.716 l 167.273 66.224 175.992 
61.595 189.809 61.595 c 203.664 61.595 212.379 66.24 212.734 73.755 c 
213.91 85.091 l 218.609 87.079 223.023 89.634 227.102 92.728 c 237.559 
88.052 l 244.242 84.642 252.613 89.876 259.523 101.841 c 262.016 
106.157 263.797 110.657 264.539 114.509 c 266.094 122.56 262.852 
126.212 260.473 127.763 c 251.164 134.505 l 251.469 136.997 251.621 
139.513 251.621 142.029 c 251.621 144.583 251.465 147.138 251.152 
149.669 c 260.453 156.407 l 266.785 160.474 266.449 170.345 259.523 
182.341 c 252.609 194.314 244.23 199.548 237.547 196.122 c 226.992 
191.407 l 222.945 194.462 218.574 196.99 213.922 198.958 c 212.734 
210.431 l 212.375 217.947 203.664 222.591 189.809 222.591 c 175.992 
222.591 167.273 217.958 166.887 210.466 c 165.691 198.958 l 161.039 
196.99 156.668 194.462 152.621 191.407 c 142.086 196.115 l 135.398 
199.564 127.023 194.341 120.094 182.341 c 113.184 170.376 112.84 
160.509 119.133 156.427 c 128.465 149.665 l 128.152 147.138 127.996 
144.583 127.996 142.029 c 127.996 139.513 128.148 136.997 128.449 
134.509 c 119.129 127.755 l 112.84 123.673 113.188 113.81 120.094 
101.845 c h
143.316 132.685 m 142.703 135.743 142.395 138.884 142.395 142.029 c 
142.395 145.208 142.711 148.384 143.336 151.474 c 143.895 154.24 
142.785 157.075 140.5 158.728 c 129.203 166.915 l 129.535 168.599 
130.492 171.56 132.562 175.142 c 134.633 178.728 136.715 181.04 138.008 
182.165 c 150.797 176.454 l 153.367 175.306 156.375 175.763 158.492 
177.626 c 163.258 181.825 168.707 184.974 174.688 186.982 c 177.363 
187.88 179.266 190.259 179.555 193.064 c 181 206.99 l 182.625 207.548 
185.668 208.193 189.809 208.193 c 193.945 208.193 196.988 207.548 
198.613 206.99 c 200.059 193.064 l 200.348 190.259 202.254 187.88 
204.926 186.982 c 210.906 184.974 216.355 181.825 221.125 177.626 c 
223.242 175.763 226.246 175.306 228.82 176.454 c 241.605 182.169 l 
242.902 181.04 244.98 178.732 247.055 175.146 c 249.121 171.56 250.082 
168.603 250.414 166.915 c 239.113 158.732 l 236.832 157.079 235.723 
154.24 236.281 151.474 c 236.906 148.388 237.223 145.212 237.223 
142.029 c 237.223 138.884 236.91 135.74 236.301 132.681 c 235.75 
129.923 236.859 127.091 239.137 125.443 c 250.41 117.275 l 250.082 
115.587 249.121 112.63 247.051 109.044 c 244.98 105.458 242.902 103.15 
241.605 102.021 c 228.918 107.689 l 226.34 108.841 223.324 108.38 
221.207 106.509 c 216.418 102.271 210.938 99.095 204.914 97.072 c 
202.238 96.173 200.336 93.798 200.043 90.99 c 198.613 77.2 l 196.988 
76.642 193.945 75.993 189.809 75.993 c 185.668 75.993 182.625 76.642 
181 77.2 c 179.57 90.99 l 179.281 93.798 177.375 96.173 174.703 97.075 
c 168.68 99.095 163.195 102.271 158.406 106.509 c 156.289 108.38 
153.277 108.845 150.699 107.693 c 138.008 102.021 l 136.715 103.15 
134.633 105.462 132.562 109.044 c 130.496 112.63 129.535 115.587 
129.203 117.275 c 140.48 125.443 l 142.762 127.095 143.867 129.923 
143.316 132.685 c h
293.02 256.083 m 207.199 256.083 l 207.199 282.021 l 207.199 282.072 
207.031 282.118 207.031 282.169 c 207.031 284.181 206.121 286.157 
204.793 287.466 c 203.461 288.775 201.52 289.685 199.512 289.685 c 
101.812 289.685 l 100.332 289.685 98.93 289.13 97.766 288.38 c 95.777 
287.099 94.43 284.786 94.43 282.247 c 94.43 282.185 94.398 282.044 
94.398 281.986 c 94.398 256.087 l 7.383 256.087 l 3.406 256.083 0 
253.185 0 249.208 c 0 34.978 l 0 31.001 3.406 28.083 7.383 28.083 c 
30.398 28.083 l 34.375 28.083 37.602 31.31 37.602 35.286 c 37.602 
39.263 34.375 42.486 30.398 42.486 c 14.398 42.486 l 14.398 241.685 l 
285.602 241.685 l 285.602 42.486 l 91.199 42.486 l 91.199 113.345 l 
91.199 123.65 84.801 132.404 75.199 135.443 c 75.199 170.423 l 83.105 
174.966 l 83.113 174.974 83.137 174.978 83.145 174.982 c 94.484 181.521 
l 94.734 181.661 94.977 181.814 95.207 181.978 c 95.207 181.978 95.211 
181.978 95.211 181.982 c 96.066 182.595 96.758 183.368 97.254 184.24 c 
97.746 185.091 98.16 186.052 98.266 187.079 c 98.297 187.372 98.398 
187.669 98.398 187.966 c 98.398 214.177 l 98.398 214.47 98.301 214.759 
98.27 215.048 c 98.164 216.083 97.793 217.052 97.301 217.911 c 96.801 
218.775 96.094 219.548 95.242 220.161 c 95.008 220.329 94.758 220.482 
94.504 220.622 c 84.738 226.255 l 81.297 228.243 76.891 227.064 74.902 
223.622 c 72.914 220.177 74.188 215.775 77.629 213.786 c 84 210.161 l 
84 191.982 l 76.035 187.439 l 76.027 187.435 75.969 187.427 75.961 
187.423 c 68.094 182.896 l 60.207 187.439 l 60.207 187.443 60.031 
187.443 60.031 187.443 c 52 191.982 l 52 210.161 l 58.441 213.786 l 
61.887 215.775 63.145 220.177 61.16 223.622 c 59.172 227.064 54.809 
228.243 51.363 226.255 c 41.625 220.622 l 41.375 220.482 41.141 220.329 
40.91 220.161 c 40.059 219.548 39.379 218.775 38.883 217.911 c 38.387 
217.048 37.898 216.075 37.797 215.04 c 37.766 214.755 37.602 214.466 
37.602 214.181 c 37.602 187.962 l 37.602 187.677 37.926 187.388 37.953 
187.103 c 38.059 186.064 38.398 185.087 39.199 184.228 c 39.199 184.224 
l 39.199 184.224 39.047 184.224 39.047 184.224 c 39.547 183.357 40.156 
182.583 41.008 181.974 c 41.238 181.81 41.438 181.657 41.684 181.521 c 
53.012 174.97 l 53.012 174.97 52.973 174.97 52.973 174.966 c 60.801 
170.423 l 60.801 135.443 l 51.199 132.407 44.801 123.65 44.801 113.345 
c 44.801 23.24 l 44.801 10.423 55.184 0.001 68 0.001 c 80.816 0.001 
91.199 10.423 91.199 23.24 c 91.199 28.087 l 293.02 28.087 l 296.996 
28.087 300 31.001 300 34.978 c 300 249.208 l 300 253.185 296.996 
256.083 293.02 256.083 c h
192.801 256.083 m 108.801 256.083 l 108.801 275.286 l 192.801 275.286 l 
h
76.801 23.24 m 76.801 18.365 72.875 14.4 68 14.4 c 63.125 14.4 59.199 
18.365 59.199 23.24 c 59.199 113.345 l 59.199 118.22 63.125 122.185 68 
122.185 c 72.875 122.185 76.801 118.22 76.801 113.345 c h
189.809 114.626 m 204.914 114.626 217.203 126.915 217.203 142.021 c 
217.203 157.126 204.914 169.415 189.809 169.415 c 174.703 169.415 
162.414 157.126 162.414 142.021 c 162.414 126.915 174.703 114.626 
189.809 114.626 c h
189.809 155.017 m 196.973 155.017 202.805 149.185 202.805 142.021 c 
202.805 134.857 196.973 129.029 189.809 129.029 c 182.641 129.029 
176.812 134.857 176.812 142.021 c 176.812 149.185 182.641 155.017 
189.809 155.017 c h
189.809 155.017 m f
Q Q
showpage
%%Trailer
count op_count sub {pop} repeat
countdictstack dict_count sub {end} repeat
cairo_eps_state restore
%%EOF
