%!PS-Adobe-3.0 EPSF-3.0
%%Creator: cairo 1.10.2 (http://cairographics.org)
%%CreationDate: Thu Aug 13 09:20:57 2015
%%Pages: 1
%%BoundingBox: 0 -1 307 299
%%DocumentData: Clean7Bit
%%LanguageLevel: 2
%%EndComments
%%BeginProlog
/cairo_eps_state save def
/dict_count countdictstack def
/op_count count 1 sub def
userdict begin
/q { gsave } bind def
/Q { grestore } bind def
/cm { 6 array astore concat } bind def
/w { setlinewidth } bind def
/J { setlinecap } bind def
/j { setlinejoin } bind def
/M { setmiterlimit } bind def
/d { setdash } bind def
/m { moveto } bind def
/l { lineto } bind def
/c { curveto } bind def
/h { closepath } bind def
/re { exch dup neg 3 1 roll 5 3 roll moveto 0 rlineto
      0 exch rlineto 0 rlineto closepath } bind def
/S { stroke } bind def
/f { fill } bind def
/f* { eofill } bind def
/n { newpath } bind def
/W { clip } bind def
/W* { eoclip } bind def
/BT { } bind def
/ET { } bind def
/pdfmark where { pop globaldict /?pdfmark /exec load put }
    { globaldict begin /?pdfmark /pop load def /pdfmark
    /cleartomark load def end } ifelse
/BDC { mark 3 1 roll /BDC pdfmark } bind def
/EMC { mark /EMC pdfmark } bind def
/cairo_store_point { /cairo_point_y exch def /cairo_point_x exch def } def
/Tj { show currentpoint cairo_store_point } bind def
/TJ {
  {
    dup
    type /stringtype eq
    { show } { -0.001 mul 0 cairo_font_matrix dtransform rmoveto } ifelse
  } forall
  currentpoint cairo_store_point
} bind def
/cairo_selectfont { cairo_font_matrix aload pop pop pop 0 0 6 array astore
    cairo_font exch selectfont cairo_point_x cairo_point_y moveto } bind def
/Tf { pop /cairo_font exch def /cairo_font_matrix where
      { pop cairo_selectfont } if } bind def
/Td { matrix translate cairo_font_matrix matrix concatmatrix dup
      /cairo_font_matrix exch def dup 4 get exch 5 get cairo_store_point
      /cairo_font where { pop cairo_selectfont } if } bind def
/Tm { 2 copy 8 2 roll 6 array astore /cairo_font_matrix exch def
      cairo_store_point /cairo_font where { pop cairo_selectfont } if } bind def
/g { setgray } bind def
/rg { setrgbcolor } bind def
/d1 { setcachedevice } bind def
%%EndProlog
%%Page: 1 1
%%BeginPageSetup
%%PageBoundingBox: 0 -1 307 299
%%EndPageSetup
q 0 -1 307 300 rectclip q
0 298.094 307 -299 re W n
0 g
155.379 135.68 m 148.375 142.001 138.629 146.028 128.77 146.798 c 
123.207 137.958 111.91 132.114 99.414 132.114 c 86.922 132.114 75.625 
137.907 70.066 146.747 c 53.746 145.458 38.301 135.118 35.379 123.098 c 
16.359 44.727 l 50.637 44.727 l 54.613 44.727 57.84 41.505 57.84 37.528 
c 57.84 33.551 54.613 30.329 50.637 30.329 c 7.281 30.329 l 7.254 
30.329 7.23 30.458 7.207 30.458 c 7.102 30.458 6.996 30.606 6.895 30.61 
c 6.734 30.618 6.578 30.622 6.422 30.637 c 6.328 30.649 6.23 30.669 
6.137 30.684 c 5.957 30.708 5.781 30.739 5.605 30.778 c 5.57 30.786 
5.535 30.79 5.5 30.798 c 5.43 30.813 5.367 30.841 5.297 30.856 c 5.172 
30.891 5.043 30.926 4.922 30.969 c 4.812 31.005 4.703 31.048 4.598 
31.087 c 4.488 31.13 4.379 31.173 4.273 31.219 c 4.152 31.274 4.039 
31.333 3.922 31.391 c 3.836 31.434 3.746 31.481 3.66 31.528 c 3.535 
31.598 3.414 31.673 3.297 31.751 c 3.223 31.798 3.152 31.844 3.082 
31.895 c 2.961 31.981 2.84 32.067 2.727 32.161 c 2.66 32.212 2.598 
32.262 2.535 32.317 c 2.426 32.415 2.316 32.512 2.211 32.614 c 2.148 
32.673 2.086 32.735 2.023 32.798 c 1.93 32.899 1.836 33.001 1.746 
33.106 c 1.68 33.18 1.621 33.255 1.559 33.333 c 1.48 33.43 1.406 33.532 
1.332 33.633 c 1.27 33.723 1.207 33.817 1.145 33.911 c 1.086 34.005 
1.023 34.102 0.969 34.204 c 0.906 34.305 0.852 34.411 0.797 34.52 c 
0.746 34.618 0.699 34.716 0.652 34.813 c 0.602 34.926 0.555 35.036 
0.508 35.153 c 0.469 35.255 0.43 35.36 0.395 35.466 c 0.355 35.579 0.32 
35.692 0.285 35.805 c 0.254 35.923 0.223 36.04 0.195 36.161 c 0.168 
36.266 0.145 36.368 0.125 36.473 c 0.102 36.61 0.082 36.747 0.062 
36.887 c 0.051 36.981 0.039 37.075 0.031 37.169 c 0.02 37.317 0.012 
37.469 0.008 37.618 c 0.008 37.676 0 37.735 0 37.794 c 0 37.829 0.004 
37.864 0.004 37.899 c 0.008 38.036 0.016 38.176 0.027 38.313 c 0.035 
38.43 0.043 38.548 0.055 38.661 c 0.07 38.766 0.086 38.876 0.105 38.981 
c 0.129 39.126 0.152 39.282 0.188 39.423 c 0.195 39.454 0.195 39.508 
0.203 39.54 c 21.387 126.723 l 26.121 146.188 49.004 161.528 73.484 
161.528 c 74.473 161.528 l 77.547 161.528 80.285 159.505 81.281 156.598 
c 82.98 151.661 89.75 146.594 99.414 146.594 c 109.082 146.594 115.855 
151.637 117.551 156.575 c 118.547 159.485 121.285 161.528 124.359 
161.528 c 125.348 161.528 l 139.809 161.528 154.641 155.841 165.027 
146.466 c 167.977 143.801 168.211 139.157 165.547 136.204 c 162.883 
133.255 158.328 133.016 155.379 135.68 c h
266.168 85.434 m 258.137 79.618 l 258.391 77.45 258.516 75.262 258.516 
73.079 c 258.516 70.934 258.395 68.786 258.152 66.653 c 266.168 60.841 
l 272.18 56.938 271.953 47.696 265.527 36.567 c 263.156 32.462 256.793 
22.915 248.945 22.911 c 247.504 22.911 246.094 23.243 244.832 23.872 c 
235.828 27.895 l 232.324 25.278 228.547 23.094 224.543 21.364 c 223.531 
11.587 l 223.16 4.426 215.043 0.001 202.188 0.001 c 189.301 0.001 
181.191 4.434 180.84 11.61 c 179.828 21.364 l 175.824 23.091 172.051 
25.278 168.547 27.895 c 159.516 23.86 l 158.262 23.239 156.859 22.911 
155.43 22.911 c 147.578 22.911 141.219 32.462 138.848 36.567 c 132.406 
47.727 132.188 56.966 138.23 60.856 c 146.223 66.649 l 145.98 68.782 
145.855 70.93 145.855 73.079 c 145.855 75.262 145.984 77.45 146.234 
79.618 c 138.211 85.43 l 135.906 86.934 132.773 90.446 134.25 98.087 c 
134.934 101.63 136.566 105.755 138.848 109.704 c 141.219 113.813 
147.578 123.36 155.43 123.36 c 156.867 123.36 158.273 123.032 159.531 
122.407 c 168.645 118.333 l 172.121 120.919 175.855 123.079 179.816 
124.79 c 180.844 134.665 l 181.191 141.841 189.301 146.274 202.188 
146.274 c 215.047 146.274 223.16 141.848 223.531 134.684 c 224.559 
124.79 l 228.52 123.075 232.258 120.919 235.73 118.333 c 244.832 
122.399 l 246.094 123.032 247.504 123.364 248.945 123.364 c 256.797 
123.364 263.156 113.813 265.527 109.708 c 271.953 98.575 272.18 89.337 
266.168 85.434 c h
246.117 88.688 m 255.898 95.774 l 255.543 97.262 254.699 99.665 253.055 
102.505 c 251.414 105.348 249.762 107.282 248.645 108.333 c 237.578 
103.387 l 235.004 102.235 232 102.692 229.883 104.555 c 225.664 108.27 
220.844 111.055 215.555 112.833 c 212.883 113.731 210.98 116.11 210.688 
118.915 c 209.438 130.969 l 207.973 131.407 205.469 131.876 202.188 
131.876 c 198.906 131.876 196.402 131.407 194.938 130.969 c 193.688 
118.915 l 193.395 116.11 191.492 113.731 188.82 112.833 c 183.531 
111.055 178.711 108.27 174.492 104.555 c 172.379 102.692 169.371 
102.239 166.797 103.387 c 155.73 108.333 l 154.617 107.282 152.961 
105.348 151.32 102.505 c 149.68 99.665 148.832 97.262 148.477 95.774 c 
158.258 88.688 l 160.543 87.036 161.652 84.2 161.094 81.434 c 160.539 
78.696 160.258 75.883 160.258 73.079 c 160.258 70.301 160.531 67.52 
161.074 64.817 c 161.625 62.055 160.52 59.223 158.238 57.571 c 148.477 
50.501 l 148.832 49.012 149.68 46.61 151.32 43.77 c 152.961 40.926 
154.617 38.993 155.73 37.942 c 166.711 42.848 l 169.289 44.001 172.305 
43.54 174.422 41.669 c 178.656 37.919 183.504 35.114 188.828 33.321 c 
191.504 32.423 193.406 30.048 193.699 27.239 c 194.938 15.305 l 196.402 
14.868 198.906 14.399 202.188 14.399 c 205.469 14.399 207.973 14.868 
209.438 15.305 c 210.676 27.239 l 210.969 30.048 212.871 32.423 215.547 
33.321 c 220.871 35.114 225.723 37.919 229.957 41.669 c 232.074 43.54 
235.09 44.001 237.668 42.848 c 248.648 37.942 l 249.762 38.993 251.414 
40.926 253.059 43.77 c 254.699 46.61 255.543 49.012 255.898 50.505 c 
246.137 57.575 l 243.859 59.223 242.75 62.051 243.301 64.813 c 243.844 
67.524 244.117 70.305 244.117 73.079 c 244.117 75.887 243.836 78.696 
243.285 81.434 c 242.727 84.196 243.832 87.032 246.117 88.688 c h
227.555 73.071 m 227.555 59.087 216.176 47.708 202.188 47.708 c 188.199 
47.708 176.82 59.087 176.82 73.071 c 176.82 87.059 188.199 98.438 
202.188 98.438 c 216.176 98.438 227.555 87.059 227.555 73.071 c h
213.156 73.071 m 213.156 79.122 208.234 84.04 202.188 84.04 c 196.141 
84.04 191.223 79.122 191.223 73.071 c 191.223 67.024 196.141 62.106 
202.188 62.106 c 208.234 62.106 213.156 67.028 213.156 73.071 c h
224.648 175.063 m 231.207 178.887 l 234.641 180.891 235.801 185.301 
233.797 188.735 c 231.793 192.173 227.387 193.329 223.949 191.329 c 
198.562 176.52 l 198.52 176.497 198.48 176.466 198.438 176.438 c 
198.301 176.356 198.164 176.27 198.035 176.176 c 197.957 176.122 
197.883 176.063 197.809 176.005 c 197.703 175.923 197.598 175.841 
197.496 175.755 c 197.41 175.68 197.328 175.602 197.242 175.524 c 
197.16 175.446 197.078 175.364 196.996 175.282 c 196.914 175.192 
196.832 175.102 196.754 175.012 c 196.68 174.926 196.609 174.841 
196.539 174.755 c 196.465 174.661 196.395 174.567 196.328 174.469 c 
196.258 174.372 196.191 174.274 196.129 174.176 c 196.07 174.087 
196.016 173.993 195.961 173.899 c 195.895 173.786 195.832 173.673 
195.773 173.555 c 195.73 173.469 195.691 173.387 195.652 173.301 c 
195.594 173.173 195.535 173.04 195.484 172.907 c 195.453 172.829 
195.426 172.747 195.395 172.661 c 195.348 172.528 195.305 172.391 
195.266 172.251 c 195.242 172.161 195.219 172.071 195.195 171.981 c 
195.164 171.852 195.137 171.719 195.113 171.587 c 195.094 171.477 
195.078 171.368 195.062 171.258 c 195.047 171.141 195.031 171.028 
195.023 170.911 c 195.012 170.774 195.004 170.633 195 170.497 c 195 
170.43 194.992 170.368 194.992 170.301 c 194.992 170.27 194.996 170.243 
194.996 170.212 c 195 170.059 195.008 169.907 195.02 169.758 c 195.027 
169.669 195.031 169.579 195.039 169.493 c 195.059 169.352 195.082 
169.208 195.105 169.067 c 195.121 168.973 195.137 168.876 195.156 
168.782 c 195.184 168.657 195.219 168.536 195.25 168.415 c 195.281 
168.301 195.309 168.192 195.344 168.083 c 195.379 167.981 195.418 
167.88 195.457 167.778 c 195.504 167.653 195.551 167.528 195.605 
167.407 c 195.645 167.317 195.688 167.231 195.734 167.141 c 195.797 
167.016 195.859 166.887 195.926 166.766 c 195.945 166.735 195.957 
166.704 195.973 166.676 c 196 166.633 196.027 166.598 196.055 166.559 c 
196.172 166.368 196.297 166.18 196.43 166.001 c 196.48 165.934 196.531 
165.864 196.582 165.798 c 196.754 165.587 196.93 165.387 197.121 
165.196 c 197.188 165.13 197.262 165.071 197.328 165.005 c 197.465 
164.88 197.605 164.758 197.754 164.645 c 197.84 164.575 197.93 164.508 
198.02 164.446 c 198.176 164.333 198.336 164.231 198.5 164.13 c 198.574 
164.087 198.641 164.04 198.711 164.001 c 198.953 163.872 199.199 
163.751 199.453 163.649 c 199.512 163.626 199.57 163.606 199.629 
163.583 c 199.832 163.505 200.039 163.434 200.254 163.376 c 200.336 
163.352 200.422 163.333 200.508 163.309 c 200.699 163.262 200.895 
163.227 201.09 163.196 c 201.18 163.184 201.273 163.165 201.363 163.157 
c 201.59 163.13 201.82 163.114 202.055 163.11 c 202.102 163.11 202.152 
163.102 202.199 163.102 c 202.207 163.102 202.219 163.102 202.227 
163.102 c 251.855 163.083 292.219 122.704 292.219 73.071 c 292.219 
69.094 295.441 65.872 299.422 65.872 c 303.398 65.872 306.621 69.094 
306.621 73.071 c 306.617 122.95 271.473 164.762 224.648 175.063 c h
28.445 242.157 m 28.113 246.118 31.055 249.602 35.02 249.934 c 36.246 
250.036 37.43 249.821 38.488 249.36 c 44.766 277.219 69.691 298.094 
99.418 298.094 c 129.141 298.094 154.062 277.223 160.344 249.368 c 
161.402 249.829 162.586 250.04 163.816 249.934 c 167.781 249.602 
170.723 246.118 170.387 242.157 c 169.449 231.02 l 169.133 227.262 
165.988 224.423 162.285 224.423 c 162.082 224.423 161.879 224.43 
161.672 224.45 c 161.406 224.473 161.148 224.508 160.895 224.559 c 
158.766 212.645 153.227 201.587 144.758 192.653 c 132.84 180.079 
116.734 173.157 99.418 173.157 c 82.09 173.157 65.395 180.442 53.605 
193.153 c 48.492 198.669 44.457 204.973 41.613 211.899 c 40.371 214.926 
39.359 218.071 38.609 221.255 c 38.355 222.348 38.129 223.45 37.93 
224.555 c 37.68 224.508 37.422 224.469 37.16 224.45 c 36.957 224.43 
36.754 224.423 36.551 224.423 c 32.848 224.423 29.699 227.262 29.383 
231.02 c h
63.312 232.727 m 70.32 232.727 l 76.527 232.727 81.773 236.876 81.773 
241.926 c 81.773 246.981 76.527 251.13 70.32 251.13 c 63.312 251.13 l 
57.105 251.13 51.859 246.981 51.859 241.926 c 51.859 236.876 57.105 
232.727 63.312 232.727 c h
144.793 219.817 m 141.91 218.798 138.789 218.329 135.52 218.329 c 
128.516 218.329 l 116.992 218.329 107.211 224.727 103.879 234.329 c 
94.953 234.329 l 91.621 224.727 81.84 218.329 70.32 218.329 c 63.312 
218.329 l 60.051 218.329 56.926 218.798 54.047 219.817 c 54.324 219.024 
54.617 218.141 54.934 217.372 c 57.121 212.044 60.227 207.192 64.164 
202.946 c 73.238 193.165 86.086 187.555 99.418 187.555 c 112.742 
187.555 125.133 192.883 134.309 202.559 c 139.035 207.544 142.574 
213.485 144.793 219.817 c h
135.52 251.13 m 128.516 251.13 l 122.305 251.13 117.059 246.981 117.059 
241.926 c 117.059 236.876 122.305 232.727 128.516 232.727 c 135.52 
232.727 l 141.73 232.727 146.973 236.876 146.973 241.926 c 146.973 
246.981 141.73 251.13 135.52 251.13 c h
61.836 265.516 m 62.324 265.54 62.816 265.528 63.312 265.528 c 70.32 
265.528 l 81.84 265.528 91.621 258.329 94.953 248.727 c 103.879 248.727 
l 107.211 258.329 116.992 265.528 128.512 265.528 c 135.52 265.528 l 
136.016 265.528 136.508 265.54 137 265.516 c 132.859 270.704 127.672 
275.048 121.754 278.169 c 115.426 278.04 109.562 275.442 105.207 
270.813 c 103.789 269.305 101.879 268.548 99.961 268.548 c 98.191 
268.548 96.418 269.196 95.027 270.501 c 92.133 273.227 91.992 277.782 
94.719 280.68 c 95.715 281.739 96.773 282.727 97.875 283.653 c 83.301 
283.192 70.348 276.188 61.836 265.516 c h
101.418 211.13 m 97.414 211.13 l 93.438 211.13 90.215 207.903 90.215 
203.926 c 90.215 199.95 93.438 196.727 97.414 196.727 c 101.418 196.727 
l 105.395 196.727 108.617 199.95 108.617 203.926 c 108.617 207.903 
105.395 211.13 101.418 211.13 c h
101.418 211.13 m f
Q Q
showpage
%%Trailer
count op_count sub {pop} repeat
countdictstack dict_count sub {end} repeat
cairo_eps_state restore
%%EOF
