%!PS-Adobe-3.0 EPSF-3.0
%%Creator: cairo 1.10.2 (http://cairographics.org)
%%CreationDate: Thu Aug 13 09:20:37 2015
%%Pages: 1
%%BoundingBox: 0 -1 290 309
%%DocumentData: Clean7Bit
%%LanguageLevel: 2
%%EndComments
%%BeginProlog
/cairo_eps_state save def
/dict_count countdictstack def
/op_count count 1 sub def
userdict begin
/q { gsave } bind def
/Q { grestore } bind def
/cm { 6 array astore concat } bind def
/w { setlinewidth } bind def
/J { setlinecap } bind def
/j { setlinejoin } bind def
/M { setmiterlimit } bind def
/d { setdash } bind def
/m { moveto } bind def
/l { lineto } bind def
/c { curveto } bind def
/h { closepath } bind def
/re { exch dup neg 3 1 roll 5 3 roll moveto 0 rlineto
      0 exch rlineto 0 rlineto closepath } bind def
/S { stroke } bind def
/f { fill } bind def
/f* { eofill } bind def
/n { newpath } bind def
/W { clip } bind def
/W* { eoclip } bind def
/BT { } bind def
/ET { } bind def
/pdfmark where { pop globaldict /?pdfmark /exec load put }
    { globaldict begin /?pdfmark /pop load def /pdfmark
    /cleartomark load def end } ifelse
/BDC { mark 3 1 roll /BDC pdfmark } bind def
/EMC { mark /EMC pdfmark } bind def
/cairo_store_point { /cairo_point_y exch def /cairo_point_x exch def } def
/Tj { show currentpoint cairo_store_point } bind def
/TJ {
  {
    dup
    type /stringtype eq
    { show } { -0.001 mul 0 cairo_font_matrix dtransform rmoveto } ifelse
  } forall
  currentpoint cairo_store_point
} bind def
/cairo_selectfont { cairo_font_matrix aload pop pop pop 0 0 6 array astore
    cairo_font exch selectfont cairo_point_x cairo_point_y moveto } bind def
/Tf { pop /cairo_font exch def /cairo_font_matrix where
      { pop cairo_selectfont } if } bind def
/Td { matrix translate cairo_font_matrix matrix concatmatrix dup
      /cairo_font_matrix exch def dup 4 get exch 5 get cairo_store_point
      /cairo_font where { pop cairo_selectfont } if } bind def
/Tm { 2 copy 8 2 roll 6 array astore /cairo_font_matrix exch def
      cairo_store_point /cairo_font where { pop cairo_selectfont } if } bind def
/g { setgray } bind def
/rg { setrgbcolor } bind def
/d1 { setcachedevice } bind def
%%EndProlog
%%Page: 1 1
%%BeginPageSetup
%%PageBoundingBox: 0 -1 290 309
%%EndPageSetup
q 0 -1 290 310 rectclip q
0 308.801 290 -309 re W n
0 g
97.227 188 m 101.223 188 l 105.203 188 108.426 184.777 108.426 180.801 
c 108.426 176.824 105.203 173.602 101.223 173.602 c 97.227 173.602 l 
93.25 173.602 90.027 176.824 90.027 180.801 c 90.027 184.777 93.25 188 
97.227 188 c h
77.699 202.402 m 85.699 202.402 l 89.676 202.402 92.898 205.625 92.898 
209.602 c 92.898 213.578 89.676 216.801 85.699 216.801 c 77.699 216.801 
l 73.723 216.801 70.5 213.578 70.5 209.602 c 70.5 205.625 73.723 
202.402 77.699 202.402 c h
113.137 202.402 m 121.137 202.402 l 125.113 202.402 128.336 205.625 
128.336 209.602 c 128.336 213.578 125.113 216.801 121.137 216.801 c 
113.137 216.801 l 109.16 216.801 105.938 213.578 105.938 209.602 c 
105.938 205.625 109.16 202.402 113.137 202.402 c h
203.602 211.734 m 204.227 211.117 204.953 210.598 205.734 210.254 c 
206.672 209.836 207.66 209.602 208.641 209.602 c 208.707 209.602 l 
209.715 209.602 210.734 209.863 211.691 210.313 c 212.457 210.668 
213.168 211.184 213.781 211.805 c 214.234 212.266 214.617 212.789 
214.926 213.34 c 245.516 265.52 l 247.527 268.953 246.379 273.363 
242.949 275.375 c 239.516 277.391 235.105 276.238 233.094 272.805 c 
208.523 230.902 l 199.59 245.555 l 197.52 248.949 193.09 250.023 
189.695 247.953 c 186.301 245.883 185.227 241.453 187.297 238.059 c 
202.43 213.242 l 202.746 212.695 203.141 212.188 203.602 211.734 c h
258.301 308.801 m 174.445 308.801 l 157.426 308.801 143.578 295.02 
143.578 278 c 143.578 274.023 146.801 270.832 150.777 270.832 c 154.754 
270.832 157.977 274.008 157.977 277.98 c 157.977 287.063 165.363 
294.398 174.445 294.398 c 258.301 294.398 l 267.383 294.398 275.125 
287.145 275.125 278.063 c 275.125 208.57 l 275.125 199.492 267.379 192 
258.301 192 c 188.129 192 l 185.859 192 183.727 190.984 182.367 189.172 
c 158.676 157.598 l 156.293 154.414 156.938 149.914 160.121 147.531 c 
161.414 146.559 162.93 146.098 164.434 146.098 c 166.621 146.098 
168.785 147.043 170.199 148.93 c 191.73 177.602 l 258.301 177.602 l 
275.32 177.602 289.527 191.551 289.527 208.57 c 289.527 278.066 l 
289.527 295.086 275.32 308.801 258.301 308.801 c h
198.59 9.32 m 177.445 96.387 l 172.711 115.855 149.828 131.199 125.348 
131.199 c 124.359 131.199 l 121.281 131.199 118.547 129.148 117.547 
126.238 c 115.852 121.301 109.082 116.254 99.418 116.254 c 89.754 
116.254 82.98 121.328 81.285 126.266 c 80.289 129.176 77.551 131.199 
74.477 131.199 c 73.484 131.199 l 49.008 131.199 26.121 115.855 21.391 
96.387 c 0.246 9.371 l 0.152 9.02 0.082 8.633 0.043 8.258 c -0.055 
7.363 0.016 6.469 0.238 5.633 c 0.434 4.879 0.75 4.172 1.16 3.535 c 
2.008 2.234 3.273 1.195 4.82 0.656 c 5.09 0.563 5.367 0.359 5.648 0.297 
c 6.242 0.164 6.84 0 7.422 0 c 67.621 0 l 71.598 0 74.82 3.223 74.82 
7.199 c 74.82 11.176 71.598 14.398 67.621 14.398 c 16.363 14.398 l 
35.383 92.762 l 38.305 104.781 53.746 115.117 70.066 116.406 c 75.629 
107.566 86.922 101.773 99.418 101.773 c 111.914 101.773 123.207 107.613 
128.77 116.453 c 145.09 115.164 160.531 104.773 163.453 92.754 c 
182.473 14.402 l 131.211 14.402 l 127.234 14.402 124.012 11.176 124.012 
7.199 c 124.012 3.223 127.234 0 131.211 0 c 191.414 0 l 191.484 0 
191.555 0.125 191.629 0.125 c 192.156 0.125 192.699 0.246 193.234 0.367 
c 193.48 0.422 193.719 0.523 193.953 0.602 c 195.543 1.141 196.84 2.211 
197.695 3.551 c 198.09 4.16 198.391 4.844 198.586 5.563 c 198.82 6.422 
198.895 7.34 198.789 8.266 c 198.746 8.625 198.68 8.98 198.59 9.32 c h
28.254 214.898 m 27.922 218.859 30.863 222.344 34.824 222.676 c 36.055 
222.777 37.227 222.566 38.281 222.113 c 44.559 249.969 69.5 270.836 
99.227 270.836 c 115.391 270.836 130.145 264.66 141.25 254.547 c 
141.555 254.313 141.844 254.047 142.117 253.754 c 142.145 253.727 
142.168 253.699 142.195 253.668 c 151.016 245.297 157.402 234.387 
160.172 222.113 c 161.223 222.57 162.398 222.777 163.625 222.676 c 
167.586 222.344 170.527 218.859 170.195 214.898 c 169.258 203.762 l 
168.926 199.801 165.453 196.855 161.48 197.191 c 161.219 197.215 
160.965 197.25 160.711 197.297 c 155.473 168.113 129.895 145.898 99.227 
145.898 c 68.555 145.898 42.977 168.113 37.738 197.297 c 37.488 197.25 
37.23 197.215 36.969 197.191 c 32.984 196.848 29.523 199.801 29.191 
203.762 c h
51.156 208.367 m 51.156 181.859 72.719 160.297 99.227 160.297 c 125.73 
160.297 147.293 181.859 147.293 208.367 c 147.293 220.004 143.141 
230.684 136.234 239.008 c 125.551 231.137 112.648 226.867 99.227 
226.867 c 93.637 226.867 88.086 227.609 82.734 229.07 c 78.898 230.121 
76.637 234.078 77.684 237.914 c 78.73 241.754 82.691 244.008 86.523 
242.965 c 90.645 241.84 94.918 241.27 99.227 241.27 c 108.5 241.27 
117.449 243.918 125.129 248.844 c 117.648 253.648 108.758 256.434 
99.227 256.434 c 72.719 256.434 51.156 234.871 51.156 208.367 c h
51.156 208.367 m f
Q Q
showpage
%%Trailer
count op_count sub {pop} repeat
countdictstack dict_count sub {end} repeat
cairo_eps_state restore
%%EOF
