%!PS-Adobe-3.0 EPSF-3.0
%%Creator: cairo 1.10.2 (http://cairographics.org)
%%CreationDate: Thu Aug 13 09:20:58 2015
%%Pages: 1
%%BoundingBox: 0 -1 236 305
%%DocumentData: Clean7Bit
%%LanguageLevel: 2
%%EndComments
%%BeginProlog
/cairo_eps_state save def
/dict_count countdictstack def
/op_count count 1 sub def
userdict begin
/q { gsave } bind def
/Q { grestore } bind def
/cm { 6 array astore concat } bind def
/w { setlinewidth } bind def
/J { setlinecap } bind def
/j { setlinejoin } bind def
/M { setmiterlimit } bind def
/d { setdash } bind def
/m { moveto } bind def
/l { lineto } bind def
/c { curveto } bind def
/h { closepath } bind def
/re { exch dup neg 3 1 roll 5 3 roll moveto 0 rlineto
      0 exch rlineto 0 rlineto closepath } bind def
/S { stroke } bind def
/f { fill } bind def
/f* { eofill } bind def
/n { newpath } bind def
/W { clip } bind def
/W* { eoclip } bind def
/BT { } bind def
/ET { } bind def
/pdfmark where { pop globaldict /?pdfmark /exec load put }
    { globaldict begin /?pdfmark /pop load def /pdfmark
    /cleartomark load def end } ifelse
/BDC { mark 3 1 roll /BDC pdfmark } bind def
/EMC { mark /EMC pdfmark } bind def
/cairo_store_point { /cairo_point_y exch def /cairo_point_x exch def } def
/Tj { show currentpoint cairo_store_point } bind def
/TJ {
  {
    dup
    type /stringtype eq
    { show } { -0.001 mul 0 cairo_font_matrix dtransform rmoveto } ifelse
  } forall
  currentpoint cairo_store_point
} bind def
/cairo_selectfont { cairo_font_matrix aload pop pop pop 0 0 6 array astore
    cairo_font exch selectfont cairo_point_x cairo_point_y moveto } bind def
/Tf { pop /cairo_font exch def /cairo_font_matrix where
      { pop cairo_selectfont } if } bind def
/Td { matrix translate cairo_font_matrix matrix concatmatrix dup
      /cairo_font_matrix exch def dup 4 get exch 5 get cairo_store_point
      /cairo_font where { pop cairo_selectfont } if } bind def
/Tm { 2 copy 8 2 roll 6 array astore /cairo_font_matrix exch def
      cairo_store_point /cairo_font where { pop cairo_selectfont } if } bind def
/g { setgray } bind def
/rg { setrgbcolor } bind def
/d1 { setcachedevice } bind def
%%EndProlog
%%Page: 1 1
%%BeginPageSetup
%%PageBoundingBox: 0 -1 236 305
%%EndPageSetup
q 0 -1 236 306 rectclip q
0 304.617 236 -305 re W n
0 g
85.703 230.531 m 77.699 230.531 l 73.723 230.531 70.5 233.754 70.5 
237.73 c 70.5 241.707 73.723 244.929 77.699 244.929 c 85.703 244.929 l 
89.68 244.929 92.902 241.707 92.902 237.73 c 92.902 233.754 89.68 
230.531 85.703 230.531 c h
113.137 230.531 m 121.141 230.531 l 125.117 230.531 128.34 233.754 
128.34 237.73 c 128.34 241.707 125.117 244.929 121.141 244.929 c 
113.137 244.929 l 109.16 244.929 105.938 241.707 105.938 237.73 c 
105.938 233.754 109.16 230.531 113.137 230.531 c h
42.727 221.265 m 44.812 220.921 46.797 221.507 48.41 222.879 c 50.023 
224.246 50.805 226.254 50.805 228.371 c 50.805 240.332 l 50.805 240.64 
50.961 240.941 50.922 241.242 c 50.961 241.539 51.07 241.839 51.07 
242.148 c 51.07 268.656 72.676 290.218 99.18 290.218 c 100.469 290.218 
101.77 290.168 103.031 290.066 c 96.355 279.711 86.668 272.222 75.75 
269.168 c 71.922 268.097 69.691 264.125 70.762 260.296 c 71.832 256.464 
75.809 254.226 79.637 255.3 c 95.441 259.722 109.184 271.035 117.695 
286.527 c 135.059 279.277 147.297 262.113 147.297 242.148 c 147.297 
221.566 134.352 203.664 115.297 196.945 c 113.031 198.859 110.105 
200.132 106.914 200.132 c 91.539 200.132 l 84.363 200.132 78.523 
194.109 78.523 186.929 c 78.523 179.754 84.363 173.73 91.539 173.73 c 
106.914 173.73 l 112.734 173.73 117.676 177.64 119.332 182.921 c 
137.891 189.195 151.93 203.699 158.125 221.687 c 166.484 223.718 
171.602 228.929 171.602 235.316 c 171.602 251.273 l 171.602 257.898 
166.082 263.23 157.168 265.086 c 148.008 288.214 125.496 304.617 99.145 
304.617 c 72.758 304.617 50.133 288.171 40.992 264.996 c 32.32 263.058 
26.805 257.796 26.805 251.277 c 26.805 235.316 l 26.805 228.379 33.086 
222.867 42.727 221.265 c h
128.773 141.414 m 138.637 140.648 148.379 136.609 155.383 130.289 c 
158.332 127.625 162.887 127.859 165.551 130.808 c 168.215 133.757 
167.984 138.402 165.031 141.07 c 154.648 150.445 139.812 156.129 
125.352 156.129 c 124.363 156.129 l 121.289 156.129 118.551 154.086 
117.555 151.179 c 115.859 146.242 109.086 141.195 99.418 141.195 c 
89.754 141.195 82.984 146.261 81.289 151.199 c 80.289 154.109 77.551 
156.129 74.477 156.129 c 73.488 156.129 l 49.008 156.129 26.125 140.793 
21.391 121.324 c 0.246 34.316 l 0.152 33.961 0.082 33.57 0.043 33.195 c 
-0.055 32.3 0.016 31.406 0.238 30.57 c 0.434 29.828 0.746 29.125 1.152 
28.496 c 2 27.179 3.277 26.136 4.844 25.593 c 5.102 25.507 5.363 25.429 
5.633 25.371 c 6.16 25.25 6.688 25.062 7.207 25.062 c 7.277 25.062 
7.352 24.929 7.422 24.929 c 50.641 24.929 l 54.617 24.929 57.84 28.152 
57.84 32.129 c 57.84 36.109 54.617 39.332 50.641 39.332 c 16.363 39.332 
l 35.383 117.699 l 38.305 129.718 53.746 140.058 70.066 141.347 c 
75.629 132.507 86.922 126.718 99.418 126.718 c 111.914 126.718 123.211 
132.574 128.773 141.414 c h
235.605 68.64 m 235.605 63.648 233.309 58.902 229.422 55.793 c 229.23 
55.621 229.027 55.457 228.816 55.304 c 211.039 42.441 l 217.859 21.578 
l 219.223 17.382 218.875 12.921 216.879 9.004 c 214.883 5.086 211.48 
2.175 207.297 0.816 c 205.609 0.269 203.879 -0 202.168 -0 c 198.43 -0 
194.77 1.285 191.773 3.738 c 174.781 16.132 l 157.039 3.191 l 153.48 
0.601 149.141 -0.446 144.801 0.238 c 140.465 0.921 136.648 3.25 134.066 
6.8 c 131.137 10.824 130.199 15.988 131.488 20.773 c 131.543 21.043 
131.613 21.312 131.703 21.578 c 138.523 42.441 l 120.746 55.304 l 
117.18 57.886 114.836 61.703 114.145 66.046 c 113.449 70.39 114.488 
74.742 117.07 78.304 c 120.379 82.875 125.668 85.406 131.309 85.086 c 
152.379 85.046 l 159.117 105.925 l 161.891 114.55 171.168 119.32 
179.809 116.55 c 184.844 114.933 188.816 110.964 190.441 105.929 c 
190.445 105.918 l 190.445 105.918 190.445 105.918 190.445 105.918 c 
190.449 105.902 l 190.457 105.879 190.465 105.851 190.473 105.828 c 
197.18 85.046 l 219.141 85.086 l 228.227 85.086 235.605 77.711 235.605 
68.64 c h
221.203 68.617 m 221.203 69.746 220.285 70.636 219.156 70.636 c 191.957 
70.531 l 191.945 70.531 l 188.82 70.531 186.051 72.597 185.094 75.57 c 
176.754 101.461 l 176.746 101.48 176.738 101.5 176.734 101.519 c 
176.629 101.836 176.301 102.539 175.414 102.824 c 174.328 103.168 
173.172 102.562 172.828 101.484 c 164.473 75.57 l 163.512 72.597 
160.742 70.531 157.621 70.531 c 157.605 70.531 l 131.066 70.636 l 
130.902 70.636 130.734 70.691 130.566 70.707 c 129.84 70.754 129.156 
70.441 128.734 69.859 c 128.316 69.281 128.305 68.703 128.367 68.316 c 
128.43 67.929 128.621 67.382 129.195 66.964 c 151.223 51.027 l 153.762 
49.191 154.82 45.929 153.848 42.957 c 145.582 17.679 l 145.535 17.488 
145.48 17.296 145.422 17.109 c 145.324 16.808 145.156 16.031 145.711 
15.273 c 146.121 14.711 146.66 14.519 147.039 14.461 c 147.422 14.402 
147.992 14.414 148.559 14.828 c 170.539 30.859 l 171.805 31.785 173.293 
32.246 174.781 32.246 c 176.273 32.246 177.762 31.785 179.027 30.859 c 
200.445 15.234 l 200.59 15.129 200.73 15.019 200.863 14.906 c 201.07 
14.73 201.828 14.183 202.848 14.511 c 203.52 14.73 203.871 15.191 
204.047 15.539 c 204.223 15.886 204.391 16.441 204.172 17.113 c 195.719 
42.957 l 194.746 45.929 195.805 49.191 198.344 51.027 c 219.91 66.629 l 
220.051 66.754 220.199 66.871 220.352 66.98 c 220.609 67.168 221.203 
67.675 221.203 68.617 c h
221.203 68.617 m f
Q Q
showpage
%%Trailer
count op_count sub {pop} repeat
countdictstack dict_count sub {end} repeat
cairo_eps_state restore
%%EOF
