%!PS-Adobe-3.0 EPSF-3.0
%%Creator: cairo 1.10.2 (http://cairographics.org)
%%CreationDate: Thu Aug 13 09:20:18 2015
%%Pages: 1
%%BoundingBox: 0 -1 290 309
%%DocumentData: Clean7Bit
%%LanguageLevel: 2
%%EndComments
%%BeginProlog
/cairo_eps_state save def
/dict_count countdictstack def
/op_count count 1 sub def
userdict begin
/q { gsave } bind def
/Q { grestore } bind def
/cm { 6 array astore concat } bind def
/w { setlinewidth } bind def
/J { setlinecap } bind def
/j { setlinejoin } bind def
/M { setmiterlimit } bind def
/d { setdash } bind def
/m { moveto } bind def
/l { lineto } bind def
/c { curveto } bind def
/h { closepath } bind def
/re { exch dup neg 3 1 roll 5 3 roll moveto 0 rlineto
      0 exch rlineto 0 rlineto closepath } bind def
/S { stroke } bind def
/f { fill } bind def
/f* { eofill } bind def
/n { newpath } bind def
/W { clip } bind def
/W* { eoclip } bind def
/BT { } bind def
/ET { } bind def
/pdfmark where { pop globaldict /?pdfmark /exec load put }
    { globaldict begin /?pdfmark /pop load def /pdfmark
    /cleartomark load def end } ifelse
/BDC { mark 3 1 roll /BDC pdfmark } bind def
/EMC { mark /EMC pdfmark } bind def
/cairo_store_point { /cairo_point_y exch def /cairo_point_x exch def } def
/Tj { show currentpoint cairo_store_point } bind def
/TJ {
  {
    dup
    type /stringtype eq
    { show } { -0.001 mul 0 cairo_font_matrix dtransform rmoveto } ifelse
  } forall
  currentpoint cairo_store_point
} bind def
/cairo_selectfont { cairo_font_matrix aload pop pop pop 0 0 6 array astore
    cairo_font exch selectfont cairo_point_x cairo_point_y moveto } bind def
/Tf { pop /cairo_font exch def /cairo_font_matrix where
      { pop cairo_selectfont } if } bind def
/Td { matrix translate cairo_font_matrix matrix concatmatrix dup
      /cairo_font_matrix exch def dup 4 get exch 5 get cairo_store_point
      /cairo_font where { pop cairo_selectfont } if } bind def
/Tm { 2 copy 8 2 roll 6 array astore /cairo_font_matrix exch def
      cairo_store_point /cairo_font where { pop cairo_selectfont } if } bind def
/g { setgray } bind def
/rg { setrgbcolor } bind def
/d1 { setcachedevice } bind def
%%EndProlog
%%Page: 1 1
%%BeginPageSetup
%%PageBoundingBox: 0 -1 290 309
%%EndPageSetup
q 0 -1 290 310 rectclip q
0 308.95 290 -309 re W n
0 g
29.191 203.407 m 29.527 199.446 32.988 196.497 36.969 196.833 c 37.23 
196.856 37.488 196.891 37.738 196.942 c 42.98 167.755 68.555 145.54 
99.227 145.54 c 129.895 145.54 155.473 167.755 160.711 196.942 c 
160.965 196.891 161.219 196.856 161.48 196.833 c 165.453 196.501 
168.926 199.442 169.262 203.407 c 170.199 214.54 l 170.531 218.505 
167.586 221.985 163.625 222.321 c 162.402 222.423 161.223 222.212 
160.172 221.759 c 157.406 234.028 151.02 244.942 142.195 253.313 c 
142.172 253.341 142.145 253.368 142.117 253.395 c 141.844 253.688 
141.555 253.954 141.25 254.192 c 130.145 264.306 115.395 270.477 99.227 
270.477 c 69.504 270.477 44.562 249.61 38.281 221.755 c 37.23 222.212 
36.059 222.419 34.828 222.317 c 30.863 221.985 27.922 218.505 28.254 
214.54 c h
99.227 256.079 m 108.758 256.079 117.648 253.29 125.133 248.485 c 
117.449 243.559 108.5 240.911 99.227 240.911 c 94.918 240.911 90.645 
241.481 86.527 242.606 c 82.695 243.657 78.73 241.395 77.684 237.556 c 
76.637 233.72 78.898 229.763 82.734 228.716 c 88.086 227.255 93.637 
226.513 99.227 226.513 c 112.648 226.513 125.551 230.782 136.234 
238.653 c 143.141 230.329 147.297 219.645 147.297 208.009 c 147.297 
181.505 125.73 159.938 99.227 159.938 c 72.719 159.938 51.156 181.505 
51.156 208.009 c 51.156 234.513 72.723 256.079 99.227 256.079 c h
105.938 209.751 m 105.938 213.727 109.16 216.95 113.137 216.95 c 
121.137 216.95 l 125.113 216.95 128.34 213.727 128.34 209.751 c 128.34 
205.774 125.113 202.552 121.137 202.552 c 113.137 202.552 l 109.16 
202.552 105.938 205.774 105.938 209.751 c h
97.227 188.149 m 101.227 188.149 l 105.203 188.149 108.426 184.927 
108.426 180.95 c 108.426 176.973 105.203 173.751 101.227 173.751 c 
97.227 173.751 l 93.25 173.751 90.027 176.973 90.027 180.95 c 90.027 
184.927 93.25 188.149 97.227 188.149 c h
70.5 209.751 m 70.5 213.727 73.723 216.95 77.699 216.95 c 85.699 216.95 
l 89.676 216.95 92.902 213.727 92.902 209.751 c 92.902 205.774 89.676 
202.552 85.699 202.552 c 77.699 202.552 l 73.723 202.552 70.5 205.774 
70.5 209.751 c h
223.801 234.727 m 223.832 230.751 220.637 227.348 216.66 227.348 c 
216.598 227.348 l 212.648 227.348 209.434 230.653 209.398 234.61 c 
209.336 242.407 215.027 247.306 219.598 251.145 c 223.188 254.157 
225.539 256.278 225.539 258.216 c 225.539 262.145 222.344 265.341 
218.418 265.341 c 214.488 265.341 211.293 262.145 211.293 258.216 c 
211.293 254.239 208.07 251.016 204.094 251.016 c 200.117 251.016 
196.895 254.239 196.895 258.216 c 196.895 270.087 206.547 279.739 
218.414 279.739 c 230.285 279.739 239.941 270.087 239.941 258.216 c 
239.941 249.419 233.535 244.044 228.859 240.114 c 227.09 238.63 223.793 
235.743 223.801 234.727 c h
198.789 7.915 m 198.898 6.989 198.82 6.079 198.586 5.22 c 198.395 4.505 
198.094 3.845 197.707 3.239 c 197.703 3.235 197.703 3.251 197.699 3.247 
c 196.844 1.907 195.543 0.88 193.949 0.341 c 193.715 0.259 193.48 0.255 
193.238 0.204 c 192.625 0.059 192.012 0.149 191.414 0.149 c 131.211 
0.149 l 127.234 0.149 124.012 3.376 124.012 7.352 c 124.012 11.329 
127.234 14.552 131.211 14.552 c 182.477 14.552 l 163.457 92.669 l 
160.535 104.684 145.09 114.841 128.77 116.13 c 123.207 107.29 111.914 
101.481 99.418 101.481 c 86.926 101.481 75.629 107.337 70.07 116.177 c 
53.746 114.891 38.305 104.677 35.383 92.661 c 16.363 14.552 l 67.625 
14.552 l 71.602 14.552 74.824 11.325 74.824 7.348 c 74.824 3.372 71.602 
0.149 67.625 0.149 c 7.426 0.149 l 7.352 0.149 7.281 0.02 7.207 0.02 c 
6.676 0.02 6.141 -0.05 5.602 0.075 c 5.355 0.13 5.117 0.196 4.883 0.274 
c 3.301 0.809 2.008 1.86 1.152 3.184 c 0.746 3.813 0.434 4.505 0.238 
5.247 c 0.016 6.087 -0.055 6.97 0.043 7.864 c 0.082 8.239 0.152 8.591 
0.246 8.942 c 21.391 95.884 l 26.121 115.352 49.008 130.552 73.488 
130.552 c 74.477 130.552 l 77.555 130.552 80.289 128.634 81.289 125.723 
c 82.984 120.786 89.754 115.825 99.418 115.825 c 109.082 115.825 
115.855 120.798 117.551 125.735 c 118.547 128.645 121.285 130.552 
124.359 130.552 c 125.348 130.552 l 149.828 130.552 172.715 115.352 
177.449 95.884 c 198.59 8.966 l 198.684 8.622 198.75 8.274 198.789 
7.915 c h
223.883 213.958 m 223.883 209.981 220.66 206.731 216.684 206.731 c 
212.707 206.731 209.527 209.927 209.527 213.903 c 209.527 213.958 l 
209.527 217.934 212.707 221.157 216.684 221.157 c 220.66 221.157 
223.883 217.934 223.883 213.958 c h
289.527 277.708 m 289.527 208.216 l 289.527 191.196 275.324 176.95 
258.305 176.95 c 191.73 176.95 l 170.199 148.419 l 168.785 146.532 
166.621 145.723 164.434 145.723 c 162.93 145.723 161.414 146.165 
160.121 147.138 c 156.938 149.524 156.293 153.985 158.68 157.169 c 
182.367 188.669 l 183.727 190.481 185.863 191.348 188.129 191.348 c 
258.301 191.348 l 267.383 191.348 275.129 199.134 275.129 208.216 c 
275.129 277.708 l 275.129 286.79 267.383 294.552 258.301 294.552 c 
174.445 294.552 l 165.367 294.552 157.977 287.02 157.977 277.942 c 
157.977 273.966 154.754 270.602 150.777 270.602 c 146.801 270.602 
143.578 273.919 143.578 277.895 c 143.578 294.915 157.426 308.95 
174.445 308.95 c 258.305 308.95 l 275.324 308.95 289.527 294.727 
289.527 277.708 c h
289.527 277.708 m f
Q Q
showpage
%%Trailer
count op_count sub {pop} repeat
countdictstack dict_count sub {end} repeat
cairo_eps_state restore
%%EOF
