%!PS-Adobe-3.0 EPSF-3.0
%%Creator: cairo 1.10.2 (http://cairographics.org)
%%CreationDate: Thu Aug 13 09:20:50 2015
%%Pages: 1
%%BoundingBox: 0 -1 254 300
%%DocumentData: Clean7Bit
%%LanguageLevel: 2
%%EndComments
%%BeginProlog
/cairo_eps_state save def
/dict_count countdictstack def
/op_count count 1 sub def
userdict begin
/q { gsave } bind def
/Q { grestore } bind def
/cm { 6 array astore concat } bind def
/w { setlinewidth } bind def
/J { setlinecap } bind def
/j { setlinejoin } bind def
/M { setmiterlimit } bind def
/d { setdash } bind def
/m { moveto } bind def
/l { lineto } bind def
/c { curveto } bind def
/h { closepath } bind def
/re { exch dup neg 3 1 roll 5 3 roll moveto 0 rlineto
      0 exch rlineto 0 rlineto closepath } bind def
/S { stroke } bind def
/f { fill } bind def
/f* { eofill } bind def
/n { newpath } bind def
/W { clip } bind def
/W* { eoclip } bind def
/BT { } bind def
/ET { } bind def
/pdfmark where { pop globaldict /?pdfmark /exec load put }
    { globaldict begin /?pdfmark /pop load def /pdfmark
    /cleartomark load def end } ifelse
/BDC { mark 3 1 roll /BDC pdfmark } bind def
/EMC { mark /EMC pdfmark } bind def
/cairo_store_point { /cairo_point_y exch def /cairo_point_x exch def } def
/Tj { show currentpoint cairo_store_point } bind def
/TJ {
  {
    dup
    type /stringtype eq
    { show } { -0.001 mul 0 cairo_font_matrix dtransform rmoveto } ifelse
  } forall
  currentpoint cairo_store_point
} bind def
/cairo_selectfont { cairo_font_matrix aload pop pop pop 0 0 6 array astore
    cairo_font exch selectfont cairo_point_x cairo_point_y moveto } bind def
/Tf { pop /cairo_font exch def /cairo_font_matrix where
      { pop cairo_selectfont } if } bind def
/Td { matrix translate cairo_font_matrix matrix concatmatrix dup
      /cairo_font_matrix exch def dup 4 get exch 5 get cairo_store_point
      /cairo_font where { pop cairo_selectfont } if } bind def
/Tm { 2 copy 8 2 roll 6 array astore /cairo_font_matrix exch def
      cairo_store_point /cairo_font where { pop cairo_selectfont } if } bind def
/g { setgray } bind def
/rg { setrgbcolor } bind def
/d1 { setcachedevice } bind def
%%EndProlog
%%Page: 1 1
%%BeginPageSetup
%%PageBoundingBox: 0 -1 254 300
%%EndPageSetup
q 0 -1 254 301 rectclip q
0 299.9 254 -300 re W n
0 g
85.699 225.279 m 77.699 225.279 l 73.723 225.279 70.5 228.502 70.5 
232.478 c 70.5 236.459 73.723 239.681 77.699 239.681 c 85.699 239.681 l 
89.676 239.681 92.898 236.459 92.898 232.478 c 92.898 228.502 89.676 
225.279 85.699 225.279 c h
42.797 216.548 m 44.887 216.201 46.902 216.791 48.516 218.162 c 50.129 
219.529 50.945 221.537 50.945 223.654 c 50.945 237.431 l 50.945 263.935 
72.613 285.502 99.121 285.502 c 100.406 285.502 101.738 285.451 103 
285.349 c 96.328 274.99 86.652 267.505 75.734 264.451 c 71.902 263.38 
69.68 259.408 70.75 255.576 c 71.82 251.748 75.805 249.505 79.633 
250.584 c 95.438 255.002 109.184 266.318 117.691 281.81 c 135.055 
274.556 147.293 257.396 147.293 237.431 c 147.293 216.849 134.348 
198.681 115.293 191.962 c 113.027 193.873 110.102 194.88 106.914 194.88 
c 91.539 194.88 l 84.363 194.88 78.523 189.255 78.523 182.08 c 78.523 
174.904 84.363 169.279 91.539 169.279 c 106.914 169.279 l 112.734 
169.279 117.676 173.056 119.332 178.337 c 137.887 184.611 152 199.048 
158.191 217.037 c 166.555 219.064 171.746 224.212 171.746 230.599 c 
171.746 246.556 l 171.746 253.185 166.152 258.513 157.238 260.369 c 
148.074 283.498 125.527 299.9 99.18 299.9 c 72.793 299.9 50.219 283.455 
41.078 260.279 c 32.406 258.341 26.945 253.08 26.945 246.556 c 26.945 
230.599 l 26.945 223.662 33.156 218.15 42.797 216.548 c h
252.977 58.334 m 248.867 28.271 221.066 7.154 191.008 11.263 c 178.852 
12.927 167.844 18.455 159.367 27.045 c 125.691 1.466 l 124.387 0.478 
122.859 0.002 121.34 0.002 c 119.168 0.002 117.02 0.982 115.602 2.845 c 
113.195 6.013 113.812 10.529 116.98 12.935 c 150.656 38.513 l 144.652 
48.986 142.277 61.076 143.938 73.232 c 148.047 103.295 175.844 124.408 
205.906 120.302 c 235.969 116.193 257.086 88.396 252.977 58.334 c h
203.957 106.037 m 202.102 106.287 200.254 106.412 198.43 106.412 c 
178.449 106.412 160.988 91.623 158.207 71.283 c 156.738 60.533 159.543 
49.853 166.105 41.209 c 172.672 32.568 182.207 27.002 192.957 25.533 c 
215.16 22.498 235.676 38.087 238.711 60.283 c 241.742 82.478 226.152 
103.002 203.957 106.037 c h
113.137 225.279 m 121.137 225.279 l 125.113 225.279 128.336 228.502 
128.336 232.478 c 128.336 236.459 125.113 239.681 121.137 239.681 c 
113.137 239.681 l 109.16 239.681 105.938 236.459 105.938 232.478 c 
105.938 228.502 109.16 225.279 113.137 225.279 c h
202.375 94.435 m 186.57 96.591 171.965 85.494 169.809 69.697 c 169.27 
65.759 172.027 62.127 175.969 61.591 c 176.297 61.545 176.625 61.521 
176.949 61.521 c 180.492 61.521 183.582 64.138 184.074 67.748 c 185.156 
75.677 192.492 81.252 200.426 80.166 c 204.371 79.623 207.996 82.384 
208.531 86.326 c 209.07 90.267 206.312 93.896 202.375 94.435 c h
128.77 136.697 m 138.633 135.931 148.379 131.892 155.379 125.572 c 
158.332 122.908 162.887 123.138 165.551 126.091 c 168.215 129.045 
167.98 133.42 165.027 136.084 c 154.645 145.459 139.809 150.88 125.352 
150.88 c 124.359 150.88 l 121.285 150.88 118.551 149.103 117.551 
146.193 c 115.855 141.255 109.082 136.345 99.418 136.345 c 89.754 
136.345 82.98 141.209 81.285 146.15 c 80.285 149.06 77.551 150.88 
74.477 150.88 c 73.484 150.88 l 49.004 150.88 26.121 135.806 21.387 
116.341 c 0.246 29.462 l 0.152 29.115 0.086 28.798 0.047 28.431 c 
-0.059 27.525 0.016 26.646 0.242 25.802 c 0.438 25.064 0.75 24.384 
1.152 23.763 c 2 22.451 3.27 21.416 4.828 20.873 c 4.832 20.873 4.836 
20.873 4.84 20.873 c 5.102 20.783 5.371 20.709 5.645 20.646 c 6.168 
20.533 6.691 20.474 7.207 20.474 c 7.277 20.474 7.352 20.478 7.422 
20.478 c 50.641 20.478 l 54.617 20.478 57.84 23.705 57.84 27.681 c 
57.84 31.658 54.617 34.88 50.641 34.88 c 16.359 34.88 l 35.383 113.115 
l 38.305 125.134 53.746 135.408 70.066 136.697 c 75.629 127.857 86.922 
122.033 99.418 122.033 c 111.914 122.033 123.211 127.857 128.77 136.697 
c h
128.77 136.697 m f
Q Q
showpage
%%Trailer
count op_count sub {pop} repeat
countdictstack dict_count sub {end} repeat
cairo_eps_state restore
%%EOF
