%!PS-Adobe-3.0 EPSF-3.0
%%Creator: cairo 1.10.2 (http://cairographics.org)
%%CreationDate: Thu Aug 13 09:20:48 2015
%%Pages: 1
%%BoundingBox: 0 -1 292 308
%%DocumentData: Clean7Bit
%%LanguageLevel: 2
%%EndComments
%%BeginProlog
/cairo_eps_state save def
/dict_count countdictstack def
/op_count count 1 sub def
userdict begin
/q { gsave } bind def
/Q { grestore } bind def
/cm { 6 array astore concat } bind def
/w { setlinewidth } bind def
/J { setlinecap } bind def
/j { setlinejoin } bind def
/M { setmiterlimit } bind def
/d { setdash } bind def
/m { moveto } bind def
/l { lineto } bind def
/c { curveto } bind def
/h { closepath } bind def
/re { exch dup neg 3 1 roll 5 3 roll moveto 0 rlineto
      0 exch rlineto 0 rlineto closepath } bind def
/S { stroke } bind def
/f { fill } bind def
/f* { eofill } bind def
/n { newpath } bind def
/W { clip } bind def
/W* { eoclip } bind def
/BT { } bind def
/ET { } bind def
/pdfmark where { pop globaldict /?pdfmark /exec load put }
    { globaldict begin /?pdfmark /pop load def /pdfmark
    /cleartomark load def end } ifelse
/BDC { mark 3 1 roll /BDC pdfmark } bind def
/EMC { mark /EMC pdfmark } bind def
/cairo_store_point { /cairo_point_y exch def /cairo_point_x exch def } def
/Tj { show currentpoint cairo_store_point } bind def
/TJ {
  {
    dup
    type /stringtype eq
    { show } { -0.001 mul 0 cairo_font_matrix dtransform rmoveto } ifelse
  } forall
  currentpoint cairo_store_point
} bind def
/cairo_selectfont { cairo_font_matrix aload pop pop pop 0 0 6 array astore
    cairo_font exch selectfont cairo_point_x cairo_point_y moveto } bind def
/Tf { pop /cairo_font exch def /cairo_font_matrix where
      { pop cairo_selectfont } if } bind def
/Td { matrix translate cairo_font_matrix matrix concatmatrix dup
      /cairo_font_matrix exch def dup 4 get exch 5 get cairo_store_point
      /cairo_font where { pop cairo_selectfont } if } bind def
/Tm { 2 copy 8 2 roll 6 array astore /cairo_font_matrix exch def
      cairo_store_point /cairo_font where { pop cairo_selectfont } if } bind def
/g { setgray } bind def
/rg { setrgbcolor } bind def
/d1 { setcachedevice } bind def
%%EndProlog
%%Page: 1 1
%%BeginPageSetup
%%PageBoundingBox: 0 -1 292 308
%%EndPageSetup
q 0 -1 292 309 rectclip q
0 307.463 292 -308 re W n
0 g
193.414 69.131 m 193.414 65.155 190.191 61.932 186.215 61.932 c 177.441 
61.932 l 173.465 61.932 170.242 65.155 170.242 69.131 c 170.242 73.108 
173.465 76.33 177.441 76.33 c 186.215 76.33 l 190.191 76.33 193.414 
73.108 193.414 69.131 c h
99.754 73.932 m 27.41 73.932 l 27.41 164.022 l 28.168 163.276 l 30.945 
160.432 35.52 160.373 38.367 163.155 c 41.215 165.928 41.277 170.487 
38.5 173.334 c 25.52 186.643 l 25.449 186.717 25.246 186.791 25.172 
186.866 c 25.16 186.873 25.012 186.885 25.012 186.893 c 25.012 186.807 
l 25.012 186.811 25.266 186.733 25.262 186.733 c 25.254 186.733 25.25 
186.83 25.246 186.834 c 24.555 187.494 23.762 188.147 22.922 188.479 c 
22.168 188.776 21.352 189.131 20.496 189.131 c 20.461 189.131 l 20.398 
189.131 20.34 189.135 20.277 189.135 c 20.246 189.135 20.203 189.131 
20.184 189.131 c 20.211 189.131 l 20.211 189.022 l 20.211 189.022 
20.078 188.963 20.027 188.963 c 19.41 188.94 18.797 188.811 18.23 
188.639 c 17.148 188.319 16.117 187.721 15.254 186.877 c 15.18 186.807 
15.102 186.725 15.031 186.651 c 2.047 173.338 l -0.73 170.491 -0.676 
165.932 2.172 163.155 c 5.02 160.377 9.543 160.432 12.32 163.28 c 
13.012 164.022 l 13.012 66.983 l 13.012 66.92 13.043 66.862 13.043 
66.799 c 13.043 64.26 14.375 62.026 16.359 60.744 c 17.484 60.018 
18.832 59.565 20.27 59.565 c 20.32 59.565 20.379 59.534 20.426 59.534 c 
99.754 59.534 l 103.734 59.534 106.957 62.756 106.957 66.733 c 106.957 
70.709 103.73 73.932 99.754 73.932 c h
100.633 227.534 m 109.406 227.534 l 113.383 227.534 116.605 230.756 
116.605 234.733 c 116.605 238.709 113.383 241.932 109.406 241.932 c 
100.633 241.932 l 96.656 241.932 93.434 238.709 93.434 234.733 c 93.434 
230.756 96.656 227.534 100.633 227.534 c h
77.754 234.733 m 77.754 238.709 74.527 241.932 70.551 241.932 c 61.781 
241.932 l 57.805 241.932 54.582 238.709 54.582 234.733 c 54.582 230.756 
57.805 227.534 61.781 227.534 c 70.551 227.534 l 74.527 227.534 77.754 
230.756 77.754 234.733 c h
23.523 217.459 m 25.609 217.116 27.898 217.705 29.512 219.073 c 31.125 
220.44 32.211 222.448 32.211 224.565 c 32.211 239.67 l 32.211 269.112 
56.051 293.065 85.492 293.065 c 87.312 293.065 89.051 292.971 90.824 
292.795 c 83.406 280.795 72.344 272.116 59.871 268.623 c 56.043 267.553 
53.793 263.58 54.863 259.752 c 55.934 255.924 59.902 253.686 63.73 
254.756 c 81.062 259.604 96.109 272.1 105.32 289.205 c 124.914 281.287 
138.777 262.069 138.777 239.67 c 138.777 216.67 124.227 196.393 102.852 
189.037 c 100.449 191.186 97.277 192.33 93.812 192.33 c 76.957 192.33 l 
69.469 192.33 63.379 186.217 63.379 178.733 c 63.379 171.244 69.469 
165.131 76.957 165.131 c 93.812 165.131 l 100.004 165.131 105.246 
169.487 106.867 175.166 c 127.293 181.955 142.816 197.967 149.508 
217.768 c 158.566 219.854 164.211 225.424 164.211 232.178 c 164.211 
249.674 l 164.211 256.682 158.133 262.315 148.484 264.213 c 138.629 
289.498 114.062 307.463 85.336 307.463 c 56.57 307.463 31.867 289.455 
22.035 264.119 c 12.652 262.135 6.609 256.569 6.609 249.674 c 6.609 
232.178 l 6.609 224.932 13.305 219.155 23.523 217.459 c h
289.051 152.627 m 286.207 155.401 281.48 155.346 278.703 152.502 c 
277.809 151.76 l 277.809 248.846 l 277.809 248.893 277.98 248.936 
277.98 248.979 c 277.98 250.635 277.504 252.233 276.566 253.451 c 
275.223 255.194 273.152 256.33 270.797 256.33 c 191.469 256.33 l 
187.488 256.33 184.266 253.108 184.266 249.131 c 184.266 245.155 
187.488 241.932 191.469 241.932 c 263.41 241.932 l 263.41 151.756 l 
262.852 152.498 l 260.074 155.346 255.602 155.401 252.754 152.623 c 
249.906 149.85 249.895 145.291 252.672 142.444 c 265.676 129.135 l 
265.746 129.061 265.832 128.987 265.906 128.912 c 266.695 128.139 
267.625 127.588 268.609 127.252 c 268.609 127.252 268.617 127.248 
268.621 127.248 c 269.348 126.998 270.129 126.866 270.945 126.866 c 
271.785 126.866 272.594 127.01 273.348 127.276 c 274.301 127.616 
275.203 128.159 275.973 128.912 c 276.047 128.987 276.121 129.057 
276.191 129.131 c 289.176 142.444 l 291.953 145.291 291.898 149.85 
289.051 152.627 c h
278.156 75.014 m 277.133 62.803 l 276.801 58.842 273.316 55.905 269.355 
56.233 c 268.852 56.276 268.363 56.369 267.895 56.506 c 262.508 24.479 
234.578 -0.002 201.043 -0.002 c 167.508 -0.002 139.578 24.479 134.188 
56.506 c 133.723 56.369 133.234 56.276 132.73 56.233 c 128.777 55.897 
125.285 58.842 124.953 62.803 c 123.926 75.014 l 123.594 78.975 126.535 
82.459 130.496 82.791 c 132.023 82.92 133.48 82.561 134.715 81.846 c 
141.203 112.506 168.477 135.588 201.043 135.588 c 218.605 135.588 
234.625 128.873 246.68 117.881 c 246.988 117.643 247.285 117.377 
247.559 117.08 c 247.586 117.049 247.613 117.018 247.645 116.987 c 
257.441 107.701 264.477 95.53 267.371 81.846 c 268.605 82.561 270.062 
82.916 271.586 82.791 c 275.547 82.459 278.492 78.975 278.156 75.014 c 
h
254.438 67.795 m 254.438 80.955 249.648 93.018 241.727 102.338 c 
230.035 93.549 215.828 88.772 201.043 88.772 c 194.977 88.772 188.957 
89.576 183.145 91.162 c 179.309 92.209 177.047 96.166 178.094 100.006 c 
179.141 103.842 183.102 106.104 186.934 105.057 c 191.512 103.807 
196.258 103.174 201.043 103.174 c 211.703 103.174 221.98 106.323 
230.707 112.166 c 222.215 117.862 212.012 121.186 201.043 121.186 c 
171.602 121.186 147.648 97.233 147.648 67.791 c 147.648 38.354 171.602 
14.401 201.043 14.401 c 230.484 14.401 254.438 38.354 254.438 67.795 c 
h
203.234 45.131 m 198.852 45.131 l 194.875 45.131 191.652 41.909 191.652 
37.932 c 191.652 33.955 194.875 30.733 198.852 30.733 c 203.234 30.733 
l 207.211 30.733 210.434 33.955 210.434 37.932 c 210.434 41.909 207.211 
45.131 203.234 45.131 c h
225.062 76.33 m 216.293 76.33 l 212.316 76.33 209.094 73.108 209.094 
69.131 c 209.094 65.155 212.316 61.932 216.293 61.932 c 225.062 61.932 
l 229.043 61.932 232.266 65.155 232.266 69.131 c 232.266 73.108 229.043 
76.33 225.062 76.33 c h
225.062 76.33 m f
Q Q
showpage
%%Trailer
count op_count sub {pop} repeat
countdictstack dict_count sub {end} repeat
cairo_eps_state restore
%%EOF
