%!PS-Adobe-3.0 EPSF-3.0
%%Creator: cairo 1.10.2 (http://cairographics.org)
%%CreationDate: Thu Aug 13 09:20:42 2015
%%Pages: 1
%%BoundingBox: 0 -1 252 313
%%DocumentData: Clean7Bit
%%LanguageLevel: 2
%%EndComments
%%BeginProlog
/cairo_eps_state save def
/dict_count countdictstack def
/op_count count 1 sub def
userdict begin
/q { gsave } bind def
/Q { grestore } bind def
/cm { 6 array astore concat } bind def
/w { setlinewidth } bind def
/J { setlinecap } bind def
/j { setlinejoin } bind def
/M { setmiterlimit } bind def
/d { setdash } bind def
/m { moveto } bind def
/l { lineto } bind def
/c { curveto } bind def
/h { closepath } bind def
/re { exch dup neg 3 1 roll 5 3 roll moveto 0 rlineto
      0 exch rlineto 0 rlineto closepath } bind def
/S { stroke } bind def
/f { fill } bind def
/f* { eofill } bind def
/n { newpath } bind def
/W { clip } bind def
/W* { eoclip } bind def
/BT { } bind def
/ET { } bind def
/pdfmark where { pop globaldict /?pdfmark /exec load put }
    { globaldict begin /?pdfmark /pop load def /pdfmark
    /cleartomark load def end } ifelse
/BDC { mark 3 1 roll /BDC pdfmark } bind def
/EMC { mark /EMC pdfmark } bind def
/cairo_store_point { /cairo_point_y exch def /cairo_point_x exch def } def
/Tj { show currentpoint cairo_store_point } bind def
/TJ {
  {
    dup
    type /stringtype eq
    { show } { -0.001 mul 0 cairo_font_matrix dtransform rmoveto } ifelse
  } forall
  currentpoint cairo_store_point
} bind def
/cairo_selectfont { cairo_font_matrix aload pop pop pop 0 0 6 array astore
    cairo_font exch selectfont cairo_point_x cairo_point_y moveto } bind def
/Tf { pop /cairo_font exch def /cairo_font_matrix where
      { pop cairo_selectfont } if } bind def
/Td { matrix translate cairo_font_matrix matrix concatmatrix dup
      /cairo_font_matrix exch def dup 4 get exch 5 get cairo_store_point
      /cairo_font where { pop cairo_selectfont } if } bind def
/Tm { 2 copy 8 2 roll 6 array astore /cairo_font_matrix exch def
      cairo_store_point /cairo_font where { pop cairo_selectfont } if } bind def
/g { setgray } bind def
/rg { setrgbcolor } bind def
/d1 { setcachedevice } bind def
%%EndProlog
%%Page: 1 1
%%BeginPageSetup
%%PageBoundingBox: 0 -1 252 313
%%EndPageSetup
q 0 -1 252 314 rectclip q
0 312.342 252 -313 re W n
0 g
105.938 244.799 m 105.938 248.776 109.16 251.999 113.137 251.999 c 
121.137 251.999 l 125.113 251.999 128.34 248.776 128.34 244.799 c 
128.34 240.823 125.113 237.6 121.137 237.6 c 113.137 237.6 l 109.16 
237.6 105.938 240.823 105.938 244.799 c h
92.902 244.799 m 92.902 248.776 89.68 251.999 85.699 251.999 c 77.699 
251.999 l 73.723 251.999 70.5 248.776 70.5 244.799 c 70.5 240.823 
73.723 237.6 77.699 237.6 c 85.699 237.6 l 89.676 237.6 92.902 240.823 
92.902 244.799 c h
190.996 132.909 m 191.621 132.741 192.246 132.663 192.863 132.663 c 
196.043 132.663 198.953 134.78 199.816 137.999 c 203.648 152.296 l 
204.676 156.139 202.395 160.085 198.555 161.116 c 194.719 162.139 
190.766 159.866 189.738 156.022 c 185.906 141.725 l 184.879 137.885 
187.156 133.936 190.996 132.909 c h
42.648 228.991 m 44.734 228.647 47.078 229.237 48.691 230.604 c 50.309 
231.971 51.445 233.979 51.445 236.096 c 51.445 249.874 l 51.445 276.378 
72.863 297.944 99.371 297.944 c 100.66 297.944 101.863 297.893 103.125 
297.792 c 96.453 287.436 86.715 279.948 75.797 276.893 c 71.965 275.823 
69.711 271.85 70.781 268.018 c 71.855 264.19 75.816 261.956 79.648 
263.026 c 95.453 267.444 109.191 278.76 117.699 294.253 c 135.066 
286.999 147.297 269.839 147.297 249.874 c 147.297 229.292 134.352 
211.464 115.297 204.741 c 113.031 206.655 110.105 207.999 106.914 
207.999 c 91.543 207.999 l 84.363 207.999 78.523 201.975 78.523 194.799 
c 78.523 187.624 84.363 181.6 91.543 181.6 c 106.914 181.6 l 112.734 
181.6 117.676 185.436 119.336 190.717 c 137.887 196.991 152.25 211.46 
158.445 229.448 c 166.809 231.475 172.246 236.655 172.246 243.042 c 
172.246 258.999 l 172.246 265.624 166.402 270.956 157.488 272.811 c 
148.324 295.94 125.656 312.342 99.305 312.342 c 72.922 312.342 50.133 
295.897 40.992 272.721 c 32.32 270.784 26.648 265.518 26.648 258.999 c 
26.648 243.042 l 26.648 236.104 33.008 230.592 42.648 228.991 c h
187.922 22.401 m 161.535 22.401 l 157.559 22.401 154.336 19.178 154.336 
15.202 c 154.336 11.221 157.559 7.999 161.535 7.999 c 164.203 7.999 l 
164.184 7.999 164.172 7.491 164.172 7.268 c 164.172 3.292 167.395 
-0.001 171.375 -0.001 c 178.082 -0.001 l 182.059 -0.001 185.281 3.292 
185.281 7.268 c 185.281 7.491 185.273 7.999 185.254 7.999 c 187.922 
7.999 l 191.898 7.999 195.121 11.221 195.121 15.202 c 195.121 19.178 
191.895 22.401 187.922 22.401 c h
244.09 110.401 m 229.289 110.401 l 225.312 110.401 222.09 107.178 
222.09 103.202 c 222.09 99.221 225.312 95.999 229.289 95.999 c 244.09 
95.999 l 248.066 95.999 251.293 99.221 251.293 103.202 c 251.293 
107.178 248.066 110.401 244.09 110.401 c h
234.383 132.706 m 237.191 135.518 237.191 140.077 234.383 142.889 c 
231.566 145.702 227.012 145.702 224.199 142.889 c 213.73 132.424 l 
210.922 129.612 210.922 125.053 213.73 122.241 c 215.141 120.835 216.98 
120.131 218.824 120.131 c 220.664 120.131 222.508 120.835 223.914 
122.241 c h
165.551 138.534 m 168.215 141.483 167.984 146.202 165.031 148.866 c 
154.648 158.241 139.812 163.999 125.352 163.999 c 124.363 163.999 l 
121.289 163.999 118.551 161.885 117.555 158.975 c 115.855 154.038 
109.086 148.956 99.418 148.956 c 89.754 148.956 82.984 154.077 81.289 
159.014 c 80.289 161.924 77.555 163.999 74.477 163.999 c 73.488 163.999 
l 49.008 163.999 26.121 148.589 21.391 129.124 c 0.25 42.085 l 0.148 
41.714 0.078 41.292 0.039 40.897 c -0.059 39.971 0.027 39.034 0.273 
38.174 c 0.441 37.585 0.684 37.014 0.984 36.499 c 0.984 36.499 0.984 
36.491 0.984 36.491 c 0.988 36.487 0.988 36.483 0.988 36.483 c 1.941 
34.858 3.527 33.604 5.5 33.124 c 6.07 32.987 6.645 32.858 7.207 32.858 
c 7.285 32.858 7.367 32.799 7.445 32.799 c 50.641 32.799 l 54.617 
32.799 57.84 36.022 57.84 39.999 c 57.84 43.975 54.617 47.202 50.641 
47.202 c 16.363 47.202 l 35.383 125.499 l 38.305 137.514 53.746 147.819 
70.066 149.108 c 75.629 140.268 86.922 134.46 99.418 134.46 c 111.914 
134.46 123.211 140.292 128.77 149.131 c 138.633 148.366 148.379 144.331 
155.383 138.01 c 158.336 135.346 162.887 135.581 165.551 138.534 c h
208.797 106.491 m 220.93 85.354 208.293 52.522 198.914 36.464 c 197.578 
34.171 195.164 32.862 192.691 32.862 c 192.625 32.862 192.559 32.799 
192.496 32.799 c 156.961 32.799 l 154.398 32.799 151.914 34.077 150.543 
36.432 c 141.164 52.491 128.527 85.37 140.66 106.506 c 145.012 114.089 
154.457 123.131 174.727 123.131 c 195 123.131 204.445 114.073 208.797 
106.491 c h
196.309 99.256 m 192.68 105.581 185.621 108.698 174.727 108.698 c 
163.836 108.698 156.777 105.596 153.148 99.276 c 146.262 87.276 151.703 
64.799 160.988 47.202 c 188.469 47.202 l 197.754 64.799 203.195 87.26 
196.309 99.256 c h
196.309 99.256 m f
Q Q
showpage
%%Trailer
count op_count sub {pop} repeat
countdictstack dict_count sub {end} repeat
cairo_eps_state restore
%%EOF
