%!PS-Adobe-3.0 EPSF-3.0
%%Creator: cairo 1.10.2 (http://cairographics.org)
%%CreationDate: Thu Aug 13 09:20:42 2015
%%Pages: 1
%%BoundingBox: 0 -1 302 314
%%DocumentData: Clean7Bit
%%LanguageLevel: 2
%%EndComments
%%BeginProlog
/cairo_eps_state save def
/dict_count countdictstack def
/op_count count 1 sub def
userdict begin
/q { gsave } bind def
/Q { grestore } bind def
/cm { 6 array astore concat } bind def
/w { setlinewidth } bind def
/J { setlinecap } bind def
/j { setlinejoin } bind def
/M { setmiterlimit } bind def
/d { setdash } bind def
/m { moveto } bind def
/l { lineto } bind def
/c { curveto } bind def
/h { closepath } bind def
/re { exch dup neg 3 1 roll 5 3 roll moveto 0 rlineto
      0 exch rlineto 0 rlineto closepath } bind def
/S { stroke } bind def
/f { fill } bind def
/f* { eofill } bind def
/n { newpath } bind def
/W { clip } bind def
/W* { eoclip } bind def
/BT { } bind def
/ET { } bind def
/pdfmark where { pop globaldict /?pdfmark /exec load put }
    { globaldict begin /?pdfmark /pop load def /pdfmark
    /cleartomark load def end } ifelse
/BDC { mark 3 1 roll /BDC pdfmark } bind def
/EMC { mark /EMC pdfmark } bind def
/cairo_store_point { /cairo_point_y exch def /cairo_point_x exch def } def
/Tj { show currentpoint cairo_store_point } bind def
/TJ {
  {
    dup
    type /stringtype eq
    { show } { -0.001 mul 0 cairo_font_matrix dtransform rmoveto } ifelse
  } forall
  currentpoint cairo_store_point
} bind def
/cairo_selectfont { cairo_font_matrix aload pop pop pop 0 0 6 array astore
    cairo_font exch selectfont cairo_point_x cairo_point_y moveto } bind def
/Tf { pop /cairo_font exch def /cairo_font_matrix where
      { pop cairo_selectfont } if } bind def
/Td { matrix translate cairo_font_matrix matrix concatmatrix dup
      /cairo_font_matrix exch def dup 4 get exch 5 get cairo_store_point
      /cairo_font where { pop cairo_selectfont } if } bind def
/Tm { 2 copy 8 2 roll 6 array astore /cairo_font_matrix exch def
      cairo_store_point /cairo_font where { pop cairo_selectfont } if } bind def
/g { setgray } bind def
/rg { setrgbcolor } bind def
/d1 { setcachedevice } bind def
%%EndProlog
%%Page: 1 1
%%BeginPageSetup
%%PageBoundingBox: 0 -1 302 314
%%EndPageSetup
q 0 -1 302 315 rectclip q
0 313.567 302 -314 re W n
0 g
107.852 242.001 m 109.59 238.427 108.18 234.118 104.605 232.376 c 
67.621 214.38 44.801 177.665 44.801 136.559 c 44.801 107.493 l 44.801 
103.516 41.27 99.997 37.293 99.997 c 22.281 99.997 l 10.035 99.997 0 
110.259 0 122.501 c 0 155.337 l 0 165.013 6.23 173.509 15.461 176.481 c 
19.242 177.7 23.328 175.618 24.547 171.833 c 25.766 168.048 23.668 
163.993 19.879 162.774 c 16.676 161.743 14.398 158.684 14.398 155.337 c 
14.398 122.501 l 14.398 118.196 17.977 114.399 22.281 114.399 c 30.398 
114.399 l 30.398 136.559 l 30.398 159.669 36.789 182.138 49.172 201.532 
c 61.219 220.403 78.055 235.544 98.148 245.325 c 101.727 247.067 
106.109 245.579 107.852 242.001 c h
301.602 155.337 m 301.602 122.505 l 301.602 110.259 291.965 100.001 
279.719 100.001 c 266.422 100.001 l 262.055 86.399 255.125 73.22 
245.789 61.45 c 230.457 42.11 209.355 28.048 185.887 20.97 c 184.832 
9.122 174.852 0.001 162.738 0.001 c 139.262 0.001 l 126.445 0.001 
116.023 10.388 116.023 23.2 c 116.023 36.016 126.445 46.399 139.262 
46.399 c 162.738 46.399 l 171.172 46.399 178.574 41.731 182.645 34.989 
c 227.023 48.72 257.508 89.548 257.508 136.559 c 257.508 147.192 
255.961 157.614 252.898 167.649 c 238.961 156.626 221.363 150.036 
202.258 150.036 c 157.168 150.036 120.484 186.716 120.484 231.805 c 
120.484 276.895 157.168 313.567 202.258 313.567 c 247.348 313.567 
284.031 276.864 284.031 231.774 c 284.031 211.509 276.617 192.903 
264.367 178.598 c 269.371 165.138 271.91 150.903 271.91 136.411 c 
271.91 128.989 271.254 121.598 269.965 114.399 c 279.719 114.399 l 
284.023 114.399 287.199 118.196 287.199 122.505 c 287.199 155.337 l 
287.199 158.684 285.086 161.743 281.879 162.774 c 278.094 163.993 
276.137 168.052 277.355 171.837 c 278.574 175.622 282.547 177.7 286.332 
176.481 c 295.562 173.513 301.602 165.013 301.602 155.337 c h
171.578 23.083 m 171.578 23.669 171.523 24.087 171.41 24.645 c 171.395 
24.727 171.375 24.891 171.359 24.973 c 170.461 28.903 166.938 31.997 
162.742 31.997 c 139.262 31.997 l 134.387 31.997 130.422 28.075 130.422 
23.2 c 130.422 18.325 134.387 14.399 139.262 14.399 c 162.742 14.399 l 
167.613 14.399 171.578 18.208 171.578 23.083 c h
269.629 231.813 m 269.629 268.962 239.406 299.184 202.258 299.184 c 
165.109 299.184 134.887 268.962 134.887 231.813 c 134.887 194.661 
165.109 164.438 202.258 164.438 c 239.406 164.438 269.629 194.661 
269.629 231.813 c h
215.613 272.798 m 188.902 272.798 l 184.926 272.798 181.703 269.575 
181.703 265.598 c 181.703 261.622 184.926 258.399 188.902 258.399 c 
215.613 258.399 l 219.59 258.399 222.812 261.622 222.812 265.598 c 
222.812 269.575 219.59 272.798 215.613 272.798 c h
215.613 228.798 m 219.59 228.798 222.812 232.02 222.812 235.997 c 
222.812 239.973 219.59 243.2 215.613 243.2 c 188.902 243.2 l 184.926 
243.2 181.703 239.973 181.703 235.997 c 181.703 232.02 184.926 228.798 
188.902 228.798 c 195.199 228.798 l 195.199 211.2 l 188.902 211.2 l 
184.926 211.2 181.703 207.973 181.703 203.997 c 181.703 200.02 184.926 
196.798 188.902 196.798 c 215.613 196.798 l 219.59 196.798 222.812 
200.02 222.812 203.997 c 222.812 207.973 219.59 211.2 215.613 211.2 c 
209.602 211.2 l 209.602 228.798 l h
215.613 228.798 m f
Q Q
showpage
%%Trailer
count op_count sub {pop} repeat
countdictstack dict_count sub {end} repeat
cairo_eps_state restore
%%EOF
