%!PS-Adobe-3.0 EPSF-3.0
%%Creator: cairo 1.10.2 (http://cairographics.org)
%%CreationDate: Thu Aug 13 09:20:57 2015
%%Pages: 1
%%BoundingBox: 0 -1 215 302
%%DocumentData: Clean7Bit
%%LanguageLevel: 2
%%EndComments
%%BeginProlog
/cairo_eps_state save def
/dict_count countdictstack def
/op_count count 1 sub def
userdict begin
/q { gsave } bind def
/Q { grestore } bind def
/cm { 6 array astore concat } bind def
/w { setlinewidth } bind def
/J { setlinecap } bind def
/j { setlinejoin } bind def
/M { setmiterlimit } bind def
/d { setdash } bind def
/m { moveto } bind def
/l { lineto } bind def
/c { curveto } bind def
/h { closepath } bind def
/re { exch dup neg 3 1 roll 5 3 roll moveto 0 rlineto
      0 exch rlineto 0 rlineto closepath } bind def
/S { stroke } bind def
/f { fill } bind def
/f* { eofill } bind def
/n { newpath } bind def
/W { clip } bind def
/W* { eoclip } bind def
/BT { } bind def
/ET { } bind def
/pdfmark where { pop globaldict /?pdfmark /exec load put }
    { globaldict begin /?pdfmark /pop load def /pdfmark
    /cleartomark load def end } ifelse
/BDC { mark 3 1 roll /BDC pdfmark } bind def
/EMC { mark /EMC pdfmark } bind def
/cairo_store_point { /cairo_point_y exch def /cairo_point_x exch def } def
/Tj { show currentpoint cairo_store_point } bind def
/TJ {
  {
    dup
    type /stringtype eq
    { show } { -0.001 mul 0 cairo_font_matrix dtransform rmoveto } ifelse
  } forall
  currentpoint cairo_store_point
} bind def
/cairo_selectfont { cairo_font_matrix aload pop pop pop 0 0 6 array astore
    cairo_font exch selectfont cairo_point_x cairo_point_y moveto } bind def
/Tf { pop /cairo_font exch def /cairo_font_matrix where
      { pop cairo_selectfont } if } bind def
/Td { matrix translate cairo_font_matrix matrix concatmatrix dup
      /cairo_font_matrix exch def dup 4 get exch 5 get cairo_store_point
      /cairo_font where { pop cairo_selectfont } if } bind def
/Tm { 2 copy 8 2 roll 6 array astore /cairo_font_matrix exch def
      cairo_store_point /cairo_font where { pop cairo_selectfont } if } bind def
/g { setgray } bind def
/rg { setrgbcolor } bind def
/d1 { setcachedevice } bind def
%%EndProlog
%%Page: 1 1
%%BeginPageSetup
%%PageBoundingBox: 0 -1 215 302
%%EndPageSetup
q 0 -1 215 303 rectclip q
0 301.42 215 -302 re W n
0 g
26.879 232.119 m 26.879 248.076 l 26.879 254.6 32.367 259.861 41.039 
261.799 c 50.18 284.975 72.777 301.42 99.164 301.42 c 125.516 301.42 
148.043 285.018 157.207 261.889 c 166.121 260.033 171.68 254.705 171.68 
248.076 c 171.68 232.119 l 171.68 225.732 166.523 220.486 158.164 
218.455 c 151.969 200.471 137.887 185.932 119.332 179.658 c 117.676 
174.377 112.734 170.4 106.914 170.4 c 91.539 170.4 l 84.363 170.4 
78.523 176.424 78.523 183.6 c 78.523 190.775 84.363 196.799 91.539 
196.799 c 106.914 196.799 l 110.102 196.799 113.027 195.596 115.293 
193.682 c 134.352 200.4 147.293 218.369 147.293 238.951 c 147.293 
258.916 135.055 276.076 117.691 283.33 c 109.184 267.838 95.434 256.525 
79.629 252.104 c 75.801 251.025 71.82 253.268 70.746 257.096 c 69.676 
260.928 71.895 264.9 75.723 265.971 c 86.645 269.025 96.309 276.514 
102.984 286.869 c 101.719 286.971 100.375 287.022 99.086 287.022 c 
72.582 287.022 50.879 265.455 50.879 238.951 c 50.879 225.17 l 50.879 
223.057 50.082 221.049 48.469 219.678 c 46.855 218.311 44.852 217.725 
42.766 218.068 c 33.121 219.67 26.879 225.182 26.879 232.119 c h
210.078 34.4 m 210.078 30.424 206.855 27.201 202.879 27.201 c 110.879 
27.201 l 106.902 27.201 103.68 30.424 103.68 34.4 c 103.68 89.6 l 
103.68 93.576 106.902 96.799 110.879 96.799 c 202.879 96.799 l 206.855 
96.799 210.078 93.576 210.078 89.6 c h
118.078 41.6 m 195.68 41.6 l 195.68 82.4 l 118.078 82.4 l h
74.98 35.998 m 16.363 35.998 l 35.379 114.436 l 38.305 126.455 53.746 
136.83 70.066 138.119 c 75.629 129.279 86.922 123.506 99.418 123.506 c 
111.91 123.506 123.207 129.354 128.77 138.193 c 145.09 136.904 160.535 
126.643 163.453 114.623 c 164.395 110.76 168.285 108.393 172.152 
109.334 c 176.016 110.275 178.387 114.193 177.445 118.057 c 172.715 
137.525 149.832 152.799 125.352 152.799 c 124.359 152.799 l 121.285 
152.799 118.551 150.822 117.551 147.916 c 115.855 142.979 109.082 
137.967 99.414 137.967 c 89.754 137.967 82.98 142.982 81.285 147.92 c 
80.285 150.83 77.551 152.799 74.473 152.799 c 73.484 152.799 l 49.004 
152.799 26.121 137.529 21.387 118.061 c 0.246 31.084 l 0.152 30.725 
0.082 30.35 0.043 29.971 c -0.055 29.088 0.016 28.209 0.234 27.385 c 
0.43 26.635 0.742 25.928 1.152 25.295 c 2 23.979 3.277 22.94 4.84 
22.397 c 5.102 22.307 5.371 22.229 5.645 22.17 c 6.168 22.053 6.691 
21.795 7.207 21.795 c 7.277 21.795 7.348 21.6 7.422 21.6 c 74.98 21.6 l 
78.957 21.6 82.18 24.822 82.18 28.799 c 82.18 32.775 78.957 35.998 
74.98 35.998 c h
207.758 14.4 m 105.871 14.4 l 101.895 14.4 98.672 11.178 98.672 7.201 c 
98.672 3.225 101.895 -0.002 105.871 -0.002 c 207.758 -0.002 l 211.734 
-0.002 214.957 3.225 214.957 7.201 c 214.957 11.178 211.734 14.4 
207.758 14.4 c h
92.898 234.4 m 92.898 238.377 89.676 241.6 85.699 241.6 c 77.699 241.6 
l 73.723 241.6 70.5 238.377 70.5 234.4 c 70.5 230.424 73.723 227.201 
77.699 227.201 c 85.699 227.201 l 89.676 227.201 92.898 230.424 92.898 
234.4 c h
113.137 227.201 m 121.137 227.201 l 125.113 227.201 128.336 230.424 
128.336 234.4 c 128.336 238.377 125.113 241.6 121.137 241.6 c 113.137 
241.6 l 109.16 241.6 105.938 238.377 105.938 234.4 c 105.938 230.424 
109.16 227.201 113.137 227.201 c h
113.137 227.201 m f
Q Q
showpage
%%Trailer
count op_count sub {pop} repeat
countdictstack dict_count sub {end} repeat
cairo_eps_state restore
%%EOF
