%!PS-Adobe-3.0 EPSF-3.0
%%Creator: cairo 1.10.2 (http://cairographics.org)
%%CreationDate: Thu Aug 13 09:20:20 2015
%%Pages: 1
%%BoundingBox: 0 -1 302 258
%%DocumentData: Clean7Bit
%%LanguageLevel: 2
%%EndComments
%%BeginProlog
/cairo_eps_state save def
/dict_count countdictstack def
/op_count count 1 sub def
userdict begin
/q { gsave } bind def
/Q { grestore } bind def
/cm { 6 array astore concat } bind def
/w { setlinewidth } bind def
/J { setlinecap } bind def
/j { setlinejoin } bind def
/M { setmiterlimit } bind def
/d { setdash } bind def
/m { moveto } bind def
/l { lineto } bind def
/c { curveto } bind def
/h { closepath } bind def
/re { exch dup neg 3 1 roll 5 3 roll moveto 0 rlineto
      0 exch rlineto 0 rlineto closepath } bind def
/S { stroke } bind def
/f { fill } bind def
/f* { eofill } bind def
/n { newpath } bind def
/W { clip } bind def
/W* { eoclip } bind def
/BT { } bind def
/ET { } bind def
/pdfmark where { pop globaldict /?pdfmark /exec load put }
    { globaldict begin /?pdfmark /pop load def /pdfmark
    /cleartomark load def end } ifelse
/BDC { mark 3 1 roll /BDC pdfmark } bind def
/EMC { mark /EMC pdfmark } bind def
/cairo_store_point { /cairo_point_y exch def /cairo_point_x exch def } def
/Tj { show currentpoint cairo_store_point } bind def
/TJ {
  {
    dup
    type /stringtype eq
    { show } { -0.001 mul 0 cairo_font_matrix dtransform rmoveto } ifelse
  } forall
  currentpoint cairo_store_point
} bind def
/cairo_selectfont { cairo_font_matrix aload pop pop pop 0 0 6 array astore
    cairo_font exch selectfont cairo_point_x cairo_point_y moveto } bind def
/Tf { pop /cairo_font exch def /cairo_font_matrix where
      { pop cairo_selectfont } if } bind def
/Td { matrix translate cairo_font_matrix matrix concatmatrix dup
      /cairo_font_matrix exch def dup 4 get exch 5 get cairo_store_point
      /cairo_font where { pop cairo_selectfont } if } bind def
/Tm { 2 copy 8 2 roll 6 array astore /cairo_font_matrix exch def
      cairo_store_point /cairo_font where { pop cairo_selectfont } if } bind def
/g { setgray } bind def
/rg { setrgbcolor } bind def
/d1 { setcachedevice } bind def
%%EndProlog
%%Page: 1 1
%%BeginPageSetup
%%PageBoundingBox: 0 -1 302 258
%%EndPageSetup
q 0 -1 302 259 rectclip q
0 257.602 302 -258 re W n
0 g
113.129 161.57 m 107.848 161.57 102.926 158.727 100.277 154.148 c 
98.285 150.707 93.879 149.531 90.438 151.519 c 86.996 153.512 85.82 
157.914 87.809 161.359 c 93.023 170.371 102.727 175.969 113.129 175.969 
c 123.531 175.969 133.23 170.371 138.445 161.359 c 140.438 157.918 
139.262 153.512 135.82 151.519 c 134.684 150.863 133.441 150.551 
132.219 150.551 c 129.734 150.551 127.316 151.84 125.98 154.148 c 
123.332 158.727 118.406 161.57 113.129 161.57 c h
151 85.223 m 145.719 85.223 140.797 88.066 138.148 92.644 c 136.156 
96.086 131.75 97.262 128.309 95.269 c 124.867 93.281 123.691 88.875 
125.68 85.434 c 130.895 76.422 140.598 70.82 151 70.82 c 161.402 70.82 
171.105 76.422 176.316 85.434 c 178.309 88.875 177.133 93.281 173.691 
95.269 c 170.25 97.262 165.844 96.086 163.852 92.644 c 161.203 88.066 
156.281 85.223 151 85.223 c h
301.602 155.398 m 301.602 122.562 l 301.602 110.316 291.965 100 279.719 
100 c 266.422 100 l 262.055 86.402 255.121 73.234 245.789 61.465 c 
230.453 42.125 209.352 28.078 185.887 20.996 c 184.828 9.152 174.852 -0 
162.738 -0 c 139.262 -0 l 126.445 -0 116.023 10.387 116.023 23.199 c 
116.023 36.016 126.445 46.398 139.262 46.398 c 162.738 46.398 l 171.172 
46.398 178.57 41.758 182.645 35.019 c 227.023 48.75 257.508 89.605 
257.508 136.621 c 257.508 182.375 228.508 221.488 187.918 236.531 c 
177.371 223.566 164.105 212.777 149.285 205.148 c 132.336 196.426 
113.23 191.816 94.043 191.816 c 91.816 191.816 89.547 191.879 87.305 
192 c 83.336 192.219 80.293 195.613 80.508 199.586 c 80.727 203.555 
84.109 206.621 88.09 206.379 c 90.074 206.273 92.078 206.219 94.043 
206.219 c 124.445 206.219 152.562 218.738 172.711 240.91 c 165.969 
242.309 159 243.078 151.863 243.133 c 151.82 243.137 151.75 243.144 
151.691 243.144 c 151.668 243.141 151.637 243.164 151.609 243.164 c 
151.555 243.164 151.492 243.199 151.438 243.199 c 151 243.199 l 92.27 
243.199 44.801 195.352 44.801 136.621 c 44.801 107.555 l 44.801 103.578 
41.266 100 37.293 100 c 22.281 100 l 10.035 100 0 110.316 0 122.562 c 0 
155.398 l 0 165.074 6.23 173.57 15.457 176.543 c 19.242 177.766 23.328 
175.684 24.547 171.894 c 25.766 168.113 23.668 164.055 19.879 162.836 c 
16.676 161.805 14.398 158.746 14.398 155.398 c 14.398 122.562 l 14.398 
118.258 17.977 114.402 22.281 114.402 c 30.398 114.402 l 30.398 136.621 
l 30.398 203.289 84.332 257.602 151 257.602 c 152.586 257.602 l 152.613 
257.602 152.645 257.602 152.672 257.602 c 152.879 257.602 l 152.906 
257.602 152.938 257.555 152.965 257.559 c 153 257.555 153.039 257.512 
153.078 257.512 c 153.105 257.512 153.141 257.512 153.168 257.512 c 
153.195 257.512 153.23 257.512 153.258 257.508 c 153.293 257.508 
153.336 257.508 153.375 257.508 c 153.402 257.504 153.43 257.508 
153.461 257.504 c 153.488 257.504 153.523 257.504 153.547 257.504 c 
153.586 257.504 153.633 257.5 153.672 257.5 c 153.699 257.5 153.727 
257.5 153.754 257.5 c 153.785 257.5 153.812 257.496 153.84 257.496 c 
153.875 257.496 153.922 257.496 153.961 257.492 c 153.988 257.496 
154.016 257.492 154.047 257.492 c 154.074 257.488 154.102 257.488 
154.133 257.488 c 154.168 257.488 154.211 257.488 154.246 257.488 c 
154.277 257.484 154.305 257.484 154.336 257.484 c 154.363 257.484 
154.395 257.484 154.422 257.484 c 154.457 257.48 154.488 257.48 154.523 
257.48 c 154.555 257.477 154.59 257.48 154.621 257.48 c 154.652 257.477 
154.676 257.484 154.707 257.48 c 154.738 257.48 154.77 257.492 154.801 
257.488 c 154.836 257.484 154.871 257.504 154.906 257.5 c 154.938 257.5 
154.961 257.535 154.996 257.535 c 155.055 257.531 155.117 257.602 
155.176 257.602 c 155.281 257.602 l 166.281 256.801 177.129 255.23 
187.578 251.918 c 187.727 251.871 187.871 251.703 188.012 251.648 c 
236.633 235.977 271.906 190.207 271.906 136.441 c 271.906 129.019 
271.254 121.602 269.961 114.398 c 279.719 114.398 l 284.023 114.398 
287.199 118.258 287.199 122.562 c 287.199 155.398 l 287.199 158.746 
285.082 161.805 281.875 162.836 c 278.094 164.055 276.133 168.109 
277.352 171.894 c 278.57 175.68 282.547 177.758 286.332 176.543 c 
295.562 173.57 301.602 165.074 301.602 155.398 c h
171.578 23.105 m 171.578 23.703 171.52 24.148 171.406 24.711 c 171.391 
24.781 171.375 24.914 171.363 24.984 c 170.473 28.926 166.945 32 
162.742 32 c 139.262 32 l 134.387 32 130.422 28.074 130.422 23.203 c 
130.422 18.324 134.387 14.398 139.262 14.398 c 162.742 14.398 l 167.613 
14.402 171.578 18.23 171.578 23.105 c h
166.18 151.519 m 169.625 149.527 174.027 150.707 176.02 154.148 c 
178.668 158.727 183.594 161.57 188.871 161.57 c 194.152 161.57 199.078 
158.727 201.727 154.148 c 203.059 151.84 205.477 150.551 207.965 
150.551 c 209.188 150.551 210.43 150.863 211.562 151.519 c 215.004 
153.512 216.18 157.918 214.191 161.359 c 208.977 170.371 199.273 
175.969 188.871 175.969 c 178.469 175.969 168.77 170.371 163.555 
161.359 c 161.562 157.918 162.738 153.512 166.18 151.519 c h
166.18 151.519 m f
Q Q
showpage
%%Trailer
count op_count sub {pop} repeat
countdictstack dict_count sub {end} repeat
cairo_eps_state restore
%%EOF
