%!PS-Adobe-3.0 EPSF-3.0
%%Creator: cairo 1.10.2 (http://cairographics.org)
%%CreationDate: Thu Aug 13 09:20:05 2015
%%Pages: 1
%%BoundingBox: 0 0 290 316
%%DocumentData: Clean7Bit
%%LanguageLevel: 2
%%EndComments
%%BeginProlog
/cairo_eps_state save def
/dict_count countdictstack def
/op_count count 1 sub def
userdict begin
/q { gsave } bind def
/Q { grestore } bind def
/cm { 6 array astore concat } bind def
/w { setlinewidth } bind def
/J { setlinecap } bind def
/j { setlinejoin } bind def
/M { setmiterlimit } bind def
/d { setdash } bind def
/m { moveto } bind def
/l { lineto } bind def
/c { curveto } bind def
/h { closepath } bind def
/re { exch dup neg 3 1 roll 5 3 roll moveto 0 rlineto
      0 exch rlineto 0 rlineto closepath } bind def
/S { stroke } bind def
/f { fill } bind def
/f* { eofill } bind def
/n { newpath } bind def
/W { clip } bind def
/W* { eoclip } bind def
/BT { } bind def
/ET { } bind def
/pdfmark where { pop globaldict /?pdfmark /exec load put }
    { globaldict begin /?pdfmark /pop load def /pdfmark
    /cleartomark load def end } ifelse
/BDC { mark 3 1 roll /BDC pdfmark } bind def
/EMC { mark /EMC pdfmark } bind def
/cairo_store_point { /cairo_point_y exch def /cairo_point_x exch def } def
/Tj { show currentpoint cairo_store_point } bind def
/TJ {
  {
    dup
    type /stringtype eq
    { show } { -0.001 mul 0 cairo_font_matrix dtransform rmoveto } ifelse
  } forall
  currentpoint cairo_store_point
} bind def
/cairo_selectfont { cairo_font_matrix aload pop pop pop 0 0 6 array astore
    cairo_font exch selectfont cairo_point_x cairo_point_y moveto } bind def
/Tf { pop /cairo_font exch def /cairo_font_matrix where
      { pop cairo_selectfont } if } bind def
/Td { matrix translate cairo_font_matrix matrix concatmatrix dup
      /cairo_font_matrix exch def dup 4 get exch 5 get cairo_store_point
      /cairo_font where { pop cairo_selectfont } if } bind def
/Tm { 2 copy 8 2 roll 6 array astore /cairo_font_matrix exch def
      cairo_store_point /cairo_font where { pop cairo_selectfont } if } bind def
/g { setgray } bind def
/rg { setrgbcolor } bind def
/d1 { setcachedevice } bind def
%%EndProlog
%%Page: 1 1
%%BeginPageSetup
%%PageBoundingBox: 0 0 290 316
%%EndPageSetup
q 0 0 290 316 rectclip q
0 g
198.762 8.246 m 198.863 7.336 198.789 6.434 198.562 5.586 c 198.367 
4.859 198.062 4.168 197.664 3.551 c 196.809 2.215 195.512 1.145 193.922 
0.605 c 193.688 0.523 193.449 0.426 193.203 0.371 c 192.668 0.246 
192.129 0.125 191.598 0.125 c 191.523 0.125 191.453 0 191.383 0 c 
148.164 0 l 144.188 0 140.965 3.223 140.965 7.199 c 140.965 11.176 
144.188 14.402 148.164 14.402 c 182.441 14.402 l 163.422 92.758 l 
160.504 104.773 145.062 115.168 128.738 116.457 c 123.176 107.617 
111.879 101.777 99.387 101.777 c 86.891 101.777 75.598 107.57 70.035 
116.41 c 53.715 115.121 38.273 104.781 35.352 92.766 c 16.332 14.398 l 
50.609 14.398 l 54.586 14.398 57.809 11.176 57.809 7.199 c 57.809 3.223 
54.586 0 50.609 0 c 7.391 0 l 6.789 0 6.176 0.168 5.562 0.309 c 5.32 
0.363 5.086 0.559 4.855 0.637 c 3.27 1.172 2.027 2.227 1.168 3.555 c 
1.168 3.559 1.219 3.562 1.219 3.566 c 1.219 3.57 l 0.418 4.191 0.453 
4.891 0.262 5.625 c 0.039 6.465 -0.062 7.363 0.039 8.262 c 0.078 8.633 
0.133 9.023 0.23 9.375 c 21.363 96.387 l 26.098 115.855 48.977 131.199 
73.453 131.199 c 74.445 131.199 l 77.52 131.199 80.254 129.176 81.254 
126.266 c 82.949 121.328 89.723 116.258 99.387 116.258 c 109.051 
116.258 115.824 121.305 117.52 126.242 c 118.52 129.152 121.254 131.199 
124.332 131.199 c 125.32 131.199 l 149.805 131.199 172.688 115.855 
177.418 96.387 c 198.559 9.328 l 198.652 8.977 198.719 8.613 198.762 
8.246 c h
92.867 212.801 m 92.867 216.777 89.645 220 85.668 220 c 77.668 220 l 
73.691 220 70.469 216.777 70.469 212.801 c 70.469 208.824 73.691 
205.602 77.668 205.602 c 85.668 205.602 l 89.645 205.602 92.867 208.824 
92.867 212.801 c h
113.105 205.602 m 121.105 205.602 l 125.082 205.602 128.309 208.824 
128.309 212.801 c 128.309 216.777 125.082 220 121.105 220 c 113.105 220 
l 109.129 220 105.906 216.777 105.906 212.801 c 105.906 208.824 109.129 
205.602 113.105 205.602 c h
42.719 196.324 m 44.805 195.98 46.801 196.566 48.414 197.934 c 50.027 
199.301 50.816 201.312 50.816 203.426 c 50.816 217.207 l 50.816 243.711 
72.535 265.273 99.039 265.273 c 100.328 265.273 101.68 265.227 102.941 
265.125 c 96.27 254.766 86.609 247.281 75.688 244.227 c 71.859 243.156 
69.645 239.18 70.715 235.352 c 71.785 231.523 75.773 229.281 79.598 
230.359 c 95.402 234.777 109.148 246.094 117.656 261.586 c 135.023 
254.332 147.262 237.172 147.262 217.207 c 147.262 196.625 134.316 
178.727 115.262 172.008 c 112.996 173.922 110.07 175.199 106.879 
175.199 c 91.508 175.199 l 84.332 175.199 78.492 169.176 78.492 162 c 
78.492 154.824 84.332 148.801 91.508 148.801 c 106.879 148.801 l 
112.703 148.801 117.641 152.703 119.301 157.984 c 137.855 164.258 
151.918 178.758 158.113 196.746 c 166.477 198.777 171.617 203.988 
171.617 210.375 c 171.617 226.332 l 171.617 232.961 166.074 238.289 
157.156 240.145 c 147.996 263.273 125.473 279.676 99.121 279.676 c 
72.734 279.676 50.125 263.23 40.984 240.055 c 32.316 238.117 26.816 
232.855 26.816 226.332 c 26.816 210.375 l 26.816 203.438 33.074 197.922 
42.719 196.324 c h
217.098 243.199 m 221.074 243.199 224.297 246.422 224.297 250.398 c 
224.297 254.375 221.074 257.602 217.098 257.602 c 216.496 257.602 l 
212.52 257.602 209.297 254.375 209.297 250.398 c 209.297 246.422 212.52 
243.199 216.496 243.199 c h
242.121 243.199 m 246.098 243.199 249.32 246.422 249.32 250.398 c 
249.32 254.375 246.098 257.602 242.121 257.602 c 241.52 257.602 l 
237.543 257.602 234.32 254.375 234.32 250.398 c 234.32 246.422 237.543 
243.199 241.52 243.199 c h
258.727 316 m 174.871 316 l 157.848 316 144.004 302.027 144.004 285.008 
c 144.004 281.031 147.227 277.742 151.203 277.742 c 155.18 277.742 
158.402 281.062 158.402 285.039 c 158.402 294.117 165.789 301.602 
174.871 301.602 c 258.727 301.602 l 267.805 301.602 274.816 293.961 
274.816 284.879 c 274.816 215.387 l 274.816 206.305 267.805 199.203 
258.727 199.203 c 188.551 199.203 l 186.285 199.203 184.148 197.992 
182.789 196.18 c 159.102 164.508 l 156.715 161.328 157.363 156.781 
160.543 154.395 c 161.84 153.422 163.355 152.938 164.855 152.938 c 
167.047 152.938 169.211 154.062 170.625 155.953 c 192.152 184.801 l 
258.727 184.801 l 275.746 184.801 289.219 198.367 289.219 215.387 c 
289.219 284.879 l 289.219 301.898 275.746 316 258.727 316 c h
192.074 243.199 m 196.051 243.199 199.273 246.422 199.273 250.398 c 
199.273 254.375 196.051 257.602 192.074 257.602 c 191.473 257.602 l 
187.496 257.602 184.273 254.375 184.273 250.398 c 184.273 246.422 
187.496 243.199 191.473 243.199 c h
192.074 243.199 m f
Q Q
showpage
%%Trailer
count op_count sub {pop} repeat
countdictstack dict_count sub {end} repeat
cairo_eps_state restore
%%EOF
