%!PS-Adobe-3.0 EPSF-3.0
%%Creator: cairo 1.10.2 (http://cairographics.org)
%%CreationDate: Thu Aug 13 09:20:31 2015
%%Pages: 1
%%BoundingBox: 0 -1 211 293
%%DocumentData: Clean7Bit
%%LanguageLevel: 2
%%EndComments
%%BeginProlog
/cairo_eps_state save def
/dict_count countdictstack def
/op_count count 1 sub def
userdict begin
/q { gsave } bind def
/Q { grestore } bind def
/cm { 6 array astore concat } bind def
/w { setlinewidth } bind def
/J { setlinecap } bind def
/j { setlinejoin } bind def
/M { setmiterlimit } bind def
/d { setdash } bind def
/m { moveto } bind def
/l { lineto } bind def
/c { curveto } bind def
/h { closepath } bind def
/re { exch dup neg 3 1 roll 5 3 roll moveto 0 rlineto
      0 exch rlineto 0 rlineto closepath } bind def
/S { stroke } bind def
/f { fill } bind def
/f* { eofill } bind def
/n { newpath } bind def
/W { clip } bind def
/W* { eoclip } bind def
/BT { } bind def
/ET { } bind def
/pdfmark where { pop globaldict /?pdfmark /exec load put }
    { globaldict begin /?pdfmark /pop load def /pdfmark
    /cleartomark load def end } ifelse
/BDC { mark 3 1 roll /BDC pdfmark } bind def
/EMC { mark /EMC pdfmark } bind def
/cairo_store_point { /cairo_point_y exch def /cairo_point_x exch def } def
/Tj { show currentpoint cairo_store_point } bind def
/TJ {
  {
    dup
    type /stringtype eq
    { show } { -0.001 mul 0 cairo_font_matrix dtransform rmoveto } ifelse
  } forall
  currentpoint cairo_store_point
} bind def
/cairo_selectfont { cairo_font_matrix aload pop pop pop 0 0 6 array astore
    cairo_font exch selectfont cairo_point_x cairo_point_y moveto } bind def
/Tf { pop /cairo_font exch def /cairo_font_matrix where
      { pop cairo_selectfont } if } bind def
/Td { matrix translate cairo_font_matrix matrix concatmatrix dup
      /cairo_font_matrix exch def dup 4 get exch 5 get cairo_store_point
      /cairo_font where { pop cairo_selectfont } if } bind def
/Tm { 2 copy 8 2 roll 6 array astore /cairo_font_matrix exch def
      cairo_store_point /cairo_font where { pop cairo_selectfont } if } bind def
/g { setgray } bind def
/rg { setrgbcolor } bind def
/d1 { setcachedevice } bind def
%%EndProlog
%%Page: 1 1
%%BeginPageSetup
%%PageBoundingBox: 0 -1 211 293
%%EndPageSetup
q 0 -1 211 294 rectclip q
0 292.505 211 -293 re W n
0 g
27.191 223.204 m 27.191 239.161 l 27.191 245.681 32.562 250.946 41.234 
252.884 c 50.371 276.059 72.855 292.505 99.238 292.505 c 125.59 292.505 
148.199 276.102 157.363 252.974 c 166.277 251.118 171.988 245.786 
171.988 239.161 c 171.988 223.204 l 171.988 216.817 166.68 211.684 
158.316 209.653 c 152.121 191.665 137.891 177.239 119.336 170.966 c 
117.676 165.684 112.734 161.934 106.914 161.934 c 91.539 161.934 l 
84.363 161.934 78.523 167.559 78.523 174.735 c 78.523 181.911 84.363 
187.532 91.539 187.532 c 106.914 187.532 l 110.105 187.532 113.031 
186.501 115.297 184.591 c 134.352 191.309 147.297 209.454 147.297 
230.036 c 147.297 250.001 135.062 267.161 117.695 274.415 c 109.191 
258.923 95.445 247.606 79.641 243.188 c 75.816 242.11 71.84 244.352 
70.77 248.181 c 69.699 252.009 71.938 255.981 75.766 257.056 c 86.688 
260.11 96.387 267.595 103.062 277.954 c 101.797 278.052 100.531 278.102 
99.242 278.102 c 72.738 278.102 51.191 256.54 51.191 230.036 c 51.191 
216.255 l 51.191 214.138 50.312 212.13 48.699 210.763 c 47.086 209.395 
45.012 208.806 42.922 209.153 c 33.277 210.755 27.191 216.267 27.191 
223.204 c h
92.902 225.134 m 92.902 229.11 89.68 232.333 85.703 232.333 c 77.699 
232.333 l 73.723 232.333 70.5 229.11 70.5 225.134 c 70.5 221.157 73.723 
217.934 77.699 217.934 c 85.703 217.934 l 89.676 217.934 92.902 221.157 
92.902 225.134 c h
185.887 74.735 m 128.223 74.735 l 124.246 74.735 121.023 71.513 121.023 
67.536 c 121.023 63.559 124.246 60.333 128.223 60.333 c 185.887 60.333 
l 185.145 59.559 l 182.297 56.782 182.242 52.2 185.016 49.352 c 186.43 
47.907 188.301 47.169 190.172 47.169 c 191.984 47.169 193.801 47.841 
195.199 49.208 c 208.508 62.192 l 208.586 62.263 208.66 62.333 208.73 
62.407 c 209.574 63.27 210.156 64.294 210.48 65.38 c 210.48 65.384 
210.48 65.388 210.48 65.392 c 210.637 65.911 210.547 66.462 210.578 
67.024 c 210.578 67.032 210.391 67.04 210.391 67.044 c 210.391 67.067 l 
210.391 67.196 210.59 67.329 210.586 67.458 c 210.586 68.431 210.484 
69.352 210.133 70.2 c 209.82 70.95 209.426 71.657 208.848 72.29 c 
208.848 72.29 208.871 72.29 208.867 72.294 c 208.867 72.294 208.949 
72.298 208.949 72.298 c 208.871 72.384 208.789 72.466 208.789 72.548 c 
208.789 72.552 208.711 72.556 208.707 72.559 c 208.703 72.563 208.664 
72.567 208.66 72.571 c 208.66 72.571 208.641 72.571 208.641 72.575 c 
208.602 72.61 208.559 72.645 208.52 72.681 c 195.207 85.669 l 192.359 
88.446 187.797 88.388 185.023 85.544 c 182.246 82.696 182.301 78.188 
185.145 75.411 c h
203.578 27.536 m 145.914 27.536 l 146.656 28.235 l 149.504 31.013 
149.559 35.556 146.781 38.403 c 144.004 41.247 139.445 41.298 136.602 
38.524 c 123.309 25.552 l 123.227 25.477 123.148 25.395 123.066 25.313 
c 122.312 24.54 121.652 23.638 121.312 22.681 c 121.051 21.931 120.789 
21.126 120.789 20.282 c 120.789 20.04 l 120.789 19.403 121.031 18.794 
121.207 18.212 c 121.207 18.208 121.266 18.208 121.266 18.208 c 121.266 
18.204 121.297 18.2 121.297 18.2 c 121.621 17.126 122.215 16.11 123.055 
15.251 c 123.133 15.169 123.219 15.091 123.305 15.013 c 136.598 2.048 l 
137.996 0.681 139.812 0.001 141.625 0.001 c 143.5 0.001 145.371 0.727 
146.781 2.173 c 149.559 5.017 149.504 9.602 146.656 12.38 c 145.914 
13.13 l 203.578 13.13 l 207.555 13.13 210.777 16.352 210.777 20.329 c 
210.777 24.306 207.555 27.536 203.578 27.536 c h
113.137 217.934 m 121.137 217.934 l 125.113 217.934 128.34 221.157 
128.34 225.134 c 128.34 229.11 125.113 232.333 121.137 232.333 c 
113.137 232.333 l 109.16 232.333 105.938 229.11 105.938 225.134 c 
105.938 221.157 109.16 217.934 113.137 217.934 c h
128.77 129.302 m 145.09 128.013 160.531 117.739 163.453 105.72 c 
164.395 101.856 168.285 99.485 172.152 100.427 c 176.016 101.364 
178.387 105.106 177.445 108.97 c 172.715 128.438 149.832 143.536 
125.352 143.536 c 124.359 143.536 l 121.285 143.536 118.551 141.731 
117.551 138.825 c 115.855 133.884 109.082 128.962 99.418 128.962 c 
89.754 128.962 82.98 133.849 81.285 138.786 c 80.285 141.696 77.551 
143.536 74.477 143.536 c 73.488 143.536 l 49.008 143.536 26.121 128.438 
21.391 108.97 c 0.25 22.087 l 0.152 21.724 0.082 21.388 0.039 21.001 c 
-0.059 20.059 0.027 19.145 0.281 18.27 c 0.445 17.696 0.68 17.001 0.973 
16.497 c 0.973 16.497 0.977 16.333 0.977 16.333 c 1.93 14.735 3.52 
13.602 5.5 13.122 c 6.074 12.981 6.645 13.024 7.207 13.024 c 7.289 
13.024 7.367 13.134 7.445 13.134 c 50.641 13.134 l 54.617 13.134 57.84 
16.356 57.84 20.333 c 57.84 24.309 54.617 27.536 50.641 27.536 c 16.363 
27.536 l 35.383 105.747 l 38.305 117.763 53.746 128.028 70.066 129.313 
c 75.629 120.474 86.926 114.645 99.418 114.645 c 111.91 114.645 123.207 
120.462 128.77 129.302 c h
128.77 129.302 m f
Q Q
showpage
%%Trailer
count op_count sub {pop} repeat
countdictstack dict_count sub {end} repeat
cairo_eps_state restore
%%EOF
