%!PS-Adobe-3.0 EPSF-3.0
%%Creator: cairo 1.10.2 (http://cairographics.org)
%%CreationDate: Thu Aug 13 09:20:56 2015
%%Pages: 1
%%BoundingBox: 0 -1 313 280
%%DocumentData: Clean7Bit
%%LanguageLevel: 2
%%EndComments
%%BeginProlog
/cairo_eps_state save def
/dict_count countdictstack def
/op_count count 1 sub def
userdict begin
/q { gsave } bind def
/Q { grestore } bind def
/cm { 6 array astore concat } bind def
/w { setlinewidth } bind def
/J { setlinecap } bind def
/j { setlinejoin } bind def
/M { setmiterlimit } bind def
/d { setdash } bind def
/m { moveto } bind def
/l { lineto } bind def
/c { curveto } bind def
/h { closepath } bind def
/re { exch dup neg 3 1 roll 5 3 roll moveto 0 rlineto
      0 exch rlineto 0 rlineto closepath } bind def
/S { stroke } bind def
/f { fill } bind def
/f* { eofill } bind def
/n { newpath } bind def
/W { clip } bind def
/W* { eoclip } bind def
/BT { } bind def
/ET { } bind def
/pdfmark where { pop globaldict /?pdfmark /exec load put }
    { globaldict begin /?pdfmark /pop load def /pdfmark
    /cleartomark load def end } ifelse
/BDC { mark 3 1 roll /BDC pdfmark } bind def
/EMC { mark /EMC pdfmark } bind def
/cairo_store_point { /cairo_point_y exch def /cairo_point_x exch def } def
/Tj { show currentpoint cairo_store_point } bind def
/TJ {
  {
    dup
    type /stringtype eq
    { show } { -0.001 mul 0 cairo_font_matrix dtransform rmoveto } ifelse
  } forall
  currentpoint cairo_store_point
} bind def
/cairo_selectfont { cairo_font_matrix aload pop pop pop 0 0 6 array astore
    cairo_font exch selectfont cairo_point_x cairo_point_y moveto } bind def
/Tf { pop /cairo_font exch def /cairo_font_matrix where
      { pop cairo_selectfont } if } bind def
/Td { matrix translate cairo_font_matrix matrix concatmatrix dup
      /cairo_font_matrix exch def dup 4 get exch 5 get cairo_store_point
      /cairo_font where { pop cairo_selectfont } if } bind def
/Tm { 2 copy 8 2 roll 6 array astore /cairo_font_matrix exch def
      cairo_store_point /cairo_font where { pop cairo_selectfont } if } bind def
/g { setgray } bind def
/rg { setrgbcolor } bind def
/d1 { setcachedevice } bind def
%%EndProlog
%%Page: 1 1
%%BeginPageSetup
%%PageBoundingBox: 0 -1 313 280
%%EndPageSetup
q 0 -1 313 281 rectclip q
0 279.296 313 -280 re W n
0 g
219.809 212.128 m 219.809 216.105 223.031 219.331 227.008 219.331 c 
235.008 219.331 l 238.984 219.331 242.207 216.105 242.207 212.128 c 
242.207 208.151 238.984 204.929 235.008 204.929 c 227.008 204.929 l 
223.031 204.929 219.809 208.155 219.809 212.128 c h
206.77 212.128 m 206.77 216.105 203.547 219.331 199.57 219.331 c 191.57 
219.331 l 187.594 219.331 184.371 216.105 184.371 212.128 c 184.371 
208.151 187.594 204.929 191.57 204.929 c 199.57 204.929 l 203.547 
204.929 206.77 208.155 206.77 212.128 c h
188.059 257.87 m 195.574 262.464 204.234 264.894 213.098 264.894 c 
214.387 264.894 215.66 264.843 216.926 264.745 c 210.25 254.386 200.551 
246.901 189.629 243.847 c 185.801 242.773 183.566 238.8 184.637 234.972 
c 185.707 231.144 189.68 228.901 193.512 229.98 c 209.316 234.398 
223.062 245.714 231.566 261.206 c 248.934 253.952 261.168 236.792 
261.168 216.827 c 261.168 196.241 248.223 178.202 229.168 171.484 c 
226.902 173.398 223.977 174.53 220.785 174.53 c 205.41 174.53 l 198.234 
174.53 192.395 168.905 192.395 161.73 c 192.395 154.554 198.234 148.929 
205.41 148.929 c 220.785 148.929 l 226.605 148.929 231.547 152.577 
233.203 157.859 c 251.758 164.132 266.141 178.507 272.336 196.495 c 
280.699 198.526 286.152 203.609 286.152 209.995 c 286.152 225.952 l 
286.152 232.577 280.293 237.905 271.379 239.765 c 262.215 262.894 
239.535 279.296 213.184 279.296 c 201.668 279.296 190.367 276.136 
180.59 270.155 c 177.195 268.077 176.105 263.648 178.18 260.257 c 
180.254 256.862 184.664 255.796 188.059 257.87 c h
42.805 195.944 m 44.887 195.601 46.91 196.187 48.523 197.554 c 50.137 
198.925 50.953 200.933 50.953 203.046 c 50.953 216.827 l 50.953 243.331 
72.621 264.898 99.125 264.898 c 100.41 264.898 101.742 264.847 103.004 
264.745 c 96.328 254.386 86.656 246.901 75.734 243.847 c 71.906 242.776 
69.684 238.804 70.754 234.972 c 71.828 231.144 75.809 228.905 79.633 
229.98 c 95.438 234.398 109.188 245.714 117.691 261.206 c 135.059 
253.952 147.293 236.792 147.293 216.827 c 147.293 196.245 134.352 
178.202 115.297 171.487 c 113.031 173.398 110.105 174.53 106.914 174.53 
c 91.539 174.53 l 84.363 174.53 78.527 168.905 78.527 161.73 c 78.527 
154.554 84.363 148.929 91.539 148.929 c 106.914 148.929 l 112.734 
148.929 117.676 152.577 119.336 157.859 c 137.891 164.132 152.004 
178.507 158.199 196.495 c 166.562 198.526 171.754 203.609 171.754 
209.995 c 171.754 225.952 l 171.754 232.577 166.16 237.905 157.242 
239.765 c 148.078 262.894 125.531 279.296 99.18 279.296 c 72.797 
279.296 50.227 262.851 41.086 239.675 c 32.414 237.737 26.953 232.472 
26.953 225.952 c 26.953 209.995 l 26.953 203.058 33.16 197.542 42.805 
195.944 c h
92.898 212.128 m 92.898 216.105 89.676 219.331 85.699 219.331 c 77.699 
219.331 l 73.723 219.331 70.5 216.105 70.5 212.128 c 70.5 208.151 
73.723 204.929 77.699 204.929 c 85.699 204.929 l 89.676 204.929 92.898 
208.155 92.898 212.128 c h
198.59 8.948 m 177.449 95.862 l 172.719 115.331 149.836 130.53 125.352 
130.53 c 124.363 130.53 l 121.285 130.53 118.551 128.628 117.551 
125.718 c 115.855 120.776 109.082 115.804 99.418 115.804 c 89.754 
115.804 82.98 120.765 81.289 125.706 c 80.289 128.616 77.555 130.53 
74.477 130.53 c 73.488 130.53 l 49.004 130.53 26.125 115.331 21.391 
95.862 c 0.246 8.921 l 0.156 8.573 0.086 8.23 0.047 7.862 c -0.059 
6.952 0.016 6.058 0.246 5.206 c 0.438 4.48 0.742 3.804 1.141 3.187 c 
1.992 1.859 3.273 0.808 4.852 0.269 c 4.852 0.269 4.852 0.269 4.852 
0.269 c 4.855 0.269 4.859 0.265 4.863 0.265 c 5.109 0.179 5.367 0.234 
5.625 0.179 c 6.23 0.042 6.828 0.132 7.422 0.132 c 50.641 0.132 l 
54.617 0.132 57.84 3.355 57.84 7.331 c 57.84 11.308 54.617 14.53 50.641 
14.53 c 16.363 14.53 l 35.383 92.64 l 38.305 104.659 53.746 114.87 
70.066 116.159 c 75.629 107.319 86.922 101.464 99.418 101.464 c 111.914 
101.464 123.207 107.269 128.77 116.109 c 145.094 114.823 160.535 
104.667 163.457 92.648 c 182.473 14.53 l 148.195 14.53 l 144.219 14.53 
140.996 11.308 140.996 7.331 c 140.996 3.355 144.219 0.132 148.195 
0.132 c 191.414 0.132 l 191.484 0.132 191.555 0.003 191.629 0.003 c 
192.16 0.003 192.699 -0.001 193.234 0.12 c 193.48 0.175 193.719 0.21 
193.953 0.292 c 195.543 0.827 196.84 1.87 197.695 3.202 c 198.094 3.819 
198.398 4.495 198.59 5.222 c 198.82 6.069 198.895 6.964 198.793 7.874 c 
198.754 8.241 198.684 8.597 198.59 8.948 c h
312.664 7.87 m 312.621 8.237 312.555 8.597 312.461 8.948 c 291.32 
95.862 l 286.586 115.331 263.703 130.53 239.223 130.53 c 238.23 130.53 
l 235.156 130.53 232.422 128.628 231.422 125.718 c 229.727 120.776 
222.953 115.804 213.289 115.804 c 203.625 115.804 196.852 120.816 
195.156 125.753 c 193.863 129.515 189.766 131.523 186.008 130.234 c 
182.246 128.941 180.246 124.851 181.535 121.089 c 185.508 109.511 
198.566 101.429 213.285 101.429 c 225.781 101.429 237.078 107.253 
242.641 116.093 c 258.961 114.804 274.402 104.659 277.324 92.64 c 
296.344 14.53 l 262.066 14.53 l 258.09 14.53 254.867 11.308 254.867 
7.331 c 254.867 3.355 258.09 0.132 262.066 0.132 c 305.281 0.132 l 
305.355 0.132 305.426 -0.001 305.5 -0.001 c 306.027 -0.001 306.566 
-0.005 307.105 0.12 c 307.348 0.175 307.59 0.21 307.82 0.288 c 309.41 
0.827 310.707 1.866 311.566 3.202 c 311.961 3.819 312.266 4.495 312.461 
5.222 c 312.691 6.069 312.766 6.96 312.664 7.87 c h
113.137 204.929 m 121.137 204.929 l 125.113 204.929 128.336 208.151 
128.336 212.128 c 128.336 216.105 125.113 219.331 121.137 219.331 c 
113.137 219.331 l 109.16 219.331 105.938 216.105 105.938 212.128 c 
105.938 208.151 109.16 204.929 113.137 204.929 c h
113.137 204.929 m f
Q Q
showpage
%%Trailer
count op_count sub {pop} repeat
countdictstack dict_count sub {end} repeat
cairo_eps_state restore
%%EOF
