%!PS-Adobe-3.0 EPSF-3.0
%%Creator: cairo 1.10.2 (http://cairographics.org)
%%CreationDate: Thu Aug 13 09:20:37 2015
%%Pages: 1
%%BoundingBox: 0 -1 237 306
%%DocumentData: Clean7Bit
%%LanguageLevel: 2
%%EndComments
%%BeginProlog
/cairo_eps_state save def
/dict_count countdictstack def
/op_count count 1 sub def
userdict begin
/q { gsave } bind def
/Q { grestore } bind def
/cm { 6 array astore concat } bind def
/w { setlinewidth } bind def
/J { setlinecap } bind def
/j { setlinejoin } bind def
/M { setmiterlimit } bind def
/d { setdash } bind def
/m { moveto } bind def
/l { lineto } bind def
/c { curveto } bind def
/h { closepath } bind def
/re { exch dup neg 3 1 roll 5 3 roll moveto 0 rlineto
      0 exch rlineto 0 rlineto closepath } bind def
/S { stroke } bind def
/f { fill } bind def
/f* { eofill } bind def
/n { newpath } bind def
/W { clip } bind def
/W* { eoclip } bind def
/BT { } bind def
/ET { } bind def
/pdfmark where { pop globaldict /?pdfmark /exec load put }
    { globaldict begin /?pdfmark /pop load def /pdfmark
    /cleartomark load def end } ifelse
/BDC { mark 3 1 roll /BDC pdfmark } bind def
/EMC { mark /EMC pdfmark } bind def
/cairo_store_point { /cairo_point_y exch def /cairo_point_x exch def } def
/Tj { show currentpoint cairo_store_point } bind def
/TJ {
  {
    dup
    type /stringtype eq
    { show } { -0.001 mul 0 cairo_font_matrix dtransform rmoveto } ifelse
  } forall
  currentpoint cairo_store_point
} bind def
/cairo_selectfont { cairo_font_matrix aload pop pop pop 0 0 6 array astore
    cairo_font exch selectfont cairo_point_x cairo_point_y moveto } bind def
/Tf { pop /cairo_font exch def /cairo_font_matrix where
      { pop cairo_selectfont } if } bind def
/Td { matrix translate cairo_font_matrix matrix concatmatrix dup
      /cairo_font_matrix exch def dup 4 get exch 5 get cairo_store_point
      /cairo_font where { pop cairo_selectfont } if } bind def
/Tm { 2 copy 8 2 roll 6 array astore /cairo_font_matrix exch def
      cairo_store_point /cairo_font where { pop cairo_selectfont } if } bind def
/g { setgray } bind def
/rg { setrgbcolor } bind def
/d1 { setcachedevice } bind def
%%EndProlog
%%Page: 1 1
%%BeginPageSetup
%%PageBoundingBox: 0 -1 237 306
%%EndPageSetup
q 0 -1 237 307 rectclip q
0 305.82 237 -306 re W n
0 g
105.938 238.398 m 105.938 242.379 109.16 245.601 113.137 245.601 c 
121.137 245.601 l 125.113 245.601 128.336 242.379 128.336 238.398 c 
128.336 234.422 125.113 231.199 121.137 231.199 c 113.137 231.199 l 
109.16 231.199 105.938 234.422 105.938 238.398 c h
128.77 142.617 m 138.633 141.851 148.379 137.812 155.383 131.492 c 
158.332 128.828 162.887 129.058 165.551 132.011 c 168.215 134.965 
167.98 139.34 165.031 142.004 c 154.645 151.379 139.812 156.8 125.352 
156.8 c 124.359 156.8 l 121.285 156.8 118.551 155.023 117.551 152.113 c 
115.855 147.175 109.082 142.265 99.418 142.265 c 89.754 142.265 82.98 
147.129 81.285 152.07 c 80.289 154.976 77.551 156.8 74.477 156.8 c 
73.484 156.8 l 49.004 156.8 26.121 141.726 21.387 122.261 c 0.246 
35.383 l 0.152 35.031 0.082 34.711 0.043 34.34 c -0.055 33.445 0.016 
32.582 0.238 31.746 c 0.434 30.996 0.75 30.3 1.16 29.668 c 2.02 28.347 
3.305 27.308 4.883 26.777 c 5.117 26.695 5.355 26.633 5.602 26.578 c 
6.137 26.453 6.676 26.394 7.207 26.394 c 7.281 26.394 7.352 26.398 
7.422 26.398 c 50.641 26.398 l 54.617 26.398 57.84 29.625 57.84 33.601 
c 57.84 37.578 54.617 40.8 50.641 40.8 c 16.363 40.8 l 35.383 119.035 l 
38.305 131.054 53.746 141.332 70.066 142.617 c 75.629 133.777 86.922 
127.953 99.418 127.953 c 111.914 127.953 123.211 133.777 128.77 142.617 
c h
92.898 238.398 m 92.898 242.379 89.676 245.601 85.699 245.601 c 77.699 
245.601 l 73.723 245.601 70.5 242.379 70.5 238.398 c 70.5 234.422 
73.723 231.199 77.699 231.199 c 85.699 231.199 l 89.676 231.199 92.898 
234.422 92.898 238.398 c h
42.602 222.468 m 44.684 222.125 47.004 222.711 48.617 224.082 c 50.234 
225.449 51.348 227.457 51.348 229.574 c 51.348 243.351 l 51.348 269.855 
72.816 291.422 99.32 291.422 c 100.609 291.422 101.836 291.371 103.102 
291.269 c 96.426 280.914 86.703 273.425 75.781 270.371 c 71.953 269.3 
69.707 265.328 70.777 261.496 c 71.848 257.668 75.816 255.425 79.645 
256.504 c 95.449 260.925 109.191 272.238 117.695 287.73 c 135.062 
280.476 147.297 263.316 147.297 243.351 c 147.297 222.769 134.352 
204.601 115.297 197.883 c 113.027 199.793 110.102 200.8 106.914 200.8 c 
91.539 200.8 l 84.363 200.8 78.523 195.175 78.523 188 c 78.523 180.824 
84.363 175.199 91.539 175.199 c 106.914 175.199 l 112.734 175.199 
117.676 178.976 119.332 184.258 c 137.887 190.531 152.199 204.968 
158.395 222.957 c 166.758 224.988 172.148 230.133 172.148 236.519 c 
172.148 252.476 l 172.148 259.101 166.352 264.433 157.438 266.289 c 
148.277 289.418 125.633 305.82 99.277 305.82 c 72.895 305.82 50.07 
289.375 40.93 266.199 c 32.262 264.261 26.547 259 26.547 252.476 c 
26.547 236.519 l 26.547 229.582 32.957 224.07 42.602 222.468 c h
177.992 44 m 178.355 44 l 182.332 44 185.555 47.222 185.555 51.199 c 
185.555 55.175 182.332 58.398 178.355 58.398 c 177.992 58.398 l 174.016 
58.398 170.793 55.175 170.793 51.199 c 170.793 47.222 174.016 44 
177.992 44 c h
229.496 139.199 m 196.141 139.199 l 192.164 139.199 188.941 135.976 
188.941 132 c 188.941 128.023 192.164 124.8 196.141 124.8 c 222.547 
124.8 l 222.547 31.172 l 222.547 27.195 225.773 23.972 229.75 23.972 c 
233.727 23.972 236.949 27.195 236.949 31.172 c 236.949 132.261 l 
236.949 136.238 233.473 139.199 229.496 139.199 c h
212.148 7.199 m 212.148 3.222 208.926 -0 204.949 -0 c 124.148 -0 l 
120.172 -0 116.949 3.222 116.949 7.199 c 116.949 108 l 116.949 111.976 
120.172 115.199 124.148 115.199 c 204.949 115.199 l 208.926 115.199 
212.148 111.976 212.148 108 c h
197.746 100.8 m 131.348 100.8 l 131.348 87.199 l 153.949 87.199 l 
157.926 87.199 161.148 83.976 161.148 80 c 161.148 76.023 157.926 72.8 
153.949 72.8 c 131.348 72.8 l 131.348 58.398 l 153.949 58.398 l 157.926 
58.398 161.148 55.175 161.148 51.199 c 161.148 47.222 157.926 44 
153.949 44 c 131.348 44 l 131.348 14.398 l 197.746 14.398 l h
177.992 72.8 m 178.355 72.8 l 182.332 72.8 185.555 76.023 185.555 80 c 
185.555 83.976 182.332 87.199 178.355 87.199 c 177.992 87.199 l 174.016 
87.199 170.793 83.976 170.793 80 c 170.793 76.023 174.016 72.8 177.992 
72.8 c h
177.992 72.8 m f
Q Q
showpage
%%Trailer
count op_count sub {pop} repeat
countdictstack dict_count sub {end} repeat
cairo_eps_state restore
%%EOF
