%!PS-Adobe-3.0 EPSF-3.0
%%Creator: cairo 1.10.2 (http://cairographics.org)
%%CreationDate: Thu Aug 13 09:20:30 2015
%%Pages: 1
%%BoundingBox: 0 -1 244 308
%%DocumentData: Clean7Bit
%%LanguageLevel: 2
%%EndComments
%%BeginProlog
/cairo_eps_state save def
/dict_count countdictstack def
/op_count count 1 sub def
userdict begin
/q { gsave } bind def
/Q { grestore } bind def
/cm { 6 array astore concat } bind def
/w { setlinewidth } bind def
/J { setlinecap } bind def
/j { setlinejoin } bind def
/M { setmiterlimit } bind def
/d { setdash } bind def
/m { moveto } bind def
/l { lineto } bind def
/c { curveto } bind def
/h { closepath } bind def
/re { exch dup neg 3 1 roll 5 3 roll moveto 0 rlineto
      0 exch rlineto 0 rlineto closepath } bind def
/S { stroke } bind def
/f { fill } bind def
/f* { eofill } bind def
/n { newpath } bind def
/W { clip } bind def
/W* { eoclip } bind def
/BT { } bind def
/ET { } bind def
/pdfmark where { pop globaldict /?pdfmark /exec load put }
    { globaldict begin /?pdfmark /pop load def /pdfmark
    /cleartomark load def end } ifelse
/BDC { mark 3 1 roll /BDC pdfmark } bind def
/EMC { mark /EMC pdfmark } bind def
/cairo_store_point { /cairo_point_y exch def /cairo_point_x exch def } def
/Tj { show currentpoint cairo_store_point } bind def
/TJ {
  {
    dup
    type /stringtype eq
    { show } { -0.001 mul 0 cairo_font_matrix dtransform rmoveto } ifelse
  } forall
  currentpoint cairo_store_point
} bind def
/cairo_selectfont { cairo_font_matrix aload pop pop pop 0 0 6 array astore
    cairo_font exch selectfont cairo_point_x cairo_point_y moveto } bind def
/Tf { pop /cairo_font exch def /cairo_font_matrix where
      { pop cairo_selectfont } if } bind def
/Td { matrix translate cairo_font_matrix matrix concatmatrix dup
      /cairo_font_matrix exch def dup 4 get exch 5 get cairo_store_point
      /cairo_font where { pop cairo_selectfont } if } bind def
/Tm { 2 copy 8 2 roll 6 array astore /cairo_font_matrix exch def
      cairo_store_point /cairo_font where { pop cairo_selectfont } if } bind def
/g { setgray } bind def
/rg { setrgbcolor } bind def
/d1 { setcachedevice } bind def
%%EndProlog
%%Page: 1 1
%%BeginPageSetup
%%PageBoundingBox: 0 -1 244 308
%%EndPageSetup
q 0 -1 244 309 rectclip q
0 307.805 244 -308 re W n
0 g
139.656 8.199 m 139.656 4.223 136.434 1 132.457 1 c 80.449 1 l 76.469 1 
73.07 3.856 73.07 7.832 c 73.07 76.707 l 73.07 80.684 76.469 84.199 
80.449 84.199 c 160.117 84.199 l 164.094 84.199 167.316 80.973 167.316 
76.996 c 167.316 73.02 164.094 69.797 160.117 69.797 c 87.469 69.797 l 
87.469 15.399 l 132.453 15.399 l 136.43 15.399 139.656 12.176 139.656 
8.199 c h
77.086 215.399 m 85.086 215.399 l 89.062 215.399 92.289 218.621 92.289 
222.598 c 92.289 226.574 89.062 229.797 85.086 229.797 c 77.086 229.797 
l 73.109 229.797 69.887 226.574 69.887 222.598 c 69.887 218.621 73.109 
215.399 77.086 215.399 c h
112.523 215.399 m 120.523 215.399 l 124.5 215.399 127.727 218.621 
127.727 222.598 c 127.727 226.574 124.5 229.797 120.523 229.797 c 
112.523 229.797 l 108.547 229.797 105.324 226.574 105.324 222.598 c 
105.324 218.621 108.547 215.399 112.523 215.399 c h
89.414 193.797 m 89.414 189.82 92.637 186.598 96.613 186.598 c 100.613 
186.598 l 104.59 186.598 107.812 189.82 107.812 193.797 c 107.812 
197.774 104.59 201 100.613 201 c 96.613 201 l 92.637 201 89.414 197.774 
89.414 193.797 c h
70.066 131.016 m 75.629 122.176 86.926 116.352 99.418 116.352 c 111.914 
116.352 123.211 122.176 128.773 131.016 c 138.633 130.246 148.379 
126.211 155.383 119.891 c 158.336 117.227 162.887 117.461 165.551 
120.41 c 168.215 123.363 167.984 128.039 165.031 130.703 c 154.645 
140.078 139.812 145.797 125.352 145.797 c 124.363 145.797 l 121.285 
145.797 118.551 143.719 117.551 140.813 c 115.855 135.875 109.086 
130.813 99.418 130.813 c 89.754 130.813 82.98 135.906 81.285 140.844 c 
80.285 143.754 77.551 145.797 74.477 145.797 c 73.488 145.797 l 49.008 
145.797 26.121 130.426 21.387 110.961 c 0.246 23.934 l 0.152 23.578 
0.082 23.184 0.043 22.809 c -0.055 21.914 0.016 21.016 0.238 20.18 c 
0.434 19.434 0.746 18.727 1.152 18.098 c 2 16.789 3.371 15.75 4.926 
15.207 c 5.199 15.109 5.07 14.844 5.867 14.781 c 5.867 14.598 l 5.664 
14.598 l 6.18 14.598 6.699 14.512 7.207 14.512 c 7.277 14.512 7.348 
14.598 7.422 14.598 c 50.641 14.598 l 54.617 14.598 57.84 17.824 57.84 
21.801 c 57.84 25.777 54.617 29 50.641 29 c 16.363 29 l 35.379 107.336 
l 38.305 119.352 53.746 129.727 70.066 131.016 c h
119.742 109 m 115.766 109 112.543 105.774 112.543 101.797 c 112.543 
97.82 115.766 94.598 119.742 94.598 c 145.168 94.598 l 149.145 94.598 
152.367 97.82 152.367 101.797 c 152.367 105.774 149.145 109 145.168 109 
c h
27.641 227.426 m 27.309 231.387 30.25 234.871 34.211 235.203 c 35.426 
235.305 36.594 235.098 37.645 234.649 c 38.785 239.75 40.559 244.664 
42.945 249.317 c 42.672 249.543 42.402 249.793 42.16 250.063 c 41.898 
250.356 41.645 250.668 41.434 250.992 c 40.777 252.012 40.27 253.211 
40.27 254.496 c 40.27 255.047 l 40.27 255.289 40.324 255.457 40.352 
255.688 c 43.586 285.445 68.629 307.805 98.613 307.805 c 126.434 
307.805 149.973 289 155.805 261.797 c 175.125 261.797 l 179.102 261.797 
182.324 258.574 182.324 254.598 c 182.324 250.621 179.102 247.399 
175.125 247.399 c 155.082 247.399 l 157.066 243.399 158.57 239.012 
159.578 234.512 c 160.625 234.961 161.793 235.305 163.012 235.203 c 
166.973 234.871 169.914 231.387 169.582 227.426 c 168.648 216.289 l 
168.312 212.328 164.836 209.391 160.867 209.715 c 160.609 209.738 
160.352 209.774 160.098 209.824 c 154.859 180.637 129.281 158.422 
98.613 158.422 c 67.941 158.422 42.363 180.637 37.125 209.824 c 36.875 
209.774 36.617 209.738 36.355 209.715 c 32.398 209.379 28.91 212.324 
28.578 216.289 c h
56.285 261.797 m 140.941 261.797 l 135.473 280.199 118.492 293.266 
98.613 293.266 c 78.734 293.266 61.754 280.199 56.285 261.797 c h
50.543 220.719 m 50.543 194.215 72.109 172.754 98.613 172.754 c 125.117 
172.754 146.684 194.246 146.684 220.754 c 146.684 230.426 143.875 
239.399 138.535 247.399 c 58.688 247.399 l 53.348 239.399 50.543 
230.395 50.543 220.719 c h
243.309 102.539 m 243.223 103.527 242.93 104.516 242.418 105.426 c 
242.281 105.676 242.125 105.914 241.957 106.149 c 234.82 116.34 l 
232.539 119.598 228.051 120.391 224.793 118.109 c 221.535 115.828 
220.742 111.336 223.023 108.082 c 227.855 101.18 l 223.445 91.727 l 
223.441 91.719 223.441 91.715 223.438 91.707 c 219.02 82.07 l 208.605 
81 l 208.602 81 l 198.191 80.25 l 192.195 88.895 l 192.191 88.899 
192.191 88.942 192.188 88.945 c 186.199 97.516 l 195.035 116.473 l 
203.426 117.215 l 207.391 117.563 210.32 121.055 209.973 125.016 c 
209.625 128.977 206.121 131.902 202.172 131.563 c 189.777 130.477 l 
189.492 130.457 189.211 130.422 188.93 130.371 c 187.895 130.176 
186.941 129.762 186.121 129.18 c 185.309 128.609 184.605 127.867 
184.074 126.969 c 183.93 126.727 183.797 126.473 183.684 126.211 c 
171.453 99.981 l 171.324 99.719 171.211 99.449 171.117 99.176 c 170.773 
98.192 170.656 97.168 170.746 96.176 c 170.832 95.188 171.125 94.207 
171.633 93.297 c 171.773 93.047 171.93 92.801 172.098 92.567 c 180.398 
80.715 l 180.41 80.699 l 186.395 72.149 l 157.527 10.246 l 155.848 
6.641 157.406 2.356 161.012 0.676 c 161.996 0.219 163.031 0 164.051 0 c 
166.762 0 169.359 1.539 170.582 4.16 c 199.445 65.875 l 209.855 66.598 
l 209.859 66.598 l 224.277 68.047 l 224.562 68.067 224.848 68.199 
225.129 68.25 c 226.16 68.445 227.109 68.906 227.93 69.484 c 228.742 
70.051 229.441 70.817 229.973 71.711 c 230.121 71.961 230.254 72.227 
230.371 72.492 c 236.484 85.609 l 236.488 85.613 236.488 85.617 236.488 
85.617 c 242.602 98.734 l 242.73 98.996 242.844 99.262 242.938 99.535 c 
243.281 100.524 243.398 101.543 243.309 102.539 c h
243.309 102.539 m f
Q Q
showpage
%%Trailer
count op_count sub {pop} repeat
countdictstack dict_count sub {end} repeat
cairo_eps_state restore
%%EOF
