%!PS-Adobe-3.0 EPSF-3.0
%%Creator: cairo 1.10.2 (http://cairographics.org)
%%CreationDate: Fri Aug 14 10:44:58 2015
%%Pages: 1
%%BoundingBox: 0 -1 410 324
%%DocumentData: Clean7Bit
%%LanguageLevel: 2
%%EndComments
%%BeginProlog
/cairo_eps_state save def
/dict_count countdictstack def
/op_count count 1 sub def
userdict begin
/q { gsave } bind def
/Q { grestore } bind def
/cm { 6 array astore concat } bind def
/w { setlinewidth } bind def
/J { setlinecap } bind def
/j { setlinejoin } bind def
/M { setmiterlimit } bind def
/d { setdash } bind def
/m { moveto } bind def
/l { lineto } bind def
/c { curveto } bind def
/h { closepath } bind def
/re { exch dup neg 3 1 roll 5 3 roll moveto 0 rlineto
      0 exch rlineto 0 rlineto closepath } bind def
/S { stroke } bind def
/f { fill } bind def
/f* { eofill } bind def
/n { newpath } bind def
/W { clip } bind def
/W* { eoclip } bind def
/BT { } bind def
/ET { } bind def
/pdfmark where { pop globaldict /?pdfmark /exec load put }
    { globaldict begin /?pdfmark /pop load def /pdfmark
    /cleartomark load def end } ifelse
/BDC { mark 3 1 roll /BDC pdfmark } bind def
/EMC { mark /EMC pdfmark } bind def
/cairo_store_point { /cairo_point_y exch def /cairo_point_x exch def } def
/Tj { show currentpoint cairo_store_point } bind def
/TJ {
  {
    dup
    type /stringtype eq
    { show } { -0.001 mul 0 cairo_font_matrix dtransform rmoveto } ifelse
  } forall
  currentpoint cairo_store_point
} bind def
/cairo_selectfont { cairo_font_matrix aload pop pop pop 0 0 6 array astore
    cairo_font exch selectfont cairo_point_x cairo_point_y moveto } bind def
/Tf { pop /cairo_font exch def /cairo_font_matrix where
      { pop cairo_selectfont } if } bind def
/Td { matrix translate cairo_font_matrix matrix concatmatrix dup
      /cairo_font_matrix exch def dup 4 get exch 5 get cairo_store_point
      /cairo_font where { pop cairo_selectfont } if } bind def
/Tm { 2 copy 8 2 roll 6 array astore /cairo_font_matrix exch def
      cairo_store_point /cairo_font where { pop cairo_selectfont } if } bind def
/g { setgray } bind def
/rg { setrgbcolor } bind def
/d1 { setcachedevice } bind def
%%EndProlog
%%Page: 1 1
%%BeginPageSetup
%%PageBoundingBox: 0 -1 410 324
%%EndPageSetup
q 0 -1 410 325 rectclip q
0 323.755 410 -324 re W n
0 g
364.801 323.755 m 44.801 323.755 l 20.098 323.755 0 303.658 0 278.954 c 
0 99.755 l 0 77.224 16.719 58.525 38.398 55.411 c 38.398 12.806 l 
38.398 7.611 41.5 2.97 46.301 0.982 c 47.895 0.322 49.562 0.001 51.215 
0.001 c 54.539 0.001 57.797 1.302 60.25 3.755 c 111.453 54.954 l 
364.801 54.954 l 389.504 54.954 409.602 75.052 409.602 99.755 c 409.602 
278.954 l 409.602 303.658 389.504 323.755 364.801 323.755 c h
396.801 99.755 m 396.801 82.111 382.445 67.755 364.801 67.755 c 108.801 
67.755 l 107.102 67.755 105.473 67.079 104.273 65.88 c 51.199 12.81 l 
51.199 61.357 l 51.199 64.888 48.336 67.755 44.801 67.755 c 27.156 
67.755 12.801 82.111 12.801 99.755 c 12.801 278.954 l 12.801 296.599 
27.156 310.954 44.801 310.954 c 364.801 310.954 l 382.445 310.954 
396.801 296.599 396.801 278.954 c h
396.801 99.755 m f
130.094 208.169 m 126.762 206.993 125.012 203.337 126.188 200.005 c 
127.391 196.595 128 193.013 128 189.357 c 128 171.712 113.645 157.357 
96 157.357 c 78.355 157.357 64 171.712 64 189.357 c 64 207.001 78.355 
221.357 96 221.357 c 99.664 221.357 103.254 220.743 106.672 219.536 c 
110 218.357 113.66 220.103 114.836 223.435 c 116.016 226.767 114.27 
230.423 110.938 231.603 c 106.148 233.298 101.121 234.154 96 234.154 c 
71.297 234.154 51.199 214.056 51.199 189.357 c 51.199 164.654 71.297 
144.556 96 144.556 c 120.703 144.556 140.801 164.654 140.801 189.357 c 
140.801 194.466 139.945 199.482 138.258 204.263 c 137.082 207.595 
133.43 209.345 130.094 208.169 c h
130.094 208.169 m f
238.895 208.169 m 235.562 206.993 233.812 203.337 234.988 200.005 c 
236.191 196.595 236.801 193.013 236.801 189.357 c 236.801 171.712 
222.445 157.357 204.801 157.357 c 187.156 157.357 172.801 171.712 
172.801 189.357 c 172.801 207.001 187.156 221.357 204.801 221.357 c 
208.465 221.357 212.055 220.743 215.469 219.536 c 218.801 218.357 
222.461 220.103 223.637 223.435 c 224.816 226.767 223.07 230.423 
219.738 231.603 c 214.945 233.298 209.922 234.154 204.801 234.154 c 
180.098 234.154 160 214.056 160 189.357 c 160 164.654 180.098 144.556 
204.801 144.556 c 229.504 144.556 249.602 164.654 249.602 189.357 c 
249.602 194.466 248.746 199.482 247.059 204.263 c 245.883 207.595 
242.227 209.345 238.895 208.169 c h
238.895 208.169 m f
347.695 208.169 m 344.359 206.993 342.609 203.337 343.789 200.005 c 
344.988 196.595 345.602 193.013 345.602 189.357 c 345.602 171.712 
331.246 157.357 313.602 157.357 c 295.957 157.357 281.602 171.712 
281.602 189.357 c 281.602 207.001 295.957 221.357 313.602 221.357 c 
317.266 221.357 320.855 220.743 324.27 219.536 c 327.602 218.357 
331.262 220.103 332.438 223.435 c 333.617 226.767 331.871 230.423 
328.539 231.603 c 323.746 233.298 318.723 234.154 313.602 234.154 c 
288.898 234.154 268.801 214.056 268.801 189.357 c 268.801 164.654 
288.898 144.556 313.602 144.556 c 338.301 144.556 358.398 164.654 
358.398 189.357 c 358.398 194.466 357.543 199.482 355.859 204.263 c 
354.684 207.595 351.027 209.345 347.695 208.169 c h
347.695 208.169 m f
Q Q
showpage
%%Trailer
count op_count sub {pop} repeat
countdictstack dict_count sub {end} repeat
cairo_eps_state restore
%%EOF
