%!PS-Adobe-3.0 EPSF-3.0
%%Creator: cairo 1.10.2 (http://cairographics.org)
%%CreationDate: Fri Aug 14 10:45:11 2015
%%Pages: 1
%%BoundingBox: 0 -1 410 410
%%DocumentData: Clean7Bit
%%LanguageLevel: 2
%%EndComments
%%BeginProlog
/cairo_eps_state save def
/dict_count countdictstack def
/op_count count 1 sub def
userdict begin
/q { gsave } bind def
/Q { grestore } bind def
/cm { 6 array astore concat } bind def
/w { setlinewidth } bind def
/J { setlinecap } bind def
/j { setlinejoin } bind def
/M { setmiterlimit } bind def
/d { setdash } bind def
/m { moveto } bind def
/l { lineto } bind def
/c { curveto } bind def
/h { closepath } bind def
/re { exch dup neg 3 1 roll 5 3 roll moveto 0 rlineto
      0 exch rlineto 0 rlineto closepath } bind def
/S { stroke } bind def
/f { fill } bind def
/f* { eofill } bind def
/n { newpath } bind def
/W { clip } bind def
/W* { eoclip } bind def
/BT { } bind def
/ET { } bind def
/pdfmark where { pop globaldict /?pdfmark /exec load put }
    { globaldict begin /?pdfmark /pop load def /pdfmark
    /cleartomark load def end } ifelse
/BDC { mark 3 1 roll /BDC pdfmark } bind def
/EMC { mark /EMC pdfmark } bind def
/cairo_store_point { /cairo_point_y exch def /cairo_point_x exch def } def
/Tj { show currentpoint cairo_store_point } bind def
/TJ {
  {
    dup
    type /stringtype eq
    { show } { -0.001 mul 0 cairo_font_matrix dtransform rmoveto } ifelse
  } forall
  currentpoint cairo_store_point
} bind def
/cairo_selectfont { cairo_font_matrix aload pop pop pop 0 0 6 array astore
    cairo_font exch selectfont cairo_point_x cairo_point_y moveto } bind def
/Tf { pop /cairo_font exch def /cairo_font_matrix where
      { pop cairo_selectfont } if } bind def
/Td { matrix translate cairo_font_matrix matrix concatmatrix dup
      /cairo_font_matrix exch def dup 4 get exch 5 get cairo_store_point
      /cairo_font where { pop cairo_selectfont } if } bind def
/Tm { 2 copy 8 2 roll 6 array astore /cairo_font_matrix exch def
      cairo_store_point /cairo_font where { pop cairo_selectfont } if } bind def
/g { setgray } bind def
/rg { setrgbcolor } bind def
/d1 { setcachedevice } bind def
%%EndProlog
%%Page: 1 1
%%BeginPageSetup
%%PageBoundingBox: 0 -1 410 410
%%EndPageSetup
q 0 -1 410 411 rectclip q
0 409.6 410 -410 re W n
0 g
57.602 307.202 m 128 307.202 l 131.535 307.202 134.398 310.065 134.398 
313.6 c 134.398 317.135 131.535 319.998 128 319.998 c 57.602 319.998 l 
54.066 319.998 51.199 317.135 51.199 313.6 c 51.199 310.065 54.066 
307.202 57.602 307.202 c h
57.602 307.202 m f
313.602 319.998 m 153.602 319.998 l 150.066 319.998 147.199 317.135 
147.199 313.6 c 147.199 310.065 150.066 307.202 153.602 307.202 c 
313.602 307.202 l 317.133 307.202 320 310.065 320 313.6 c 320 317.135 
317.133 319.998 313.602 319.998 c h
313.602 319.998 m f
57.602 345.6 m 313.602 345.6 l 317.133 345.6 320 348.467 320 351.998 c 
320 355.534 317.133 358.401 313.602 358.401 c 57.602 358.401 l 54.066 
358.401 51.199 355.534 51.199 351.998 c 51.199 348.467 54.066 345.6 
57.602 345.6 c h
57.602 345.6 m f
57.602 268.799 m 313.602 268.799 l 317.133 268.799 320 271.666 320 
275.202 c 320 278.733 317.133 281.6 313.602 281.6 c 57.602 281.6 l 
54.066 281.6 51.199 278.733 51.199 275.202 c 51.199 271.666 54.066 
268.799 57.602 268.799 c h
57.602 268.799 m f
44.801 217.6 m 326.398 217.6 l 348.93 217.6 367.629 234.319 370.742 
255.998 c 387.75 255.998 l 392.945 255.998 397.586 259.1 399.574 
263.901 c 401.562 268.702 400.473 274.178 396.801 277.85 c 371.199 
303.452 l 371.199 364.799 l 371.199 389.502 351.102 409.6 326.398 409.6 
c 44.801 409.6 l 20.098 409.6 0 389.502 0 364.799 c 0 262.401 l 0 
237.698 20.098 217.6 44.801 217.6 c h
12.801 364.799 m 12.801 382.444 27.156 396.799 44.801 396.799 c 326.398 
396.799 l 344.043 396.799 358.398 382.444 358.398 364.799 c 358.398 
300.799 l 358.398 299.104 359.074 297.475 360.273 296.276 c 387.75 
268.799 l 364.801 268.799 l 361.266 268.799 358.398 265.936 358.398 
262.401 c 358.398 244.756 344.043 230.401 326.398 230.401 c 44.801 
230.401 l 27.156 230.401 12.801 244.756 12.801 262.401 c h
12.801 364.799 m f
352 102.401 m 281.602 102.401 l 278.066 102.401 275.199 99.534 275.199 
95.998 c 275.199 92.467 278.066 89.6 281.602 89.6 c 352 89.6 l 355.535 
89.6 358.398 92.467 358.398 95.998 c 358.398 99.534 355.535 102.401 352 
102.401 c h
352 102.401 m f
96 89.6 m 256 89.6 l 259.535 89.6 262.398 92.467 262.398 95.998 c 
262.398 99.534 259.535 102.401 256 102.401 c 96 102.401 l 92.465 
102.401 89.602 99.534 89.602 95.998 c 89.602 92.467 92.465 89.6 96 89.6 
c h
96 89.6 m f
352 140.799 m 96 140.799 l 92.465 140.799 89.602 137.936 89.602 134.401 
c 89.602 130.866 92.465 127.998 96 127.998 c 352 127.998 l 355.535 
127.998 358.398 130.866 358.398 134.401 c 358.398 137.936 355.535 
140.799 352 140.799 c h
352 140.799 m f
352 63.998 m 96 63.998 l 92.465 63.998 89.602 61.135 89.602 57.6 c 
89.602 54.065 92.465 51.202 96 51.202 c 352 51.202 l 355.535 51.202 
358.398 54.065 358.398 57.6 c 358.398 61.135 355.535 63.998 352 63.998 
c h
352 63.998 m f
364.801 191.998 m 83.199 191.998 l 58.496 191.998 38.398 171.901 38.398 
147.202 c 38.398 85.85 l 12.801 60.252 l 9.125 56.577 8.035 51.1 10.027 
46.299 c 12.016 41.502 16.656 38.401 21.852 38.401 c 38.855 38.401 l 
41.973 16.717 60.672 -0.002 83.199 -0.002 c 364.801 -0.002 l 389.504 
-0.002 409.602 20.096 409.602 44.799 c 409.602 147.202 l 409.602 
171.901 389.504 191.998 364.801 191.998 c h
396.801 44.799 m 396.801 27.155 382.445 12.799 364.801 12.799 c 83.199 
12.799 l 65.555 12.799 51.199 27.155 51.199 44.799 c 51.199 48.334 
48.336 51.202 44.801 51.202 c 21.855 51.205 l 49.324 78.674 l 50.523 
79.873 51.199 81.502 51.199 83.202 c 51.199 147.202 l 51.199 164.846 
65.555 179.202 83.199 179.202 c 364.801 179.202 l 382.445 179.202 
396.801 164.846 396.801 147.202 c h
396.801 44.799 m f
Q Q
showpage
%%Trailer
count op_count sub {pop} repeat
countdictstack dict_count sub {end} repeat
cairo_eps_state restore
%%EOF
