%!PS-Adobe-3.0 EPSF-3.0
%%Creator: cairo 1.10.2 (http://cairographics.org)
%%CreationDate: Fri Aug 14 10:44:52 2015
%%Pages: 1
%%BoundingBox: 0 -1 410 407
%%DocumentData: Clean7Bit
%%LanguageLevel: 2
%%EndComments
%%BeginProlog
/cairo_eps_state save def
/dict_count countdictstack def
/op_count count 1 sub def
userdict begin
/q { gsave } bind def
/Q { grestore } bind def
/cm { 6 array astore concat } bind def
/w { setlinewidth } bind def
/J { setlinecap } bind def
/j { setlinejoin } bind def
/M { setmiterlimit } bind def
/d { setdash } bind def
/m { moveto } bind def
/l { lineto } bind def
/c { curveto } bind def
/h { closepath } bind def
/re { exch dup neg 3 1 roll 5 3 roll moveto 0 rlineto
      0 exch rlineto 0 rlineto closepath } bind def
/S { stroke } bind def
/f { fill } bind def
/f* { eofill } bind def
/n { newpath } bind def
/W { clip } bind def
/W* { eoclip } bind def
/BT { } bind def
/ET { } bind def
/pdfmark where { pop globaldict /?pdfmark /exec load put }
    { globaldict begin /?pdfmark /pop load def /pdfmark
    /cleartomark load def end } ifelse
/BDC { mark 3 1 roll /BDC pdfmark } bind def
/EMC { mark /EMC pdfmark } bind def
/cairo_store_point { /cairo_point_y exch def /cairo_point_x exch def } def
/Tj { show currentpoint cairo_store_point } bind def
/TJ {
  {
    dup
    type /stringtype eq
    { show } { -0.001 mul 0 cairo_font_matrix dtransform rmoveto } ifelse
  } forall
  currentpoint cairo_store_point
} bind def
/cairo_selectfont { cairo_font_matrix aload pop pop pop 0 0 6 array astore
    cairo_font exch selectfont cairo_point_x cairo_point_y moveto } bind def
/Tf { pop /cairo_font exch def /cairo_font_matrix where
      { pop cairo_selectfont } if } bind def
/Td { matrix translate cairo_font_matrix matrix concatmatrix dup
      /cairo_font_matrix exch def dup 4 get exch 5 get cairo_store_point
      /cairo_font where { pop cairo_selectfont } if } bind def
/Tm { 2 copy 8 2 roll 6 array astore /cairo_font_matrix exch def
      cairo_store_point /cairo_font where { pop cairo_selectfont } if } bind def
/g { setgray } bind def
/rg { setrgbcolor } bind def
/d1 { setcachedevice } bind def
%%EndProlog
%%Page: 1 1
%%BeginPageSetup
%%PageBoundingBox: 0 -1 410 407
%%EndPageSetup
q 0 -1 410 408 rectclip q
0 406.955 410 -407 re W n
0 g
352 342.955 m 134.398 342.955 l 130.863 342.955 128 345.822 128 349.354 
c 128 352.889 130.863 355.756 134.398 355.756 c 352 355.756 l 355.535 
355.756 358.398 352.889 358.398 349.354 c 358.398 345.822 355.535 
342.955 352 342.955 c h
352 342.955 m f
352 266.154 m 339.199 266.154 l 335.664 266.154 332.801 269.022 332.801 
272.557 c 332.801 276.088 335.664 278.955 339.199 278.955 c 352 278.955 
l 355.535 278.955 358.398 276.088 358.398 272.557 c 358.398 269.022 
355.535 266.154 352 266.154 c h
352 266.154 m f
352 227.752 m 350.312 227.752 348.664 228.443 347.473 229.635 c 346.277 
230.826 345.598 232.475 345.598 234.154 c 345.598 235.842 346.277 
237.49 347.473 238.682 c 348.664 239.873 350.32 240.553 352 240.553 c 
353.68 240.553 355.336 239.873 356.527 238.682 c 357.719 237.49 358.398 
235.842 358.398 234.154 c 358.398 232.475 357.719 230.826 356.527 
229.635 c 355.336 228.443 353.688 227.752 352 227.752 c h
352 227.752 m f
352 304.557 m 236.801 304.557 l 233.266 304.557 230.398 307.42 230.398 
310.955 c 230.398 314.49 233.266 317.354 236.801 317.354 c 352 317.354 
l 355.535 317.354 358.398 314.49 358.398 310.955 c 358.398 307.42 
355.535 304.557 352 304.557 c h
352 304.557 m f
211.199 304.557 m 134.398 304.557 l 130.863 304.557 128 307.42 128 
310.955 c 128 314.49 130.863 317.354 134.398 317.354 c 211.199 317.354 
l 214.734 317.354 217.598 314.49 217.598 310.955 c 217.598 307.42 
214.734 304.557 211.199 304.557 c h
211.199 304.557 m f
364.785 127.998 m 361.461 127.998 358.203 129.299 355.746 131.756 c 
347.473 140.029 l 344.973 142.529 344.973 146.58 347.473 149.08 c 
349.973 151.58 354.023 151.58 356.523 149.08 c 364.793 140.811 l 
364.801 183.537 l 364.801 186.658 367.051 189.322 370.129 189.846 c 
385.332 192.432 396.801 205.975 396.801 221.354 c 396.801 362.154 l 
396.801 379.799 382.445 394.154 364.801 394.154 c 121.598 394.154 l 
103.953 394.154 89.598 379.799 89.598 362.154 c 89.598 298.154 l 89.598 
294.619 86.734 291.756 83.199 291.756 c 79.664 291.756 76.801 294.619 
76.801 298.154 c 76.801 362.154 l 76.801 386.858 96.898 406.955 121.598 
406.955 c 364.801 406.955 l 389.5 406.955 409.598 386.858 409.598 
362.154 c 409.598 221.354 l 409.598 201.303 396.43 184.049 377.598 
178.463 c 377.598 140.807 l 377.598 135.611 374.496 130.967 369.699 
128.983 c 368.105 128.322 366.438 127.998 364.785 127.998 c h
364.785 127.998 m f
275.199 214.955 m 57.598 214.955 l 54.066 214.955 51.199 217.822 51.199 
221.354 c 51.199 224.889 54.066 227.756 57.598 227.756 c 275.199 
227.756 l 278.734 227.756 281.598 224.889 281.598 221.354 c 281.598 
217.822 278.734 214.955 275.199 214.955 c h
275.199 214.955 m f
275.199 138.154 m 192 138.154 l 188.465 138.154 185.598 141.022 185.598 
144.557 c 185.598 148.088 188.465 150.955 192 150.955 c 275.199 150.955 
l 278.734 150.955 281.598 148.088 281.598 144.557 c 281.598 141.022 
278.734 138.154 275.199 138.154 c h
275.199 138.154 m f
166.398 138.154 m 57.598 138.154 l 54.066 138.154 51.199 141.022 51.199 
144.557 c 51.199 148.088 54.066 150.955 57.598 150.955 c 166.398 
150.955 l 169.934 150.955 172.801 148.088 172.801 144.557 c 172.801 
141.022 169.934 138.154 166.398 138.154 c h
166.398 138.154 m f
275.199 99.756 m 57.598 99.756 l 54.066 99.756 51.199 102.619 51.199 
106.154 c 51.199 109.69 54.066 112.557 57.598 112.557 c 275.199 112.557 
l 278.734 112.557 281.598 109.69 281.598 106.154 c 281.598 102.619 
278.734 99.756 275.199 99.756 c h
275.199 99.756 m f
96 176.557 m 57.598 176.557 l 54.066 176.557 51.199 179.42 51.199 
182.955 c 51.199 186.49 54.066 189.354 57.598 189.354 c 96 189.354 l 
99.535 189.354 102.398 186.49 102.398 182.955 c 102.398 179.42 99.535 
176.557 96 176.557 c h
96 176.557 m f
275.199 176.557 m 121.598 176.557 l 118.066 176.557 115.199 179.42 
115.199 182.955 c 115.199 186.49 118.066 189.354 121.598 189.354 c 
275.199 189.354 l 278.734 189.354 281.598 186.49 281.598 182.955 c 
281.598 179.42 278.734 176.557 275.199 176.557 c h
275.199 176.557 m f
44.812 -0.002 m 43.16 -0.002 41.496 0.322 39.902 0.983 c 35.102 2.967 
32 7.611 32 12.807 c 32 50.463 l 13.168 56.049 0 73.303 0 93.354 c 0 
234.154 l 0 258.858 20.098 278.955 44.801 278.955 c 288 278.955 l 
312.703 278.955 332.801 258.858 332.801 234.154 c 332.801 93.354 l 
332.801 68.654 312.703 48.557 288 48.557 c 98.648 48.557 l 53.848 3.756 
l 51.395 1.299 48.137 -0.002 44.812 -0.002 c h
44.801 266.154 m 27.156 266.154 12.801 251.799 12.801 234.154 c 12.801 
93.354 l 12.801 77.975 24.266 64.432 39.473 61.846 c 42.547 61.322 
44.801 58.658 44.801 55.537 c 44.801 12.811 l 91.473 59.483 l 92.672 
60.682 94.301 61.354 96 61.354 c 288 61.354 l 305.645 61.354 320 75.709 
320 93.354 c 320 234.154 l 320 251.799 305.645 266.154 288 266.154 c h
44.801 266.154 m f
Q Q
showpage
%%Trailer
count op_count sub {pop} repeat
countdictstack dict_count sub {end} repeat
cairo_eps_state restore
%%EOF
