%!PS-Adobe-3.0 EPSF-3.0
%%Creator: cairo 1.10.2 (http://cairographics.org)
%%CreationDate: Fri Aug 14 10:44:13 2015
%%Pages: 1
%%BoundingBox: 0 0 410 288
%%DocumentData: Clean7Bit
%%LanguageLevel: 2
%%EndComments
%%BeginProlog
/cairo_eps_state save def
/dict_count countdictstack def
/op_count count 1 sub def
userdict begin
/q { gsave } bind def
/Q { grestore } bind def
/cm { 6 array astore concat } bind def
/w { setlinewidth } bind def
/J { setlinecap } bind def
/j { setlinejoin } bind def
/M { setmiterlimit } bind def
/d { setdash } bind def
/m { moveto } bind def
/l { lineto } bind def
/c { curveto } bind def
/h { closepath } bind def
/re { exch dup neg 3 1 roll 5 3 roll moveto 0 rlineto
      0 exch rlineto 0 rlineto closepath } bind def
/S { stroke } bind def
/f { fill } bind def
/f* { eofill } bind def
/n { newpath } bind def
/W { clip } bind def
/W* { eoclip } bind def
/BT { } bind def
/ET { } bind def
/pdfmark where { pop globaldict /?pdfmark /exec load put }
    { globaldict begin /?pdfmark /pop load def /pdfmark
    /cleartomark load def end } ifelse
/BDC { mark 3 1 roll /BDC pdfmark } bind def
/EMC { mark /EMC pdfmark } bind def
/cairo_store_point { /cairo_point_y exch def /cairo_point_x exch def } def
/Tj { show currentpoint cairo_store_point } bind def
/TJ {
  {
    dup
    type /stringtype eq
    { show } { -0.001 mul 0 cairo_font_matrix dtransform rmoveto } ifelse
  } forall
  currentpoint cairo_store_point
} bind def
/cairo_selectfont { cairo_font_matrix aload pop pop pop 0 0 6 array astore
    cairo_font exch selectfont cairo_point_x cairo_point_y moveto } bind def
/Tf { pop /cairo_font exch def /cairo_font_matrix where
      { pop cairo_selectfont } if } bind def
/Td { matrix translate cairo_font_matrix matrix concatmatrix dup
      /cairo_font_matrix exch def dup 4 get exch 5 get cairo_store_point
      /cairo_font where { pop cairo_selectfont } if } bind def
/Tm { 2 copy 8 2 roll 6 array astore /cairo_font_matrix exch def
      cairo_store_point /cairo_font where { pop cairo_selectfont } if } bind def
/g { setgray } bind def
/rg { setrgbcolor } bind def
/d1 { setcachedevice } bind def
%%EndProlog
%%Page: 1 1
%%BeginPageSetup
%%PageBoundingBox: 0 0 410 288
%%EndPageSetup
q 0 0 410 288 rectclip q
0 g
403.199 224 m 399.664 224 396.801 221.133 396.801 217.602 c 396.801 
44.801 l 396.801 27.156 382.445 12.801 364.801 12.801 c 44.801 12.801 l 
27.156 12.801 12.801 27.156 12.801 44.801 c 12.801 217.602 l 12.801 
221.133 9.934 224 6.398 224 c 2.867 224 0 221.133 0 217.602 c 0 44.801 
l 0 20.098 20.098 0 44.801 0 c 364.801 0 l 389.504 0 409.602 20.098 
409.602 44.801 c 409.602 217.602 l 409.602 221.133 406.734 224 403.199 
224 c h
403.199 224 m f
6.043 235.816 m 180.512 123.254 l 187.891 118.492 196.344 116.113 
204.801 116.113 c 213.254 116.113 221.711 118.492 229.086 123.254 c 
403.559 235.816 l 407.602 238.422 409.836 242.906 409.391 247.516 c 
408.328 258.52 403.207 268.727 394.977 276.25 c 386.688 283.828 375.973 
288 364.801 288 c 44.801 288 l 33.629 288 22.91 283.828 14.621 276.25 c 
6.391 268.727 1.273 258.52 0.207 247.516 c -0.238 242.906 1.996 238.422 
6.043 235.816 c h
44.801 275.199 m 364.801 275.199 l 380.996 275.199 394.914 262.648 
396.621 246.574 c 396.621 246.57 396.621 246.57 396.621 246.57 c 
222.148 134.008 l 211.609 127.211 197.992 127.211 187.453 134.008 c 
12.98 246.57 l 12.98 246.57 12.977 246.57 12.977 246.574 c 14.684 
262.648 28.605 275.199 44.801 275.199 c h
44.801 275.199 m f
Q Q
showpage
%%Trailer
count op_count sub {pop} repeat
countdictstack dict_count sub {end} repeat
cairo_eps_state restore
%%EOF
