%!PS-Adobe-3.0 EPSF-3.0
%%Creator: cairo 1.10.2 (http://cairographics.org)
%%CreationDate: Fri Aug 14 10:44:51 2015
%%Pages: 1
%%BoundingBox: 0 -1 410 391
%%DocumentData: Clean7Bit
%%LanguageLevel: 2
%%EndComments
%%BeginProlog
/cairo_eps_state save def
/dict_count countdictstack def
/op_count count 1 sub def
userdict begin
/q { gsave } bind def
/Q { grestore } bind def
/cm { 6 array astore concat } bind def
/w { setlinewidth } bind def
/J { setlinecap } bind def
/j { setlinejoin } bind def
/M { setmiterlimit } bind def
/d { setdash } bind def
/m { moveto } bind def
/l { lineto } bind def
/c { curveto } bind def
/h { closepath } bind def
/re { exch dup neg 3 1 roll 5 3 roll moveto 0 rlineto
      0 exch rlineto 0 rlineto closepath } bind def
/S { stroke } bind def
/f { fill } bind def
/f* { eofill } bind def
/n { newpath } bind def
/W { clip } bind def
/W* { eoclip } bind def
/BT { } bind def
/ET { } bind def
/pdfmark where { pop globaldict /?pdfmark /exec load put }
    { globaldict begin /?pdfmark /pop load def /pdfmark
    /cleartomark load def end } ifelse
/BDC { mark 3 1 roll /BDC pdfmark } bind def
/EMC { mark /EMC pdfmark } bind def
/cairo_store_point { /cairo_point_y exch def /cairo_point_x exch def } def
/Tj { show currentpoint cairo_store_point } bind def
/TJ {
  {
    dup
    type /stringtype eq
    { show } { -0.001 mul 0 cairo_font_matrix dtransform rmoveto } ifelse
  } forall
  currentpoint cairo_store_point
} bind def
/cairo_selectfont { cairo_font_matrix aload pop pop pop 0 0 6 array astore
    cairo_font exch selectfont cairo_point_x cairo_point_y moveto } bind def
/Tf { pop /cairo_font exch def /cairo_font_matrix where
      { pop cairo_selectfont } if } bind def
/Td { matrix translate cairo_font_matrix matrix concatmatrix dup
      /cairo_font_matrix exch def dup 4 get exch 5 get cairo_store_point
      /cairo_font where { pop cairo_selectfont } if } bind def
/Tm { 2 copy 8 2 roll 6 array astore /cairo_font_matrix exch def
      cairo_store_point /cairo_font where { pop cairo_selectfont } if } bind def
/g { setgray } bind def
/rg { setrgbcolor } bind def
/d1 { setcachedevice } bind def
%%EndProlog
%%Page: 1 1
%%BeginPageSetup
%%PageBoundingBox: 0 -1 410 391
%%EndPageSetup
q 0 -1 410 392 rectclip q
0 390.4 410 -391 re W n
0 g
403.199 224.002 m 399.664 224.002 396.801 221.134 396.801 217.599 c 
396.801 44.798 l 396.801 27.154 382.445 12.798 364.801 12.798 c 44.801 
12.798 l 27.156 12.798 12.801 27.154 12.801 44.798 c 12.801 217.599 l 
12.801 221.134 9.934 224.002 6.398 224.002 c 2.867 224.002 0 221.134 0 
217.599 c 0 44.798 l 0 20.099 20.098 0.002 44.801 0.002 c 364.801 0.002 
l 389.504 0.002 409.602 20.099 409.602 44.798 c 409.602 217.599 l 
409.602 221.134 406.734 224.002 403.199 224.002 c h
403.199 224.002 m f
6.039 235.814 m 180.512 123.252 l 187.891 118.494 196.344 116.115 
204.801 116.115 c 213.254 116.115 221.711 118.494 229.086 123.252 c 
403.559 235.814 l 407.602 238.423 409.836 242.908 409.391 247.517 c 
408.328 258.521 403.207 268.724 394.977 276.248 c 388.289 282.365 
380.016 286.259 371.199 287.537 c 371.199 371.201 l 371.199 381.787 
362.586 390.4 352 390.4 c 57.602 390.4 l 47.012 390.4 38.398 381.787 
38.398 371.201 c 38.398 287.537 l 29.586 286.259 21.312 282.365 14.621 
276.248 c 6.391 268.724 1.273 258.521 0.207 247.513 c -0.238 242.908 
1.996 238.423 6.039 235.814 c h
38.398 274.529 m 38.398 243.201 l 38.398 239.666 41.266 236.798 44.801 
236.798 c 48.336 236.798 51.199 239.666 51.199 243.201 c 51.199 371.201 
l 51.199 374.728 54.07 377.599 57.602 377.599 c 352 377.599 l 355.527 
377.599 358.398 374.728 358.398 371.201 c 358.398 243.201 l 358.398 
239.666 361.266 236.798 364.801 236.798 c 368.336 236.798 371.199 
239.666 371.199 243.201 c 371.199 274.529 l 384.523 271.744 395.145 
260.482 396.621 246.572 c 396.621 246.572 396.621 246.572 396.621 
246.572 c 222.148 134.009 l 211.609 127.209 197.992 127.209 187.453 
134.009 c 12.98 246.572 l 12.98 246.572 12.98 246.572 12.977 246.572 c 
14.453 260.482 25.074 271.744 38.398 274.529 c h
38.398 274.529 m f
83.199 320.002 m 326.398 320.002 l 329.934 320.002 332.801 322.865 
332.801 326.4 c 332.801 329.935 329.934 332.798 326.398 332.798 c 
83.199 332.798 l 79.664 332.798 76.801 329.935 76.801 326.4 c 76.801 
322.865 79.664 320.002 83.199 320.002 c h
83.199 320.002 m f
326.398 294.4 m 179.199 294.4 l 175.664 294.4 172.801 291.533 172.801 
288.002 c 172.801 284.466 175.664 281.599 179.199 281.599 c 326.398 
281.599 l 329.934 281.599 332.801 284.466 332.801 288.002 c 332.801 
291.533 329.934 294.4 326.398 294.4 c h
326.398 294.4 m f
83.199 281.599 m 153.602 281.599 l 157.133 281.599 160 284.466 160 
288.002 c 160 291.533 157.133 294.4 153.602 294.4 c 83.199 294.4 l 
79.664 294.4 76.801 291.533 76.801 288.002 c 76.801 284.466 79.664 
281.599 83.199 281.599 c h
83.199 281.599 m f
83.199 243.201 m 243.199 243.201 l 246.734 243.201 249.602 246.064 
249.602 249.599 c 249.602 253.134 246.734 256.002 243.199 256.002 c 
83.199 256.002 l 79.664 256.002 76.801 253.134 76.801 249.599 c 76.801 
246.064 79.664 243.201 83.199 243.201 c h
83.199 243.201 m f
326.398 256.002 m 268.801 256.002 l 265.266 256.002 262.398 253.134 
262.398 249.599 c 262.398 246.064 265.266 243.201 268.801 243.201 c 
326.398 243.201 l 329.934 243.201 332.801 246.064 332.801 249.599 c 
332.801 253.134 329.934 256.002 326.398 256.002 c h
326.398 256.002 m f
313.602 217.599 m 147.199 217.599 l 143.664 217.599 140.801 214.736 
140.801 211.201 c 140.801 207.666 143.664 204.798 147.199 204.798 c 
313.602 204.798 l 317.133 204.798 320 207.666 320 211.201 c 320 214.736 
317.133 217.599 313.602 217.599 c h
313.602 217.599 m f
121.602 217.599 m 96 217.599 l 92.465 217.599 89.602 214.736 89.602 
211.201 c 89.602 207.666 92.465 204.798 96 204.798 c 121.602 204.798 l 
125.133 204.798 128 207.666 128 211.201 c 128 214.736 125.133 217.599 
121.602 217.599 c h
121.602 217.599 m f
243.199 179.201 m 166.398 179.201 l 162.867 179.201 160 176.334 160 
172.798 c 160 169.267 162.867 166.4 166.398 166.4 c 243.199 166.4 l 
246.734 166.4 249.602 169.267 249.602 172.798 c 249.602 176.334 246.734 
179.201 243.199 179.201 c h
243.199 179.201 m f
Q Q
showpage
%%Trailer
count op_count sub {pop} repeat
countdictstack dict_count sub {end} repeat
cairo_eps_state restore
%%EOF
