%!PS-Adobe-3.0 EPSF-3.0
%%Creator: cairo 1.10.2 (http://cairographics.org)
%%CreationDate: Fri Aug 14 10:44:39 2015
%%Pages: 1
%%BoundingBox: 0 -1 410 342
%%DocumentData: Clean7Bit
%%LanguageLevel: 2
%%EndComments
%%BeginProlog
/cairo_eps_state save def
/dict_count countdictstack def
/op_count count 1 sub def
userdict begin
/q { gsave } bind def
/Q { grestore } bind def
/cm { 6 array astore concat } bind def
/w { setlinewidth } bind def
/J { setlinecap } bind def
/j { setlinejoin } bind def
/M { setmiterlimit } bind def
/d { setdash } bind def
/m { moveto } bind def
/l { lineto } bind def
/c { curveto } bind def
/h { closepath } bind def
/re { exch dup neg 3 1 roll 5 3 roll moveto 0 rlineto
      0 exch rlineto 0 rlineto closepath } bind def
/S { stroke } bind def
/f { fill } bind def
/f* { eofill } bind def
/n { newpath } bind def
/W { clip } bind def
/W* { eoclip } bind def
/BT { } bind def
/ET { } bind def
/pdfmark where { pop globaldict /?pdfmark /exec load put }
    { globaldict begin /?pdfmark /pop load def /pdfmark
    /cleartomark load def end } ifelse
/BDC { mark 3 1 roll /BDC pdfmark } bind def
/EMC { mark /EMC pdfmark } bind def
/cairo_store_point { /cairo_point_y exch def /cairo_point_x exch def } def
/Tj { show currentpoint cairo_store_point } bind def
/TJ {
  {
    dup
    type /stringtype eq
    { show } { -0.001 mul 0 cairo_font_matrix dtransform rmoveto } ifelse
  } forall
  currentpoint cairo_store_point
} bind def
/cairo_selectfont { cairo_font_matrix aload pop pop pop 0 0 6 array astore
    cairo_font exch selectfont cairo_point_x cairo_point_y moveto } bind def
/Tf { pop /cairo_font exch def /cairo_font_matrix where
      { pop cairo_selectfont } if } bind def
/Td { matrix translate cairo_font_matrix matrix concatmatrix dup
      /cairo_font_matrix exch def dup 4 get exch 5 get cairo_store_point
      /cairo_font where { pop cairo_selectfont } if } bind def
/Tm { 2 copy 8 2 roll 6 array astore /cairo_font_matrix exch def
      cairo_store_point /cairo_font where { pop cairo_selectfont } if } bind def
/g { setgray } bind def
/rg { setrgbcolor } bind def
/d1 { setcachedevice } bind def
%%EndProlog
%%Page: 1 1
%%BeginPageSetup
%%PageBoundingBox: 0 -1 410 342
%%EndPageSetup
q 0 -1 410 343 rectclip q
0 341.059 410 -342 re W n
0 g
398.66 137.704 m 398.66 144.098 397.137 150.251 394.215 155.813 c 
403.844 163.157 409.602 174.563 409.602 186.942 c 409.602 208.571 
392.004 226.169 370.375 226.169 c 264.164 226.169 l 273.312 249.559 
278.297 277.95 278.297 307.305 c 278.297 325.919 263.156 341.059 
244.543 341.059 c 225.93 341.059 210.789 325.919 210.789 307.305 c 
210.789 240.774 164.379 190.993 95.305 183.43 c 94.828 183.376 94.375 
183.27 93.941 183.126 c 89.402 187.227 83.387 189.731 76.801 189.731 c 
25.602 189.731 l 11.484 189.731 0 178.247 0 164.13 c 0 42.528 l 0 
28.415 11.484 16.93 25.602 16.93 c 76.801 16.93 l 84.609 16.93 91.609 
20.45 96.309 25.981 c 112.688 23.59 123.305 18.356 133.566 13.278 c 
146.754 6.751 160.391 0.001 184.363 0.001 c 337.547 0.001 l 359.18 
0.001 376.773 17.598 376.773 39.227 c 376.773 45.618 375.254 51.77 
372.332 57.333 c 381.961 64.676 387.715 76.083 387.715 88.465 c 387.715 
94.856 386.195 101.012 383.273 106.571 c 392.902 113.919 398.66 125.325 
398.66 137.704 c h
372.449 114.747 m 361.602 114.747 l 358.066 114.747 355.199 111.883 
355.199 108.348 c 355.199 104.813 358.066 101.95 361.602 101.95 c 
371.168 101.95 l 373.613 97.868 374.914 93.27 374.914 88.465 c 374.914 
78.782 369.668 69.989 361.188 65.329 c 349.547 65.329 l 346.012 65.329 
343.148 62.465 343.148 58.93 c 343.148 55.395 346.012 52.528 349.547 
52.528 c 360.332 52.528 l 362.711 48.493 363.973 43.962 363.973 39.227 
c 363.973 24.657 352.121 12.801 337.547 12.801 c 184.363 12.801 l 
163.383 12.801 152.195 18.337 139.242 24.751 c 129.355 29.641 118.254 
35.118 101.996 38.024 c 102.258 39.489 102.398 40.993 102.398 42.528 c 
102.398 139.329 l 102.398 142.864 99.535 145.731 96 145.731 c 92.465 
145.731 89.602 142.864 89.602 139.329 c 89.602 42.528 l 89.602 35.473 
83.859 29.731 76.801 29.731 c 25.602 29.731 l 18.543 29.731 12.801 
35.473 12.801 42.528 c 12.801 164.13 l 12.801 171.188 18.543 176.93 
25.602 176.93 c 76.801 176.93 l 83.859 176.93 89.602 171.188 89.602 
164.13 c 89.602 160.594 92.465 157.731 96 157.731 c 99.535 157.731 
102.398 160.594 102.398 164.13 c 102.398 166.614 102.039 169.012 
101.375 171.286 c 137.195 176.172 167.629 191.547 189.602 215.938 c 
211.52 240.262 223.586 272.712 223.586 307.305 c 223.586 318.86 232.988 
328.258 244.539 328.258 c 256.094 328.258 265.496 318.86 265.496 
307.305 c 265.496 275.86 259.523 245.731 248.68 222.473 c 247.188 
219.27 248.574 215.462 251.777 213.965 c 252.82 213.481 253.93 213.305 
255 213.391 c 255.16 213.38 255.32 213.368 255.48 213.368 c 370.371 
213.368 l 384.945 213.368 396.797 201.512 396.797 186.942 c 396.797 
177.505 391.816 168.911 383.711 164.165 c 371.73 164.165 l 368.195 
164.165 365.332 161.301 365.332 157.766 c 365.332 154.231 368.195 
151.368 371.73 151.368 c 382 151.368 l 384.52 147.243 385.855 142.579 
385.855 137.704 c 385.859 128.141 380.742 119.45 372.449 114.747 c h
372.449 114.747 m f
337.906 114.747 m 331.086 114.747 l 327.555 114.747 324.688 111.883 
324.688 108.348 c 324.688 104.813 327.555 101.95 331.086 101.95 c 
337.906 101.95 l 341.441 101.95 344.309 104.813 344.309 108.348 c 
344.309 111.883 341.441 114.747 337.906 114.747 c h
337.906 114.747 m f
349.547 164.169 m 342.727 164.169 l 339.191 164.169 336.328 161.301 
336.328 157.766 c 336.328 154.231 339.191 151.368 342.727 151.368 c 
349.547 151.368 l 353.082 151.368 355.945 154.231 355.945 157.766 c 
355.945 161.301 353.082 164.169 349.547 164.169 c h
349.547 164.169 m f
326.266 65.329 m 319.445 65.329 l 315.91 65.329 313.047 62.465 313.047 
58.93 c 313.047 55.395 315.91 52.528 319.445 52.528 c 326.266 52.528 l 
329.801 52.528 332.668 55.395 332.668 58.93 c 332.668 62.465 329.801 
65.329 326.266 65.329 c h
326.266 65.329 m f
64 164.13 m 56.941 164.13 51.199 158.387 51.199 151.329 c 51.199 144.27 
56.941 138.528 64 138.528 c 71.059 138.528 76.801 144.27 76.801 151.329 
c 76.801 158.387 71.059 164.13 64 164.13 c h
64 164.13 m f
Q Q
showpage
%%Trailer
count op_count sub {pop} repeat
countdictstack dict_count sub {end} repeat
cairo_eps_state restore
%%EOF
