%!PS-Adobe-3.0 EPSF-3.0
%%Creator: cairo 1.10.2 (http://cairographics.org)
%%CreationDate: Fri Aug 14 10:44:34 2015
%%Pages: 1
%%BoundingBox: 0 -1 333 410
%%DocumentData: Clean7Bit
%%LanguageLevel: 2
%%EndComments
%%BeginProlog
/cairo_eps_state save def
/dict_count countdictstack def
/op_count count 1 sub def
userdict begin
/q { gsave } bind def
/Q { grestore } bind def
/cm { 6 array astore concat } bind def
/w { setlinewidth } bind def
/J { setlinecap } bind def
/j { setlinejoin } bind def
/M { setmiterlimit } bind def
/d { setdash } bind def
/m { moveto } bind def
/l { lineto } bind def
/c { curveto } bind def
/h { closepath } bind def
/re { exch dup neg 3 1 roll 5 3 roll moveto 0 rlineto
      0 exch rlineto 0 rlineto closepath } bind def
/S { stroke } bind def
/f { fill } bind def
/f* { eofill } bind def
/n { newpath } bind def
/W { clip } bind def
/W* { eoclip } bind def
/BT { } bind def
/ET { } bind def
/pdfmark where { pop globaldict /?pdfmark /exec load put }
    { globaldict begin /?pdfmark /pop load def /pdfmark
    /cleartomark load def end } ifelse
/BDC { mark 3 1 roll /BDC pdfmark } bind def
/EMC { mark /EMC pdfmark } bind def
/cairo_store_point { /cairo_point_y exch def /cairo_point_x exch def } def
/Tj { show currentpoint cairo_store_point } bind def
/TJ {
  {
    dup
    type /stringtype eq
    { show } { -0.001 mul 0 cairo_font_matrix dtransform rmoveto } ifelse
  } forall
  currentpoint cairo_store_point
} bind def
/cairo_selectfont { cairo_font_matrix aload pop pop pop 0 0 6 array astore
    cairo_font exch selectfont cairo_point_x cairo_point_y moveto } bind def
/Tf { pop /cairo_font exch def /cairo_font_matrix where
      { pop cairo_selectfont } if } bind def
/Td { matrix translate cairo_font_matrix matrix concatmatrix dup
      /cairo_font_matrix exch def dup 4 get exch 5 get cairo_store_point
      /cairo_font where { pop cairo_selectfont } if } bind def
/Tm { 2 copy 8 2 roll 6 array astore /cairo_font_matrix exch def
      cairo_store_point /cairo_font where { pop cairo_selectfont } if } bind def
/g { setgray } bind def
/rg { setrgbcolor } bind def
/d1 { setcachedevice } bind def
%%EndProlog
%%Page: 1 1
%%BeginPageSetup
%%PageBoundingBox: 0 -1 333 410
%%EndPageSetup
q 0 -1 333 411 rectclip q
0 409.6 333 -410 re W n
0 g
288 409.6 m 44.801 409.6 l 20.098 409.6 0 389.502 0 364.799 c 0 6.401 l 
0 2.866 2.867 -0.002 6.398 -0.002 c 44.801 -0.002 l 48.336 -0.002 
51.199 2.866 51.199 6.401 c 51.199 38.401 l 281.602 38.401 l 281.602 
6.401 l 281.602 2.866 284.465 -0.002 288 -0.002 c 326.398 -0.002 l 
329.934 -0.002 332.801 2.866 332.801 6.401 c 332.801 364.799 l 332.801 
389.502 312.703 409.6 288 409.6 c h
320 12.799 m 294.398 12.799 l 294.398 44.799 l 294.398 48.334 291.535 
51.202 288 51.202 c 44.801 51.202 l 41.266 51.202 38.398 48.334 38.398 
44.799 c 38.398 12.799 l 12.801 12.799 l 12.801 364.799 l 12.801 
382.444 27.156 396.799 44.801 396.799 c 288 396.799 l 305.645 396.799 
320 382.444 320 364.799 c h
320 12.799 m f
288 281.6 m 268.801 281.6 l 265.27 281.6 262.402 278.733 262.402 
275.202 c 262.402 271.666 265.27 268.799 268.801 268.799 c 281.602 
268.799 l 281.602 89.6 l 89.598 89.6 l 86.062 89.6 83.199 86.733 83.199 
83.202 c 83.199 79.666 86.062 76.799 89.598 76.799 c 288 76.799 l 
291.535 76.799 294.398 79.666 294.398 83.202 c 294.398 275.202 l 
294.398 278.733 291.535 281.6 288 281.6 c h
288 281.6 m f
63.996 89.6 m 51.199 89.6 l 51.199 268.799 l 243.203 268.799 l 246.734 
268.799 249.602 271.666 249.602 275.202 c 249.602 278.733 246.734 281.6 
243.203 281.6 c 44.801 281.6 l 41.266 281.6 38.398 278.733 38.398 
275.202 c 38.398 83.202 l 38.398 79.666 41.266 76.799 44.801 76.799 c 
63.996 76.799 l 67.531 76.799 70.398 79.666 70.398 83.202 c 70.398 
86.733 67.531 89.6 63.996 89.6 c h
63.996 89.6 m f
286.398 345.6 m 46.398 345.6 l 41.988 345.6 38.398 342.01 38.398 337.6 
c 38.398 315.202 l 38.398 310.788 41.988 307.202 46.398 307.202 c 
286.398 307.202 l 290.812 307.202 294.398 310.788 294.398 315.202 c 
294.398 337.6 l 294.398 342.01 290.812 345.6 286.398 345.6 c h
281.602 319.998 m 51.199 319.998 l 51.199 332.799 l 281.602 332.799 l h
281.602 319.998 m f
108.801 115.202 m 224 115.202 l 241.645 115.202 256 129.557 256 147.202 
c 256 211.202 l 256 228.846 241.645 243.202 224 243.202 c 108.801 
243.202 l 91.156 243.202 76.801 228.846 76.801 211.202 c 76.801 147.202 
l 76.801 129.557 91.156 115.202 108.801 115.202 c h
224 127.998 m 108.801 127.998 l 98.215 127.998 89.602 136.612 89.602 
147.202 c 89.602 209.909 l 152.199 168.174 l 156.512 165.299 161.457 
163.862 166.398 163.862 c 171.344 163.862 176.289 165.299 180.602 
168.174 c 243.199 209.909 l 243.199 147.202 l 243.199 136.612 234.586 
127.998 224 127.998 c h
108.801 230.401 m 224 230.401 l 230.266 230.401 235.84 227.381 239.348 
222.725 c 173.5 178.827 l 169.188 175.952 163.613 175.948 159.301 
178.827 c 93.453 222.725 l 96.961 227.381 102.535 230.401 108.801 
230.401 c h
108.801 230.401 m f
Q Q
showpage
%%Trailer
count op_count sub {pop} repeat
countdictstack dict_count sub {end} repeat
cairo_eps_state restore
%%EOF
