%!PS-Adobe-3.0 EPSF-3.0
%%Creator: cairo 1.10.2 (http://cairographics.org)
%%CreationDate: Fri Aug 14 10:44:55 2015
%%Pages: 1
%%BoundingBox: 0 -1 404 410
%%DocumentData: Clean7Bit
%%LanguageLevel: 2
%%EndComments
%%BeginProlog
/cairo_eps_state save def
/dict_count countdictstack def
/op_count count 1 sub def
userdict begin
/q { gsave } bind def
/Q { grestore } bind def
/cm { 6 array astore concat } bind def
/w { setlinewidth } bind def
/J { setlinecap } bind def
/j { setlinejoin } bind def
/M { setmiterlimit } bind def
/d { setdash } bind def
/m { moveto } bind def
/l { lineto } bind def
/c { curveto } bind def
/h { closepath } bind def
/re { exch dup neg 3 1 roll 5 3 roll moveto 0 rlineto
      0 exch rlineto 0 rlineto closepath } bind def
/S { stroke } bind def
/f { fill } bind def
/f* { eofill } bind def
/n { newpath } bind def
/W { clip } bind def
/W* { eoclip } bind def
/BT { } bind def
/ET { } bind def
/pdfmark where { pop globaldict /?pdfmark /exec load put }
    { globaldict begin /?pdfmark /pop load def /pdfmark
    /cleartomark load def end } ifelse
/BDC { mark 3 1 roll /BDC pdfmark } bind def
/EMC { mark /EMC pdfmark } bind def
/cairo_store_point { /cairo_point_y exch def /cairo_point_x exch def } def
/Tj { show currentpoint cairo_store_point } bind def
/TJ {
  {
    dup
    type /stringtype eq
    { show } { -0.001 mul 0 cairo_font_matrix dtransform rmoveto } ifelse
  } forall
  currentpoint cairo_store_point
} bind def
/cairo_selectfont { cairo_font_matrix aload pop pop pop 0 0 6 array astore
    cairo_font exch selectfont cairo_point_x cairo_point_y moveto } bind def
/Tf { pop /cairo_font exch def /cairo_font_matrix where
      { pop cairo_selectfont } if } bind def
/Td { matrix translate cairo_font_matrix matrix concatmatrix dup
      /cairo_font_matrix exch def dup 4 get exch 5 get cairo_store_point
      /cairo_font where { pop cairo_selectfont } if } bind def
/Tm { 2 copy 8 2 roll 6 array astore /cairo_font_matrix exch def
      cairo_store_point /cairo_font where { pop cairo_selectfont } if } bind def
/g { setgray } bind def
/rg { setrgbcolor } bind def
/d1 { setcachedevice } bind def
%%EndProlog
%%Page: 1 1
%%BeginPageSetup
%%PageBoundingBox: 0 -1 404 410
%%EndPageSetup
q 0 -1 404 411 rectclip q
0 409.6 404 -410 re W n
0 g
76.949 191.803 m 76.949 169.069 85.016 146.038 99.086 128.616 c 113.914 
110.248 133.293 100.131 153.648 100.131 c 174.004 100.131 193.359 
110.241 208.148 128.6 c 222.172 145.998 230.211 169.022 230.211 191.764 
c 230.211 198.401 l 230.211 201.936 227.348 204.799 223.812 204.799 c 
220.277 204.799 217.41 201.936 217.41 198.401 c 217.41 191.764 l 217.41 
171.893 210.402 151.795 198.184 136.631 c 185.867 121.35 170.055 
112.932 153.648 112.932 c 137.238 112.932 121.398 121.358 109.043 
136.655 c 96.781 151.842 89.75 171.944 89.75 191.803 c 89.75 197.506 l 
89.75 214.553 99.188 237.514 102.855 245.795 c 126.648 248.522 149.754 
247.788 171.59 243.577 c 171.996 243.498 172.406 243.463 172.805 
243.463 c 175.812 243.463 178.492 245.592 179.086 248.651 c 179.754 
252.123 177.48 255.479 174.012 256.147 c 149.766 260.819 124.094 
261.467 97.711 258.073 c 97.695 258.073 97.684 258.069 97.672 258.065 c 
97.539 258.049 97.414 258.022 97.285 257.995 c 97.203 257.979 97.117 
257.967 97.035 257.948 c 96.945 257.928 96.863 257.897 96.777 257.873 c 
96.055 257.666 95.383 257.346 94.793 256.924 c 94.793 256.924 94.789 
256.92 94.789 256.92 c 94.727 256.877 94.672 256.827 94.613 256.784 c 
94.207 256.467 93.832 256.104 93.504 255.686 c 93.492 255.67 93.473 
255.651 93.461 255.635 c 93.395 255.549 93.336 255.459 93.277 255.37 c 
93.215 255.284 93.152 255.198 93.098 255.108 c 93.059 255.045 93.023 
254.975 92.984 254.909 c 92.914 254.788 92.844 254.666 92.781 254.541 c 
92.777 254.53 92.77 254.522 92.766 254.51 c 92.422 253.799 88.004 
244.58 83.926 232.498 c 81.805 244.436 79.895 257.686 79.895 266.745 c 
79.895 289.991 93.238 300.397 106.461 300.397 c 106.938 300.397 107.398 
300.455 107.848 300.553 c 108.305 300.452 108.77 300.397 109.238 
300.397 c 110.59 300.397 111.949 300.823 113.105 301.702 c 123.738 
309.776 137.93 312.077 159.129 309.159 c 162.625 308.678 165.859 
311.127 166.34 314.627 c 166.824 318.127 164.375 321.358 160.871 
321.838 c 144.711 324.065 124.16 325.022 107.113 313.163 c 106.898 
313.186 106.684 313.198 106.461 313.198 c 83.281 313.198 67.094 294.096 
67.094 266.745 c 67.094 246.276 75.594 208.381 76.949 202.479 c h
76.949 191.803 m f
269.387 83.893 m 269.258 83.928 269.129 83.959 268.996 83.991 c 216.816 
95.147 l 211.605 96.303 211.199 101.877 211.199 103.561 c 211.199 
106.534 l 211.199 110.069 208.336 112.932 204.801 112.932 c 201.266 
112.932 198.398 110.069 198.398 106.534 c 198.398 103.561 l 198.398 
93.631 203.797 85.795 212.344 83.108 c 198.5 67.362 176.762 57.862 
153.602 57.862 c 130.441 57.862 108.699 67.362 94.859 83.108 c 103.223 
85.752 108.531 93.592 108.531 103.561 c 108.531 106.534 l 108.531 
110.069 105.668 112.932 102.133 112.932 c 98.598 112.932 95.734 110.069 
95.734 106.534 c 95.734 103.561 l 95.734 101.389 95.211 96.221 90.434 
95.159 c 38.203 83.991 l 38.07 83.959 37.941 83.928 37.812 83.893 c 
26.434 80.705 16.754 73.647 9.816 63.487 c 3.488 54.213 0 43.022 0 
31.971 c 0 19.553 l 0 8.772 9.609 -0.002 21.422 -0.002 c 285.781 -0.002 
l 297.59 -0.002 307.199 8.772 307.199 19.553 c 307.199 31.971 l 307.199 
43.022 303.715 54.213 297.383 63.487 c 290.445 73.647 280.766 80.705 
269.387 83.893 c h
294.398 19.553 m 294.398 15.893 290.453 12.799 285.781 12.799 c 21.422 
12.799 l 16.746 12.799 12.801 15.893 12.801 19.553 c 12.801 31.971 l 
12.801 47.631 22.512 66.209 41.082 71.514 c 80.934 80.038 l 96.793 
58.381 124.277 45.061 153.602 45.061 c 182.926 45.061 210.406 58.381 
226.266 80.038 c 266.117 71.514 l 284.688 66.209 294.398 47.631 294.398 
31.971 c h
294.398 19.553 m f
358.398 409.6 m 217.602 409.6 l 192.898 409.6 172.801 389.502 172.801 
364.799 c 172.801 287.998 l 172.801 267.948 185.969 250.694 204.801 
245.108 c 204.801 226.651 l 204.801 221.455 207.902 216.815 212.703 
214.827 c 214.293 214.166 215.961 213.846 217.613 213.846 c 220.938 
213.846 224.195 215.147 226.652 217.6 c 252.25 243.202 l 358.398 
243.202 l 383.102 243.202 403.199 263.299 403.199 287.998 c 403.199 
364.799 l 403.199 389.502 383.102 409.6 358.398 409.6 c h
390.398 287.998 m 390.398 270.354 376.043 255.998 358.398 255.998 c 
249.602 255.998 l 247.902 255.998 246.273 255.327 245.074 254.127 c 
217.602 226.659 l 217.602 250.182 l 217.602 253.303 215.348 255.967 
212.273 256.491 c 197.066 259.077 185.602 272.62 185.602 287.998 c 
185.602 364.799 l 185.602 382.444 199.957 396.799 217.602 396.799 c 
358.398 396.799 l 376.043 396.799 390.398 382.444 390.398 364.799 c h
390.398 287.998 m f
358.398 371.202 m 217.602 371.202 l 214.066 371.202 211.199 368.334 
211.199 364.799 c 211.199 361.264 214.066 358.401 217.602 358.401 c 
358.398 358.401 l 361.934 358.401 364.801 361.264 364.801 364.799 c 
364.801 368.334 361.934 371.202 358.398 371.202 c h
358.398 371.202 m f
217.602 319.998 m 230.398 319.998 l 233.934 319.998 236.801 322.866 
236.801 326.401 c 236.801 329.936 233.934 332.799 230.398 332.799 c 
217.602 332.799 l 214.066 332.799 211.199 329.936 211.199 326.401 c 
211.199 322.866 214.066 319.998 217.602 319.998 c h
217.602 319.998 m f
358.398 332.799 m 256 332.799 l 252.465 332.799 249.602 329.936 249.602 
326.401 c 249.602 322.866 252.465 319.998 256 319.998 c 358.398 319.998 
l 361.934 319.998 364.801 322.866 364.801 326.401 c 364.801 329.936 
361.934 332.799 358.398 332.799 c h
358.398 332.799 m f
358.398 294.401 m 217.602 294.401 l 214.066 294.401 211.199 291.534 
211.199 287.998 c 211.199 284.467 214.066 281.6 217.602 281.6 c 358.398 
281.6 l 361.934 281.6 364.801 284.467 364.801 287.998 c 364.801 291.534 
361.934 294.401 358.398 294.401 c h
358.398 294.401 m f
Q Q
showpage
%%Trailer
count op_count sub {pop} repeat
countdictstack dict_count sub {end} repeat
cairo_eps_state restore
%%EOF
