%!PS-Adobe-3.0 EPSF-3.0
%%Creator: cairo 1.10.2 (http://cairographics.org)
%%CreationDate: Fri Aug 14 10:45:10 2015
%%Pages: 1
%%BoundingBox: 0 -1 359 410
%%DocumentData: Clean7Bit
%%LanguageLevel: 2
%%EndComments
%%BeginProlog
/cairo_eps_state save def
/dict_count countdictstack def
/op_count count 1 sub def
userdict begin
/q { gsave } bind def
/Q { grestore } bind def
/cm { 6 array astore concat } bind def
/w { setlinewidth } bind def
/J { setlinecap } bind def
/j { setlinejoin } bind def
/M { setmiterlimit } bind def
/d { setdash } bind def
/m { moveto } bind def
/l { lineto } bind def
/c { curveto } bind def
/h { closepath } bind def
/re { exch dup neg 3 1 roll 5 3 roll moveto 0 rlineto
      0 exch rlineto 0 rlineto closepath } bind def
/S { stroke } bind def
/f { fill } bind def
/f* { eofill } bind def
/n { newpath } bind def
/W { clip } bind def
/W* { eoclip } bind def
/BT { } bind def
/ET { } bind def
/pdfmark where { pop globaldict /?pdfmark /exec load put }
    { globaldict begin /?pdfmark /pop load def /pdfmark
    /cleartomark load def end } ifelse
/BDC { mark 3 1 roll /BDC pdfmark } bind def
/EMC { mark /EMC pdfmark } bind def
/cairo_store_point { /cairo_point_y exch def /cairo_point_x exch def } def
/Tj { show currentpoint cairo_store_point } bind def
/TJ {
  {
    dup
    type /stringtype eq
    { show } { -0.001 mul 0 cairo_font_matrix dtransform rmoveto } ifelse
  } forall
  currentpoint cairo_store_point
} bind def
/cairo_selectfont { cairo_font_matrix aload pop pop pop 0 0 6 array astore
    cairo_font exch selectfont cairo_point_x cairo_point_y moveto } bind def
/Tf { pop /cairo_font exch def /cairo_font_matrix where
      { pop cairo_selectfont } if } bind def
/Td { matrix translate cairo_font_matrix matrix concatmatrix dup
      /cairo_font_matrix exch def dup 4 get exch 5 get cairo_store_point
      /cairo_font where { pop cairo_selectfont } if } bind def
/Tm { 2 copy 8 2 roll 6 array astore /cairo_font_matrix exch def
      cairo_store_point /cairo_font where { pop cairo_selectfont } if } bind def
/g { setgray } bind def
/rg { setrgbcolor } bind def
/d1 { setcachedevice } bind def
%%EndProlog
%%Page: 1 1
%%BeginPageSetup
%%PageBoundingBox: 0 -1 359 410
%%EndPageSetup
q 0 -1 359 411 rectclip q
0 409.615 359 -410 re W n
0 g
114.938 255.24 m 114.938 236.248 121.691 217.088 133.473 202.674 c 
145.902 187.467 162.191 179.092 179.348 179.092 c 196.504 179.092 
212.777 187.463 225.168 202.662 c 236.91 217.061 243.648 236.213 
243.648 255.205 c 243.648 271.439 l 255.961 310.791 251.352 343.139 
247.141 352.713 c 247.129 352.732 247.117 352.752 247.105 352.775 c 
247.047 352.904 246.984 353.025 246.918 353.15 c 246.883 353.217 
246.852 353.283 246.812 353.35 c 246.746 353.459 246.676 353.564 
246.605 353.674 c 246.559 353.744 246.512 353.818 246.461 353.889 c 
246.395 353.978 246.328 354.061 246.262 354.146 c 246.195 354.225 
246.129 354.311 246.062 354.385 c 246 354.455 245.934 354.521 245.867 
354.588 c 245.789 354.67 245.711 354.752 245.625 354.83 c 245.559 
354.893 245.488 354.947 245.422 355.006 c 245.332 355.08 245.246 
355.158 245.156 355.225 c 245.074 355.287 244.992 355.342 244.906 355.4 
c 244.824 355.455 244.742 355.518 244.656 355.568 c 244.551 355.635 
244.441 355.693 244.336 355.752 c 244.266 355.787 244.199 355.83 
244.129 355.865 c 244 355.928 243.871 355.982 243.738 356.037 c 243.684 
356.061 243.629 356.088 243.574 356.107 c 243.434 356.162 243.289 
356.209 243.145 356.252 c 243.094 356.268 243.043 356.287 242.992 
356.303 c 242.855 356.338 242.715 356.369 242.574 356.396 c 242.508 
356.412 242.445 356.428 242.379 356.439 c 242.262 356.459 242.141 
356.471 242.02 356.486 c 241.926 356.498 241.836 356.51 241.742 356.518 
c 241.648 356.521 241.551 356.525 241.453 356.525 c 241.332 356.529 
241.215 356.533 241.094 356.529 c 241.016 356.525 240.941 356.521 
240.863 356.514 c 240.723 356.506 240.582 356.494 240.438 356.475 c 
240.418 356.475 240.395 356.475 240.375 356.471 c 230.402 355.045 
218.043 357.525 204.957 360.154 c 183.535 364.455 159.34 369.314 
140.617 356.525 c 140.547 356.525 140.477 356.533 140.406 356.533 c 
120.621 356.533 106.801 340.311 106.801 317.084 c 106.801 300.213 
113.727 269.201 114.934 263.924 c 114.934 255.24 l h
179.348 191.893 m 151.855 191.893 127.734 221.494 127.734 255.24 c 
127.734 259.943 l 127.734 273.307 134.863 292.611 138.121 300.744 c 
185.625 300.182 215.793 290.365 224.035 287.318 c 230.848 271.107 l 
230.848 255.205 l 230.848 221.478 206.785 191.893 179.348 191.893 c h
140.41 343.732 m 140.805 343.732 141.188 343.775 141.562 343.842 c 
143.266 343.537 145.082 343.908 146.57 345.037 c 160.926 355.939 
182.031 351.701 202.441 347.603 c 213.523 345.377 224.121 343.248 
234.023 343.248 c 234.93 343.248 235.832 343.275 236.727 343.311 c 
238.809 334.396 240.41 315.658 235.797 292.373 c 234.789 294.771 l 
234.152 296.287 232.953 297.502 231.445 298.158 c 230.004 298.787 
195.457 313.549 133.98 313.568 c 133.863 313.568 l 133.812 313.568 
133.762 313.561 133.711 313.561 c 133.562 313.557 133.414 313.553 
133.266 313.537 c 133.172 313.529 133.086 313.514 132.996 313.502 c 
132.883 313.486 132.77 313.475 132.656 313.451 c 132.543 313.432 
132.434 313.4 132.32 313.373 c 132.234 313.353 132.148 313.334 132.066 
313.311 c 131.941 313.275 131.824 313.232 131.707 313.189 c 131.633 
313.162 131.555 313.139 131.484 313.107 c 131.367 313.061 131.254 
313.01 131.141 312.955 c 131.066 312.92 130.988 312.885 130.914 312.846 
c 130.812 312.795 130.715 312.736 130.617 312.678 c 130.535 312.631 
130.453 312.58 130.371 312.529 c 130.289 312.475 130.207 312.416 
130.129 312.357 c 130.035 312.295 129.945 312.228 129.859 312.158 c 
129.793 312.103 129.727 312.049 129.664 311.99 c 129.57 311.912 129.48 
311.83 129.391 311.744 c 129.332 311.686 129.277 311.627 129.223 
311.568 c 129.137 311.478 129.051 311.389 128.973 311.291 c 128.914 
311.225 128.859 311.15 128.805 311.08 c 128.734 310.99 128.668 310.904 
128.602 310.811 c 128.535 310.713 128.477 310.615 128.414 310.514 c 
128.367 310.439 128.32 310.365 128.277 310.287 c 128.203 310.154 
128.137 310.018 128.074 309.881 c 128.055 309.838 128.027 309.795 
128.008 309.752 c 128.004 309.74 127.988 309.709 127.98 309.689 c 
127.973 309.674 127.969 309.658 127.961 309.643 c 127.539 308.686 
124.859 302.486 122.035 294.158 c 120.676 302.455 119.605 310.951 
119.605 317.08 c 119.605 330.35 126.035 343.732 140.41 343.732 c h
140.41 343.732 m f
275.363 167.268 m 275.234 167.303 275.102 167.334 274.969 167.361 c 
231.719 176.564 l 228.953 177.182 227.023 179.588 227.023 182.416 c 
227.023 185.951 224.16 188.818 220.625 188.818 c 217.09 188.818 214.223 
185.951 214.223 182.416 c 214.223 174.744 218.754 168.076 225.613 
165.154 c 214.359 153.826 197.379 147.049 179.309 147.049 c 161.242 
147.049 144.262 153.826 133.012 165.146 c 139.852 168.053 144.395 
174.732 144.395 182.42 c 144.395 185.951 141.527 188.818 137.992 
188.818 c 134.461 188.818 131.594 185.951 131.594 182.42 c 131.594 
179.588 129.664 177.182 126.957 176.58 c 83.648 167.361 l 83.516 
167.334 83.387 167.303 83.254 167.268 c 62.23 161.377 51.234 140.713 
51.234 123.342 c 51.234 113.096 l 51.234 103.58 59.664 95.842 70.027 
95.842 c 288.594 95.842 l 298.957 95.842 307.387 103.58 307.387 113.096 
c 307.387 123.342 l 307.387 140.709 296.387 161.377 275.363 167.268 c h
294.586 113.092 m 294.586 110.682 291.84 108.643 288.59 108.643 c 
70.027 108.643 l 66.777 108.643 64.031 110.682 64.031 113.092 c 64.031 
123.342 l 64.031 135.834 71.754 150.646 86.52 154.889 c 118.941 161.787 
l 132.301 144.721 155.07 134.252 179.309 134.252 c 203.551 134.252 
226.312 144.721 239.676 161.787 c 272.094 154.889 l 286.859 150.646 
294.586 135.834 294.586 123.342 c h
294.586 113.092 m f
313.793 409.615 m 44.824 409.615 l 20.109 409.615 0 389.506 0 364.791 c 
0 95.822 l 0 71.107 20.109 50.998 44.824 50.998 c 115.035 50.998 l 
156.672 9.361 l 162.914 3.119 171.109 -0.002 179.309 0.002 c 187.508 
0.002 195.707 3.123 201.949 9.361 c 243.582 50.998 l 313.793 50.998 l 
338.512 50.998 358.617 71.107 358.617 95.822 c 358.617 364.791 l 
358.617 389.506 338.508 409.615 313.793 409.615 c h
345.816 95.822 m 345.816 78.162 331.453 63.795 313.793 63.795 c 240.934 
63.795 l 239.234 63.795 237.605 63.123 236.406 61.924 c 192.898 18.412 
l 185.402 10.92 173.211 10.92 165.723 18.412 c 122.211 61.924 l 121.012 
63.123 119.383 63.795 117.688 63.795 c 44.824 63.795 l 27.164 63.795 
12.801 78.162 12.801 95.822 c 12.801 364.791 l 12.801 382.451 27.168 
396.814 44.824 396.814 c 313.793 396.814 l 331.453 396.814 345.816 
382.447 345.816 364.791 c h
345.816 95.822 m f
Q Q
showpage
%%Trailer
count op_count sub {pop} repeat
countdictstack dict_count sub {end} repeat
cairo_eps_state restore
%%EOF
