%!PS-Adobe-3.0 EPSF-3.0
%%Creator: cairo 1.10.2 (http://cairographics.org)
%%CreationDate: Fri Aug 14 10:44:42 2015
%%Pages: 1
%%BoundingBox: 0 -1 295 410
%%DocumentData: Clean7Bit
%%LanguageLevel: 2
%%EndComments
%%BeginProlog
/cairo_eps_state save def
/dict_count countdictstack def
/op_count count 1 sub def
userdict begin
/q { gsave } bind def
/Q { grestore } bind def
/cm { 6 array astore concat } bind def
/w { setlinewidth } bind def
/J { setlinecap } bind def
/j { setlinejoin } bind def
/M { setmiterlimit } bind def
/d { setdash } bind def
/m { moveto } bind def
/l { lineto } bind def
/c { curveto } bind def
/h { closepath } bind def
/re { exch dup neg 3 1 roll 5 3 roll moveto 0 rlineto
      0 exch rlineto 0 rlineto closepath } bind def
/S { stroke } bind def
/f { fill } bind def
/f* { eofill } bind def
/n { newpath } bind def
/W { clip } bind def
/W* { eoclip } bind def
/BT { } bind def
/ET { } bind def
/pdfmark where { pop globaldict /?pdfmark /exec load put }
    { globaldict begin /?pdfmark /pop load def /pdfmark
    /cleartomark load def end } ifelse
/BDC { mark 3 1 roll /BDC pdfmark } bind def
/EMC { mark /EMC pdfmark } bind def
/cairo_store_point { /cairo_point_y exch def /cairo_point_x exch def } def
/Tj { show currentpoint cairo_store_point } bind def
/TJ {
  {
    dup
    type /stringtype eq
    { show } { -0.001 mul 0 cairo_font_matrix dtransform rmoveto } ifelse
  } forall
  currentpoint cairo_store_point
} bind def
/cairo_selectfont { cairo_font_matrix aload pop pop pop 0 0 6 array astore
    cairo_font exch selectfont cairo_point_x cairo_point_y moveto } bind def
/Tf { pop /cairo_font exch def /cairo_font_matrix where
      { pop cairo_selectfont } if } bind def
/Td { matrix translate cairo_font_matrix matrix concatmatrix dup
      /cairo_font_matrix exch def dup 4 get exch 5 get cairo_store_point
      /cairo_font where { pop cairo_selectfont } if } bind def
/Tm { 2 copy 8 2 roll 6 array astore /cairo_font_matrix exch def
      cairo_store_point /cairo_font where { pop cairo_selectfont } if } bind def
/g { setgray } bind def
/rg { setrgbcolor } bind def
/d1 { setcachedevice } bind def
%%EndProlog
%%Page: 1 1
%%BeginPageSetup
%%PageBoundingBox: 0 -1 295 410
%%EndPageSetup
q 0 -1 295 411 rectclip q
0 409.6 295 -410 re W n
0 g
217.602 38.401 m 192 38.401 l 192 57.6 l 192 61.135 189.133 63.998 
185.602 63.998 c 182.066 63.998 179.199 61.135 179.199 57.6 c 179.199 
38.401 l 115.199 38.401 l 115.199 57.6 l 115.199 61.135 112.336 63.998 
108.801 63.998 c 105.266 63.998 102.398 61.135 102.398 57.6 c 102.398 
38.401 l 76.801 38.401 l 69.742 38.401 64 32.659 64 25.6 c 64 6.401 l 
64 2.866 66.867 -0.002 70.398 -0.002 c 224 -0.002 l 227.535 -0.002 
230.398 2.866 230.398 6.401 c 230.398 25.6 l 230.398 32.659 224.656 
38.401 217.602 38.401 c h
217.602 12.799 m 76.801 12.799 l 76.801 25.6 l 217.602 25.6 l h
217.602 12.799 m f
288 262.401 m 256 262.401 l 256 326.401 l 256 328.084 255.945 329.752 
255.844 331.413 c 255.945 331.858 256 332.323 256 332.799 c 256 333.643 
255.832 334.448 255.535 335.182 c 251.133 376.948 215.711 409.6 172.801 
409.6 c 121.602 409.6 l 78.691 409.6 43.266 376.948 38.863 335.182 c 
38.566 334.448 38.398 333.643 38.398 332.799 c 38.398 332.323 38.457 
331.858 38.555 331.413 c 38.457 329.752 38.398 328.084 38.398 326.401 c 
38.398 262.401 l 6.398 262.401 l 2.867 262.401 0 259.534 0 255.998 c 0 
252.467 2.867 249.6 6.398 249.6 c 12.801 249.6 l 12.801 185.6 l 12.801 
125.608 61.605 76.799 121.602 76.799 c 172.801 76.799 l 232.793 76.799 
281.602 125.608 281.602 185.6 c 281.602 249.6 l 288 249.6 l 291.535 
249.6 294.398 252.467 294.398 255.998 c 294.398 259.534 291.535 262.401 
288 262.401 c h
51.199 287.998 m 108.801 287.998 l 112.336 287.998 115.199 290.866 
115.199 294.401 c 115.199 297.936 112.336 300.799 108.801 300.799 c 
51.199 300.799 l 51.199 326.401 l 108.801 326.401 l 112.336 326.401 
115.199 329.264 115.199 332.799 c 115.199 336.334 112.336 339.202 
108.801 339.202 c 52.371 339.202 l 58.406 371.928 87.152 396.799 
121.602 396.799 c 172.801 396.799 l 207.246 396.799 235.992 371.928 
242.031 339.202 c 185.602 339.202 l 182.066 339.202 179.199 336.334 
179.199 332.799 c 179.199 329.264 182.066 326.401 185.602 326.401 c 
243.199 326.401 l 243.199 300.799 l 185.602 300.799 l 182.066 300.799 
179.199 297.936 179.199 294.401 c 179.199 290.866 182.066 287.998 
185.602 287.998 c 243.199 287.998 l 243.199 262.401 l 185.602 262.401 l 
182.066 262.401 179.199 259.534 179.199 255.998 c 179.199 252.467 
182.066 249.6 185.602 249.6 c 243.199 249.6 l 243.199 223.998 l 185.602 
223.998 l 182.066 223.998 179.199 221.135 179.199 217.6 c 179.199 
214.065 182.066 211.202 185.602 211.202 c 243.199 211.202 l 243.199 
185.6 l 185.602 185.6 l 182.066 185.6 179.199 182.733 179.199 179.202 c 
179.199 175.666 182.066 172.799 185.602 172.799 c 242.031 172.799 l 
235.992 140.073 207.246 115.202 172.801 115.202 c 121.602 115.202 l 
87.152 115.202 58.406 140.073 52.371 172.799 c 108.801 172.799 l 
112.336 172.799 115.199 175.666 115.199 179.202 c 115.199 182.733 
112.336 185.6 108.801 185.6 c 51.199 185.6 l 51.199 211.202 l 108.801 
211.202 l 112.336 211.202 115.199 214.065 115.199 217.6 c 115.199 
221.135 112.336 223.998 108.801 223.998 c 51.199 223.998 l 51.199 249.6 
l 108.801 249.6 l 112.336 249.6 115.199 252.467 115.199 255.998 c 
115.199 259.534 112.336 262.401 108.801 262.401 c 51.199 262.401 l h
268.801 185.6 m 268.801 132.666 225.734 89.6 172.801 89.6 c 121.602 
89.6 l 68.664 89.6 25.602 132.666 25.602 185.6 c 25.602 249.6 l 38.398 
249.6 l 38.398 185.6 l 38.398 183.916 38.457 182.248 38.555 180.588 c 
38.457 180.139 38.398 179.678 38.398 179.202 c 38.398 178.358 38.566 
177.553 38.863 176.819 c 43.266 135.053 78.691 102.401 121.602 102.401 
c 172.801 102.401 l 215.711 102.401 251.133 135.053 255.535 176.819 c 
255.832 177.553 256 178.358 256 179.202 c 256 179.678 255.945 180.139 
255.844 180.588 c 255.945 182.248 256 183.916 256 185.6 c 256 249.6 l 
268.801 249.6 l h
268.801 185.6 m f
Q Q
showpage
%%Trailer
count op_count sub {pop} repeat
countdictstack dict_count sub {end} repeat
cairo_eps_state restore
%%EOF
