%!PS-Adobe-3.0 EPSF-3.0
%%Creator: cairo 1.10.2 (http://cairographics.org)
%%CreationDate: Fri Aug 14 10:44:12 2015
%%Pages: 1
%%BoundingBox: 0 -1 410 308
%%DocumentData: Clean7Bit
%%LanguageLevel: 2
%%EndComments
%%BeginProlog
/cairo_eps_state save def
/dict_count countdictstack def
/op_count count 1 sub def
userdict begin
/q { gsave } bind def
/Q { grestore } bind def
/cm { 6 array astore concat } bind def
/w { setlinewidth } bind def
/J { setlinecap } bind def
/j { setlinejoin } bind def
/M { setmiterlimit } bind def
/d { setdash } bind def
/m { moveto } bind def
/l { lineto } bind def
/c { curveto } bind def
/h { closepath } bind def
/re { exch dup neg 3 1 roll 5 3 roll moveto 0 rlineto
      0 exch rlineto 0 rlineto closepath } bind def
/S { stroke } bind def
/f { fill } bind def
/f* { eofill } bind def
/n { newpath } bind def
/W { clip } bind def
/W* { eoclip } bind def
/BT { } bind def
/ET { } bind def
/pdfmark where { pop globaldict /?pdfmark /exec load put }
    { globaldict begin /?pdfmark /pop load def /pdfmark
    /cleartomark load def end } ifelse
/BDC { mark 3 1 roll /BDC pdfmark } bind def
/EMC { mark /EMC pdfmark } bind def
/cairo_store_point { /cairo_point_y exch def /cairo_point_x exch def } def
/Tj { show currentpoint cairo_store_point } bind def
/TJ {
  {
    dup
    type /stringtype eq
    { show } { -0.001 mul 0 cairo_font_matrix dtransform rmoveto } ifelse
  } forall
  currentpoint cairo_store_point
} bind def
/cairo_selectfont { cairo_font_matrix aload pop pop pop 0 0 6 array astore
    cairo_font exch selectfont cairo_point_x cairo_point_y moveto } bind def
/Tf { pop /cairo_font exch def /cairo_font_matrix where
      { pop cairo_selectfont } if } bind def
/Td { matrix translate cairo_font_matrix matrix concatmatrix dup
      /cairo_font_matrix exch def dup 4 get exch 5 get cairo_store_point
      /cairo_font where { pop cairo_selectfont } if } bind def
/Tm { 2 copy 8 2 roll 6 array astore /cairo_font_matrix exch def
      cairo_store_point /cairo_font where { pop cairo_selectfont } if } bind def
/g { setgray } bind def
/rg { setrgbcolor } bind def
/d1 { setcachedevice } bind def
%%EndProlog
%%Page: 1 1
%%BeginPageSetup
%%PageBoundingBox: 0 -1 410 308
%%EndPageSetup
q 0 -1 410 309 rectclip q
0 307.2 410 -308 re W n
0 g
364.801 307.2 m 44.801 307.2 l 20.098 307.2 0 287.102 0 262.399 c 0 
96.001 l 0 92.47 2.867 89.602 6.398 89.602 c 9.934 89.602 12.801 92.47 
12.801 96.001 c 12.801 262.399 l 12.801 280.044 27.156 294.399 44.801 
294.399 c 364.801 294.399 l 382.445 294.399 396.801 280.044 396.801 
262.399 c 396.801 96.001 l 396.801 92.47 399.664 89.602 403.199 89.602 
c 406.734 89.602 409.602 92.47 409.602 96.001 c 409.602 262.399 l 
409.602 287.102 389.504 307.2 364.801 307.2 c h
364.801 307.2 m f
403.199 76.802 m 403.191 76.802 403.18 76.802 403.168 76.802 c 6.43 
76.802 l 6.422 76.802 6.41 76.802 6.398 76.802 c 2.867 76.802 0 73.934 
0 70.403 c 0 44.802 l 0 20.098 20.098 0.001 44.801 0.001 c 364.801 
0.001 l 389.504 0.001 409.602 20.098 409.602 44.802 c 409.602 70.403 l 
409.602 73.934 406.734 76.802 403.199 76.802 c h
364.801 12.802 m 44.801 12.802 l 27.156 12.802 12.801 27.157 12.801 
44.802 c 12.801 64.001 l 396.801 64.001 l 396.801 44.802 l 396.801 
27.157 382.445 12.802 364.801 12.802 c h
364.801 12.802 m f
358.398 44.802 m 82.098 44.802 l 79.457 52.247 72.344 57.598 64 57.598 
c 53.414 57.598 44.801 48.989 44.801 38.399 c 44.801 27.813 53.414 19.2 
64 19.2 c 72.344 19.2 79.457 24.552 82.098 32.001 c 358.398 32.001 l 
361.934 32.001 364.801 34.864 364.801 38.399 c 364.801 41.934 361.934 
44.802 358.398 44.802 c h
64 32.001 m 60.473 32.001 57.602 34.872 57.602 38.399 c 57.602 41.93 
60.473 44.802 64 44.802 c 67.527 44.802 70.398 41.93 70.398 38.399 c 
70.398 34.872 67.527 32.001 64 32.001 c h
64 32.001 m f
172.453 120.149 m 175.121 120.149 177.938 120.962 180.676 122.571 c 
267.41 173.595 l 272.309 176.473 275.117 180.852 275.117 185.598 c 
275.117 190.348 272.309 194.723 267.41 197.606 c 180.676 248.626 l 
175.754 251.524 170.57 251.837 166.465 249.489 c 162.355 247.138 160 
242.513 160 236.798 c 160 134.399 l 160 128.684 162.355 124.059 166.461 
121.708 c 168.289 120.669 170.32 120.149 172.453 120.149 c h
172.801 236.802 m 172.801 237.411 172.867 237.864 172.941 238.165 c 
173.238 238.075 173.66 237.903 174.188 237.595 c 260.922 186.575 l 
261.609 186.173 261.98 185.821 262.176 185.602 c 261.98 185.38 261.609 
185.032 260.922 184.626 c 174.188 133.606 l 173.66 133.298 173.238 
133.126 172.941 133.036 c 172.867 133.337 172.801 133.786 172.801 
134.399 c h
172.801 236.802 m f
Q Q
showpage
%%Trailer
count op_count sub {pop} repeat
countdictstack dict_count sub {end} repeat
cairo_eps_state restore
%%EOF
