%!PS-Adobe-3.0 EPSF-3.0
%%Creator: cairo 1.10.2 (http://cairographics.org)
%%CreationDate: Fri Aug 14 10:44:51 2015
%%Pages: 1
%%BoundingBox: 0 -1 397 391
%%DocumentData: Clean7Bit
%%LanguageLevel: 2
%%EndComments
%%BeginProlog
/cairo_eps_state save def
/dict_count countdictstack def
/op_count count 1 sub def
userdict begin
/q { gsave } bind def
/Q { grestore } bind def
/cm { 6 array astore concat } bind def
/w { setlinewidth } bind def
/J { setlinecap } bind def
/j { setlinejoin } bind def
/M { setmiterlimit } bind def
/d { setdash } bind def
/m { moveto } bind def
/l { lineto } bind def
/c { curveto } bind def
/h { closepath } bind def
/re { exch dup neg 3 1 roll 5 3 roll moveto 0 rlineto
      0 exch rlineto 0 rlineto closepath } bind def
/S { stroke } bind def
/f { fill } bind def
/f* { eofill } bind def
/n { newpath } bind def
/W { clip } bind def
/W* { eoclip } bind def
/BT { } bind def
/ET { } bind def
/pdfmark where { pop globaldict /?pdfmark /exec load put }
    { globaldict begin /?pdfmark /pop load def /pdfmark
    /cleartomark load def end } ifelse
/BDC { mark 3 1 roll /BDC pdfmark } bind def
/EMC { mark /EMC pdfmark } bind def
/cairo_store_point { /cairo_point_y exch def /cairo_point_x exch def } def
/Tj { show currentpoint cairo_store_point } bind def
/TJ {
  {
    dup
    type /stringtype eq
    { show } { -0.001 mul 0 cairo_font_matrix dtransform rmoveto } ifelse
  } forall
  currentpoint cairo_store_point
} bind def
/cairo_selectfont { cairo_font_matrix aload pop pop pop 0 0 6 array astore
    cairo_font exch selectfont cairo_point_x cairo_point_y moveto } bind def
/Tf { pop /cairo_font exch def /cairo_font_matrix where
      { pop cairo_selectfont } if } bind def
/Td { matrix translate cairo_font_matrix matrix concatmatrix dup
      /cairo_font_matrix exch def dup 4 get exch 5 get cairo_store_point
      /cairo_font where { pop cairo_selectfont } if } bind def
/Tm { 2 copy 8 2 roll 6 array astore /cairo_font_matrix exch def
      cairo_store_point /cairo_font where { pop cairo_selectfont } if } bind def
/g { setgray } bind def
/rg { setrgbcolor } bind def
/d1 { setcachedevice } bind def
%%EndProlog
%%Page: 1 1
%%BeginPageSetup
%%PageBoundingBox: 0 -1 397 391
%%EndPageSetup
q 0 -1 397 392 rectclip q
0 390.062 397 -391 re W n
0 g
153.715 315.163 m 153.715 301.374 158.484 288.628 166.133 279.12 c 
166.117 265.277 l 165.77 264.73 164.176 263.687 162.16 263.093 c 
138.332 256.906 l 138.293 256.894 138.254 256.882 138.215 256.874 c 
123.043 252.624 115.105 237.749 115.105 225.257 c 115.105 218.351 l 
115.105 210.788 121.727 204.636 129.863 204.636 c 266.715 204.652 l 
274.852 204.652 281.469 210.804 281.469 218.367 c 281.469 225.273 l 
281.469 237.769 273.535 252.64 258.363 256.886 c 258.324 256.898 
258.285 256.909 258.246 256.921 c 234.418 263.109 l 232.402 263.702 
230.809 264.745 230.461 265.292 c 230.445 278.249 l 230.465 278.273 
230.484 278.296 230.504 278.316 c 238.676 288.085 243.176 300.738 
243.176 313.949 c 243.176 323.601 l 251.328 350.156 245.582 373.179 
242.633 379.882 c 242.625 379.902 242.613 379.921 242.602 379.945 c 
242.547 380.07 242.48 380.191 242.418 380.312 c 242.379 380.382 242.344 
380.452 242.305 380.523 c 242.246 380.624 242.18 380.726 242.113 
380.824 c 242.059 380.906 242.008 380.988 241.949 381.066 c 241.895 
381.14 241.836 381.21 241.781 381.284 c 241.703 381.378 241.629 381.476 
241.547 381.566 c 241.504 381.617 241.457 381.663 241.41 381.71 c 
241.312 381.812 241.211 381.917 241.109 382.011 c 241.07 382.05 241.027 
382.081 240.988 382.117 c 240.871 382.218 240.758 382.316 240.637 
382.406 c 240.59 382.441 240.543 382.468 240.5 382.503 c 240.379 
382.589 240.258 382.671 240.133 382.749 c 240.074 382.788 240.008 
382.82 239.949 382.855 c 239.836 382.921 239.723 382.984 239.605 
383.042 c 239.523 383.081 239.438 383.117 239.352 383.156 c 239.254 
383.199 239.152 383.245 239.047 383.284 c 238.953 383.324 238.852 
383.351 238.75 383.386 c 238.656 383.417 238.562 383.449 238.465 
383.476 c 238.363 383.503 238.262 383.523 238.16 383.546 c 238.059 
383.57 237.957 383.593 237.855 383.609 c 237.762 383.628 237.668 
383.636 237.574 383.648 c 237.457 383.663 237.34 383.679 237.223 
383.687 c 237.145 383.691 237.066 383.691 236.988 383.695 c 236.852 
383.699 236.715 383.702 236.578 383.699 c 236.512 383.695 236.441 
383.691 236.375 383.687 c 236.23 383.675 236.082 383.663 235.934 
383.644 c 235.914 383.644 235.891 383.644 235.871 383.64 c 229.707 
382.761 222.191 384.558 214.234 386.464 c 200.156 389.835 184.277 
393.628 170.367 383.597 c 156.914 382.441 147.375 371.136 147.375 
355.859 c 147.375 344.745 152.531 324.906 153.711 320.499 c 153.711 
315.163 l h
230.375 324.617 m 230.375 313.949 l 230.375 302.675 226.137 292.347 
219.523 285.202 c 219.508 285.187 219.496 285.167 219.477 285.152 c 
213.793 279.031 206.363 275.253 198.359 275.253 c 181.395 275.253 
166.512 293.902 166.512 315.159 c 166.512 317.343 l 166.512 323.699 
169.203 332.992 171.211 338.87 c 200.18 338.206 222.039 331.249 230.375 
328.163 c h
217.664 265.202 m 217.664 259.441 221.402 255.347 225.941 252.847 c 
218.812 246.663 208.875 243.015 198.332 243.015 c 187.781 243.015 
177.828 246.671 170.699 252.87 c 175.211 255.37 178.914 259.452 178.914 
265.179 c 178.918 267.917 l 184.832 264.433 191.441 262.456 198.359 
262.456 c 205.148 262.456 211.703 264.214 217.66 267.538 c h
268.672 225.273 m 268.672 218.367 l 268.672 218.191 268.02 217.452 
266.715 217.452 c 129.863 217.437 l 128.559 217.437 127.906 218.175 
127.906 218.351 c 127.906 225.257 l 127.906 232.913 132.617 241.98 
141.613 244.531 c 157.062 248.542 l 166.574 237.148 181.984 230.214 
198.332 230.214 c 214.68 230.214 230.086 237.144 239.598 248.538 c 
254.965 244.546 l 263.965 241.995 268.672 232.929 268.672 225.273 c h
172.66 370.902 m 172.691 370.902 172.719 370.906 172.746 370.906 c 
172.93 370.909 173.109 370.917 173.289 370.933 c 173.359 370.941 173.43 
370.952 173.496 370.964 c 173.637 370.98 173.773 370.999 173.91 371.027 
c 173.996 371.042 174.078 371.066 174.164 371.085 c 174.281 371.113 
174.402 371.14 174.516 371.175 c 174.609 371.206 174.699 371.242 
174.789 371.273 c 174.895 371.308 175 371.343 175.105 371.386 c 175.203 
371.429 175.297 371.476 175.391 371.519 c 175.484 371.566 175.578 
371.605 175.668 371.652 c 175.777 371.71 175.883 371.777 175.988 
371.843 c 176.059 371.886 176.133 371.925 176.207 371.976 c 176.34 
372.066 176.473 372.163 176.598 372.265 c 176.633 372.292 176.672 
372.316 176.707 372.347 c 186.117 380.031 198.328 377.109 211.254 
374.015 c 218.211 372.347 225.355 370.64 232.293 370.617 c 233.961 
364.456 235.598 353.542 233.84 340.546 c 223.426 344.339 199.008 
351.726 166.758 351.726 c 166.738 351.726 166.719 351.726 166.703 
351.726 c 166.566 351.726 166.434 351.714 166.301 351.706 c 166.219 
351.699 166.133 351.695 166.051 351.687 c 165.945 351.675 165.84 
351.656 165.738 351.64 c 165.629 351.62 165.52 351.609 165.414 351.585 
c 165.348 351.57 165.289 351.55 165.227 351.534 c 165.082 351.499 
164.938 351.464 164.801 351.421 c 164.777 351.413 164.758 351.402 
164.734 351.398 c 164.559 351.339 164.387 351.273 164.219 351.202 c 
164.219 351.202 164.215 351.199 164.211 351.199 c 164.027 351.12 
163.848 351.031 163.672 350.933 c 163.645 350.917 163.617 350.902 
163.59 350.882 c 163.441 350.8 163.297 350.714 163.156 350.617 c 163.07 
350.558 162.988 350.492 162.902 350.429 c 162.824 350.37 162.746 
350.316 162.672 350.257 c 162.559 350.159 162.445 350.054 162.336 
349.949 c 162.301 349.913 162.258 349.882 162.223 349.843 c 162.117 
349.742 162.02 349.628 161.922 349.515 c 161.883 349.472 161.844 
349.429 161.805 349.386 c 161.73 349.292 161.66 349.191 161.586 349.093 
c 161.535 349.019 161.48 348.949 161.43 348.874 c 161.379 348.8 161.332 
348.718 161.285 348.64 c 161.223 348.534 161.156 348.429 161.102 348.32 
c 161.066 348.261 161.039 348.195 161.008 348.132 c 160.969 348.05 
160.926 347.968 160.891 347.886 c 160.449 350.894 160.172 353.659 
160.172 355.855 c 160.176 362.796 163.445 370.902 172.66 370.902 c h
172.66 370.902 m f
143.258 52.253 m 143.219 52.265 143.18 52.273 143.141 52.284 c 119.312 
58.472 l 117.297 59.066 115.699 60.109 115.355 60.656 c 115.34 73.613 l 
115.359 73.636 115.379 73.659 115.398 73.683 c 123.57 83.449 128.07 
96.101 128.07 109.312 c 128.07 118.964 l 136.223 145.519 130.477 
168.542 127.527 175.245 c 127.52 175.265 127.508 175.284 127.5 175.304 
c 127.438 175.437 127.371 175.57 127.301 175.699 c 127.27 175.757 
127.238 175.82 127.203 175.878 c 127.137 175.995 127.059 176.113 
126.984 176.226 c 126.941 176.288 126.898 176.355 126.855 176.417 c 
126.781 176.515 126.707 176.609 126.633 176.699 c 126.574 176.773 
126.516 176.847 126.457 176.913 c 126.387 176.995 126.309 177.07 
126.234 177.144 c 126.164 177.218 126.094 177.292 126.02 177.359 c 
125.945 177.433 125.863 177.495 125.781 177.562 c 125.707 177.628 
125.633 177.695 125.551 177.753 c 125.461 177.827 125.363 177.89 
125.266 177.956 c 125.195 178.003 125.125 178.054 125.055 178.101 c 
124.938 178.171 124.812 178.238 124.691 178.304 c 124.637 178.335 
124.582 178.367 124.527 178.394 c 124.387 178.464 124.242 178.527 
124.098 178.585 c 124.055 178.601 124.012 178.624 123.969 178.64 c 
123.82 178.699 123.672 178.745 123.52 178.792 c 123.473 178.804 123.43 
178.82 123.383 178.835 c 123.242 178.874 123.102 178.902 122.957 
178.933 c 122.895 178.945 122.832 178.96 122.77 178.972 c 122.648 
178.992 122.527 179.007 122.406 179.019 c 122.316 179.031 122.227 
179.042 122.133 179.05 c 122.039 179.058 121.941 179.058 121.844 
179.058 c 121.723 179.062 121.602 179.066 121.48 179.062 c 121.406 
179.062 121.332 179.054 121.262 179.046 c 121.117 179.038 120.973 
179.027 120.828 179.007 c 120.805 179.007 120.785 179.007 120.766 
179.003 c 114.605 178.124 107.086 179.921 99.129 181.827 c 85.051 
185.199 69.172 188.992 55.262 178.96 c 41.809 177.804 32.27 166.499 
32.27 151.218 c 32.27 140.109 37.426 120.269 38.609 115.863 c 38.609 
110.527 l 38.609 96.738 43.379 83.992 51.027 74.484 c 51.012 60.64 l 
50.668 60.093 49.07 59.05 47.055 58.456 c 23.227 52.269 l 23.188 52.257 
23.148 52.249 23.109 52.238 c 7.938 47.988 0 33.117 0 20.62 c 0 13.714 
l 0 6.152 6.617 -0.001 14.754 -0.001 c 151.609 0.015 l 159.742 0.015 
166.363 6.167 166.363 13.73 c 166.363 20.636 l 166.363 33.132 158.426 
48.003 143.258 52.253 c h
51.406 112.71 m 51.406 119.066 54.094 128.355 56.105 134.234 c 85.074 
133.57 106.93 126.613 115.27 123.527 c 115.27 109.312 l 115.27 98.038 
111.031 87.714 104.418 80.566 c 104.402 80.55 104.383 80.531 104.367 
80.511 c 98.684 74.394 91.258 70.62 83.254 70.62 c 66.289 70.62 51.406 
89.269 51.406 110.527 c h
63.809 60.546 m 63.812 63.284 l 69.727 59.8 76.336 57.82 83.254 57.82 c 
90.043 57.82 96.598 59.577 102.551 62.902 c 102.555 60.57 l 102.555 
54.804 106.293 50.71 110.832 48.214 c 103.707 42.027 93.766 38.378 
83.227 38.378 c 72.672 38.378 62.723 42.034 55.594 48.234 c 60.105 
50.734 63.809 54.816 63.809 60.546 c h
57.555 166.265 m 57.582 166.265 57.609 166.269 57.641 166.269 c 57.82 
166.273 58 166.281 58.18 166.296 c 58.254 166.304 58.32 166.316 58.391 
166.327 c 58.527 166.343 58.664 166.363 58.801 166.39 c 58.891 166.406 
58.973 166.429 59.059 166.452 c 59.176 166.48 59.293 166.507 59.41 
166.542 c 59.5 166.57 59.594 166.605 59.684 166.636 c 59.789 166.675 
59.895 166.71 59.996 166.753 c 60.094 166.792 60.188 166.839 60.285 
166.886 c 60.375 166.929 60.469 166.968 60.562 167.019 c 60.668 167.077 
60.773 167.144 60.879 167.206 c 60.953 167.249 61.027 167.292 61.098 
167.339 c 61.234 167.429 61.363 167.527 61.492 167.628 c 61.527 167.656 
61.566 167.679 61.602 167.71 c 71.008 175.398 83.219 172.472 96.145 
169.378 c 103.102 167.71 110.246 166.007 117.188 165.98 c 118.852 
159.82 120.492 148.909 118.73 135.909 c 108.32 139.702 83.898 147.093 
51.648 147.093 c 51.629 147.093 51.609 147.089 51.59 147.089 c 51.461 
147.085 51.328 147.077 51.199 147.07 c 51.113 147.062 51.027 147.058 
50.941 147.05 c 50.84 147.038 50.738 147.019 50.637 147.003 c 50.527 
146.984 50.414 146.968 50.301 146.945 c 50.246 146.933 50.188 146.917 
50.133 146.902 c 49.98 146.867 49.836 146.831 49.691 146.784 c 49.676 
146.777 49.66 146.773 49.648 146.769 c 49.27 146.644 48.906 146.488 
48.562 146.296 c 48.547 146.288 48.531 146.277 48.516 146.269 c 48.355 
146.179 48.199 146.085 48.047 145.98 c 47.969 145.929 47.895 145.867 
47.816 145.808 c 47.734 145.745 47.645 145.687 47.566 145.617 c 47.453 
145.527 47.344 145.425 47.238 145.32 c 47.199 145.281 47.152 145.245 
47.113 145.206 c 47.012 145.105 46.914 144.992 46.82 144.882 c 46.777 
144.835 46.738 144.792 46.699 144.745 c 46.621 144.656 46.555 144.554 
46.48 144.456 c 46.43 144.382 46.371 144.312 46.32 144.238 c 46.27 
144.163 46.227 144.081 46.18 144.003 c 46.113 143.898 46.051 143.792 
45.992 143.683 c 45.961 143.624 45.93 143.558 45.902 143.495 c 45.859 
143.413 45.82 143.331 45.781 143.249 c 45.34 146.257 45.066 149.023 
45.066 151.218 c 45.07 158.163 48.34 166.265 57.555 166.265 c h
153.562 13.73 m 153.562 13.558 152.91 12.816 151.609 12.816 c 14.754 
12.8 l 13.453 12.8 12.801 13.542 12.801 13.714 c 12.801 20.62 l 12.801 
28.277 17.508 37.343 26.508 39.898 c 41.953 43.909 l 51.465 32.511 
66.875 25.577 83.227 25.577 c 99.57 25.577 114.977 32.507 124.492 
43.902 c 139.859 39.909 l 148.855 37.359 153.562 28.292 153.562 20.636 
c h
153.562 13.73 m f
373.473 52.249 m 373.434 52.261 373.395 52.273 373.355 52.284 c 349.527 
58.472 l 347.508 59.066 345.914 60.109 345.57 60.656 c 345.555 73.613 l 
345.574 73.636 345.594 73.659 345.613 73.683 c 353.785 83.449 358.285 
96.101 358.285 109.312 c 358.285 118.964 l 366.438 145.519 360.691 
168.542 357.742 175.245 c 357.734 175.265 357.723 175.284 357.711 
175.304 c 357.652 175.437 357.586 175.566 357.52 175.691 c 357.484 
175.753 357.453 175.82 357.414 175.882 c 357.352 175.995 357.277 
176.101 357.207 176.21 c 357.16 176.281 357.113 176.355 357.062 176.425 
c 357 176.511 356.93 176.597 356.863 176.679 c 356.797 176.761 356.734 
176.843 356.664 176.921 c 356.605 176.988 356.539 177.054 356.477 
177.117 c 356.395 177.202 356.312 177.288 356.227 177.367 c 356.164 
177.425 356.098 177.476 356.035 177.534 c 355.941 177.609 355.852 
177.691 355.758 177.761 c 355.684 177.82 355.602 177.87 355.523 177.925 
c 355.434 177.988 355.348 178.05 355.258 178.105 c 355.16 178.167 
355.055 178.222 354.953 178.277 c 354.879 178.32 354.805 178.363 354.73 
178.398 c 354.609 178.46 354.48 178.515 354.352 178.57 c 354.293 
178.593 354.238 178.62 354.176 178.644 c 354.039 178.695 353.902 
178.738 353.762 178.781 c 353.703 178.8 353.648 178.82 353.594 178.835 
c 353.461 178.87 353.324 178.902 353.188 178.929 c 353.121 178.945 
353.051 178.96 352.98 178.972 c 352.863 178.992 352.746 179.007 352.629 
179.019 c 352.535 179.031 352.441 179.042 352.348 179.05 c 352.254 
179.058 352.156 179.058 352.062 179.062 c 351.938 179.066 351.816 
179.07 351.695 179.066 c 351.621 179.062 351.547 179.054 351.473 179.05 
c 351.328 179.038 351.188 179.031 351.043 179.011 c 351.023 179.007 351 
179.007 350.98 179.003 c 344.816 178.124 337.301 179.925 329.344 
181.827 c 315.266 185.199 299.387 188.992 285.473 178.964 c 272.023 
177.808 262.484 166.503 262.484 151.222 c 262.484 140.113 267.637 
120.273 268.82 115.867 c 268.82 110.527 l 268.82 96.738 273.59 83.992 
281.238 74.484 c 281.223 60.64 l 280.879 60.097 279.281 59.05 277.266 
58.46 c 253.438 52.269 l 253.398 52.261 253.359 52.249 253.32 52.238 c 
238.152 47.988 230.215 33.117 230.215 20.624 c 230.215 13.714 l 230.215 
6.152 236.832 -0.001 244.969 -0.001 c 381.824 0.015 l 389.957 0.015 
396.578 6.167 396.578 13.73 c 396.578 20.636 l 396.578 33.132 388.641 
48.003 373.473 52.249 c h
281.621 112.71 m 281.621 119.066 284.309 128.355 286.32 134.234 c 
315.289 133.57 337.148 126.613 345.484 123.527 c 345.484 109.312 l 
345.484 98.038 341.246 87.71 334.633 80.566 c 334.617 80.55 334.602 
80.534 334.586 80.515 c 328.902 74.398 321.473 70.62 313.469 70.62 c 
296.504 70.62 281.621 89.265 281.621 110.523 c h
294.023 60.546 m 294.027 63.284 l 299.941 59.8 306.551 57.82 313.469 
57.82 c 320.258 57.82 326.812 59.577 332.766 62.902 c 332.77 60.57 l 
332.77 54.804 336.508 50.71 341.047 48.214 c 333.922 42.027 323.98 
38.378 313.441 38.378 c 302.887 38.378 292.938 42.034 285.809 48.234 c 
290.32 50.734 294.023 54.816 294.023 60.546 c h
287.77 166.265 m 287.797 166.265 287.824 166.269 287.855 166.269 c 
288.035 166.273 288.219 166.281 288.398 166.296 c 288.469 166.304 
288.535 166.316 288.605 166.327 c 288.742 166.343 288.883 166.363 
289.02 166.39 c 289.105 166.406 289.188 166.429 289.273 166.452 c 
289.391 166.48 289.508 166.507 289.625 166.542 c 289.719 166.57 289.809 
166.605 289.898 166.636 c 290.004 166.675 290.109 166.71 290.215 
166.753 c 290.312 166.792 290.406 166.839 290.5 166.886 c 290.594 
166.929 290.688 166.968 290.777 167.019 c 290.887 167.077 290.992 
167.144 291.098 167.206 c 291.168 167.249 291.242 167.292 291.316 
167.339 c 291.449 167.429 291.578 167.527 291.707 167.628 c 291.742 
167.656 291.781 167.679 291.816 167.71 c 301.227 175.398 313.434 
172.472 326.363 169.378 c 333.32 167.71 340.465 166.007 347.402 165.98 
c 349.07 159.82 350.707 148.909 348.949 135.909 c 338.535 139.702 
314.117 147.093 281.863 147.093 c 281.844 147.093 281.828 147.089 
281.809 147.089 c 281.676 147.085 281.547 147.077 281.414 147.07 c 
281.328 147.062 281.242 147.058 281.156 147.05 c 281.059 147.038 
280.957 147.019 280.859 147.003 c 280.746 146.988 280.629 146.972 
280.52 146.945 c 280.465 146.933 280.41 146.917 280.352 146.906 c 
280.203 146.867 280.055 146.831 279.906 146.784 c 279.895 146.781 
279.883 146.773 279.871 146.769 c 279.492 146.644 279.125 146.488 
278.777 146.296 c 278.766 146.292 278.754 146.281 278.742 146.277 c 
278.578 146.183 278.418 146.085 278.266 145.98 c 278.188 145.929 
278.113 145.867 278.039 145.812 c 277.953 145.745 277.863 145.687 
277.781 145.617 c 277.668 145.523 277.562 145.421 277.453 145.32 c 
277.414 145.281 277.371 145.245 277.332 145.206 c 277.227 145.105 
277.129 144.992 277.035 144.878 c 276.996 144.835 276.953 144.792 
276.918 144.745 c 276.84 144.652 276.77 144.55 276.695 144.452 c 
276.645 144.382 276.59 144.312 276.539 144.238 c 276.488 144.163 
276.445 144.081 276.395 143.999 c 276.332 143.898 276.27 143.792 
276.211 143.683 c 276.18 143.62 276.148 143.558 276.121 143.492 c 
276.078 143.409 276.039 143.331 276 143.249 c 275.562 146.257 275.285 
149.023 275.285 151.218 c 275.285 158.163 278.555 166.265 287.77 
166.265 c h
383.777 13.73 m 383.777 13.558 383.129 12.816 381.824 12.816 c 244.969 
12.8 l 243.668 12.8 243.016 13.542 243.016 13.714 c 243.016 20.62 l 
243.016 28.277 247.723 37.343 256.723 39.898 c 272.172 43.909 l 281.684 
32.511 297.094 25.577 313.441 25.577 c 329.789 25.577 345.195 32.507 
354.707 43.902 c 370.074 39.909 l 379.074 37.359 383.781 28.292 383.781 
20.636 c 383.781 13.73 l h
383.777 13.73 m f
258.914 302.484 m 293.055 281.308 313.434 244.714 313.434 204.597 c 
313.434 201.062 316.301 198.195 319.836 198.195 c 323.371 198.195 
326.234 201.062 326.234 204.597 c 326.234 226.757 320.477 248.597 
309.578 267.753 c 299.016 286.324 283.828 302.093 265.66 313.363 c 
262.656 315.226 258.711 314.3 256.848 311.296 c 254.984 308.292 255.91 
304.347 258.914 302.484 c h
258.914 302.484 m f
76.828 198.195 m 80.363 198.195 83.23 201.062 83.23 204.597 c 83.23 
244.718 103.613 281.312 137.758 302.488 c 140.762 304.351 141.688 
308.296 139.824 311.3 c 137.961 314.304 134.016 315.23 131.012 313.367 
c 112.844 302.101 97.656 286.327 87.09 267.757 c 76.191 248.601 70.43 
226.761 70.43 204.597 c 70.43 201.062 73.297 198.195 76.828 198.195 c h
76.828 198.195 m f
255.297 97.054 m 253.805 100.261 250 101.648 246.797 100.159 c 231.57 
93.081 215.262 89.492 198.332 89.492 c 181.398 89.492 165.09 93.081 
149.859 100.163 c 146.656 101.656 142.848 100.265 141.359 97.062 c 
139.867 93.855 141.258 90.05 144.465 88.558 c 161.395 80.683 179.52 
76.695 198.332 76.695 c 217.141 76.695 235.262 80.683 252.191 88.554 c 
255.395 90.042 256.785 93.847 255.297 97.054 c h
255.297 97.054 m f
Q Q
showpage
%%Trailer
count op_count sub {pop} repeat
countdictstack dict_count sub {end} repeat
cairo_eps_state restore
%%EOF
