%!PS-Adobe-3.0 EPSF-3.0
%%Creator: cairo 1.10.2 (http://cairographics.org)
%%CreationDate: Fri Aug 14 10:44:33 2015
%%Pages: 1
%%BoundingBox: 0 -1 372 410
%%DocumentData: Clean7Bit
%%LanguageLevel: 2
%%EndComments
%%BeginProlog
/cairo_eps_state save def
/dict_count countdictstack def
/op_count count 1 sub def
userdict begin
/q { gsave } bind def
/Q { grestore } bind def
/cm { 6 array astore concat } bind def
/w { setlinewidth } bind def
/J { setlinecap } bind def
/j { setlinejoin } bind def
/M { setmiterlimit } bind def
/d { setdash } bind def
/m { moveto } bind def
/l { lineto } bind def
/c { curveto } bind def
/h { closepath } bind def
/re { exch dup neg 3 1 roll 5 3 roll moveto 0 rlineto
      0 exch rlineto 0 rlineto closepath } bind def
/S { stroke } bind def
/f { fill } bind def
/f* { eofill } bind def
/n { newpath } bind def
/W { clip } bind def
/W* { eoclip } bind def
/BT { } bind def
/ET { } bind def
/pdfmark where { pop globaldict /?pdfmark /exec load put }
    { globaldict begin /?pdfmark /pop load def /pdfmark
    /cleartomark load def end } ifelse
/BDC { mark 3 1 roll /BDC pdfmark } bind def
/EMC { mark /EMC pdfmark } bind def
/cairo_store_point { /cairo_point_y exch def /cairo_point_x exch def } def
/Tj { show currentpoint cairo_store_point } bind def
/TJ {
  {
    dup
    type /stringtype eq
    { show } { -0.001 mul 0 cairo_font_matrix dtransform rmoveto } ifelse
  } forall
  currentpoint cairo_store_point
} bind def
/cairo_selectfont { cairo_font_matrix aload pop pop pop 0 0 6 array astore
    cairo_font exch selectfont cairo_point_x cairo_point_y moveto } bind def
/Tf { pop /cairo_font exch def /cairo_font_matrix where
      { pop cairo_selectfont } if } bind def
/Td { matrix translate cairo_font_matrix matrix concatmatrix dup
      /cairo_font_matrix exch def dup 4 get exch 5 get cairo_store_point
      /cairo_font where { pop cairo_selectfont } if } bind def
/Tm { 2 copy 8 2 roll 6 array astore /cairo_font_matrix exch def
      cairo_store_point /cairo_font where { pop cairo_selectfont } if } bind def
/g { setgray } bind def
/rg { setrgbcolor } bind def
/d1 { setcachedevice } bind def
%%EndProlog
%%Page: 1 1
%%BeginPageSetup
%%PageBoundingBox: 0 -1 372 410
%%EndPageSetup
q 0 -1 372 411 rectclip q
0 409.6 372 -410 re W n
0 g
352 307.202 m 320 307.202 l 320 390.401 l 320 400.987 311.387 409.6 
300.801 409.6 c 19.199 409.6 l 8.613 409.6 0 400.987 0 390.401 c 0 
19.202 l 0 8.612 8.613 -0.002 19.199 -0.002 c 326.398 -0.002 l 336.988 
-0.002 345.602 8.612 345.602 19.202 c 345.602 102.401 l 364.801 102.401 
l 368.336 102.401 371.199 105.264 371.199 108.799 c 371.199 287.998 l 
371.199 298.588 362.586 307.202 352 307.202 c h
12.801 19.202 m 12.801 390.401 l 12.801 393.928 15.672 396.799 19.199 
396.799 c 300.801 396.799 l 304.328 396.799 307.199 393.928 307.199 
390.401 c 307.199 19.194 l 307.199 16.952 307.59 14.803 308.301 12.799 
c 19.199 12.799 l 15.672 12.799 12.801 15.67 12.801 19.202 c h
326.398 12.799 m 322.871 12.799 320 15.67 320 19.202 c 320 294.401 l 
333.902 294.401 l 333.191 292.397 332.801 290.245 332.801 287.998 c 
332.801 19.202 l 332.801 15.67 329.93 12.799 326.398 12.799 c h
345.602 287.998 m 345.602 291.53 348.473 294.401 352 294.401 c 355.527 
294.401 358.398 291.53 358.398 287.998 c 358.398 115.202 l 345.602 
115.202 l h
345.602 287.998 m f
275.199 371.202 m 44.801 371.202 l 41.266 371.202 38.398 368.334 38.398 
364.799 c 38.398 361.264 41.266 358.401 44.801 358.401 c 275.199 
358.401 l 278.734 358.401 281.602 361.264 281.602 364.799 c 281.602 
368.334 278.734 371.202 275.199 371.202 c h
275.199 371.202 m f
236.801 339.202 m 236.801 342.733 233.934 345.6 230.398 345.6 c 89.602 
345.6 l 86.066 345.6 83.199 342.733 83.199 339.202 c 83.199 335.666 
86.066 332.799 89.602 332.799 c 230.398 332.799 l 233.934 332.799 
236.801 335.666 236.801 339.202 c h
236.801 339.202 m f
275.199 307.202 m 172.801 307.202 l 169.266 307.202 166.398 304.334 
166.398 300.799 c 166.398 297.264 169.266 294.401 172.801 294.401 c 
275.199 294.401 l 278.734 294.401 281.602 297.264 281.602 300.799 c 
281.602 304.334 278.734 307.202 275.199 307.202 c h
275.199 307.202 m f
275.199 281.6 m 249.602 281.6 l 246.066 281.6 243.199 278.733 243.199 
275.202 c 243.199 271.666 246.066 268.799 249.602 268.799 c 275.199 
268.799 l 278.734 268.799 281.602 271.666 281.602 275.202 c 281.602 
278.733 278.734 281.6 275.199 281.6 c h
275.199 281.6 m f
230.398 275.202 m 230.398 278.733 227.535 281.6 224 281.6 c 172.801 
281.6 l 169.266 281.6 166.398 278.733 166.398 275.202 c 166.398 271.666 
169.266 268.799 172.801 268.799 c 224 268.799 l 227.535 268.799 230.398 
271.666 230.398 275.202 c h
230.398 275.202 m f
275.199 230.401 m 249.602 230.401 l 246.066 230.401 243.199 227.534 
243.199 223.998 c 243.199 220.467 246.066 217.6 249.602 217.6 c 275.199 
217.6 l 278.734 217.6 281.602 220.467 281.602 223.998 c 281.602 227.534 
278.734 230.401 275.199 230.401 c h
275.199 230.401 m f
166.398 223.998 m 166.398 220.467 169.266 217.6 172.801 217.6 c 224 
217.6 l 227.535 217.6 230.398 220.467 230.398 223.998 c 230.398 227.534 
227.535 230.401 224 230.401 c 172.801 230.401 l 169.266 230.401 166.398 
227.534 166.398 223.998 c h
166.398 223.998 m f
275.199 255.998 m 211.199 255.998 l 207.664 255.998 204.801 253.135 
204.801 249.6 c 204.801 246.065 207.664 243.202 211.199 243.202 c 
275.199 243.202 l 278.734 243.202 281.602 246.065 281.602 249.6 c 
281.602 253.135 278.734 255.998 275.199 255.998 c h
275.199 255.998 m f
185.602 255.998 m 172.801 255.998 l 169.266 255.998 166.398 253.135 
166.398 249.6 c 166.398 246.065 169.266 243.202 172.801 243.202 c 
185.602 243.202 l 189.133 243.202 192 246.065 192 249.6 c 192 253.135 
189.133 255.998 185.602 255.998 c h
185.602 255.998 m f
275.199 204.799 m 172.801 204.799 l 169.266 204.799 166.398 201.936 
166.398 198.401 c 166.398 194.866 169.266 191.998 172.801 191.998 c 
275.199 191.998 l 278.734 191.998 281.602 194.866 281.602 198.401 c 
281.602 201.936 278.734 204.799 275.199 204.799 c h
275.199 204.799 m f
147.199 153.6 m 44.801 153.6 l 41.266 153.6 38.398 150.733 38.398 
147.202 c 38.398 143.666 41.266 140.799 44.801 140.799 c 147.199 
140.799 l 150.734 140.799 153.602 143.666 153.602 147.202 c 153.602 
150.733 150.734 153.6 147.199 153.6 c h
147.199 153.6 m f
275.199 179.202 m 44.801 179.202 l 41.266 179.202 38.398 176.334 38.398 
172.799 c 38.398 169.264 41.266 166.401 44.801 166.401 c 275.199 
166.401 l 278.734 166.401 281.602 169.264 281.602 172.799 c 281.602 
176.334 278.734 179.202 275.199 179.202 c h
275.199 179.202 m f
147.199 127.998 m 121.602 127.998 l 118.066 127.998 115.199 125.135 
115.199 121.6 c 115.199 118.065 118.066 115.202 121.602 115.202 c 
147.199 115.202 l 150.734 115.202 153.602 118.065 153.602 121.6 c 
153.602 125.135 150.734 127.998 147.199 127.998 c h
147.199 127.998 m f
44.801 115.202 m 96 115.202 l 99.535 115.202 102.398 118.065 102.398 
121.6 c 102.398 125.135 99.535 127.998 96 127.998 c 44.801 127.998 l 
41.266 127.998 38.398 125.135 38.398 121.6 c 38.398 118.065 41.266 
115.202 44.801 115.202 c h
44.801 115.202 m f
147.199 76.799 m 121.602 76.799 l 118.066 76.799 115.199 73.936 115.199 
70.401 c 115.199 66.866 118.066 63.998 121.602 63.998 c 147.199 63.998 
l 150.734 63.998 153.602 66.866 153.602 70.401 c 153.602 73.936 150.734 
76.799 147.199 76.799 c h
147.199 76.799 m f
44.801 63.998 m 96 63.998 l 99.535 63.998 102.398 66.866 102.398 70.401 
c 102.398 73.936 99.535 76.799 96 76.799 c 44.801 76.799 l 41.266 
76.799 38.398 73.936 38.398 70.401 c 38.398 66.866 41.266 63.998 44.801 
63.998 c h
44.801 63.998 m f
147.199 102.401 m 83.199 102.401 l 79.664 102.401 76.801 99.534 76.801 
95.998 c 76.801 92.467 79.664 89.6 83.199 89.6 c 147.199 89.6 l 150.734 
89.6 153.602 92.467 153.602 95.998 c 153.602 99.534 150.734 102.401 
147.199 102.401 c h
147.199 102.401 m f
44.801 89.6 m 57.602 89.6 l 61.133 89.6 64 92.467 64 95.998 c 64 99.534 
61.133 102.401 57.602 102.401 c 44.801 102.401 l 41.266 102.401 38.398 
99.534 38.398 95.998 c 38.398 92.467 41.266 89.6 44.801 89.6 c h
44.801 89.6 m f
147.199 51.202 m 44.801 51.202 l 41.266 51.202 38.398 48.334 38.398 
44.799 c 38.398 41.264 41.266 38.401 44.801 38.401 c 147.199 38.401 l 
150.734 38.401 153.602 41.264 153.602 44.799 c 153.602 48.334 150.734 
51.202 147.199 51.202 c h
147.199 51.202 m f
44.801 191.998 m 134.398 191.998 l 137.934 191.998 140.801 194.866 
140.801 198.401 c 140.801 300.799 l 140.801 304.334 137.934 307.202 
134.398 307.202 c 44.801 307.202 l 41.266 307.202 38.398 304.334 38.398 
300.799 c 38.398 198.401 l 38.398 194.866 41.266 191.998 44.801 191.998 
c h
51.199 294.401 m 128 294.401 l 128 204.799 l 51.199 204.799 l h
51.199 294.401 m f
275.199 153.6 m 185.602 153.6 l 182.066 153.6 179.199 150.733 179.199 
147.202 c 179.199 44.799 l 179.199 41.264 182.066 38.401 185.602 38.401 
c 275.199 38.401 l 278.734 38.401 281.602 41.264 281.602 44.799 c 
281.602 147.202 l 281.602 150.733 278.734 153.6 275.199 153.6 c h
268.801 51.202 m 192 51.202 l 192 140.799 l 268.801 140.799 l h
268.801 51.202 m f
Q Q
showpage
%%Trailer
count op_count sub {pop} repeat
countdictstack dict_count sub {end} repeat
cairo_eps_state restore
%%EOF
