%!PS-Adobe-3.0 EPSF-3.0
%%Creator: cairo 1.10.2 (http://cairographics.org)
%%CreationDate: Fri Aug 14 10:45:01 2015
%%Pages: 1
%%BoundingBox: 0 -1 352 404
%%DocumentData: Clean7Bit
%%LanguageLevel: 2
%%EndComments
%%BeginProlog
/cairo_eps_state save def
/dict_count countdictstack def
/op_count count 1 sub def
userdict begin
/q { gsave } bind def
/Q { grestore } bind def
/cm { 6 array astore concat } bind def
/w { setlinewidth } bind def
/J { setlinecap } bind def
/j { setlinejoin } bind def
/M { setmiterlimit } bind def
/d { setdash } bind def
/m { moveto } bind def
/l { lineto } bind def
/c { curveto } bind def
/h { closepath } bind def
/re { exch dup neg 3 1 roll 5 3 roll moveto 0 rlineto
      0 exch rlineto 0 rlineto closepath } bind def
/S { stroke } bind def
/f { fill } bind def
/f* { eofill } bind def
/n { newpath } bind def
/W { clip } bind def
/W* { eoclip } bind def
/BT { } bind def
/ET { } bind def
/pdfmark where { pop globaldict /?pdfmark /exec load put }
    { globaldict begin /?pdfmark /pop load def /pdfmark
    /cleartomark load def end } ifelse
/BDC { mark 3 1 roll /BDC pdfmark } bind def
/EMC { mark /EMC pdfmark } bind def
/cairo_store_point { /cairo_point_y exch def /cairo_point_x exch def } def
/Tj { show currentpoint cairo_store_point } bind def
/TJ {
  {
    dup
    type /stringtype eq
    { show } { -0.001 mul 0 cairo_font_matrix dtransform rmoveto } ifelse
  } forall
  currentpoint cairo_store_point
} bind def
/cairo_selectfont { cairo_font_matrix aload pop pop pop 0 0 6 array astore
    cairo_font exch selectfont cairo_point_x cairo_point_y moveto } bind def
/Tf { pop /cairo_font exch def /cairo_font_matrix where
      { pop cairo_selectfont } if } bind def
/Td { matrix translate cairo_font_matrix matrix concatmatrix dup
      /cairo_font_matrix exch def dup 4 get exch 5 get cairo_store_point
      /cairo_font where { pop cairo_selectfont } if } bind def
/Tm { 2 copy 8 2 roll 6 array astore /cairo_font_matrix exch def
      cairo_store_point /cairo_font where { pop cairo_selectfont } if } bind def
/g { setgray } bind def
/rg { setrgbcolor } bind def
/d1 { setcachedevice } bind def
%%EndProlog
%%Page: 1 1
%%BeginPageSetup
%%PageBoundingBox: 0 -1 352 404
%%EndPageSetup
q 0 -1 352 405 rectclip q
0 403.2 352 -404 re W n
0 g
64 358.399 m 60.465 358.399 57.602 355.536 57.602 352.001 c 57.602 
339.2 l 57.602 335.665 60.465 332.802 64 332.802 c 67.535 332.802 
70.398 335.665 70.398 339.2 c 70.398 352.001 l 70.398 355.536 67.535 
358.399 64 358.399 c h
64 358.399 m f
320 403.2 m 44.801 403.2 l 27.156 403.2 12.801 388.845 12.801 371.2 c 
12.801 352.001 l 6.398 352.001 l 2.867 352.001 0 349.134 0 345.598 c 0 
342.067 2.867 339.2 6.398 339.2 c 12.801 339.2 l 12.801 320.001 l 6.398 
320.001 l 2.867 320.001 0 317.134 0 313.598 c 0 310.067 2.867 307.2 
6.398 307.2 c 12.801 307.2 l 12.801 288.001 l 6.398 288.001 l 2.867 
288.001 0 285.134 0 281.598 c 0 278.067 2.867 275.2 6.398 275.2 c 
12.801 275.2 l 12.801 256.001 l 6.398 256.001 l 2.867 256.001 0 253.134 
0 249.598 c 0 246.067 2.867 243.2 6.398 243.2 c 12.801 243.2 l 12.801 
224.001 l 6.398 224.001 l 2.867 224.001 0 221.134 0 217.598 c 0 214.067 
2.867 211.2 6.398 211.2 c 12.801 211.2 l 12.801 192.001 l 6.398 192.001 
l 2.867 192.001 0 189.134 0 185.598 c 0 182.067 2.867 179.2 6.398 179.2 
c 12.801 179.2 l 12.801 160.001 l 6.398 160.001 l 2.867 160.001 0 
157.134 0 153.598 c 0 150.067 2.867 147.2 6.398 147.2 c 12.801 147.2 l 
12.801 128.001 l 6.398 128.001 l 2.867 128.001 0 125.134 0 121.598 c 0 
118.067 2.867 115.2 6.398 115.2 c 12.801 115.2 l 12.801 96.001 l 6.398 
96.001 l 2.867 96.001 0 93.134 0 89.598 c 0 86.067 2.867 83.2 6.398 
83.2 c 12.801 83.2 l 12.801 64.001 l 6.398 64.001 l 2.867 64.001 0 
61.134 0 57.598 c 0 54.067 2.867 51.2 6.398 51.2 c 12.801 51.2 l 12.801 
32.001 l 12.801 14.356 27.156 0.001 44.801 0.001 c 320 0.001 l 337.645 
0.001 352 14.356 352 32.001 c 352 371.2 l 352 388.845 337.645 403.2 320 
403.2 c h
339.199 32.001 m 339.199 21.411 330.586 12.802 320 12.802 c 70.398 
12.802 l 70.398 313.598 l 70.398 317.134 67.535 320.001 64 320.001 c 
60.465 320.001 57.602 317.134 57.602 313.598 c 57.602 12.802 l 44.801 
12.802 l 34.211 12.802 25.602 21.411 25.602 32.001 c 25.602 51.2 l 32 
51.2 l 35.535 51.2 38.398 54.067 38.398 57.598 c 38.398 61.134 35.535 
64.001 32 64.001 c 25.602 64.001 l 25.602 83.2 l 32 83.2 l 35.535 83.2 
38.398 86.067 38.398 89.598 c 38.398 93.134 35.535 96.001 32 96.001 c 
25.602 96.001 l 25.602 115.2 l 32 115.2 l 35.535 115.2 38.398 118.067 
38.398 121.598 c 38.398 125.134 35.535 128.001 32 128.001 c 25.602 
128.001 l 25.602 147.2 l 32 147.2 l 35.535 147.2 38.398 150.067 38.398 
153.598 c 38.398 157.134 35.535 160.001 32 160.001 c 25.602 160.001 l 
25.602 179.2 l 32 179.2 l 35.535 179.2 38.398 182.067 38.398 185.598 c 
38.398 189.134 35.535 192.001 32 192.001 c 25.602 192.001 l 25.602 
211.2 l 32 211.2 l 35.535 211.2 38.398 214.067 38.398 217.598 c 38.398 
221.134 35.535 224.001 32 224.001 c 25.602 224.001 l 25.602 243.2 l 32 
243.2 l 35.535 243.2 38.398 246.067 38.398 249.598 c 38.398 253.134 
35.535 256.001 32 256.001 c 25.602 256.001 l 25.602 275.2 l 32 275.2 l 
35.535 275.2 38.398 278.067 38.398 281.598 c 38.398 285.134 35.535 
288.001 32 288.001 c 25.602 288.001 l 25.602 307.2 l 32 307.2 l 35.535 
307.2 38.398 310.067 38.398 313.598 c 38.398 317.134 35.535 320.001 32 
320.001 c 25.602 320.001 l 25.602 339.2 l 32 339.2 l 35.535 339.2 
38.398 342.067 38.398 345.598 c 38.398 349.134 35.535 352.001 32 
352.001 c 25.602 352.001 l 25.602 371.2 l 25.602 381.786 34.211 390.399 
44.801 390.399 c 57.602 390.399 l 57.602 377.598 l 57.602 374.067 
60.465 371.2 64 371.2 c 67.535 371.2 70.398 374.067 70.398 377.598 c 
70.398 390.399 l 320 390.399 l 330.586 390.399 339.199 381.786 339.199 
371.2 c h
339.199 32.001 m f
279.434 144.368 m 279.395 144.38 279.355 144.391 279.316 144.399 c 
249.488 151.973 l 246.289 152.891 243.395 154.755 243.395 155.915 c 
243.371 174.231 l 251.82 185.235 256.453 199.075 256.453 213.493 c 
256.453 225.032 l 266.027 256.048 259.344 282.899 255.91 290.7 c 
255.902 290.72 255.891 290.739 255.879 290.759 c 255.82 290.888 255.758 
291.013 255.691 291.134 c 255.656 291.2 255.621 291.27 255.582 291.337 
c 255.52 291.442 255.453 291.544 255.387 291.645 c 255.336 291.727 
255.285 291.805 255.23 291.88 c 255.172 291.962 255.109 292.032 255.051 
292.11 c 254.977 292.2 254.906 292.294 254.828 292.38 c 254.777 292.434 
254.727 292.485 254.676 292.536 c 254.582 292.638 254.488 292.735 
254.387 292.825 c 254.344 292.868 254.297 292.903 254.25 292.942 c 
254.141 293.04 254.031 293.134 253.914 293.22 c 253.863 293.259 253.809 
293.294 253.758 293.329 c 253.645 293.411 253.531 293.489 253.414 
293.563 c 253.344 293.606 253.273 293.641 253.203 293.68 c 253.098 
293.743 252.992 293.802 252.887 293.856 c 252.797 293.899 252.703 
293.938 252.609 293.977 c 252.516 294.02 252.426 294.063 252.328 
294.098 c 252.227 294.138 252.117 294.173 252.012 294.204 c 251.922 
294.235 251.836 294.266 251.742 294.29 c 251.637 294.317 251.531 
294.341 251.426 294.364 c 251.328 294.384 251.23 294.407 251.133 
294.427 c 251.039 294.442 250.945 294.45 250.848 294.462 c 250.734 
294.477 250.617 294.493 250.5 294.501 c 250.422 294.509 250.344 294.509 
250.266 294.509 c 250.129 294.513 249.992 294.516 249.852 294.513 c 
249.789 294.513 249.723 294.505 249.66 294.501 c 249.508 294.493 
249.359 294.481 249.207 294.462 c 249.188 294.458 249.168 294.458 
249.148 294.454 c 241.672 293.388 232.715 295.532 223.234 297.802 c 
206.805 301.735 188.266 306.169 172.227 294.423 c 156.828 293.251 
145.879 280.341 145.879 262.856 c 145.879 249.778 152.039 226.208 
153.344 221.36 c 153.344 214.919 l 153.344 199.899 158.227 185.95 
166.16 175.188 c 166.152 175.063 166.141 174.942 166.141 174.813 c 
166.117 155.888 l 166.117 154.735 163.223 152.868 160.023 151.954 c 
130.195 144.376 l 130.156 144.368 130.117 144.356 130.078 144.348 c 
111.848 139.352 102.312 121.798 102.312 107.04 c 102.312 98.591 l 
102.312 90.13 109.871 83.243 119.164 83.243 c 290.348 83.263 l 299.641 
83.263 307.199 90.145 307.199 98.61 c 307.199 107.059 l 307.199 121.821 
297.664 139.376 279.434 144.368 c h
178.918 155.88 m 178.926 162.548 l 186.582 157.126 195.445 153.973 
204.801 153.973 c 213.996 153.973 222.816 156.794 230.586 162.063 c 
230.594 155.907 l 230.594 148.973 235.586 144.161 241.371 141.403 c 
232.312 132.587 218.98 127.337 204.809 127.337 c 190.629 127.337 
177.285 132.595 168.227 141.427 c 173.977 144.188 178.918 148.985 
178.918 155.88 c h
158.68 262.86 m 158.68 276.782 167.219 281.72 174.527 281.72 c 174.559 
281.72 174.586 281.723 174.617 281.727 c 174.797 281.727 174.977 
281.735 175.156 281.755 c 175.227 281.759 175.293 281.774 175.363 
281.782 c 175.5 281.802 175.641 281.817 175.777 281.845 c 175.863 
281.864 175.945 281.888 176.031 281.907 c 176.148 281.934 176.266 
281.962 176.383 281.997 c 176.477 282.024 176.566 282.059 176.66 
282.095 c 176.762 282.13 176.867 282.165 176.973 282.208 c 177.07 
282.247 177.168 282.298 177.262 282.341 c 177.355 282.388 177.445 
282.427 177.535 282.473 c 177.648 282.532 177.754 282.602 177.863 
282.669 c 177.934 282.708 178.004 282.747 178.074 282.794 c 178.219 
282.891 178.355 282.993 178.492 283.102 c 178.52 283.126 178.547 
283.141 178.578 283.165 c 190.098 292.579 204.746 289.071 220.254 
285.356 c 228.449 283.395 236.863 281.38 244.973 281.38 c 245.191 
281.38 245.414 281.388 245.637 281.391 c 247.762 273.966 250.02 259.962 
247.523 243.27 c 236.191 247.524 206.844 256.856 167.574 256.856 c 
167.559 256.856 167.539 256.856 167.523 256.856 c 167.383 256.852 
167.246 256.845 167.109 256.833 c 167.031 256.829 166.949 256.825 
166.871 256.817 c 166.762 256.805 166.656 256.786 166.547 256.766 c 
166.441 256.751 166.336 256.735 166.234 256.716 c 166.168 256.7 166.102 
256.68 166.035 256.665 c 165.895 256.63 165.758 256.595 165.621 256.552 
c 165.598 256.544 165.574 256.532 165.547 256.524 c 165.375 256.466 
165.207 256.403 165.039 256.333 c 165.035 256.333 165.035 256.329 
165.031 256.329 c 164.848 256.251 164.668 256.161 164.492 256.067 c 
164.469 256.052 164.445 256.036 164.422 256.02 c 164.27 255.934 164.121 
255.848 163.977 255.751 c 163.895 255.692 163.812 255.63 163.734 
255.567 c 163.652 255.509 163.57 255.45 163.496 255.388 c 163.379 
255.294 163.273 255.192 163.164 255.091 c 163.125 255.052 163.082 
255.016 163.043 254.977 c 162.941 254.872 162.848 254.763 162.75 
254.653 c 162.711 254.606 162.668 254.563 162.629 254.516 c 162.551 
254.423 162.484 254.325 162.414 254.231 c 162.359 254.157 162.301 
254.083 162.25 254.009 c 162.203 253.934 162.156 253.852 162.109 
253.774 c 162.047 253.669 161.98 253.563 161.922 253.454 c 161.891 
253.391 161.863 253.329 161.832 253.266 c 161.766 253.134 161.703 
253.001 161.648 252.864 c 161.641 252.848 161.633 252.837 161.629 
252.821 c 161.543 252.61 161 251.231 160.23 249.063 c 159.316 254.266 
158.68 259.216 158.68 262.86 c h
166.145 217.493 m 166.145 225.958 169.871 237.841 172.023 244.013 c 
207.598 243.325 234.258 234.571 243.652 231.028 c 243.652 213.493 l 
243.652 188.169 225.859 166.774 204.801 166.774 c 184.207 166.774 
166.145 189.274 166.145 214.919 c h
294.398 98.614 m 294.398 97.411 292.668 96.063 290.348 96.063 c 119.164 
96.044 l 116.848 96.044 115.113 97.391 115.113 98.595 c 115.113 107.044 
l 115.113 116.934 121.398 128.669 133.41 131.989 c 154.656 137.388 l 
165.945 123.204 184.781 114.536 204.809 114.536 c 224.836 114.536 
243.668 123.204 254.961 137.38 c 276.105 132.009 l 288.117 128.688 
294.402 116.954 294.402 107.059 c 294.402 98.614 l h
294.398 98.614 m f
Q Q
showpage
%%Trailer
count op_count sub {pop} repeat
countdictstack dict_count sub {end} repeat
cairo_eps_state restore
%%EOF
