%!PS-Adobe-3.0 EPSF-3.0
%%Creator: cairo 1.10.2 (http://cairographics.org)
%%CreationDate: Fri Aug 14 10:45:09 2015
%%Pages: 1
%%BoundingBox: 0 -1 410 333
%%DocumentData: Clean7Bit
%%LanguageLevel: 2
%%EndComments
%%BeginProlog
/cairo_eps_state save def
/dict_count countdictstack def
/op_count count 1 sub def
userdict begin
/q { gsave } bind def
/Q { grestore } bind def
/cm { 6 array astore concat } bind def
/w { setlinewidth } bind def
/J { setlinecap } bind def
/j { setlinejoin } bind def
/M { setmiterlimit } bind def
/d { setdash } bind def
/m { moveto } bind def
/l { lineto } bind def
/c { curveto } bind def
/h { closepath } bind def
/re { exch dup neg 3 1 roll 5 3 roll moveto 0 rlineto
      0 exch rlineto 0 rlineto closepath } bind def
/S { stroke } bind def
/f { fill } bind def
/f* { eofill } bind def
/n { newpath } bind def
/W { clip } bind def
/W* { eoclip } bind def
/BT { } bind def
/ET { } bind def
/pdfmark where { pop globaldict /?pdfmark /exec load put }
    { globaldict begin /?pdfmark /pop load def /pdfmark
    /cleartomark load def end } ifelse
/BDC { mark 3 1 roll /BDC pdfmark } bind def
/EMC { mark /EMC pdfmark } bind def
/cairo_store_point { /cairo_point_y exch def /cairo_point_x exch def } def
/Tj { show currentpoint cairo_store_point } bind def
/TJ {
  {
    dup
    type /stringtype eq
    { show } { -0.001 mul 0 cairo_font_matrix dtransform rmoveto } ifelse
  } forall
  currentpoint cairo_store_point
} bind def
/cairo_selectfont { cairo_font_matrix aload pop pop pop 0 0 6 array astore
    cairo_font exch selectfont cairo_point_x cairo_point_y moveto } bind def
/Tf { pop /cairo_font exch def /cairo_font_matrix where
      { pop cairo_selectfont } if } bind def
/Td { matrix translate cairo_font_matrix matrix concatmatrix dup
      /cairo_font_matrix exch def dup 4 get exch 5 get cairo_store_point
      /cairo_font where { pop cairo_selectfont } if } bind def
/Tm { 2 copy 8 2 roll 6 array astore /cairo_font_matrix exch def
      cairo_store_point /cairo_font where { pop cairo_selectfont } if } bind def
/g { setgray } bind def
/rg { setrgbcolor } bind def
/d1 { setcachedevice } bind def
%%EndProlog
%%Page: 1 1
%%BeginPageSetup
%%PageBoundingBox: 0 -1 410 333
%%EndPageSetup
q 0 -1 410 334 rectclip q
0 332.796 410 -333 re W n
0 g
409.59 326.082 m 409.59 326.128 409.594 326.175 409.594 326.226 c 
409.598 326.281 409.594 326.336 409.594 326.394 c 409.594 326.496 
409.594 326.601 409.59 326.703 c 409.586 326.793 409.574 326.878 
409.566 326.968 c 409.566 326.976 409.566 326.988 409.566 327 c 409.559 
327.05 409.559 327.101 409.551 327.152 c 409.547 327.211 409.539 
327.265 409.531 327.32 c 409.52 327.406 409.5 327.484 409.484 327.57 c 
409.465 327.683 409.445 327.796 409.414 327.91 c 409.414 327.921 409.41 
327.933 409.406 327.945 c 409.387 328.027 409.359 328.105 409.336 
328.183 c 409.305 328.296 409.273 328.406 409.234 328.515 c 409.219 
328.57 409.195 328.621 409.176 328.671 c 409.16 328.718 409.137 328.765 
409.121 328.812 c 409.121 328.816 409.117 328.816 409.117 328.816 c 
409.082 328.906 409.047 328.996 409.004 329.086 c 408.961 329.187 
408.906 329.281 408.855 329.378 c 408.832 329.425 408.809 329.472 
408.781 329.519 c 408.758 329.562 408.738 329.601 408.715 329.64 c 
408.637 329.773 408.547 329.906 408.461 330.035 c 408.43 330.074 
408.406 330.117 408.379 330.16 c 408.375 330.164 408.375 330.164 
408.371 330.168 c 408.367 330.171 408.363 330.179 408.359 330.183 c 
408.281 330.293 408.191 330.394 408.105 330.5 c 408.051 330.562 408 
330.632 407.941 330.695 c 407.918 330.722 407.891 330.746 407.867 
330.777 c 407.824 330.82 407.781 330.859 407.738 330.902 c 407.652 
330.988 407.566 331.078 407.473 331.164 c 407.457 331.179 l 407.418 
331.214 407.379 331.242 407.34 331.273 c 407.324 331.289 407.305 331.3 
407.285 331.316 c 407.258 331.339 407.234 331.367 407.207 331.39 c 
407.191 331.402 407.168 331.414 407.152 331.429 c 407.09 331.476 
407.031 331.523 406.973 331.57 c 406.914 331.613 406.852 331.648 
406.789 331.691 c 406.68 331.769 406.566 331.843 406.449 331.914 c 
406.367 331.961 406.277 332.007 406.191 332.05 c 406.098 332.101 
406.004 332.152 405.906 332.199 c 405.867 332.218 405.828 332.238 
405.785 332.253 c 405.762 332.265 405.734 332.273 405.707 332.285 c 
405.668 332.3 405.625 332.316 405.586 332.336 c 405.504 332.367 405.422 
332.402 405.34 332.429 c 405.25 332.461 405.16 332.488 405.07 332.515 c 
405.02 332.531 404.969 332.546 404.914 332.562 c 404.859 332.578 
404.805 332.593 404.75 332.609 c 404.629 332.636 404.512 332.66 404.391 
332.683 c 404.324 332.695 404.258 332.714 404.191 332.722 c 404.172 
332.726 404.152 332.726 404.137 332.73 c 404.027 332.746 403.914 
332.753 403.805 332.765 c 403.707 332.773 403.613 332.785 403.52 
332.789 c 403.477 332.793 403.434 332.796 403.391 332.796 c 403.34 
332.796 403.289 332.793 403.238 332.793 c 403.219 332.793 l 403.109 
332.793 403.004 332.796 402.895 332.793 c 402.809 332.789 402.727 
332.777 402.641 332.769 c 402.582 332.765 402.527 332.761 402.469 
332.757 c 402.406 332.75 402.34 332.742 402.277 332.734 c 402.195 
332.718 402.109 332.703 402.023 332.687 c 401.918 332.668 401.812 
332.648 401.707 332.625 c 401.695 332.621 401.684 332.617 401.672 
332.613 c 401.582 332.593 401.496 332.566 401.406 332.539 c 401.297 
332.507 401.191 332.476 401.086 332.441 c 401.031 332.421 400.98 
332.402 400.93 332.382 c 400.918 332.378 400.902 332.375 400.891 
332.371 c 4.09 178.769 l 1.621 177.816 -0.004 175.441 0 172.793 c 0.004 
170.148 1.633 167.777 4.102 166.828 c 122.402 121.328 l 160.312 4.425 l 
160.316 4.41 160.328 4.394 160.332 4.378 c 160.344 4.347 160.352 4.312 
160.363 4.277 c 160.453 4.019 160.562 3.773 160.688 3.527 c 160.711 
3.48 160.738 3.429 160.766 3.378 c 160.883 3.156 161.016 2.941 161.164 
2.73 c 161.18 2.703 161.199 2.671 161.219 2.644 c 161.227 2.632 161.238 
2.617 161.246 2.605 c 161.258 2.589 161.27 2.578 161.281 2.562 c 
161.332 2.496 161.383 2.437 161.434 2.375 c 161.496 2.3 161.555 2.222 
161.617 2.148 c 161.668 2.093 161.723 2.043 161.773 1.988 c 161.844 
1.914 l 161.883 1.878 161.918 1.839 161.953 1.804 c 161.992 1.765 
162.031 1.726 162.07 1.691 c 162.109 1.656 162.152 1.621 162.191 1.589 
c 162.312 1.48 162.438 1.375 162.57 1.277 c 162.578 1.269 162.586 1.265 
162.594 1.257 c 162.605 1.25 162.621 1.242 162.633 1.234 c 162.672 
1.207 162.711 1.179 162.754 1.152 c 162.957 1.007 163.176 0.875 163.398 
0.757 c 163.438 0.738 163.469 0.711 163.508 0.695 c 163.52 0.687 
163.531 0.683 163.543 0.675 c 163.754 0.574 163.973 0.476 164.199 0.39 
c 164.246 0.375 164.297 0.363 164.344 0.347 c 164.406 0.324 164.469 
0.304 164.535 0.285 c 164.809 0.203 165.086 0.136 165.363 0.089 c 
165.375 0.086 165.387 0.082 165.402 0.078 c 165.426 0.074 165.453 0.078 
165.48 0.074 c 165.785 0.027 166.094 -0 166.398 -0 c 166.426 -0 166.449 
0.007 166.473 0.007 c 166.734 0.007 167 0.031 167.258 0.066 c 167.297 
0.07 167.34 0.07 167.375 0.078 c 167.434 0.086 167.488 0.105 167.543 
0.117 c 167.746 0.152 167.945 0.199 168.145 0.253 c 168.211 0.273 
168.277 0.285 168.34 0.304 c 168.352 0.308 168.363 0.312 168.375 0.312 
c 168.402 0.324 168.434 0.339 168.465 0.347 c 168.559 0.378 168.652 
0.418 168.746 0.457 c 168.871 0.503 168.992 0.554 169.113 0.613 c 
169.133 0.621 169.152 0.625 169.168 0.636 c 169.18 0.64 169.191 0.644 
169.203 0.648 c 169.262 0.675 169.32 0.711 169.379 0.742 c 169.5 0.808 
169.621 0.878 169.742 0.949 c 169.82 0.996 169.898 1.046 169.973 1.097 
c 169.973 1.097 169.973 1.097 169.977 1.097 c 169.996 1.113 170.02 
1.125 170.043 1.14 c 170.148 1.214 170.25 1.296 170.352 1.375 c 170.41 
1.421 170.473 1.464 170.527 1.511 c 170.594 1.566 170.652 1.625 170.715 
1.679 c 170.762 1.722 170.805 1.765 170.852 1.812 c 171.047 2.003 
171.234 2.203 171.406 2.418 c 171.422 2.433 171.438 2.449 171.449 2.468 
c 171.469 2.492 171.484 2.519 171.504 2.543 c 171.516 2.562 171.531 
2.578 171.547 2.593 c 218.312 65.789 l 220.414 68.632 219.816 72.64 
216.973 74.742 c 214.133 76.843 210.125 76.246 208.023 73.406 c 187.703 
45.945 l 203.852 90.031 l 356.711 32.015 l 357.445 31.738 358.215 
31.597 358.98 31.597 c 360.102 31.597 361.215 31.89 362.207 32.468 c 
363.875 33.441 365.016 35.117 365.309 37.027 c 409.527 325.429 l 
409.531 325.441 409.527 325.457 409.531 325.468 c 409.547 325.578 
409.555 325.683 409.566 325.789 c 409.574 325.886 409.586 325.984 
409.59 326.082 c h
359.645 302.675 m 176.84 169.91 l 173.98 167.836 173.348 163.832 
175.426 160.972 c 176.676 159.246 178.629 158.332 180.605 158.332 c 
181.91 158.332 183.227 158.73 184.363 159.554 c 358.992 286.382 l 
195.555 102.867 l 194.922 102.242 194.402 101.476 194.066 100.589 c 
194.008 100.437 193.965 100.285 193.922 100.132 c 166.77 26.011 l 
133.637 128.175 l 133.02 130.082 131.59 131.5 129.855 132.171 c 129.844 
132.175 129.836 132.179 129.828 132.183 c 24.18 172.816 l h
353.852 46.789 m 211.031 100.996 l 393.598 305.992 l h
353.852 46.789 m f
148.406 134.945 m 149.707 134.945 151.023 135.343 152.16 136.168 c 
164.602 145.203 l 167.461 147.277 168.094 151.281 166.02 154.14 c 
163.941 157 159.938 157.636 157.078 155.558 c 144.641 146.523 l 141.777 
144.445 141.145 140.445 143.223 137.586 c 144.473 135.859 146.426 
134.945 148.406 134.945 c h
148.406 134.945 m f
Q Q
showpage
%%Trailer
count op_count sub {pop} repeat
countdictstack dict_count sub {end} repeat
cairo_eps_state restore
%%EOF
