%!PS-Adobe-3.0 EPSF-3.0
%%Creator: cairo 1.10.2 (http://cairographics.org)
%%CreationDate: Fri Aug 14 10:44:29 2015
%%Pages: 1
%%BoundingBox: 0 -1 410 410
%%DocumentData: Clean7Bit
%%LanguageLevel: 2
%%EndComments
%%BeginProlog
/cairo_eps_state save def
/dict_count countdictstack def
/op_count count 1 sub def
userdict begin
/q { gsave } bind def
/Q { grestore } bind def
/cm { 6 array astore concat } bind def
/w { setlinewidth } bind def
/J { setlinecap } bind def
/j { setlinejoin } bind def
/M { setmiterlimit } bind def
/d { setdash } bind def
/m { moveto } bind def
/l { lineto } bind def
/c { curveto } bind def
/h { closepath } bind def
/re { exch dup neg 3 1 roll 5 3 roll moveto 0 rlineto
      0 exch rlineto 0 rlineto closepath } bind def
/S { stroke } bind def
/f { fill } bind def
/f* { eofill } bind def
/n { newpath } bind def
/W { clip } bind def
/W* { eoclip } bind def
/BT { } bind def
/ET { } bind def
/pdfmark where { pop globaldict /?pdfmark /exec load put }
    { globaldict begin /?pdfmark /pop load def /pdfmark
    /cleartomark load def end } ifelse
/BDC { mark 3 1 roll /BDC pdfmark } bind def
/EMC { mark /EMC pdfmark } bind def
/cairo_store_point { /cairo_point_y exch def /cairo_point_x exch def } def
/Tj { show currentpoint cairo_store_point } bind def
/TJ {
  {
    dup
    type /stringtype eq
    { show } { -0.001 mul 0 cairo_font_matrix dtransform rmoveto } ifelse
  } forall
  currentpoint cairo_store_point
} bind def
/cairo_selectfont { cairo_font_matrix aload pop pop pop 0 0 6 array astore
    cairo_font exch selectfont cairo_point_x cairo_point_y moveto } bind def
/Tf { pop /cairo_font exch def /cairo_font_matrix where
      { pop cairo_selectfont } if } bind def
/Td { matrix translate cairo_font_matrix matrix concatmatrix dup
      /cairo_font_matrix exch def dup 4 get exch 5 get cairo_store_point
      /cairo_font where { pop cairo_selectfont } if } bind def
/Tm { 2 copy 8 2 roll 6 array astore /cairo_font_matrix exch def
      cairo_store_point /cairo_font where { pop cairo_selectfont } if } bind def
/g { setgray } bind def
/rg { setrgbcolor } bind def
/d1 { setcachedevice } bind def
%%EndProlog
%%Page: 1 1
%%BeginPageSetup
%%PageBoundingBox: 0 -1 410 410
%%EndPageSetup
q 0 -1 410 411 rectclip q
0 409.61 410 -410 re W n
0 g
404.57 289.723 m 289.723 404.571 l 283.008 411.289 272.078 411.289 
265.359 404.571 c 196.453 335.664 l 193.207 332.418 191.418 328.09 
191.418 323.481 c 191.418 318.871 193.203 314.543 196.453 311.297 c 
249.348 258.399 l 235.43 244.481 l 216.988 262.926 l 210.27 269.641 
199.34 269.641 192.621 262.926 c 189.492 259.793 l 159.562 289.723 l 
156.316 292.969 151.992 294.754 147.379 294.754 c 142.77 294.754 
138.441 292.969 135.199 289.723 c 119.883 274.41 l 113.168 267.692 
113.168 256.762 119.883 250.047 c 149.812 220.117 l 146.68 216.985 l 
143.438 213.738 141.648 209.414 141.648 204.805 c 141.648 200.192 
143.434 195.867 146.68 192.621 c 165.125 174.176 l 151.207 160.258 l 
98.309 213.156 l 91.59 219.875 80.66 219.875 73.941 213.156 c 5.039 
144.25 l -1.68 137.531 -1.68 126.602 5.039 119.887 c 119.887 5.039 l 
123.242 1.68 127.656 0 132.066 0 c 136.48 0 140.891 1.68 144.25 5.039 c 
213.16 73.946 l 219.875 80.664 219.875 91.594 213.16 98.309 c 160.262 
151.207 l 174.18 165.129 l 230.906 108.403 l 234.152 105.156 238.477 
103.367 243.09 103.367 c 247.699 103.367 252.027 105.156 255.27 108.403 
c 273.715 126.844 l 280.035 120.524 l 253.695 92.883 237.828 64.086 
239.281 46.074 c 239.48 43.586 241.109 41.442 243.449 40.582 c 244.168 
40.317 244.918 40.188 245.66 40.188 c 247.328 40.188 248.965 40.84 
250.184 42.063 c 304.34 96.219 l 322.703 77.856 l 320.984 74.684 
320.008 71.055 320.008 67.203 c 320.008 54.852 330.055 44.805 342.406 
44.805 c 354.758 44.805 364.805 54.852 364.805 67.203 c 364.805 79.555 
354.758 89.606 342.406 89.606 c 338.555 89.606 334.926 88.625 331.758 
86.906 c 313.395 105.27 l 367.551 159.426 l 369.312 161.192 369.891 
163.821 369.031 166.164 c 368.168 168.504 366.023 170.133 363.539 
170.332 c 345.527 171.778 316.73 155.914 289.086 129.574 c 282.766 
135.899 l 301.211 154.34 l 304.457 157.586 306.242 161.91 306.242 
166.524 c 306.242 171.133 304.457 175.457 301.211 178.703 c 244.484 
235.434 l 258.402 249.352 l 311.301 196.453 l 314.66 193.094 319.07 
191.414 323.48 191.414 c 327.895 191.414 332.305 193.094 335.664 
196.453 c 404.574 265.363 l 411.289 272.078 411.289 283.008 404.57 
289.723 c h
82.996 204.106 m 83.824 204.934 84.938 205.391 86.129 205.391 c 87.32 
205.391 88.434 204.934 89.262 204.106 c 142.16 151.207 l 109.098 
118.149 l 53.07 174.176 l h
135.199 14.086 m 133.473 12.363 130.664 12.363 128.938 14.086 c 14.09 
128.938 l 13.262 129.766 12.805 130.875 12.805 132.067 c 12.805 133.258 
13.262 134.371 14.09 135.199 c 44.02 165.129 l 100.047 109.098 l 78.68 
87.731 l 76.18 85.231 76.18 81.18 78.68 78.68 c 79.93 77.43 81.566 
76.805 83.203 76.805 c 84.844 76.805 86.48 77.43 87.73 78.68 c 109.098 
100.047 l 165.129 44.016 l h
204.109 89.258 m 205.836 87.531 205.836 84.723 204.109 82.996 c 174.18 
53.067 l 118.148 109.098 l 151.211 142.156 l h
352.004 67.203 m 352.004 61.91 347.699 57.606 342.406 57.606 c 337.109 
57.606 332.805 61.91 332.805 67.203 c 332.805 69.629 333.715 71.836 
335.199 73.528 c 335.359 73.66 335.512 73.797 335.664 73.946 c 335.812 
74.094 335.949 74.25 336.082 74.41 c 337.773 75.895 339.98 76.805 
342.402 76.805 c 347.699 76.805 352.004 72.496 352.004 67.203 c h
257.398 67.379 m 263.801 81.031 275.875 98.379 293.551 116.059 c 311.23 
133.735 328.578 145.809 342.23 152.211 c h
128.938 259.098 m 127.211 260.824 127.211 263.633 128.938 265.36 c 
144.25 280.672 l 145.949 282.371 148.816 282.371 150.512 280.672 c 
180.441 250.742 l 158.867 229.168 l h
293.441 166.52 m 293.441 165.332 292.984 164.219 292.16 163.391 c 
246.219 117.449 l 245.391 116.621 244.277 116.168 243.086 116.168 c 
241.895 116.168 240.785 116.621 239.957 117.449 c 155.734 201.672 l 
154.906 202.5 154.449 203.613 154.449 204.805 c 154.449 205.996 154.906 
207.106 155.734 207.934 c 174.207 226.41 l 174.355 226.227 174.512 
226.047 174.68 225.879 c 251.48 149.078 l 252.73 147.828 254.367 
147.203 256.004 147.203 c 257.645 147.203 259.281 147.828 260.531 
149.078 c 263.031 151.578 263.031 155.629 260.531 158.129 c 183.73 
234.93 l 183.562 235.098 183.383 235.254 183.203 235.403 c 201.676 
253.875 l 202.539 254.738 203.672 255.168 204.805 255.168 c 205.941 
255.168 207.074 254.738 207.938 253.875 c 292.16 169.653 l 292.984 
168.824 293.441 167.711 293.441 166.52 c h
205.504 320.352 m 204.676 321.18 204.219 322.289 204.219 323.481 c 
204.219 324.672 204.676 325.785 205.504 326.613 c 235.43 356.543 l 
291.461 300.512 l 258.402 267.453 l h
326.613 205.5 m 325.785 204.672 324.672 204.219 323.48 204.219 c 
322.289 204.219 321.18 204.676 320.352 205.5 c 267.453 258.403 l 
300.512 291.461 l 356.543 235.43 l h
395.523 274.41 m 365.594 244.481 l 309.562 300.512 l 330.93 321.879 l 
333.43 324.379 333.43 328.43 330.93 330.93 c 328.43 333.43 324.379 
333.43 321.879 330.93 c 300.512 309.563 l 244.48 365.59 l 274.41 395.52 
l 275.273 396.383 276.41 396.817 277.543 396.817 c 278.676 396.817 
279.809 396.383 280.672 395.52 c 395.523 280.672 l 396.348 279.844 
396.805 278.735 396.805 277.543 c 396.805 276.352 396.348 275.238 
395.523 274.41 c h
395.523 274.41 m f
Q Q
showpage
%%Trailer
count op_count sub {pop} repeat
countdictstack dict_count sub {end} repeat
cairo_eps_state restore
%%EOF
