%!PS-Adobe-3.0 EPSF-3.0
%%Creator: cairo 1.10.2 (http://cairographics.org)
%%CreationDate: Fri Aug 14 10:45:08 2015
%%Pages: 1
%%BoundingBox: 0 -1 336 410
%%DocumentData: Clean7Bit
%%LanguageLevel: 2
%%EndComments
%%BeginProlog
/cairo_eps_state save def
/dict_count countdictstack def
/op_count count 1 sub def
userdict begin
/q { gsave } bind def
/Q { grestore } bind def
/cm { 6 array astore concat } bind def
/w { setlinewidth } bind def
/J { setlinecap } bind def
/j { setlinejoin } bind def
/M { setmiterlimit } bind def
/d { setdash } bind def
/m { moveto } bind def
/l { lineto } bind def
/c { curveto } bind def
/h { closepath } bind def
/re { exch dup neg 3 1 roll 5 3 roll moveto 0 rlineto
      0 exch rlineto 0 rlineto closepath } bind def
/S { stroke } bind def
/f { fill } bind def
/f* { eofill } bind def
/n { newpath } bind def
/W { clip } bind def
/W* { eoclip } bind def
/BT { } bind def
/ET { } bind def
/pdfmark where { pop globaldict /?pdfmark /exec load put }
    { globaldict begin /?pdfmark /pop load def /pdfmark
    /cleartomark load def end } ifelse
/BDC { mark 3 1 roll /BDC pdfmark } bind def
/EMC { mark /EMC pdfmark } bind def
/cairo_store_point { /cairo_point_y exch def /cairo_point_x exch def } def
/Tj { show currentpoint cairo_store_point } bind def
/TJ {
  {
    dup
    type /stringtype eq
    { show } { -0.001 mul 0 cairo_font_matrix dtransform rmoveto } ifelse
  } forall
  currentpoint cairo_store_point
} bind def
/cairo_selectfont { cairo_font_matrix aload pop pop pop 0 0 6 array astore
    cairo_font exch selectfont cairo_point_x cairo_point_y moveto } bind def
/Tf { pop /cairo_font exch def /cairo_font_matrix where
      { pop cairo_selectfont } if } bind def
/Td { matrix translate cairo_font_matrix matrix concatmatrix dup
      /cairo_font_matrix exch def dup 4 get exch 5 get cairo_store_point
      /cairo_font where { pop cairo_selectfont } if } bind def
/Tm { 2 copy 8 2 roll 6 array astore /cairo_font_matrix exch def
      cairo_store_point /cairo_font where { pop cairo_selectfont } if } bind def
/g { setgray } bind def
/rg { setrgbcolor } bind def
/d1 { setcachedevice } bind def
%%EndProlog
%%Page: 1 1
%%BeginPageSetup
%%PageBoundingBox: 0 -1 336 410
%%EndPageSetup
q 0 -1 336 411 rectclip q
0 409.601 336 -410 re W n
0 g
329.836 150.796 m 76.68 403.952 l 72.91 407.722 67.703 409.784 62.352 
409.589 c 57.047 409.401 52.02 407.007 48.555 403.019 c 15.648 365.132 
-1.555 316.554 0.109 266.233 c 1.785 215.671 22.418 168.116 58.207 
132.327 c 70.809 119.726 84.875 109.011 100.008 100.335 c 91.051 96.335 
84.793 87.347 84.793 76.921 c 84.793 70.269 87.34 64.202 91.508 59.64 c 
91.312 59.026 91.203 58.37 91.203 57.687 c 91.203 38.444 l 59.113 
38.444 l 48.527 38.444 39.914 29.831 39.914 19.245 c 39.914 6.401 l 
39.914 2.866 42.781 -0.001 46.316 -0.001 c 174.535 -0.001 l 178.07 
-0.001 180.934 2.866 180.934 6.401 c 180.934 19.245 l 180.934 29.831 
172.32 38.444 161.734 38.444 c 129.648 38.444 l 129.648 57.69 l 129.648 
58.37 129.539 59.026 129.34 59.644 c 133.508 64.202 136.059 70.269 
136.059 76.921 c 136.059 79.601 135.641 82.187 134.875 84.62 c 153.156 
78.429 172.406 74.882 192.117 74.229 c 194.348 74.155 196.57 74.116 
198.793 74.116 c 246.719 74.116 292.691 91.226 328.898 122.671 c 
332.891 126.136 335.285 131.167 335.469 136.472 c 335.66 141.808 
333.605 147.026 329.836 150.796 c h
110.426 89.753 m 117.5 89.753 123.258 83.999 123.258 76.921 c 123.258 
69.843 117.5 64.089 110.426 64.089 c 103.348 64.089 97.59 69.847 97.59 
76.921 c 97.59 83.995 103.348 89.753 110.426 89.753 c h
168.133 19.245 m 168.133 12.8 l 52.715 12.8 l 52.715 19.245 l 52.715 
22.772 55.586 25.644 59.113 25.644 c 161.734 25.644 l 165.262 25.644 
168.133 22.772 168.133 19.245 c h
104.004 38.444 m 104.004 52.104 l 106.055 51.573 108.207 51.288 110.426 
51.288 c 112.641 51.288 114.793 51.573 116.848 52.104 c 116.848 38.444 
l h
320.508 132.335 m 286.637 102.917 243.633 86.917 198.789 86.917 c 
196.715 86.917 194.625 86.952 192.543 87.022 c 145.238 88.589 100.746 
107.89 67.258 141.378 c 33.773 174.862 14.469 219.354 12.902 266.659 c 
11.348 313.737 27.438 359.183 58.219 394.624 c 59.383 395.96 61.008 
396.733 62.805 396.796 c 62.883 396.8 62.961 396.8 63.043 396.8 c 
64.777 396.8 66.398 396.132 67.629 394.901 c 320.785 141.745 l 322.07 
140.46 322.742 138.745 322.68 136.921 c 322.617 135.124 321.844 133.495 
320.508 132.335 c h
320.508 132.335 m f
219.199 287.694 m 220.84 287.694 222.477 288.319 223.727 289.569 c 
283.145 348.987 l 286.918 346.796 291.297 345.534 295.969 345.534 c 
310.102 345.534 321.602 357.034 321.602 371.167 c 321.602 385.3 310.102 
396.8 295.969 396.8 c 281.836 396.8 270.336 385.3 270.336 371.167 c 
270.336 366.335 271.68 361.815 274.012 357.956 c 214.676 298.62 l 
212.176 296.124 212.176 292.069 214.676 289.569 c 215.926 288.323 
217.562 287.694 219.199 287.694 c h
295.969 383.999 m 303.043 383.999 308.801 378.245 308.801 371.167 c 
308.801 364.089 303.047 358.335 295.969 358.335 c 288.891 358.335 
283.137 364.089 283.137 371.167 c 283.137 378.241 288.891 383.999 
295.969 383.999 c h
295.969 383.999 m f
Q Q
showpage
%%Trailer
count op_count sub {pop} repeat
countdictstack dict_count sub {end} repeat
cairo_eps_state restore
%%EOF
