%!PS-Adobe-3.0 EPSF-3.0
%%Creator: cairo 1.10.2 (http://cairographics.org)
%%CreationDate: Fri Aug 14 10:44:54 2015
%%Pages: 1
%%BoundingBox: 0 -1 410 410
%%DocumentData: Clean7Bit
%%LanguageLevel: 2
%%EndComments
%%BeginProlog
/cairo_eps_state save def
/dict_count countdictstack def
/op_count count 1 sub def
userdict begin
/q { gsave } bind def
/Q { grestore } bind def
/cm { 6 array astore concat } bind def
/w { setlinewidth } bind def
/J { setlinecap } bind def
/j { setlinejoin } bind def
/M { setmiterlimit } bind def
/d { setdash } bind def
/m { moveto } bind def
/l { lineto } bind def
/c { curveto } bind def
/h { closepath } bind def
/re { exch dup neg 3 1 roll 5 3 roll moveto 0 rlineto
      0 exch rlineto 0 rlineto closepath } bind def
/S { stroke } bind def
/f { fill } bind def
/f* { eofill } bind def
/n { newpath } bind def
/W { clip } bind def
/W* { eoclip } bind def
/BT { } bind def
/ET { } bind def
/pdfmark where { pop globaldict /?pdfmark /exec load put }
    { globaldict begin /?pdfmark /pop load def /pdfmark
    /cleartomark load def end } ifelse
/BDC { mark 3 1 roll /BDC pdfmark } bind def
/EMC { mark /EMC pdfmark } bind def
/cairo_store_point { /cairo_point_y exch def /cairo_point_x exch def } def
/Tj { show currentpoint cairo_store_point } bind def
/TJ {
  {
    dup
    type /stringtype eq
    { show } { -0.001 mul 0 cairo_font_matrix dtransform rmoveto } ifelse
  } forall
  currentpoint cairo_store_point
} bind def
/cairo_selectfont { cairo_font_matrix aload pop pop pop 0 0 6 array astore
    cairo_font exch selectfont cairo_point_x cairo_point_y moveto } bind def
/Tf { pop /cairo_font exch def /cairo_font_matrix where
      { pop cairo_selectfont } if } bind def
/Td { matrix translate cairo_font_matrix matrix concatmatrix dup
      /cairo_font_matrix exch def dup 4 get exch 5 get cairo_store_point
      /cairo_font where { pop cairo_selectfont } if } bind def
/Tm { 2 copy 8 2 roll 6 array astore /cairo_font_matrix exch def
      cairo_store_point /cairo_font where { pop cairo_selectfont } if } bind def
/g { setgray } bind def
/rg { setrgbcolor } bind def
/d1 { setcachedevice } bind def
%%EndProlog
%%Page: 1 1
%%BeginPageSetup
%%PageBoundingBox: 0 -1 410 410
%%EndPageSetup
q 0 -1 410 411 rectclip q
0 409.677 410 -410 re W n
0 g
403.277 86.052 m 326.703 162.627 l 318.176 171.154 304.305 171.154 
295.777 162.627 c 273.898 140.748 l 265.371 132.22 265.371 118.345 
273.898 109.818 c 274.84 108.873 l 263.262 97.294 l 263.094 97.212 
262.859 97.123 262.609 97.041 c 230.863 120.087 200.809 145.732 173.262 
173.279 c 145.656 200.884 120.016 230.931 97.031 262.611 c 97.105 
262.861 97.191 263.103 97.273 263.279 c 101.402 267.361 105.809 271.701 
108.945 274.771 c 109.812 273.904 l 114.078 269.638 119.68 267.505 
125.277 267.505 c 130.879 267.505 136.48 269.638 140.742 273.904 c 
162.621 295.779 l 171.148 304.306 171.148 318.181 162.621 326.709 c 
86.047 403.283 l 77.52 411.81 63.648 411.81 55.121 403.283 c 33.242 
381.404 l 26.289 374.451 25.008 363.943 29.395 355.677 c 16.832 343.115 
l -3.586 322.681 -5.734 287.623 12.07 264.919 c 86.516 171.591 171.582 
86.521 264.953 12.044 c 275.258 3.962 288.125 -0.002 301.016 0.002 c 
316.477 0.002 331.969 5.701 343.113 16.837 c 355.672 29.4 l 358.871 
27.701 362.402 26.853 365.934 26.853 c 371.535 26.853 377.137 28.982 
381.398 33.248 c 403.277 55.123 l 407.395 59.244 409.664 64.736 409.664 
70.587 c 409.664 76.443 407.395 81.935 403.277 86.052 c h
394.227 64.173 m 372.348 42.298 l 368.812 38.759 363.059 38.759 359.52 
42.298 c 321.234 80.587 l 318.734 83.084 314.68 83.084 312.184 80.587 c 
309.684 78.087 309.684 74.033 312.184 71.537 c 345.945 37.771 l 334.062 
25.892 l 318.328 10.166 290.297 8.435 272.895 22.084 c 180.312 95.931 
95.926 180.318 22.109 272.861 c 8.43 290.298 10.16 318.33 25.883 
334.068 c 37.77 345.951 l 44.184 339.533 l 46.684 337.037 50.734 
337.037 53.234 339.533 c 55.734 342.033 55.734 346.087 53.234 348.584 c 
42.293 359.525 l 40.594 361.228 39.656 363.505 39.656 365.939 c 39.656 
368.373 40.594 370.65 42.293 372.353 c 64.172 394.232 l 67.707 397.767 
73.461 397.767 77 394.232 c 153.57 317.658 l 157.105 314.123 157.105 
308.369 153.57 304.83 c 131.691 282.955 l 128.156 279.416 122.402 
279.419 118.867 282.955 c 113.652 288.166 l 75.109 326.709 l 72.613 
329.209 68.559 329.209 66.062 326.709 c 63.562 324.209 63.562 320.158 
66.062 317.658 c 99.898 283.822 l 98.746 282.697 97.48 281.455 96.215 
280.209 c 92.074 276.138 87.945 272.056 87.945 272.056 c 87.914 272.025 
87.883 271.998 87.855 271.966 c 85.199 269.232 82.262 261.4 85.434 
256.806 c 85.457 256.771 85.484 256.736 85.508 256.701 c 109.184 
223.888 135.664 192.775 164.207 164.232 c 192.754 135.685 223.941 
109.154 256.895 85.377 c 256.934 85.349 256.977 85.318 257.016 85.291 c 
258.352 84.373 259.984 84.002 261.691 84.002 c 265.672 84.002 270.043 
86.033 271.957 87.892 c 271.98 87.912 272.004 87.931 272.023 87.955 c 
283.895 99.826 l 290.309 93.408 l 292.805 90.908 296.859 90.912 299.359 
93.408 c 301.859 95.908 301.859 99.962 299.359 102.459 c 282.949 
118.869 l 279.41 122.404 279.41 128.158 282.949 131.697 c 304.828 
153.572 l 308.363 157.111 314.117 157.107 317.652 153.572 c 394.227 
77.002 l 395.926 75.298 396.863 73.021 396.863 70.587 c 396.863 68.154 
395.926 65.877 394.227 64.173 c h
394.227 64.173 m f
Q Q
showpage
%%Trailer
count op_count sub {pop} repeat
countdictstack dict_count sub {end} repeat
cairo_eps_state restore
%%EOF
