%!PS-Adobe-3.0 EPSF-3.0
%%Creator: cairo 1.10.2 (http://cairographics.org)
%%CreationDate: Fri Aug 14 10:45:04 2015
%%Pages: 1
%%BoundingBox: 0 -1 410 353
%%DocumentData: Clean7Bit
%%LanguageLevel: 2
%%EndComments
%%BeginProlog
/cairo_eps_state save def
/dict_count countdictstack def
/op_count count 1 sub def
userdict begin
/q { gsave } bind def
/Q { grestore } bind def
/cm { 6 array astore concat } bind def
/w { setlinewidth } bind def
/J { setlinecap } bind def
/j { setlinejoin } bind def
/M { setmiterlimit } bind def
/d { setdash } bind def
/m { moveto } bind def
/l { lineto } bind def
/c { curveto } bind def
/h { closepath } bind def
/re { exch dup neg 3 1 roll 5 3 roll moveto 0 rlineto
      0 exch rlineto 0 rlineto closepath } bind def
/S { stroke } bind def
/f { fill } bind def
/f* { eofill } bind def
/n { newpath } bind def
/W { clip } bind def
/W* { eoclip } bind def
/BT { } bind def
/ET { } bind def
/pdfmark where { pop globaldict /?pdfmark /exec load put }
    { globaldict begin /?pdfmark /pop load def /pdfmark
    /cleartomark load def end } ifelse
/BDC { mark 3 1 roll /BDC pdfmark } bind def
/EMC { mark /EMC pdfmark } bind def
/cairo_store_point { /cairo_point_y exch def /cairo_point_x exch def } def
/Tj { show currentpoint cairo_store_point } bind def
/TJ {
  {
    dup
    type /stringtype eq
    { show } { -0.001 mul 0 cairo_font_matrix dtransform rmoveto } ifelse
  } forall
  currentpoint cairo_store_point
} bind def
/cairo_selectfont { cairo_font_matrix aload pop pop pop 0 0 6 array astore
    cairo_font exch selectfont cairo_point_x cairo_point_y moveto } bind def
/Tf { pop /cairo_font exch def /cairo_font_matrix where
      { pop cairo_selectfont } if } bind def
/Td { matrix translate cairo_font_matrix matrix concatmatrix dup
      /cairo_font_matrix exch def dup 4 get exch 5 get cairo_store_point
      /cairo_font where { pop cairo_selectfont } if } bind def
/Tm { 2 copy 8 2 roll 6 array astore /cairo_font_matrix exch def
      cairo_store_point /cairo_font where { pop cairo_selectfont } if } bind def
/g { setgray } bind def
/rg { setrgbcolor } bind def
/d1 { setcachedevice } bind def
%%EndProlog
%%Page: 1 1
%%BeginPageSetup
%%PageBoundingBox: 0 -1 410 353
%%EndPageSetup
q 0 -1 410 354 rectclip q
0 352.328 410 -353 re W n
0 g
396.801 280.5 m 396.801 294.402 l 396.793 318.844 377.102 341.105 
352.852 344.035 c 254.613 355.094 154.988 355.094 56.695 344.027 c 32.5 
341.105 12.809 318.844 12.801 294.398 c 12.801 280.5 l 5.352 277.859 0 
270.742 0 262.398 c 0 236.801 l 0 226.215 8.613 217.601 19.199 217.601 
c 108.801 217.601 l 119.387 217.601 128 226.215 128 236.801 c 128 
262.398 l 128 272.988 119.387 281.601 108.801 281.601 c 108.801 293.594 
l 140.578 298.601 172.863 301.14 204.809 301.14 c 236.82 301.14 269.109 
298.605 300.812 293.597 c 300.789 289.398 300.758 285 300.723 281.597 c 
290.172 281.554 281.602 272.961 281.602 262.398 c 281.602 236.801 l 
281.602 226.215 290.211 217.601 300.801 217.601 c 390.398 217.601 l 
400.988 217.601 409.602 226.215 409.602 236.801 c 409.602 262.398 l 
409.602 270.742 404.25 277.859 396.801 280.5 c h
396.801 236.801 m 396.801 233.269 393.93 230.398 390.398 230.398 c 
300.801 230.398 l 297.27 230.398 294.398 233.269 294.398 236.801 c 
294.398 262.398 l 294.398 265.929 297.27 268.801 300.801 268.801 c 
306.969 268.801 l 306.977 268.801 306.984 268.801 306.996 268.801 c 
307.004 268.801 307.012 268.801 307.02 268.801 c 352 268.801 l 355.535 
268.801 358.398 271.664 358.398 275.199 c 358.398 278.734 355.535 
281.601 352 281.601 c 313.523 281.601 l 313.531 282.617 313.543 283.683 
313.551 284.754 c 313.594 289.558 313.621 294.363 313.621 294.363 c 
313.621 294.406 313.621 294.449 313.621 294.492 c 313.562 298.414 
310.199 304.945 305.262 305.847 c 305.219 305.855 305.176 305.863 
305.133 305.871 c 272.023 311.226 238.27 313.941 204.809 313.941 c 
171.348 313.941 137.523 311.215 104.27 305.836 c 104.223 305.828 
104.172 305.816 104.121 305.808 c 98.961 304.847 96.051 297.82 96 
294.476 c 96 294.445 96 294.414 96 294.383 c 96 281.601 l 89.598 
281.601 l 86.066 281.601 83.199 278.734 83.199 275.199 c 83.199 271.664 
86.066 268.801 89.598 268.801 c 108.801 268.801 l 112.328 268.801 
115.199 265.929 115.199 262.398 c 115.199 236.801 l 115.199 233.269 
112.328 230.398 108.801 230.398 c 19.199 230.398 l 15.672 230.398 
12.801 233.269 12.801 236.801 c 12.801 262.398 l 12.801 265.929 15.672 
268.801 19.199 268.801 c 64.004 268.801 l 67.539 268.801 70.402 271.664 
70.402 275.199 c 70.402 278.734 67.539 281.601 64.004 281.601 c 25.602 
281.601 l 25.602 294.398 l 25.605 312.277 40.551 329.183 58.18 331.316 
c 155.469 342.265 254.133 342.265 351.367 331.32 c 369.051 329.183 
383.992 312.277 384 294.398 c 384 281.601 l 377.598 281.601 l 374.062 
281.601 371.199 278.734 371.199 275.199 c 371.199 271.664 374.062 
268.801 377.598 268.801 c 390.398 268.801 l 393.93 268.801 396.801 
265.929 396.801 262.398 c h
396.801 236.801 m f
349.191 176.137 m 340.66 186.219 328.195 192 314.988 192 c 294.398 192 
l 273.227 192 256 209.226 256 230.398 c 256 236.801 l 256 247.387 
247.387 256 236.801 256 c 172.801 256 l 162.211 256 153.602 247.387 
153.602 236.801 c 153.602 230.398 l 153.602 209.226 136.375 192 115.199 
192 c 94.609 192 l 81.406 192 68.941 186.219 60.41 176.137 c 10.602 
117.273 l 3.766 109.195 0 98.918 0 88.332 c 0 44.801 l 0 20.097 20.098 
-0 44.801 -0 c 364.801 -0 l 389.504 -0 409.602 20.097 409.602 44.801 c 
409.602 88.332 l 409.602 98.918 405.836 109.195 399 117.273 c h
396.801 44.801 m 396.801 27.156 382.445 12.801 364.801 12.801 c 44.801 
12.801 l 27.156 12.801 12.801 27.156 12.801 44.801 c 12.801 88.332 l 
12.801 95.894 15.488 103.234 20.371 109.004 c 70.18 167.871 l 76.273 
175.07 85.176 179.199 94.609 179.199 c 115.199 179.199 l 143.434 
179.199 166.398 202.168 166.398 230.402 c 166.398 236.801 l 166.398 
240.328 169.27 243.199 172.801 243.199 c 236.801 243.199 l 240.328 
243.199 243.199 240.328 243.199 236.801 c 243.199 230.402 l 243.199 
202.168 266.168 179.199 294.398 179.199 c 314.992 179.199 l 324.422 
179.199 333.324 175.07 339.418 167.871 c 389.23 109.004 l 394.109 
103.234 396.801 95.894 396.801 88.336 c h
396.801 44.801 m f
204.801 192 m 162.453 192 128 157.547 128 115.199 c 128 72.851 162.453 
38.398 204.801 38.398 c 247.148 38.398 281.602 72.851 281.602 115.199 c 
281.602 157.547 247.148 192 204.801 192 c h
204.801 51.199 m 169.512 51.199 140.801 79.91 140.801 115.199 c 140.801 
150.488 169.512 179.199 204.801 179.199 c 240.09 179.199 268.801 
150.488 268.801 115.199 c 268.801 79.91 240.09 51.199 204.801 51.199 c 
h
204.801 51.199 m f
242.547 140.176 m 239.352 138.66 237.992 134.844 239.508 131.652 c 
241.957 126.492 243.199 120.961 243.199 115.199 c 243.199 94.027 
225.973 76.801 204.801 76.801 c 183.625 76.801 166.398 94.027 166.398 
115.199 c 166.398 136.375 183.625 153.601 204.801 153.601 c 212.699 
153.601 220.285 151.222 226.734 146.722 c 229.633 144.703 233.625 
145.414 235.645 148.312 c 237.668 151.211 236.957 155.199 234.059 
157.222 c 225.449 163.226 215.332 166.398 204.801 166.398 c 176.566 
166.398 153.602 143.433 153.602 115.199 c 153.602 86.969 176.566 64 
204.801 64 c 233.031 64 256 86.969 256 115.199 c 256 122.875 254.344 
130.254 251.07 137.14 c 249.555 140.336 245.738 141.691 242.547 140.176 
c h
242.547 140.176 m f
Q Q
showpage
%%Trailer
count op_count sub {pop} repeat
countdictstack dict_count sub {end} repeat
cairo_eps_state restore
%%EOF
