%!PS-Adobe-3.0 EPSF-3.0
%%Creator: cairo 1.10.2 (http://cairographics.org)
%%CreationDate: Fri Aug 14 10:44:36 2015
%%Pages: 1
%%BoundingBox: 0 -1 295 410
%%DocumentData: Clean7Bit
%%LanguageLevel: 2
%%EndComments
%%BeginProlog
/cairo_eps_state save def
/dict_count countdictstack def
/op_count count 1 sub def
userdict begin
/q { gsave } bind def
/Q { grestore } bind def
/cm { 6 array astore concat } bind def
/w { setlinewidth } bind def
/J { setlinecap } bind def
/j { setlinejoin } bind def
/M { setmiterlimit } bind def
/d { setdash } bind def
/m { moveto } bind def
/l { lineto } bind def
/c { curveto } bind def
/h { closepath } bind def
/re { exch dup neg 3 1 roll 5 3 roll moveto 0 rlineto
      0 exch rlineto 0 rlineto closepath } bind def
/S { stroke } bind def
/f { fill } bind def
/f* { eofill } bind def
/n { newpath } bind def
/W { clip } bind def
/W* { eoclip } bind def
/BT { } bind def
/ET { } bind def
/pdfmark where { pop globaldict /?pdfmark /exec load put }
    { globaldict begin /?pdfmark /pop load def /pdfmark
    /cleartomark load def end } ifelse
/BDC { mark 3 1 roll /BDC pdfmark } bind def
/EMC { mark /EMC pdfmark } bind def
/cairo_store_point { /cairo_point_y exch def /cairo_point_x exch def } def
/Tj { show currentpoint cairo_store_point } bind def
/TJ {
  {
    dup
    type /stringtype eq
    { show } { -0.001 mul 0 cairo_font_matrix dtransform rmoveto } ifelse
  } forall
  currentpoint cairo_store_point
} bind def
/cairo_selectfont { cairo_font_matrix aload pop pop pop 0 0 6 array astore
    cairo_font exch selectfont cairo_point_x cairo_point_y moveto } bind def
/Tf { pop /cairo_font exch def /cairo_font_matrix where
      { pop cairo_selectfont } if } bind def
/Td { matrix translate cairo_font_matrix matrix concatmatrix dup
      /cairo_font_matrix exch def dup 4 get exch 5 get cairo_store_point
      /cairo_font where { pop cairo_selectfont } if } bind def
/Tm { 2 copy 8 2 roll 6 array astore /cairo_font_matrix exch def
      cairo_store_point /cairo_font where { pop cairo_selectfont } if } bind def
/g { setgray } bind def
/rg { setrgbcolor } bind def
/d1 { setcachedevice } bind def
%%EndProlog
%%Page: 1 1
%%BeginPageSetup
%%PageBoundingBox: 0 -1 295 410
%%EndPageSetup
q 0 -1 295 411 rectclip q
0 409.59 295 -410 re W n
0 g
268.801 409.59 m 25.602 409.59 l 11.484 409.59 0 398.106 0 383.989 c 0 
18.153 l 0 10.754 2.945 4.833 8.082 1.903 c 13.223 -1.031 19.82 -0.554 
26.184 3.208 c 133.926 66.872 l 140.996 71.051 153.402 71.051 160.473 
66.872 c 268.215 3.208 l 271.82 1.079 275.504 0.001 278.949 0.001 c 
281.59 0.001 284.09 0.629 286.316 1.899 c 291.453 4.833 294.398 10.754 
294.398 18.149 c 294.398 383.989 l 294.398 398.106 282.914 409.59 
268.801 409.59 c h
281.602 18.153 m 281.602 15.047 280.723 13.446 279.973 13.02 c 279.223 
12.59 277.398 12.653 274.727 14.227 c 166.984 77.895 l 161.438 81.172 
154.32 82.809 147.199 82.809 c 140.082 82.809 132.961 81.172 127.414 
77.895 c 19.672 14.227 l 17.004 12.649 15.18 12.59 14.426 13.02 c 
13.676 13.446 12.801 15.047 12.801 18.153 c 12.801 383.989 l 12.801 
391.047 18.543 396.79 25.602 396.79 c 25.602 383.989 l 25.602 380.458 
28.465 377.59 32 377.59 c 35.535 377.59 38.398 380.458 38.398 383.989 c 
38.398 396.79 l 256 396.79 l 256 383.989 l 256 380.458 258.867 377.59 
262.398 377.59 c 265.934 377.59 268.801 380.458 268.801 383.989 c 
268.801 396.79 l 275.859 396.79 281.602 391.047 281.602 383.989 c h
281.602 18.153 m f
32 364.79 m 28.465 364.79 25.602 361.926 25.602 358.391 c 25.602 345.59 
l 25.602 342.055 28.465 339.192 32 339.192 c 35.535 339.192 38.398 
342.055 38.398 345.59 c 38.398 358.391 l 38.398 361.926 35.535 364.79 
32 364.79 c h
32 364.79 m f
32 326.391 m 28.465 326.391 25.602 323.524 25.602 319.989 c 25.602 
44.79 l 25.602 41.254 28.465 38.391 32 38.391 c 35.535 38.391 38.398 
41.254 38.398 44.79 c 38.398 319.989 l 38.398 323.524 35.535 326.391 32 
326.391 c h
32 326.391 m f
262.398 364.79 m 258.867 364.79 256 361.926 256 358.391 c 256 345.59 l 
256 342.055 258.867 339.192 262.398 339.192 c 265.934 339.192 268.801 
342.055 268.801 345.59 c 268.801 358.391 l 268.801 361.926 265.934 
364.79 262.398 364.79 c h
262.398 364.79 m f
262.398 326.391 m 258.867 326.391 256 323.524 256 319.989 c 256 44.79 l 
256 41.254 258.867 38.391 262.398 38.391 c 265.934 38.391 268.801 
41.254 268.801 44.79 c 268.801 319.989 l 268.801 323.524 265.934 
326.391 262.398 326.391 c h
262.398 326.391 m f
Q Q
showpage
%%Trailer
count op_count sub {pop} repeat
countdictstack dict_count sub {end} repeat
cairo_eps_state restore
%%EOF
