%!PS-Adobe-3.0 EPSF-3.0
%%Creator: cairo 1.10.2 (http://cairographics.org)
%%CreationDate: Fri Aug 14 10:44:27 2015
%%Pages: 1
%%BoundingBox: 0 -1 410 333
%%DocumentData: Clean7Bit
%%LanguageLevel: 2
%%EndComments
%%BeginProlog
/cairo_eps_state save def
/dict_count countdictstack def
/op_count count 1 sub def
userdict begin
/q { gsave } bind def
/Q { grestore } bind def
/cm { 6 array astore concat } bind def
/w { setlinewidth } bind def
/J { setlinecap } bind def
/j { setlinejoin } bind def
/M { setmiterlimit } bind def
/d { setdash } bind def
/m { moveto } bind def
/l { lineto } bind def
/c { curveto } bind def
/h { closepath } bind def
/re { exch dup neg 3 1 roll 5 3 roll moveto 0 rlineto
      0 exch rlineto 0 rlineto closepath } bind def
/S { stroke } bind def
/f { fill } bind def
/f* { eofill } bind def
/n { newpath } bind def
/W { clip } bind def
/W* { eoclip } bind def
/BT { } bind def
/ET { } bind def
/pdfmark where { pop globaldict /?pdfmark /exec load put }
    { globaldict begin /?pdfmark /pop load def /pdfmark
    /cleartomark load def end } ifelse
/BDC { mark 3 1 roll /BDC pdfmark } bind def
/EMC { mark /EMC pdfmark } bind def
/cairo_store_point { /cairo_point_y exch def /cairo_point_x exch def } def
/Tj { show currentpoint cairo_store_point } bind def
/TJ {
  {
    dup
    type /stringtype eq
    { show } { -0.001 mul 0 cairo_font_matrix dtransform rmoveto } ifelse
  } forall
  currentpoint cairo_store_point
} bind def
/cairo_selectfont { cairo_font_matrix aload pop pop pop 0 0 6 array astore
    cairo_font exch selectfont cairo_point_x cairo_point_y moveto } bind def
/Tf { pop /cairo_font exch def /cairo_font_matrix where
      { pop cairo_selectfont } if } bind def
/Td { matrix translate cairo_font_matrix matrix concatmatrix dup
      /cairo_font_matrix exch def dup 4 get exch 5 get cairo_store_point
      /cairo_font where { pop cairo_selectfont } if } bind def
/Tm { 2 copy 8 2 roll 6 array astore /cairo_font_matrix exch def
      cairo_store_point /cairo_font where { pop cairo_selectfont } if } bind def
/g { setgray } bind def
/rg { setrgbcolor } bind def
/d1 { setcachedevice } bind def
%%EndProlog
%%Page: 1 1
%%BeginPageSetup
%%PageBoundingBox: 0 -1 410 333
%%EndPageSetup
q 0 -1 410 334 rectclip q
0 332.692 410 -333 re W n
0 g
401.66 328.52 m 396.609 332.43 389.812 333.669 383.008 331.911 c 23.391 
239.106 l 10.273 235.719 0 222.458 0 208.911 c 0 144.911 l 0 131.364 
10.273 118.102 23.391 114.719 c 108.801 92.676 l 108.801 82.641 l 
108.801 58.735 127.633 34.426 150.781 28.45 c 255.621 1.395 l 259.238 
0.462 262.805 0.001 266.262 0.001 c 274.117 0.001 281.395 2.387 287.398 
7.036 c 296.039 13.731 300.801 24.161 300.801 36.399 c 300.801 43.13 l 
383.008 21.911 l 385.039 21.387 387.066 21.13 389.047 21.13 c 393.711 
21.13 398.117 22.559 401.66 25.301 c 406.707 29.212 409.602 35.485 
409.602 42.512 c 409.602 311.313 l 409.602 318.341 406.707 324.61 
401.66 328.52 c h
288 36.399 m 288 28.208 285 21.372 279.559 17.157 c 274.113 12.938 
266.75 11.743 258.816 13.79 c 153.98 40.844 l 136.43 45.376 121.602 
64.516 121.602 82.641 c 121.602 89.372 l 288 46.43 l h
396.801 42.512 m 396.801 39.43 395.742 36.911 393.82 35.423 c 391.898 
33.93 389.195 33.536 386.207 34.305 c 26.59 127.11 l 19.242 129.009 
12.801 137.325 12.801 144.911 c 12.801 208.911 l 12.801 216.497 19.242 
224.817 26.59 226.712 c 386.207 319.516 l 387.203 319.774 388.172 
319.903 389.086 319.903 c 390.91 319.903 392.539 319.395 393.82 318.403 
c 395.742 316.915 396.801 314.395 396.801 311.313 c h
396.801 42.512 m f
318.398 281.048 m 228.805 257.926 l 225.383 257.044 223.324 253.551 
224.207 250.13 c 224.953 247.243 227.551 245.329 230.402 245.329 c 
230.93 245.329 231.469 245.395 232.004 245.532 c 321.598 268.653 l 
325.02 269.536 327.078 273.028 326.195 276.45 c 325.312 279.872 321.824 
281.93 318.398 281.048 c h
318.398 281.048 m f
363.203 292.61 m 344 287.653 l 340.574 286.77 338.52 283.278 339.402 
279.856 c 340.145 276.969 342.746 275.055 345.594 275.055 c 346.125 
275.055 346.66 275.122 347.195 275.259 c 366.402 280.216 l 369.824 
281.098 371.883 284.591 371 288.012 c 370.117 291.434 366.625 293.493 
363.203 292.61 c h
363.203 292.61 m f
Q Q
showpage
%%Trailer
count op_count sub {pop} repeat
countdictstack dict_count sub {end} repeat
cairo_eps_state restore
%%EOF
