%!PS-Adobe-3.0 EPSF-3.0
%%Creator: cairo 1.10.2 (http://cairographics.org)
%%CreationDate: Fri Aug 14 10:44:24 2015
%%Pages: 1
%%BoundingBox: 0 -1 352 410
%%DocumentData: Clean7Bit
%%LanguageLevel: 2
%%EndComments
%%BeginProlog
/cairo_eps_state save def
/dict_count countdictstack def
/op_count count 1 sub def
userdict begin
/q { gsave } bind def
/Q { grestore } bind def
/cm { 6 array astore concat } bind def
/w { setlinewidth } bind def
/J { setlinecap } bind def
/j { setlinejoin } bind def
/M { setmiterlimit } bind def
/d { setdash } bind def
/m { moveto } bind def
/l { lineto } bind def
/c { curveto } bind def
/h { closepath } bind def
/re { exch dup neg 3 1 roll 5 3 roll moveto 0 rlineto
      0 exch rlineto 0 rlineto closepath } bind def
/S { stroke } bind def
/f { fill } bind def
/f* { eofill } bind def
/n { newpath } bind def
/W { clip } bind def
/W* { eoclip } bind def
/BT { } bind def
/ET { } bind def
/pdfmark where { pop globaldict /?pdfmark /exec load put }
    { globaldict begin /?pdfmark /pop load def /pdfmark
    /cleartomark load def end } ifelse
/BDC { mark 3 1 roll /BDC pdfmark } bind def
/EMC { mark /EMC pdfmark } bind def
/cairo_store_point { /cairo_point_y exch def /cairo_point_x exch def } def
/Tj { show currentpoint cairo_store_point } bind def
/TJ {
  {
    dup
    type /stringtype eq
    { show } { -0.001 mul 0 cairo_font_matrix dtransform rmoveto } ifelse
  } forall
  currentpoint cairo_store_point
} bind def
/cairo_selectfont { cairo_font_matrix aload pop pop pop 0 0 6 array astore
    cairo_font exch selectfont cairo_point_x cairo_point_y moveto } bind def
/Tf { pop /cairo_font exch def /cairo_font_matrix where
      { pop cairo_selectfont } if } bind def
/Td { matrix translate cairo_font_matrix matrix concatmatrix dup
      /cairo_font_matrix exch def dup 4 get exch 5 get cairo_store_point
      /cairo_font where { pop cairo_selectfont } if } bind def
/Tm { 2 copy 8 2 roll 6 array astore /cairo_font_matrix exch def
      cairo_store_point /cairo_font where { pop cairo_selectfont } if } bind def
/g { setgray } bind def
/rg { setrgbcolor } bind def
/d1 { setcachedevice } bind def
%%EndProlog
%%Page: 1 1
%%BeginPageSetup
%%PageBoundingBox: 0 -1 352 410
%%EndPageSetup
q 0 -1 352 411 rectclip q
0 409.6 352 -410 re W n
0 g
236.801 185.596 m 233.266 185.596 230.398 182.733 230.398 179.198 c 
230.398 63.998 l 12.801 63.998 l 12.801 345.6 l 83.199 345.6 l 86.734 
345.6 89.602 348.467 89.602 351.998 c 89.602 355.534 86.734 358.401 
83.199 358.401 c 12.801 358.401 l 12.801 364.799 l 12.801 382.444 
27.156 396.799 44.801 396.799 c 198.398 396.799 l 201.934 396.799 
204.801 399.666 204.801 403.202 c 204.801 406.733 201.934 409.6 198.398 
409.6 c 44.801 409.6 l 20.098 409.6 0 389.502 0 364.799 c 0 44.799 l 0 
20.096 20.098 -0.002 44.801 -0.002 c 198.398 -0.002 l 223.102 -0.002 
243.199 20.096 243.199 44.799 c 243.199 179.198 l 243.199 182.733 
240.336 185.596 236.801 185.596 c h
198.398 12.799 m 44.801 12.799 l 27.156 12.799 12.801 27.155 12.801 
44.799 c 12.801 51.202 l 230.398 51.202 l 230.398 44.799 l 230.398 
27.155 216.043 12.799 198.398 12.799 c h
198.398 12.799 m f
134.398 38.401 m 108.801 38.401 l 105.266 38.401 102.398 35.534 102.398 
31.998 c 102.398 28.467 105.266 25.6 108.801 25.6 c 134.398 25.6 l 
137.934 25.6 140.801 28.467 140.801 31.998 c 140.801 35.534 137.934 
38.401 134.398 38.401 c h
134.398 38.401 m f
78.672 382.127 m 77.48 380.936 76.801 379.28 76.801 377.6 c 76.801 
375.92 77.48 374.264 78.672 373.073 c 79.863 371.881 81.512 371.202 
83.199 371.202 c 84.887 371.202 86.535 371.881 87.727 373.073 c 88.922 
374.264 89.602 375.913 89.602 377.6 c 89.602 379.288 88.922 380.936 
87.727 382.127 c 86.535 383.319 84.887 383.998 83.199 383.998 c 81.512 
383.998 79.863 383.319 78.672 382.127 c h
78.672 382.127 m f
140.801 300.799 m 179.199 300.799 l 182.734 300.799 185.602 303.666 
185.602 307.202 c 185.602 310.733 182.734 313.6 179.199 313.6 c 140.801 
313.6 l 137.266 313.6 134.398 310.733 134.398 307.202 c 134.398 303.666 
137.266 300.799 140.801 300.799 c h
140.801 300.799 m f
307.199 313.6 m 204.801 313.6 l 201.266 313.6 198.398 310.733 198.398 
307.202 c 198.398 303.666 201.266 300.799 204.801 300.799 c 307.199 
300.799 l 310.734 300.799 313.602 303.666 313.602 307.202 c 313.602 
310.733 310.734 313.6 307.199 313.6 c h
307.199 313.6 m f
307.199 281.6 m 268.801 281.6 l 265.266 281.6 262.398 278.733 262.398 
275.202 c 262.398 271.666 265.266 268.799 268.801 268.799 c 307.199 
268.799 l 310.734 268.799 313.602 271.666 313.602 275.202 c 313.602 
278.733 310.734 281.6 307.199 281.6 c h
307.199 281.6 m f
140.801 268.799 m 243.199 268.799 l 246.734 268.799 249.602 271.666 
249.602 275.202 c 249.602 278.733 246.734 281.6 243.199 281.6 c 140.801 
281.6 l 137.266 281.6 134.398 278.733 134.398 275.202 c 134.398 271.666 
137.266 268.799 140.801 268.799 c h
140.801 268.799 m f
307.199 345.6 m 140.801 345.6 l 137.266 345.6 134.398 342.733 134.398 
339.202 c 134.398 335.666 137.266 332.799 140.801 332.799 c 307.199 
332.799 l 310.734 332.799 313.602 335.666 313.602 339.202 c 313.602 
342.733 310.734 345.6 307.199 345.6 c h
307.199 345.6 m f
307.199 249.6 m 140.801 249.6 l 137.266 249.6 134.398 246.733 134.398 
243.202 c 134.398 239.666 137.266 236.799 140.801 236.799 c 307.199 
236.799 l 310.734 236.799 313.602 239.666 313.602 243.202 c 313.602 
246.733 310.734 249.6 307.199 249.6 c h
307.199 249.6 m f
307.199 383.998 m 140.801 383.998 l 116.098 383.998 96 363.901 96 
339.202 c 96 243.202 l 96 220.67 112.719 201.971 134.398 198.858 c 
134.398 175.452 l 134.398 170.256 137.5 165.612 142.301 163.627 c 
143.895 162.967 145.562 162.643 147.215 162.643 c 150.539 162.643 
153.797 163.944 156.25 166.401 c 188.25 198.401 l 307.199 198.401 l 
331.902 198.401 352 218.498 352 243.202 c 352 339.202 l 352 363.901 
331.902 383.998 307.199 383.998 c h
339.199 243.202 m 339.199 225.557 324.844 211.202 307.199 211.202 c 
185.602 211.202 l 183.902 211.202 182.273 210.526 181.074 209.327 c 
147.199 175.455 l 147.199 204.799 l 147.199 208.334 144.336 211.202 
140.801 211.202 c 123.156 211.202 108.801 225.557 108.801 243.202 c 
108.801 339.202 l 108.801 356.846 123.156 371.202 140.801 371.202 c 
307.199 371.202 l 324.844 371.202 339.199 356.846 339.199 339.202 c h
339.199 243.202 m f
Q Q
showpage
%%Trailer
count op_count sub {pop} repeat
countdictstack dict_count sub {end} repeat
cairo_eps_state restore
%%EOF
