%!PS-Adobe-3.0 EPSF-3.0
%%Creator: cairo 1.10.2 (http://cairographics.org)
%%CreationDate: Fri Aug 14 10:45:08 2015
%%Pages: 1
%%BoundingBox: 0 -1 410 410
%%DocumentData: Clean7Bit
%%LanguageLevel: 2
%%EndComments
%%BeginProlog
/cairo_eps_state save def
/dict_count countdictstack def
/op_count count 1 sub def
userdict begin
/q { gsave } bind def
/Q { grestore } bind def
/cm { 6 array astore concat } bind def
/w { setlinewidth } bind def
/J { setlinecap } bind def
/j { setlinejoin } bind def
/M { setmiterlimit } bind def
/d { setdash } bind def
/m { moveto } bind def
/l { lineto } bind def
/c { curveto } bind def
/h { closepath } bind def
/re { exch dup neg 3 1 roll 5 3 roll moveto 0 rlineto
      0 exch rlineto 0 rlineto closepath } bind def
/S { stroke } bind def
/f { fill } bind def
/f* { eofill } bind def
/n { newpath } bind def
/W { clip } bind def
/W* { eoclip } bind def
/BT { } bind def
/ET { } bind def
/pdfmark where { pop globaldict /?pdfmark /exec load put }
    { globaldict begin /?pdfmark /pop load def /pdfmark
    /cleartomark load def end } ifelse
/BDC { mark 3 1 roll /BDC pdfmark } bind def
/EMC { mark /EMC pdfmark } bind def
/cairo_store_point { /cairo_point_y exch def /cairo_point_x exch def } def
/Tj { show currentpoint cairo_store_point } bind def
/TJ {
  {
    dup
    type /stringtype eq
    { show } { -0.001 mul 0 cairo_font_matrix dtransform rmoveto } ifelse
  } forall
  currentpoint cairo_store_point
} bind def
/cairo_selectfont { cairo_font_matrix aload pop pop pop 0 0 6 array astore
    cairo_font exch selectfont cairo_point_x cairo_point_y moveto } bind def
/Tf { pop /cairo_font exch def /cairo_font_matrix where
      { pop cairo_selectfont } if } bind def
/Td { matrix translate cairo_font_matrix matrix concatmatrix dup
      /cairo_font_matrix exch def dup 4 get exch 5 get cairo_store_point
      /cairo_font where { pop cairo_selectfont } if } bind def
/Tm { 2 copy 8 2 roll 6 array astore /cairo_font_matrix exch def
      cairo_store_point /cairo_font where { pop cairo_selectfont } if } bind def
/g { setgray } bind def
/rg { setrgbcolor } bind def
/d1 { setcachedevice } bind def
%%EndProlog
%%Page: 1 1
%%BeginPageSetup
%%PageBoundingBox: 0 -1 410 410
%%EndPageSetup
q 0 -1 410 411 rectclip q
0 409.6 410 -410 re W n
0 g
64 243.202 m 60.465 243.202 57.602 240.334 57.602 236.799 c 57.602 
233.264 60.465 230.401 64 230.401 c 78.117 230.401 89.602 218.916 
89.602 204.799 c 89.602 201.264 92.465 198.401 96 198.401 c 99.535 
198.401 102.398 201.264 102.398 204.799 c 102.398 225.975 85.172 
243.202 64 243.202 c h
64 243.202 m f
345.602 371.202 m 359.715 371.202 371.199 359.717 371.199 345.6 c 
371.199 342.065 374.066 339.202 377.602 339.202 c 381.133 339.202 384 
342.065 384 345.6 c 384 366.772 366.773 383.998 345.602 383.998 c 
342.066 383.998 339.199 381.135 339.199 377.6 c 339.199 374.065 342.066 
371.202 345.602 371.202 c h
345.602 371.202 m f
345.602 102.401 m 342.066 102.401 339.199 99.534 339.199 95.998 c 
339.199 92.467 342.066 89.6 345.602 89.6 c 359.715 89.6 371.199 78.116 
371.199 63.998 c 371.199 60.467 374.066 57.6 377.602 57.6 c 381.133 
57.6 384 60.467 384 63.998 c 384 85.174 366.773 102.401 345.602 102.401 
c h
345.602 102.401 m f
345.602 127.998 m 322.875 127.998 302.895 116.088 291.535 98.186 c 
123.809 182.053 l 126.508 189.123 128 196.791 128 204.799 c 128 212.811 
126.508 220.475 123.809 227.549 c 291.535 311.413 l 302.895 293.514 
322.875 281.6 345.602 281.6 c 380.891 281.6 409.602 310.311 409.602 
345.6 c 409.602 380.889 380.891 409.6 345.602 409.6 c 310.309 409.6 
281.602 380.889 281.602 345.6 c 281.602 337.588 283.094 329.924 285.793 
322.85 c 118.062 238.987 l 106.703 256.885 86.723 268.799 64 268.799 c 
28.711 268.799 0 240.088 0 204.799 c 0 169.51 28.711 140.799 64 140.799 
c 86.723 140.799 106.703 152.713 118.062 170.612 c 285.793 86.748 l 
283.094 79.674 281.602 72.01 281.602 63.998 c 281.602 28.709 310.309 
-0.002 345.602 -0.002 c 380.891 -0.002 409.602 28.709 409.602 63.998 c 
409.602 99.291 380.891 127.998 345.602 127.998 c h
345.602 396.799 m 373.832 396.799 396.801 373.83 396.801 345.6 c 
396.801 317.37 373.832 294.401 345.602 294.401 c 326.289 294.401 
309.441 305.151 300.723 320.979 c 300.625 321.62 300.43 322.252 300.125 
322.862 c 299.82 323.471 299.434 324.006 298.984 324.467 c 296.047 
330.913 294.398 338.065 294.398 345.6 c 294.398 373.83 317.367 396.799 
345.602 396.799 c h
64 153.6 m 35.77 153.6 12.801 176.569 12.801 204.799 c 12.801 233.034 
35.77 255.998 64 255.998 c 83.312 255.998 100.156 245.248 108.875 
229.42 c 108.977 228.78 109.172 228.147 109.477 227.538 c 109.777 
226.936 110.164 226.409 110.609 225.948 c 113.547 219.498 115.199 
212.338 115.199 204.799 c 115.199 197.264 113.551 190.112 110.617 
183.666 c 110.168 183.205 109.777 182.67 109.477 182.061 c 109.172 
181.455 108.977 180.819 108.875 180.182 c 100.156 164.35 83.312 153.6 
64 153.6 c h
345.602 12.799 m 317.367 12.799 294.398 35.768 294.398 63.998 c 294.398 
71.541 296.051 78.698 298.992 85.151 c 299.438 85.608 299.824 86.135 
300.125 86.737 c 300.43 87.346 300.625 87.983 300.723 88.62 c 309.441 
104.448 326.289 115.202 345.602 115.202 c 373.832 115.202 396.801 
92.233 396.801 63.998 c 396.801 35.768 373.832 12.799 345.602 12.799 c 
h
345.602 12.799 m f
Q Q
showpage
%%Trailer
count op_count sub {pop} repeat
countdictstack dict_count sub {end} repeat
cairo_eps_state restore
%%EOF
