%!PS-Adobe-3.0 EPSF-3.0
%%Creator: cairo 1.10.2 (http://cairographics.org)
%%CreationDate: Fri Aug 14 10:44:27 2015
%%Pages: 1
%%BoundingBox: 0 -1 269 410
%%DocumentData: Clean7Bit
%%LanguageLevel: 2
%%EndComments
%%BeginProlog
/cairo_eps_state save def
/dict_count countdictstack def
/op_count count 1 sub def
userdict begin
/q { gsave } bind def
/Q { grestore } bind def
/cm { 6 array astore concat } bind def
/w { setlinewidth } bind def
/J { setlinecap } bind def
/j { setlinejoin } bind def
/M { setmiterlimit } bind def
/d { setdash } bind def
/m { moveto } bind def
/l { lineto } bind def
/c { curveto } bind def
/h { closepath } bind def
/re { exch dup neg 3 1 roll 5 3 roll moveto 0 rlineto
      0 exch rlineto 0 rlineto closepath } bind def
/S { stroke } bind def
/f { fill } bind def
/f* { eofill } bind def
/n { newpath } bind def
/W { clip } bind def
/W* { eoclip } bind def
/BT { } bind def
/ET { } bind def
/pdfmark where { pop globaldict /?pdfmark /exec load put }
    { globaldict begin /?pdfmark /pop load def /pdfmark
    /cleartomark load def end } ifelse
/BDC { mark 3 1 roll /BDC pdfmark } bind def
/EMC { mark /EMC pdfmark } bind def
/cairo_store_point { /cairo_point_y exch def /cairo_point_x exch def } def
/Tj { show currentpoint cairo_store_point } bind def
/TJ {
  {
    dup
    type /stringtype eq
    { show } { -0.001 mul 0 cairo_font_matrix dtransform rmoveto } ifelse
  } forall
  currentpoint cairo_store_point
} bind def
/cairo_selectfont { cairo_font_matrix aload pop pop pop 0 0 6 array astore
    cairo_font exch selectfont cairo_point_x cairo_point_y moveto } bind def
/Tf { pop /cairo_font exch def /cairo_font_matrix where
      { pop cairo_selectfont } if } bind def
/Td { matrix translate cairo_font_matrix matrix concatmatrix dup
      /cairo_font_matrix exch def dup 4 get exch 5 get cairo_store_point
      /cairo_font where { pop cairo_selectfont } if } bind def
/Tm { 2 copy 8 2 roll 6 array astore /cairo_font_matrix exch def
      cairo_store_point /cairo_font where { pop cairo_selectfont } if } bind def
/g { setgray } bind def
/rg { setrgbcolor } bind def
/d1 { setcachedevice } bind def
%%EndProlog
%%Page: 1 1
%%BeginPageSetup
%%PageBoundingBox: 0 -1 269 410
%%EndPageSetup
q 0 -1 269 411 rectclip q
0 409.6 269 -410 re W n
0 g
266.25 299.522 m 269.18 303.424 269.645 308.561 267.461 312.924 c 
265.277 317.288 260.891 319.998 256.012 319.998 c 64.012 319.998 l 
64.012 334.995 l 64.012 340.123 66.008 344.948 69.637 348.573 c 87.738 
366.674 l 88.012 366.948 88.25 367.245 88.465 367.553 c 91.656 365.799 
95.32 364.799 99.211 364.799 c 111.562 364.799 121.613 374.85 121.613 
387.202 c 121.613 399.553 111.562 409.6 99.211 409.6 c 86.859 409.6 
76.812 399.553 76.812 387.202 c 76.812 383.307 77.812 379.647 79.566 
376.452 c 79.258 376.237 78.961 375.998 78.688 375.725 c 60.586 357.623 
l 54.539 351.58 51.211 343.545 51.211 334.995 c 51.211 319.998 l 12.812 
319.998 l 7.934 319.998 3.547 317.288 1.363 312.924 c -0.82 308.561 
-0.355 303.424 2.57 299.522 c 51.211 234.666 l 51.211 38.401 l 44.812 
38.401 l 34.227 38.401 25.613 29.788 25.613 19.202 c 25.613 6.401 l 
25.613 2.866 28.477 -0.002 32.012 -0.002 c 236.812 -0.002 l 240.348 
-0.002 243.211 2.866 243.211 6.401 c 243.211 19.202 l 243.211 29.788 
234.598 38.401 224.012 38.401 c 217.613 38.401 l 217.613 234.666 l h
99.211 396.799 m 104.504 396.799 108.812 392.495 108.812 387.202 c 
108.812 381.905 104.504 377.6 99.211 377.6 c 93.918 377.6 89.613 
381.905 89.613 387.202 c 89.613 392.495 93.918 396.799 99.211 396.799 c 
h
198.41 38.401 m 194.879 38.401 192.012 35.534 192.012 31.998 c 192.012 
28.467 194.879 25.6 198.41 25.6 c 224.012 25.6 l 227.539 25.6 230.41 
22.729 230.41 19.202 c 230.41 12.799 l 38.41 12.799 l 38.41 19.202 l 
38.41 22.729 41.281 25.6 44.812 25.6 c 172.812 25.6 l 176.344 25.6 
179.211 28.467 179.211 31.998 c 179.211 35.534 176.344 38.401 172.812 
38.401 c 64.012 38.401 l 64.012 268.799 l 172.812 268.799 l 176.348 
268.799 179.211 271.666 179.211 275.202 c 179.211 278.733 176.348 281.6 
172.812 281.6 c 57.613 281.6 l 54.078 281.6 51.211 278.733 51.211 
275.202 c 51.211 255.998 l 12.812 307.202 l 256.012 307.202 l 217.613 
255.998 l 217.613 275.202 l 217.613 278.733 214.746 281.6 211.211 281.6 
c 198.406 281.6 l 194.875 281.6 192.008 278.733 192.008 275.202 c 
192.008 271.666 194.875 268.799 198.406 268.799 c 204.812 268.799 l 
204.812 38.401 l h
198.41 38.401 m f
Q Q
showpage
%%Trailer
count op_count sub {pop} repeat
countdictstack dict_count sub {end} repeat
cairo_eps_state restore
%%EOF
