%!PS-Adobe-3.0 EPSF-3.0
%%Creator: cairo 1.10.2 (http://cairographics.org)
%%CreationDate: Fri Aug 14 10:44:37 2015
%%Pages: 1
%%BoundingBox: 0 -1 410 324
%%DocumentData: Clean7Bit
%%LanguageLevel: 2
%%EndComments
%%BeginProlog
/cairo_eps_state save def
/dict_count countdictstack def
/op_count count 1 sub def
userdict begin
/q { gsave } bind def
/Q { grestore } bind def
/cm { 6 array astore concat } bind def
/w { setlinewidth } bind def
/J { setlinecap } bind def
/j { setlinejoin } bind def
/M { setmiterlimit } bind def
/d { setdash } bind def
/m { moveto } bind def
/l { lineto } bind def
/c { curveto } bind def
/h { closepath } bind def
/re { exch dup neg 3 1 roll 5 3 roll moveto 0 rlineto
      0 exch rlineto 0 rlineto closepath } bind def
/S { stroke } bind def
/f { fill } bind def
/f* { eofill } bind def
/n { newpath } bind def
/W { clip } bind def
/W* { eoclip } bind def
/BT { } bind def
/ET { } bind def
/pdfmark where { pop globaldict /?pdfmark /exec load put }
    { globaldict begin /?pdfmark /pop load def /pdfmark
    /cleartomark load def end } ifelse
/BDC { mark 3 1 roll /BDC pdfmark } bind def
/EMC { mark /EMC pdfmark } bind def
/cairo_store_point { /cairo_point_y exch def /cairo_point_x exch def } def
/Tj { show currentpoint cairo_store_point } bind def
/TJ {
  {
    dup
    type /stringtype eq
    { show } { -0.001 mul 0 cairo_font_matrix dtransform rmoveto } ifelse
  } forall
  currentpoint cairo_store_point
} bind def
/cairo_selectfont { cairo_font_matrix aload pop pop pop 0 0 6 array astore
    cairo_font exch selectfont cairo_point_x cairo_point_y moveto } bind def
/Tf { pop /cairo_font exch def /cairo_font_matrix where
      { pop cairo_selectfont } if } bind def
/Td { matrix translate cairo_font_matrix matrix concatmatrix dup
      /cairo_font_matrix exch def dup 4 get exch 5 get cairo_store_point
      /cairo_font where { pop cairo_selectfont } if } bind def
/Tm { 2 copy 8 2 roll 6 array astore /cairo_font_matrix exch def
      cairo_store_point /cairo_font where { pop cairo_selectfont } if } bind def
/g { setgray } bind def
/rg { setrgbcolor } bind def
/d1 { setcachedevice } bind def
%%EndProlog
%%Page: 1 1
%%BeginPageSetup
%%PageBoundingBox: 0 -1 410 324
%%EndPageSetup
q 0 -1 410 325 rectclip q
0 323.755 410 -324 re W n
0 g
352 195.755 m 313.602 195.755 l 310.066 195.755 307.199 192.888 307.199 
189.357 c 307.199 185.822 310.066 182.954 313.602 182.954 c 352 182.954 
l 355.535 182.954 358.398 185.822 358.398 189.357 c 358.398 192.888 
355.535 195.755 352 195.755 c h
352 195.755 m f
57.602 182.954 m 288 182.954 l 291.535 182.954 294.398 185.822 294.398 
189.357 c 294.398 192.888 291.535 195.755 288 195.755 c 57.602 195.755 
l 54.066 195.755 51.199 192.888 51.199 189.357 c 51.199 185.822 54.066 
182.954 57.602 182.954 c h
57.602 182.954 m f
352 234.154 m 224 234.154 l 220.465 234.154 217.602 231.29 217.602 
227.755 c 217.602 224.22 220.465 221.357 224 221.357 c 352 221.357 l 
355.535 221.357 358.398 224.22 358.398 227.755 c 358.398 231.29 355.535 
234.154 352 234.154 c h
352 234.154 m f
57.602 221.357 m 198.398 221.357 l 201.934 221.357 204.801 224.22 
204.801 227.755 c 204.801 231.29 201.934 234.154 198.398 234.154 c 
57.602 234.154 l 54.066 234.154 51.199 231.29 51.199 227.755 c 51.199 
224.22 54.066 221.357 57.602 221.357 c h
57.602 221.357 m f
352 157.357 m 115.199 157.357 l 111.664 157.357 108.801 154.49 108.801 
150.954 c 108.801 147.419 111.664 144.556 115.199 144.556 c 352 144.556 
l 355.535 144.556 358.398 147.419 358.398 150.954 c 358.398 154.49 
355.535 157.357 352 157.357 c h
352 157.357 m f
57.602 144.556 m 89.602 144.556 l 93.133 144.556 96 147.419 96 150.954 
c 96 154.49 93.133 157.357 89.602 157.357 c 57.602 157.357 l 54.066 
157.357 51.199 154.49 51.199 150.954 c 51.199 147.419 54.066 144.556 
57.602 144.556 c h
57.602 144.556 m f
352 118.954 m 57.602 118.954 l 54.066 118.954 51.199 116.091 51.199 
112.556 c 51.199 109.021 54.066 106.154 57.602 106.154 c 352 106.154 l 
355.535 106.154 358.398 109.021 358.398 112.556 c 358.398 116.091 
355.535 118.954 352 118.954 c h
352 118.954 m f
352 272.556 m 57.602 272.556 l 54.066 272.556 51.199 269.689 51.199 
266.154 c 51.199 262.622 54.066 259.755 57.602 259.755 c 352 259.755 l 
355.535 259.755 358.398 262.622 358.398 266.154 c 358.398 269.689 
355.535 272.556 352 272.556 c h
352 272.556 m f
364.801 323.755 m 44.801 323.755 l 20.098 323.755 0 303.658 0 278.954 c 
0 99.755 l 0 77.224 16.719 58.525 38.398 55.411 c 38.398 12.806 l 
38.398 7.611 41.5 2.97 46.301 0.982 c 47.895 0.322 49.562 0.001 51.215 
0.001 c 54.539 0.001 57.797 1.302 60.25 3.755 c 111.453 54.954 l 
364.801 54.954 l 389.504 54.954 409.602 75.052 409.602 99.755 c 409.602 
278.954 l 409.602 303.658 389.504 323.755 364.801 323.755 c h
396.801 99.755 m 396.801 82.111 382.445 67.755 364.801 67.755 c 108.801 
67.755 l 107.102 67.755 105.473 67.079 104.273 65.88 c 51.199 12.81 l 
51.199 61.357 l 51.199 64.888 48.336 67.755 44.801 67.755 c 27.156 
67.755 12.801 82.111 12.801 99.755 c 12.801 278.954 l 12.801 296.599 
27.156 310.954 44.801 310.954 c 364.801 310.954 l 382.445 310.954 
396.801 296.599 396.801 278.954 c h
396.801 99.755 m f
Q Q
showpage
%%Trailer
count op_count sub {pop} repeat
countdictstack dict_count sub {end} repeat
cairo_eps_state restore
%%EOF
