%!PS-Adobe-3.0 EPSF-3.0
%%Creator: cairo 1.10.2 (http://cairographics.org)
%%CreationDate: Fri Aug 14 10:44:26 2015
%%Pages: 1
%%BoundingBox: 0 -1 410 410
%%DocumentData: Clean7Bit
%%LanguageLevel: 2
%%EndComments
%%BeginProlog
/cairo_eps_state save def
/dict_count countdictstack def
/op_count count 1 sub def
userdict begin
/q { gsave } bind def
/Q { grestore } bind def
/cm { 6 array astore concat } bind def
/w { setlinewidth } bind def
/J { setlinecap } bind def
/j { setlinejoin } bind def
/M { setmiterlimit } bind def
/d { setdash } bind def
/m { moveto } bind def
/l { lineto } bind def
/c { curveto } bind def
/h { closepath } bind def
/re { exch dup neg 3 1 roll 5 3 roll moveto 0 rlineto
      0 exch rlineto 0 rlineto closepath } bind def
/S { stroke } bind def
/f { fill } bind def
/f* { eofill } bind def
/n { newpath } bind def
/W { clip } bind def
/W* { eoclip } bind def
/BT { } bind def
/ET { } bind def
/pdfmark where { pop globaldict /?pdfmark /exec load put }
    { globaldict begin /?pdfmark /pop load def /pdfmark
    /cleartomark load def end } ifelse
/BDC { mark 3 1 roll /BDC pdfmark } bind def
/EMC { mark /EMC pdfmark } bind def
/cairo_store_point { /cairo_point_y exch def /cairo_point_x exch def } def
/Tj { show currentpoint cairo_store_point } bind def
/TJ {
  {
    dup
    type /stringtype eq
    { show } { -0.001 mul 0 cairo_font_matrix dtransform rmoveto } ifelse
  } forall
  currentpoint cairo_store_point
} bind def
/cairo_selectfont { cairo_font_matrix aload pop pop pop 0 0 6 array astore
    cairo_font exch selectfont cairo_point_x cairo_point_y moveto } bind def
/Tf { pop /cairo_font exch def /cairo_font_matrix where
      { pop cairo_selectfont } if } bind def
/Td { matrix translate cairo_font_matrix matrix concatmatrix dup
      /cairo_font_matrix exch def dup 4 get exch 5 get cairo_store_point
      /cairo_font where { pop cairo_selectfont } if } bind def
/Tm { 2 copy 8 2 roll 6 array astore /cairo_font_matrix exch def
      cairo_store_point /cairo_font where { pop cairo_selectfont } if } bind def
/g { setgray } bind def
/rg { setrgbcolor } bind def
/d1 { setcachedevice } bind def
%%EndProlog
%%Page: 1 1
%%BeginPageSetup
%%PageBoundingBox: 0 -1 410 410
%%EndPageSetup
q 0 -1 410 411 rectclip q
0 409.626 410 -410 re W n
0 g
409.629 320.087 m 409.629 344.005 400.312 366.49 383.402 383.4 c 
366.488 400.314 344.004 409.626 320.086 409.626 c 296.172 409.626 
273.684 400.314 256.773 383.4 c 232.621 359.247 215.836 325.275 212.016 
293.369 c 211.789 293.185 211.574 292.99 211.375 292.771 c 6.812 71.165 
l -2.539 61.037 -2.227 45.466 7.52 35.716 c 35.719 7.521 l 40.723 2.517 
47.262 0.001 53.809 0.001 c 60.016 0.001 66.234 2.263 71.164 6.814 c 
292.773 211.372 l 293.066 211.646 293.328 211.943 293.566 212.259 c 
325.254 216.216 359.855 233.228 383.402 256.775 c 400.312 273.685 
409.629 296.169 409.629 320.087 c h
374.352 374.349 m 388.844 359.857 396.828 340.583 396.828 320.087 c 
396.828 301.736 390.426 284.372 378.688 270.537 c 365.312 283.912 l 
362.812 286.412 358.762 286.412 356.262 283.912 c 353.762 281.412 
353.762 277.361 356.262 274.861 c 369.707 261.415 l 347.504 241.333 
316.723 227.259 288.938 224.622 c 224.438 289.122 l 227.055 316.689 
241.199 347.4 261.414 369.708 c 338.172 292.951 l 339.422 291.701 
341.062 291.076 342.699 291.076 c 344.336 291.076 345.977 291.701 
347.223 292.951 c 349.723 295.451 349.723 299.501 347.223 302.001 c 
270.539 378.685 l 284.375 390.427 301.738 396.826 320.086 396.826 c 
340.586 396.826 359.855 388.845 374.352 374.349 c h
62.48 16.216 m 57.418 11.544 49.641 11.701 44.77 16.572 c 16.57 44.767 
l 11.699 49.638 11.547 57.419 16.219 62.482 c 216.262 279.197 l 279.195 
216.263 l h
62.48 16.216 m f
197.984 225.122 m 194.359 221.497 192.363 216.681 192.363 211.556 c 
192.363 208.642 193.008 205.83 194.23 203.279 c 175.375 184.423 l 
172.875 181.923 172.875 177.872 175.375 175.372 c 176.625 174.122 
178.262 173.497 179.898 173.497 c 181.539 173.497 183.176 174.122 
184.426 175.372 c 203.305 194.251 l 205.906 193.013 208.727 192.372 
211.555 192.372 c 216.469 192.372 221.383 194.244 225.125 197.986 c 
232.605 205.466 232.605 217.642 225.125 225.122 c 221.5 228.747 216.68 
230.744 211.555 230.744 c 206.43 230.744 201.609 228.747 197.984 
225.122 c h
216.074 207.037 m 213.582 204.544 209.527 204.544 207.035 207.037 c 
205.828 208.244 205.164 209.849 205.164 211.556 c 205.164 213.259 
205.828 214.865 207.035 216.072 c 208.242 217.279 209.848 217.947 
211.555 217.947 c 213.262 217.947 214.867 217.279 216.074 216.072 c 
218.566 213.583 218.566 209.529 216.074 207.037 c h
216.074 207.037 m f
Q Q
showpage
%%Trailer
count op_count sub {pop} repeat
countdictstack dict_count sub {end} repeat
cairo_eps_state restore
%%EOF
