%!PS-Adobe-3.0 EPSF-3.0
%%Creator: cairo 1.10.2 (http://cairographics.org)
%%CreationDate: Fri Aug 14 10:45:04 2015
%%Pages: 1
%%BoundingBox: 0 -1 397 372
%%DocumentData: Clean7Bit
%%LanguageLevel: 2
%%EndComments
%%BeginProlog
/cairo_eps_state save def
/dict_count countdictstack def
/op_count count 1 sub def
userdict begin
/q { gsave } bind def
/Q { grestore } bind def
/cm { 6 array astore concat } bind def
/w { setlinewidth } bind def
/J { setlinecap } bind def
/j { setlinejoin } bind def
/M { setmiterlimit } bind def
/d { setdash } bind def
/m { moveto } bind def
/l { lineto } bind def
/c { curveto } bind def
/h { closepath } bind def
/re { exch dup neg 3 1 roll 5 3 roll moveto 0 rlineto
      0 exch rlineto 0 rlineto closepath } bind def
/S { stroke } bind def
/f { fill } bind def
/f* { eofill } bind def
/n { newpath } bind def
/W { clip } bind def
/W* { eoclip } bind def
/BT { } bind def
/ET { } bind def
/pdfmark where { pop globaldict /?pdfmark /exec load put }
    { globaldict begin /?pdfmark /pop load def /pdfmark
    /cleartomark load def end } ifelse
/BDC { mark 3 1 roll /BDC pdfmark } bind def
/EMC { mark /EMC pdfmark } bind def
/cairo_store_point { /cairo_point_y exch def /cairo_point_x exch def } def
/Tj { show currentpoint cairo_store_point } bind def
/TJ {
  {
    dup
    type /stringtype eq
    { show } { -0.001 mul 0 cairo_font_matrix dtransform rmoveto } ifelse
  } forall
  currentpoint cairo_store_point
} bind def
/cairo_selectfont { cairo_font_matrix aload pop pop pop 0 0 6 array astore
    cairo_font exch selectfont cairo_point_x cairo_point_y moveto } bind def
/Tf { pop /cairo_font exch def /cairo_font_matrix where
      { pop cairo_selectfont } if } bind def
/Td { matrix translate cairo_font_matrix matrix concatmatrix dup
      /cairo_font_matrix exch def dup 4 get exch 5 get cairo_store_point
      /cairo_font where { pop cairo_selectfont } if } bind def
/Tm { 2 copy 8 2 roll 6 array astore /cairo_font_matrix exch def
      cairo_store_point /cairo_font where { pop cairo_selectfont } if } bind def
/g { setgray } bind def
/rg { setrgbcolor } bind def
/d1 { setcachedevice } bind def
%%EndProlog
%%Page: 1 1
%%BeginPageSetup
%%PageBoundingBox: 0 -1 397 372
%%EndPageSetup
q 0 -1 397 373 rectclip q
0 371.2 397 -372 re W n
0 g
204.801 256.001 m 192 256.001 l 177.883 256.001 166.398 244.516 166.398 
230.399 c 166.398 64.005 l 166.398 60.47 169.266 57.602 172.801 57.602 
c 176.336 57.602 179.199 60.47 179.199 64.005 c 179.199 230.399 l 
179.199 237.458 184.941 243.2 192 243.2 c 204.801 243.2 l 211.859 243.2 
217.602 237.458 217.602 230.399 c 217.602 217.598 l 217.602 214.063 
220.465 211.2 224 211.2 c 227.535 211.2 230.398 214.063 230.398 217.598 
c 230.398 230.399 l 230.398 244.516 218.914 256.001 204.801 256.001 c h
204.801 256.001 m f
224 198.399 m 220.465 198.399 217.602 195.532 217.602 191.997 c 217.602 
25.598 l 217.602 18.544 211.859 12.802 204.801 12.802 c 192 12.802 l 
184.941 12.802 179.199 18.544 179.199 25.598 c 179.199 38.403 l 179.199 
41.934 176.336 44.802 172.801 44.802 c 169.266 44.802 166.398 41.934 
166.398 38.403 c 166.398 25.598 l 166.398 11.485 177.883 0.001 192 
0.001 c 204.801 0.001 l 218.914 0.001 230.398 11.485 230.398 25.598 c 
230.398 191.997 l 230.398 195.532 227.535 198.399 224 198.399 c h
224 198.399 m f
390.398 313.602 m 386.867 313.602 384 310.735 384 307.2 c 384 25.598 l 
384 18.544 378.258 12.802 371.199 12.802 c 358.398 12.802 l 351.344 
12.802 345.602 18.544 345.602 25.598 c 345.602 38.399 l 345.602 41.93 
342.734 44.798 339.199 44.798 c 335.664 44.798 332.801 41.93 332.801 
38.399 c 332.801 25.598 l 332.801 11.485 344.285 0.001 358.398 0.001 c 
371.199 0.001 l 385.316 0.001 396.801 11.485 396.801 25.598 c 396.801 
307.2 l 396.801 310.735 393.934 313.602 390.398 313.602 c h
390.398 313.602 m f
371.199 371.2 m 358.398 371.2 l 344.285 371.2 332.801 359.716 332.801 
345.598 c 332.801 64.001 l 332.801 60.466 335.664 57.598 339.199 57.598 
c 342.734 57.598 345.602 60.466 345.602 64.001 c 345.602 345.598 l 
345.602 352.657 351.344 358.399 358.398 358.399 c 371.199 358.399 l 
378.258 358.399 384 352.657 384 345.598 c 384 332.802 l 384 329.266 
386.867 326.403 390.398 326.403 c 393.934 326.403 396.801 329.266 
396.801 332.802 c 396.801 345.598 l 396.801 359.716 385.316 371.2 
371.199 371.2 c h
371.199 371.2 m f
307.199 256.005 m 303.664 256.005 300.801 253.138 300.801 249.602 c 
300.801 25.598 l 300.801 18.544 295.059 12.802 288 12.802 c 275.199 
12.802 l 268.141 12.802 262.398 18.544 262.398 25.598 c 262.398 38.399 
l 262.398 41.934 259.535 44.802 256 44.802 c 252.465 44.802 249.602 
41.934 249.602 38.399 c 249.602 25.598 l 249.602 11.485 261.086 0.001 
275.199 0.001 c 288 0.001 l 302.117 0.001 313.602 11.485 313.602 25.598 
c 313.602 249.602 l 313.602 253.138 310.734 256.005 307.199 256.005 c h
307.199 256.005 m f
288 313.598 m 275.199 313.598 l 261.086 313.598 249.602 302.114 249.602 
288.001 c 249.602 63.997 l 249.602 60.462 252.465 57.598 256 57.598 c 
259.535 57.598 262.398 60.462 262.398 63.997 c 262.398 288.001 l 
262.398 295.059 268.141 300.802 275.199 300.802 c 288 300.802 l 295.059 
300.802 300.801 295.059 300.801 288.001 c 300.801 275.2 l 300.801 
271.665 303.664 268.802 307.199 268.802 c 310.734 268.802 313.602 
271.665 313.602 275.2 c 313.602 288.001 l 313.602 302.114 302.117 
313.598 288 313.598 c h
288 313.598 m f
38.398 140.802 m 25.602 140.802 l 11.484 140.802 0 129.317 0 115.2 c 0 
64.001 l 0 60.466 2.867 57.602 6.398 57.602 c 9.934 57.602 12.801 
60.466 12.801 64.001 c 12.801 115.2 l 12.801 122.259 18.543 128.001 
25.602 128.001 c 38.398 128.001 l 45.457 128.001 51.199 122.259 51.199 
115.2 c 51.199 102.399 l 51.199 98.864 54.066 95.997 57.602 95.997 c 
61.133 95.997 64 98.864 64 102.399 c 64 115.2 l 64 129.317 52.516 
140.802 38.398 140.802 c h
38.398 140.802 m f
57.602 83.2 m 54.066 83.2 51.199 80.333 51.199 76.798 c 51.199 25.598 l 
51.199 18.544 45.457 12.802 38.398 12.802 c 25.602 12.802 l 18.543 
12.802 12.801 18.544 12.801 25.598 c 12.801 38.403 l 12.801 41.934 
9.934 44.802 6.398 44.802 c 2.867 44.802 0 41.934 0 38.403 c 0 25.598 l 
0 11.485 11.484 0.001 25.602 0.001 c 38.398 0.001 l 52.516 0.001 64 
11.485 64 25.598 c 64 76.798 l 64 80.333 61.133 83.2 57.602 83.2 c h
57.602 83.2 m f
121.602 198.399 m 108.801 198.399 l 94.684 198.399 83.199 186.915 
83.199 172.802 c 83.199 64.001 l 83.199 60.466 86.066 57.598 89.602 
57.598 c 93.133 57.598 96 60.466 96 64.001 c 96 172.802 l 96 179.856 
101.742 185.598 108.801 185.598 c 121.602 185.598 l 128.656 185.598 
134.398 179.856 134.398 172.802 c 134.398 160.001 l 134.398 156.47 
137.266 153.602 140.801 153.602 c 144.336 153.602 147.199 156.47 
147.199 160.001 c 147.199 172.802 l 147.199 186.915 135.715 198.399 
121.602 198.399 c h
121.602 198.399 m f
140.801 140.802 m 137.266 140.802 134.398 137.934 134.398 134.399 c 
134.398 25.598 l 134.398 18.544 128.656 12.802 121.602 12.802 c 108.801 
12.802 l 101.742 12.802 96 18.544 96 25.598 c 96 38.399 l 96 41.93 
93.133 44.798 89.602 44.798 c 86.066 44.798 83.199 41.93 83.199 38.399 
c 83.199 25.598 l 83.199 11.485 94.684 0.001 108.801 0.001 c 121.602 
0.001 l 135.715 0.001 147.199 11.485 147.199 25.598 c 147.199 134.399 l 
147.199 137.934 144.336 140.802 140.801 140.802 c h
140.801 140.802 m f
Q Q
showpage
%%Trailer
count op_count sub {pop} repeat
countdictstack dict_count sub {end} repeat
cairo_eps_state restore
%%EOF
