%!PS-Adobe-3.0 EPSF-3.0
%%Creator: cairo 1.10.2 (http://cairographics.org)
%%CreationDate: Fri Aug 14 10:44:40 2015
%%Pages: 1
%%BoundingBox: 0 -1 256 406
%%DocumentData: Clean7Bit
%%LanguageLevel: 2
%%EndComments
%%BeginProlog
/cairo_eps_state save def
/dict_count countdictstack def
/op_count count 1 sub def
userdict begin
/q { gsave } bind def
/Q { grestore } bind def
/cm { 6 array astore concat } bind def
/w { setlinewidth } bind def
/J { setlinecap } bind def
/j { setlinejoin } bind def
/M { setmiterlimit } bind def
/d { setdash } bind def
/m { moveto } bind def
/l { lineto } bind def
/c { curveto } bind def
/h { closepath } bind def
/re { exch dup neg 3 1 roll 5 3 roll moveto 0 rlineto
      0 exch rlineto 0 rlineto closepath } bind def
/S { stroke } bind def
/f { fill } bind def
/f* { eofill } bind def
/n { newpath } bind def
/W { clip } bind def
/W* { eoclip } bind def
/BT { } bind def
/ET { } bind def
/pdfmark where { pop globaldict /?pdfmark /exec load put }
    { globaldict begin /?pdfmark /pop load def /pdfmark
    /cleartomark load def end } ifelse
/BDC { mark 3 1 roll /BDC pdfmark } bind def
/EMC { mark /EMC pdfmark } bind def
/cairo_store_point { /cairo_point_y exch def /cairo_point_x exch def } def
/Tj { show currentpoint cairo_store_point } bind def
/TJ {
  {
    dup
    type /stringtype eq
    { show } { -0.001 mul 0 cairo_font_matrix dtransform rmoveto } ifelse
  } forall
  currentpoint cairo_store_point
} bind def
/cairo_selectfont { cairo_font_matrix aload pop pop pop 0 0 6 array astore
    cairo_font exch selectfont cairo_point_x cairo_point_y moveto } bind def
/Tf { pop /cairo_font exch def /cairo_font_matrix where
      { pop cairo_selectfont } if } bind def
/Td { matrix translate cairo_font_matrix matrix concatmatrix dup
      /cairo_font_matrix exch def dup 4 get exch 5 get cairo_store_point
      /cairo_font where { pop cairo_selectfont } if } bind def
/Tm { 2 copy 8 2 roll 6 array astore /cairo_font_matrix exch def
      cairo_store_point /cairo_font where { pop cairo_selectfont } if } bind def
/g { setgray } bind def
/rg { setrgbcolor } bind def
/d1 { setcachedevice } bind def
%%EndProlog
%%Page: 1 1
%%BeginPageSetup
%%PageBoundingBox: 0 -1 256 406
%%EndPageSetup
q 0 -1 256 407 rectclip q
0 405.726 256 -406 re W n
0 g
127.859 281.417 m 145.492 281.417 159.84 295.765 159.84 313.401 c 
159.84 316.108 159.5 318.8 158.832 321.401 c 157.949 324.823 154.461 
326.882 151.035 325.999 c 147.613 325.12 145.555 321.628 146.434 
318.206 c 146.836 316.647 147.039 315.03 147.039 313.401 c 147.039 
302.823 138.434 294.218 127.859 294.218 c 117.281 294.218 108.676 
302.823 108.676 313.401 c 108.676 323.98 117.281 332.585 127.859 
332.585 c 129.496 332.585 131.121 332.378 132.688 331.972 c 136.105 
331.089 139.602 333.14 140.488 336.562 c 141.375 339.983 139.32 343.476 
135.898 344.362 c 133.285 345.038 130.578 345.382 127.859 345.382 c 
110.223 345.382 95.875 331.034 95.875 313.401 c 95.875 295.765 110.223 
281.417 127.859 281.417 c h
127.859 281.417 m f
82.629 268.171 m 83.879 266.921 85.52 266.296 87.156 266.296 c 88.793 
266.296 90.434 266.921 91.68 268.171 c 94.18 270.671 94.18 274.722 
91.68 277.222 c 82.02 286.886 76.695 299.733 76.695 313.397 c 76.695 
327.065 82.02 339.913 91.68 349.577 c 94.18 352.073 94.18 356.128 91.68 
358.628 c 89.184 361.128 85.133 361.124 82.633 358.628 c 70.551 346.546 
63.898 330.483 63.898 313.397 c 63.895 296.315 70.551 280.253 82.629 
268.171 c h
82.629 268.171 m f
164.035 268.171 m 165.285 266.921 166.922 266.296 168.559 266.296 c 
170.199 266.296 171.836 266.921 173.086 268.171 c 198.023 293.112 
198.023 333.69 173.086 358.628 c 170.586 361.124 166.535 361.124 
164.035 358.628 c 161.535 356.128 161.535 352.073 164.035 349.577 c 
183.984 329.628 183.984 297.171 164.035 277.222 c 161.535 274.722 
161.535 270.671 164.035 268.171 c h
164.035 268.171 m f
60.02 245.562 m 61.266 244.312 62.906 243.687 64.543 243.687 c 66.18 
243.687 67.82 244.312 69.07 245.562 c 71.57 248.058 71.57 252.112 69.07 
254.612 c 36.652 287.026 36.652 339.772 69.07 372.187 c 71.57 374.687 
71.57 378.737 69.07 381.237 c 66.57 383.737 62.52 383.737 60.02 381.237 
c 22.609 343.831 22.609 282.968 60.02 245.562 c h
60.02 245.562 m f
186.645 254.612 m 184.145 252.112 184.145 248.058 186.645 245.562 c 
187.895 244.312 189.535 243.687 191.172 243.687 c 192.809 243.687 
194.449 244.312 195.699 245.562 c 233.105 282.968 233.105 343.831 
195.699 381.237 c 193.199 383.737 189.145 383.737 186.648 381.237 c 
184.148 378.741 184.148 374.687 186.648 372.19 c 219.062 339.772 
219.062 287.026 186.645 254.612 c h
186.645 254.612 m f
41.93 221.073 m 43.57 221.073 45.207 221.698 46.457 222.948 c 48.957 
225.448 48.957 229.499 46.457 231.999 c 1.574 276.882 1.574 349.913 
46.457 394.8 c 48.957 397.3 48.957 401.351 46.457 403.851 c 43.957 
406.351 39.906 406.351 37.406 403.851 c -12.469 353.976 -12.469 272.823 
37.406 222.948 c 38.656 221.698 40.293 221.073 41.93 221.073 c h
41.93 221.073 m f
209.258 231.999 m 206.758 229.499 206.758 225.448 209.258 222.948 c 
210.508 221.698 212.145 221.073 213.785 221.073 c 215.422 221.073 
217.059 221.698 218.309 222.948 c 268.184 272.823 268.184 353.976 
218.309 403.851 c 215.809 406.351 211.758 406.351 209.258 403.851 c 
206.758 401.351 206.758 397.3 209.258 394.8 c 254.141 349.917 254.141 
276.882 209.258 231.999 c h
209.258 231.999 m f
242.27 3.464 m 242.336 3.597 242.395 3.733 242.453 3.87 c 242.477 3.921 
242.504 3.972 242.523 4.026 c 242.578 4.163 242.625 4.3 242.668 4.44 c 
242.688 4.499 242.711 4.554 242.727 4.612 c 242.762 4.737 242.789 4.862 
242.82 4.991 c 242.836 5.069 242.859 5.147 242.871 5.226 c 242.891 
5.327 242.902 5.433 242.918 5.534 c 242.934 5.64 242.949 5.745 242.957 
5.851 c 242.965 5.929 242.965 6.007 242.969 6.089 c 242.977 6.218 
242.984 6.347 242.98 6.48 c 242.98 6.538 242.977 6.597 242.973 6.659 c 
242.969 6.804 242.961 6.952 242.945 7.101 c 242.938 7.155 242.93 7.214 
242.922 7.269 c 242.898 7.417 242.879 7.562 242.848 7.706 c 242.828 
7.819 242.793 7.929 242.766 8.042 c 242.742 8.128 242.723 8.218 242.695 
8.304 c 242.633 8.515 242.555 8.718 242.469 8.921 c 133.746 264.737 l 
133.719 264.804 133.684 264.866 133.652 264.933 c 133.602 265.042 
133.555 265.147 133.496 265.253 c 133.449 265.347 133.395 265.433 
133.344 265.519 c 133.289 265.608 133.234 265.702 133.176 265.788 c 
133.113 265.878 133.051 265.964 132.988 266.054 c 132.926 266.132 
132.867 266.214 132.805 266.292 c 132.734 266.374 132.664 266.456 
132.59 266.534 c 132.523 266.608 132.453 266.683 132.383 266.757 c 
132.309 266.831 132.23 266.901 132.152 266.972 c 132.074 267.042 132 
267.112 131.918 267.179 c 131.836 267.245 131.754 267.308 131.668 
267.37 c 131.586 267.429 131.504 267.491 131.418 267.55 c 131.324 
267.612 131.23 267.667 131.133 267.726 c 131.051 267.776 130.969 
267.827 130.883 267.87 c 130.773 267.929 130.66 267.983 130.551 268.034 
c 130.484 268.062 130.426 268.097 130.359 268.124 c 130.344 268.132 
130.324 268.136 130.309 268.144 c 130.191 268.194 130.07 268.233 
129.953 268.276 c 129.871 268.304 129.789 268.335 129.707 268.362 c 
129.598 268.394 129.484 268.421 129.371 268.448 c 129.277 268.468 
129.188 268.495 129.094 268.515 c 128.988 268.534 128.883 268.546 
128.777 268.562 c 128.676 268.577 128.578 268.597 128.477 268.605 c 
128.363 268.616 128.242 268.62 128.125 268.624 c 128.035 268.628 
127.949 268.636 127.859 268.636 c 127.719 268.636 127.574 268.624 
127.43 268.616 c 127.367 268.612 127.305 268.612 127.242 268.605 c 
127.105 268.593 126.969 268.569 126.832 268.546 c 126.766 268.534 
126.695 268.53 126.629 268.515 c 126.516 268.495 126.402 268.464 
126.289 268.433 c 126.199 268.409 126.105 268.39 126.012 268.362 c 
125.922 268.335 125.828 268.296 125.734 268.265 c 125.625 268.226 
125.52 268.19 125.41 268.147 c 125.395 268.14 125.375 268.132 125.355 
268.124 c 125.281 268.097 125.219 268.058 125.148 268.026 c 125.043 
267.976 124.941 267.929 124.84 267.874 c 124.746 267.827 124.656 
267.772 124.57 267.718 c 124.48 267.663 124.391 267.612 124.301 267.554 
c 124.211 267.491 124.125 267.429 124.039 267.362 c 123.957 267.304 
123.879 267.245 123.801 267.183 c 123.719 267.112 123.637 267.042 
123.559 266.968 c 123.48 266.901 123.406 266.831 123.336 266.761 c 
123.262 266.687 123.191 266.608 123.121 266.53 c 123.051 266.456 122.98 
266.378 122.914 266.296 c 122.848 266.214 122.785 266.132 122.727 
266.05 c 122.664 265.964 122.602 265.882 122.539 265.792 c 122.48 
265.702 122.426 265.612 122.371 265.519 c 122.32 265.433 122.266 
265.347 122.219 265.257 c 122.164 265.151 122.113 265.042 122.062 
264.937 c 122.031 264.87 121.996 264.808 121.969 264.737 c 13.246 8.917 
l 13.16 8.718 13.082 8.511 13.02 8.304 c 12.992 8.218 12.973 8.128 
12.949 8.038 c 12.922 7.929 12.887 7.819 12.863 7.706 c 12.836 7.562 
12.812 7.413 12.793 7.269 c 12.785 7.21 12.773 7.155 12.77 7.097 c 
12.754 6.948 12.746 6.804 12.742 6.655 c 12.738 6.597 12.734 6.538 
12.73 6.476 c 12.73 6.347 12.738 6.218 12.746 6.085 c 12.75 6.007 12.75 
5.929 12.758 5.851 c 12.766 5.745 12.781 5.64 12.797 5.534 c 12.812 
5.429 12.824 5.327 12.84 5.226 c 12.855 5.144 12.879 5.065 12.895 4.987 
c 12.926 4.862 12.953 4.737 12.988 4.612 c 13.004 4.554 13.027 4.499 
13.047 4.44 c 13.09 4.3 13.137 4.159 13.191 4.022 c 13.211 3.972 13.238 
3.921 13.262 3.866 c 13.32 3.73 13.379 3.597 13.445 3.464 c 13.496 
3.362 13.559 3.269 13.613 3.175 c 13.66 3.093 13.703 3.011 13.754 2.929 
c 13.996 2.558 14.277 2.206 14.598 1.89 c 14.645 1.839 14.695 1.796 
14.746 1.749 c 14.859 1.64 14.977 1.534 15.102 1.437 c 15.172 1.378 
15.246 1.323 15.32 1.269 c 15.426 1.19 15.531 1.116 15.641 1.046 c 
15.73 0.987 15.82 0.929 15.914 0.878 c 16.012 0.819 16.109 0.765 16.215 
0.714 c 16.316 0.659 16.422 0.608 16.527 0.562 c 16.562 0.546 16.594 
0.526 16.625 0.515 c 16.699 0.483 16.773 0.46 16.844 0.433 c 16.945 
0.394 17.047 0.355 17.152 0.319 c 17.285 0.276 17.418 0.241 17.551 
0.206 c 17.633 0.187 17.711 0.163 17.793 0.147 c 17.969 0.108 18.152 
0.081 18.332 0.058 c 18.371 0.054 18.41 0.042 18.449 0.038 c 18.676 
0.015 18.902 -0.001 19.129 -0.001 c 19.137 -0.001 19.145 0.003 19.156 
0.003 c 19.43 0.003 19.703 0.026 19.977 0.062 c 20.016 0.065 20.055 
0.069 20.094 0.077 c 20.363 0.116 20.633 0.179 20.898 0.257 c 20.934 
0.265 20.969 0.276 21.004 0.288 c 21.273 0.37 21.535 0.468 21.793 0.585 
c 21.812 0.593 21.836 0.605 21.855 0.616 c 22.098 0.73 22.332 0.858 
22.562 1.007 c 22.59 1.022 22.613 1.034 22.641 1.054 c 22.805 1.163 
22.969 1.276 23.129 1.405 c 127.855 85.187 l 232.586 1.405 l 232.742 
1.276 232.906 1.159 233.074 1.05 c 233.098 1.034 233.125 1.022 233.148 
1.007 c 233.379 0.858 233.617 0.73 233.859 0.612 c 233.879 0.605 
233.898 0.593 233.918 0.585 c 234.176 0.464 234.441 0.366 234.707 0.284 
c 234.812 0.253 l 235.078 0.179 235.348 0.116 235.621 0.077 c 235.656 
0.069 235.695 0.065 235.734 0.062 c 236.008 0.026 236.281 0.003 236.559 
0.003 c 236.566 0.003 236.574 -0.001 236.586 -0.001 c 236.809 -0.001 
237.035 0.015 237.262 0.038 c 237.305 0.042 237.344 0.054 237.387 0.058 
c 237.562 0.081 237.742 0.108 237.918 0.144 c 238 0.163 238.082 0.187 
238.164 0.206 c 238.297 0.241 238.426 0.276 238.555 0.319 c 238.66 
0.351 238.766 0.394 238.867 0.433 c 238.941 0.46 239.012 0.48 239.086 
0.511 c 239.121 0.526 239.152 0.546 239.184 0.558 c 239.289 0.605 
239.395 0.659 239.496 0.714 c 239.598 0.765 239.699 0.819 239.797 0.874 
c 239.891 0.929 239.98 0.983 240.07 1.046 c 240.18 1.116 240.289 1.19 
240.391 1.265 c 240.465 1.323 240.539 1.378 240.609 1.433 c 240.734 
1.534 240.852 1.64 240.965 1.749 c 241.016 1.796 241.066 1.839 241.113 
1.886 c 241.434 2.206 241.715 2.554 241.957 2.929 c 242.008 3.007 
242.051 3.089 242.098 3.171 c 242.156 3.272 242.219 3.366 242.27 3.464 
c h
82.094 138.194 m 127.859 245.87 l 173.621 138.194 l 143.047 113.733 l 
140.289 111.526 139.84 107.499 142.047 104.737 c 143.312 103.159 
145.172 102.335 147.047 102.335 c 148.449 102.335 149.863 102.796 
151.043 103.737 c 178.82 125.96 l 220.77 27.253 l h
34.945 27.253 m 76.895 125.96 l 117.613 93.39 l h
34.945 27.253 m f
Q Q
showpage
%%Trailer
count op_count sub {pop} repeat
countdictstack dict_count sub {end} repeat
cairo_eps_state restore
%%EOF
