%!PS-Adobe-3.0 EPSF-3.0
%%Creator: cairo 1.10.2 (http://cairographics.org)
%%CreationDate: Fri Aug 14 10:44:35 2015
%%Pages: 1
%%BoundingBox: 0 -1 410 410
%%DocumentData: Clean7Bit
%%LanguageLevel: 2
%%EndComments
%%BeginProlog
/cairo_eps_state save def
/dict_count countdictstack def
/op_count count 1 sub def
userdict begin
/q { gsave } bind def
/Q { grestore } bind def
/cm { 6 array astore concat } bind def
/w { setlinewidth } bind def
/J { setlinecap } bind def
/j { setlinejoin } bind def
/M { setmiterlimit } bind def
/d { setdash } bind def
/m { moveto } bind def
/l { lineto } bind def
/c { curveto } bind def
/h { closepath } bind def
/re { exch dup neg 3 1 roll 5 3 roll moveto 0 rlineto
      0 exch rlineto 0 rlineto closepath } bind def
/S { stroke } bind def
/f { fill } bind def
/f* { eofill } bind def
/n { newpath } bind def
/W { clip } bind def
/W* { eoclip } bind def
/BT { } bind def
/ET { } bind def
/pdfmark where { pop globaldict /?pdfmark /exec load put }
    { globaldict begin /?pdfmark /pop load def /pdfmark
    /cleartomark load def end } ifelse
/BDC { mark 3 1 roll /BDC pdfmark } bind def
/EMC { mark /EMC pdfmark } bind def
/cairo_store_point { /cairo_point_y exch def /cairo_point_x exch def } def
/Tj { show currentpoint cairo_store_point } bind def
/TJ {
  {
    dup
    type /stringtype eq
    { show } { -0.001 mul 0 cairo_font_matrix dtransform rmoveto } ifelse
  } forall
  currentpoint cairo_store_point
} bind def
/cairo_selectfont { cairo_font_matrix aload pop pop pop 0 0 6 array astore
    cairo_font exch selectfont cairo_point_x cairo_point_y moveto } bind def
/Tf { pop /cairo_font exch def /cairo_font_matrix where
      { pop cairo_selectfont } if } bind def
/Td { matrix translate cairo_font_matrix matrix concatmatrix dup
      /cairo_font_matrix exch def dup 4 get exch 5 get cairo_store_point
      /cairo_font where { pop cairo_selectfont } if } bind def
/Tm { 2 copy 8 2 roll 6 array astore /cairo_font_matrix exch def
      cairo_store_point /cairo_font where { pop cairo_selectfont } if } bind def
/g { setgray } bind def
/rg { setrgbcolor } bind def
/d1 { setcachedevice } bind def
%%EndProlog
%%Page: 1 1
%%BeginPageSetup
%%PageBoundingBox: 0 -1 410 410
%%EndPageSetup
q 0 -1 410 411 rectclip q
0 409.6 410 -410 re W n
0 g
349.617 349.616 m 310.934 388.299 259.504 409.6 204.801 409.6 c 150.367 
409.6 99.18 388.502 60.566 350.182 c 60.531 350.151 60.5 350.12 60.469 
350.088 c 60.309 349.928 60.145 349.776 59.984 349.616 c 21.301 310.932 
0 259.502 0 204.799 c 0 150.096 21.301 98.666 59.984 59.983 c 60.145 
59.823 60.309 59.67 60.469 59.51 c 60.5 59.479 60.531 59.448 60.562 
59.42 c 99.18 21.1 150.367 -0.002 204.801 -0.002 c 259.504 -0.002 
310.934 21.303 349.617 59.983 c 388.297 98.666 409.602 150.096 409.602 
204.799 c 409.602 259.502 388.297 310.932 349.617 349.616 c h
383.527 134.401 m 349.133 134.401 l 354.684 154.709 357.812 176.256 
358.32 198.401 c 396.684 198.401 l 395.961 176.166 391.473 154.592 
383.527 134.401 c h
307.199 121.6 m 331.68 121.6 l 324.949 102.584 315.977 85.311 305.246 
70.401 c 272.844 70.401 l 279.125 87.135 284.125 105.932 287.719 126.12 
c 287.859 126.577 287.945 127.061 287.977 127.561 c 292.191 151.748 
294.398 177.881 294.398 204.799 c 294.398 231.717 292.191 257.854 
287.977 282.038 c 287.945 282.538 287.859 283.022 287.719 283.483 c 
284.121 303.666 279.125 322.467 272.844 339.202 c 305.246 339.202 l 
315.977 324.288 324.949 307.014 331.68 287.998 c 307.199 287.998 l 
303.664 287.998 300.801 285.135 300.801 281.6 c 300.801 278.065 303.664 
275.202 307.199 275.202 c 335.797 275.202 l 341.578 255.272 344.969 
233.721 345.512 211.202 c 313.602 211.202 l 310.066 211.202 307.199 
208.334 307.199 204.799 c 307.199 201.264 310.066 198.401 313.602 
198.401 c 345.512 198.401 l 344.969 175.881 341.578 154.327 335.797 
134.401 c 307.199 134.401 l 303.664 134.401 300.801 131.534 300.801 
127.998 c 300.801 124.467 303.664 121.6 307.199 121.6 c h
67.703 70.401 m 52.77 85.627 40.664 102.905 31.664 121.6 c 64 121.6 l 
64.113 121.6 64.223 121.612 64.332 121.616 c 70.473 103.163 78.695 
85.916 88.832 70.401 c h
26.074 275.202 m 60.469 275.202 l 54.914 254.893 51.789 233.346 51.281 
211.202 c 12.918 211.202 l 13.641 233.432 18.125 255.01 26.074 275.202 
c h
67.703 339.202 m 88.832 339.202 l 78.695 323.682 70.473 306.436 64.332 
287.983 c 64.223 287.991 64.113 287.998 64 287.998 c 31.664 287.998 l 
40.664 306.694 52.77 323.971 67.703 339.202 c h
257.73 66.987 m 244.895 36.377 228.227 17.389 211.199 13.538 c 211.199 
57.6 l 236.801 57.6 l 240.336 57.6 243.199 60.467 243.199 63.998 c 
243.199 67.534 240.336 70.401 236.801 70.401 c 211.199 70.401 l 211.199 
121.6 l 273.863 121.6 l 269.902 101.549 264.48 83.088 257.73 66.987 c h
198.398 339.202 m 198.398 287.998 l 135.738 287.998 l 139.422 306.651 
144.367 323.92 150.473 339.202 c h
156.102 351.998 m 168.262 377.1 183.188 392.623 198.398 396.061 c 
198.398 351.998 l h
198.398 275.202 m 198.398 211.202 l 128.047 211.202 l 128.344 233.428 
130.18 254.998 133.441 275.202 c h
281.551 211.202 m 211.199 211.202 l 211.199 275.202 l 276.156 275.202 l 
279.418 254.998 281.254 233.428 281.551 211.202 c h
198.398 198.401 m 198.398 134.401 l 133.441 134.401 l 130.18 154.6 
128.344 176.17 128.047 198.401 c h
198.398 121.6 m 198.398 70.401 l 150.473 70.401 l 144.367 85.678 
139.422 102.952 135.738 121.6 c h
198.398 57.6 m 198.398 13.538 l 183.188 16.975 168.262 32.502 156.102 
57.6 c h
276.156 134.401 m 211.199 134.401 l 211.199 198.401 l 281.551 198.401 l 
281.254 176.17 279.418 154.6 276.156 134.401 c h
211.199 287.998 m 211.199 339.202 l 236.801 339.202 l 240.336 339.202 
243.199 342.065 243.199 345.6 c 243.199 349.135 240.336 351.998 236.801 
351.998 c 211.199 351.998 l 211.199 396.061 l 228.227 392.213 244.895 
373.221 257.73 342.616 c 264.48 326.51 269.902 308.053 273.863 287.998 
c h
268.801 351.998 m 268.41 351.998 268.027 351.959 267.656 351.893 c 
260.871 367.131 253.141 379.557 244.73 388.924 c 263.426 381.37 280.508 
368.659 295.094 351.998 c h
141.992 351.998 m 114.508 351.998 l 129.09 368.659 146.172 381.37 
164.867 388.924 c 156.48 379.58 148.77 367.19 141.992 351.998 c h
136.754 339.202 m 130.945 323.721 126.234 306.475 122.715 287.998 c 96 
287.998 l 92.465 287.998 89.602 285.135 89.602 281.6 c 89.602 278.065 
92.465 275.202 96 275.202 c 120.5 275.202 l 117.324 254.905 115.535 
233.354 115.246 211.202 c 64.086 211.202 l 65.289 260.948 80.434 
305.963 104.355 339.202 c h
51.281 198.401 m 51.789 176.256 54.918 154.709 60.469 134.401 c 26.074 
134.401 l 18.125 154.592 13.641 176.166 12.918 198.401 c h
64.086 198.401 m 115.246 198.401 l 115.535 176.248 117.324 154.698 
120.5 134.401 c 96 134.401 l 92.465 134.401 89.602 131.534 89.602 
127.998 c 89.602 124.467 92.465 121.6 96 121.6 c 122.715 121.6 l 
126.234 103.123 130.945 85.877 136.754 70.401 c 104.355 70.401 l 80.434 
103.639 65.289 148.651 64.086 198.401 c h
141.992 57.6 m 148.766 42.409 156.477 30.022 164.867 20.678 c 146.172 
28.229 129.09 40.94 114.508 57.6 c h
267.656 57.709 m 268.027 57.639 268.41 57.6 268.801 57.6 c 295.094 57.6 
l 280.508 40.94 263.426 28.229 244.73 20.678 c 253.141 30.041 260.871 
42.467 267.656 57.709 c h
358.32 211.202 m 357.812 233.346 354.684 254.893 349.133 275.202 c 
383.527 275.202 l 391.473 255.01 395.961 233.432 396.684 211.202 c h
377.934 287.998 m 345.262 287.998 l 339.121 306.448 330.902 323.686 
320.77 339.202 c 339.199 339.202 l 340.004 339.202 340.77 339.354 
341.48 339.627 c 356.609 324.295 368.852 306.87 377.934 287.998 c h
328.074 351.998 m 311.672 351.998 l 303.691 362.315 295.008 371.334 
285.77 378.991 c 300.879 371.959 315.09 362.913 328.074 351.998 c h
97.93 351.998 m 81.523 351.998 l 94.508 362.913 108.719 371.959 123.828 
378.991 c 114.594 371.334 105.91 362.315 97.93 351.998 c h
81.523 57.6 m 97.93 57.6 l 105.91 47.284 114.594 38.264 123.828 30.608 
c 108.719 37.643 94.508 46.686 81.523 57.6 c h
311.672 57.6 m 328.074 57.6 l 315.09 46.686 300.879 37.643 285.77 
30.608 c 295.008 38.264 303.691 47.284 311.672 57.6 c h
341.48 69.975 m 340.77 70.245 340.004 70.401 339.199 70.401 c 320.77 
70.401 l 330.902 85.913 339.121 103.151 345.262 121.6 c 377.934 121.6 l 
368.852 102.733 356.609 85.303 341.48 69.975 c h
341.48 69.975 m f
Q Q
showpage
%%Trailer
count op_count sub {pop} repeat
countdictstack dict_count sub {end} repeat
cairo_eps_state restore
%%EOF
