%!PS-Adobe-3.0 EPSF-3.0
%%Creator: cairo 1.10.2 (http://cairographics.org)
%%CreationDate: Tue Aug 11 08:30:41 2015
%%Pages: 1
%%BoundingBox: 0 -1 396 396
%%DocumentData: Clean7Bit
%%LanguageLevel: 2
%%EndComments
%%BeginProlog
/cairo_eps_state save def
/dict_count countdictstack def
/op_count count 1 sub def
userdict begin
/q { gsave } bind def
/Q { grestore } bind def
/cm { 6 array astore concat } bind def
/w { setlinewidth } bind def
/J { setlinecap } bind def
/j { setlinejoin } bind def
/M { setmiterlimit } bind def
/d { setdash } bind def
/m { moveto } bind def
/l { lineto } bind def
/c { curveto } bind def
/h { closepath } bind def
/re { exch dup neg 3 1 roll 5 3 roll moveto 0 rlineto
      0 exch rlineto 0 rlineto closepath } bind def
/S { stroke } bind def
/f { fill } bind def
/f* { eofill } bind def
/n { newpath } bind def
/W { clip } bind def
/W* { eoclip } bind def
/BT { } bind def
/ET { } bind def
/pdfmark where { pop globaldict /?pdfmark /exec load put }
    { globaldict begin /?pdfmark /pop load def /pdfmark
    /cleartomark load def end } ifelse
/BDC { mark 3 1 roll /BDC pdfmark } bind def
/EMC { mark /EMC pdfmark } bind def
/cairo_store_point { /cairo_point_y exch def /cairo_point_x exch def } def
/Tj { show currentpoint cairo_store_point } bind def
/TJ {
  {
    dup
    type /stringtype eq
    { show } { -0.001 mul 0 cairo_font_matrix dtransform rmoveto } ifelse
  } forall
  currentpoint cairo_store_point
} bind def
/cairo_selectfont { cairo_font_matrix aload pop pop pop 0 0 6 array astore
    cairo_font exch selectfont cairo_point_x cairo_point_y moveto } bind def
/Tf { pop /cairo_font exch def /cairo_font_matrix where
      { pop cairo_selectfont } if } bind def
/Td { matrix translate cairo_font_matrix matrix concatmatrix dup
      /cairo_font_matrix exch def dup 4 get exch 5 get cairo_store_point
      /cairo_font where { pop cairo_selectfont } if } bind def
/Tm { 2 copy 8 2 roll 6 array astore /cairo_font_matrix exch def
      cairo_store_point /cairo_font where { pop cairo_selectfont } if } bind def
/g { setgray } bind def
/rg { setrgbcolor } bind def
/d1 { setcachedevice } bind def
%%EndProlog
%%Page: 1 1
%%BeginPageSetup
%%PageBoundingBox: 0 -1 396 396
%%EndPageSetup
q 0 -1 396 397 rectclip q
0 395.181 396 -396 re W n
0 g
324.582 114.978 m 313.258 137.885 l 293.676 100.099 256.199 73.06 
212.062 68.15 c 222.902 94.064 l 223.273 94.974 223.059 96.021 222.34 
96.693 c 221.609 97.373 220.547 97.533 219.664 97.092 c 195.852 85.318 
141.402 58.4 126.66 51.115 c 125.727 50.654 125.141 49.701 125.141 
48.662 c 125.141 47.627 125.727 46.674 126.66 46.213 c 200.965 9.486 
181.375 19.174 219.664 0.248 c 220.547 -0.194 221.609 -0.033 222.34 
0.638 c 223.059 1.318 223.273 2.365 222.891 3.275 c 212.246 28.732 l 
264.656 33.252 310.363 61.599 338.273 102.982 c 332.375 105.123 327.32 
109.31 324.582 114.978 c h
324.582 114.978 m f
70.586 280.201 m 81.922 257.295 l 101.5 295.068 138.984 322.107 183.105 
327.013 c 172.277 301.115 l 171.906 300.209 172.125 299.158 172.844 
298.478 c 173.57 297.806 174.633 297.646 175.516 298.088 c 253.445 
336.627 189.031 304.763 268.523 344.068 c 269.453 344.529 270.047 
345.482 270.047 346.51 c 270.047 346.517 l 270.047 347.556 269.453 
348.51 268.523 348.967 c 194.879 385.373 214.215 375.81 175.516 394.939 
c 174.633 395.373 173.57 395.213 172.844 394.541 c 172.125 393.865 
171.906 392.814 172.277 391.908 c 182.926 366.443 l 130.527 361.916 
84.828 333.568 56.906 292.189 c 62.793 290.053 67.848 285.869 70.586 
280.201 c h
70.586 280.201 m f
67.922 185.271 m 94.07 174.342 l 94.977 173.959 96.039 174.189 96.703 
174.904 c 97.379 175.623 97.535 176.685 97.102 177.568 c 67.594 237.248 
79.992 212.162 51.113 270.576 c 51.113 270.592 l 50.648 271.517 49.703 
272.107 48.664 272.107 c 47.629 272.107 46.684 271.517 46.223 270.592 c 
7.617 192.474 18.891 215.283 0.246 177.568 c -0.191 176.685 -0.039 
175.623 0.641 174.904 c 1.305 174.189 2.367 173.959 3.277 174.342 c 
28.625 184.943 l 32.629 131.033 61.832 84.084 104.586 55.924 c 106.578 
62.244 111.02 67.666 117.023 70.588 c 138.918 81.42 l 99.977 101.166 
72.211 139.81 67.922 185.271 c h
67.922 185.271 m f
116.434 197.58 m 116.434 152.775 152.777 116.439 197.586 116.439 c 
242.402 116.439 278.73 152.775 278.73 197.58 c 278.73 242.4 242.402 
278.736 197.586 278.736 c 152.777 278.728 116.434 242.4 116.434 197.58 
c h
116.434 197.58 m f
394.527 220.275 m 393.859 220.99 392.812 221.217 391.891 220.838 c 
366.539 210.236 l 362.531 264.142 333.336 311.092 290.582 339.252 c 
288.598 332.935 284.156 327.517 278.156 324.592 c 256.246 313.76 l 
295.188 294.013 322.957 255.377 327.242 209.916 c 301.113 220.838 l 
300.191 221.221 299.145 220.998 298.48 220.275 c 297.797 219.556 
297.645 218.494 298.082 217.615 c 336.266 140.361 300 213.767 344.07 
124.603 c 344.301 124.142 344.645 123.756 345.066 123.498 c 345.504 
123.228 345.992 123.08 346.512 123.08 c 347.551 123.08 348.5 123.674 
348.957 124.603 c 385.988 199.553 375.844 179.013 394.926 217.615 c 
395.359 218.498 395.203 219.556 394.527 220.275 c h
394.527 220.275 m f
Q Q
showpage
%%Trailer
count op_count sub {pop} repeat
countdictstack dict_count sub {end} repeat
cairo_eps_state restore
%%EOF
