%!PS-Adobe-3.0 EPSF-3.0
%%Creator: cairo 1.10.2 (http://cairographics.org)
%%CreationDate: Tue Aug 11 08:30:22 2015
%%Pages: 1
%%BoundingBox: 0 -1 389 396
%%DocumentData: Clean7Bit
%%LanguageLevel: 2
%%EndComments
%%BeginProlog
/cairo_eps_state save def
/dict_count countdictstack def
/op_count count 1 sub def
userdict begin
/q { gsave } bind def
/Q { grestore } bind def
/cm { 6 array astore concat } bind def
/w { setlinewidth } bind def
/J { setlinecap } bind def
/j { setlinejoin } bind def
/M { setmiterlimit } bind def
/d { setdash } bind def
/m { moveto } bind def
/l { lineto } bind def
/c { curveto } bind def
/h { closepath } bind def
/re { exch dup neg 3 1 roll 5 3 roll moveto 0 rlineto
      0 exch rlineto 0 rlineto closepath } bind def
/S { stroke } bind def
/f { fill } bind def
/f* { eofill } bind def
/n { newpath } bind def
/W { clip } bind def
/W* { eoclip } bind def
/BT { } bind def
/ET { } bind def
/pdfmark where { pop globaldict /?pdfmark /exec load put }
    { globaldict begin /?pdfmark /pop load def /pdfmark
    /cleartomark load def end } ifelse
/BDC { mark 3 1 roll /BDC pdfmark } bind def
/EMC { mark /EMC pdfmark } bind def
/cairo_store_point { /cairo_point_y exch def /cairo_point_x exch def } def
/Tj { show currentpoint cairo_store_point } bind def
/TJ {
  {
    dup
    type /stringtype eq
    { show } { -0.001 mul 0 cairo_font_matrix dtransform rmoveto } ifelse
  } forall
  currentpoint cairo_store_point
} bind def
/cairo_selectfont { cairo_font_matrix aload pop pop pop 0 0 6 array astore
    cairo_font exch selectfont cairo_point_x cairo_point_y moveto } bind def
/Tf { pop /cairo_font exch def /cairo_font_matrix where
      { pop cairo_selectfont } if } bind def
/Td { matrix translate cairo_font_matrix matrix concatmatrix dup
      /cairo_font_matrix exch def dup 4 get exch 5 get cairo_store_point
      /cairo_font where { pop cairo_selectfont } if } bind def
/Tm { 2 copy 8 2 roll 6 array astore /cairo_font_matrix exch def
      cairo_store_point /cairo_font where { pop cairo_selectfont } if } bind def
/g { setgray } bind def
/rg { setrgbcolor } bind def
/d1 { setcachedevice } bind def
%%EndProlog
%%Page: 1 1
%%BeginPageSetup
%%PageBoundingBox: 0 -1 389 396
%%EndPageSetup
q 0 -1 389 397 rectclip q
0 395.858 389 -396 re W n
0 g
254.781 61.687 m 254.781 62.589 254.266 63.421 253.457 63.819 c 172.902 
103.624 l 172.027 104.062 170.984 103.913 170.25 103.257 c 169.527 
102.601 169.281 101.569 169.629 100.655 c 179.375 74.882 l 144.141 
74.882 l 144.141 115.362 l 144.141 119.776 140.562 123.358 136.152 
123.358 c 28.789 123.358 l 24.383 123.358 20.801 119.776 20.801 115.362 
c 20.801 7.995 l 20.801 3.581 24.383 -0.001 28.789 -0.001 c 136.152 
-0.001 l 140.562 -0.001 144.141 3.581 144.141 7.995 c 144.141 48.491 l 
179.387 48.491 l 169.629 22.71 l 169.297 21.796 169.543 20.765 170.262 
20.108 c 170.996 19.452 172.043 19.304 172.918 19.741 c 253.457 59.554 
l 254.266 59.952 254.781 60.776 254.781 61.687 c h
120.098 24.058 m 44.84 24.058 l 44.84 99.3 l 120.098 99.3 l h
120.098 24.058 m f
69.273 232.069 m 69.273 199.366 l 43.504 209.12 l 42.574 209.468 41.543 
209.218 40.898 208.495 c 40.23 207.769 40.09 206.718 40.527 205.839 c 
80.332 125.296 l 80.734 124.487 81.566 123.968 82.473 123.968 c 83.375 
123.968 84.195 124.487 84.598 125.296 c 124.402 205.839 l 124.84 
206.718 124.699 207.769 124.039 208.495 c 123.383 209.218 122.355 
209.468 121.438 209.12 c 95.668 199.37 l 95.668 232.069 l 134.918 
238.397 164.941 272.347 164.941 313.386 c 164.938 358.933 128.008 
395.858 82.473 395.858 c 36.934 395.858 0 358.933 0 313.39 c 0 272.347 
30.023 238.397 69.273 232.069 c h
69.273 232.069 m f
387.234 12.53 m 315.219 117.237 l 313.727 119.409 311.273 120.702 
308.633 120.702 c 305.992 120.702 303.543 119.409 302.047 117.237 c 
230.012 12.53 l 228.34 10.085 228.145 6.905 229.527 4.28 c 230.918 
1.644 233.637 -0.001 236.613 -0.001 c 380.652 -0.001 l 383.617 -0.001 
386.348 1.644 387.727 4.272 c 389.105 6.901 388.926 10.085 387.234 
12.53 c h
267.152 24.058 m 308.633 84.362 l 350.113 24.058 l h
267.152 24.058 m f
Q Q
showpage
%%Trailer
count op_count sub {pop} repeat
countdictstack dict_count sub {end} repeat
cairo_eps_state restore
%%EOF
