%!PS-Adobe-3.0 EPSF-3.0
%%Creator: cairo 1.10.2 (http://cairographics.org)
%%CreationDate: Tue Aug 11 08:29:55 2015
%%Pages: 1
%%BoundingBox: 0 0 394 395
%%DocumentData: Clean7Bit
%%LanguageLevel: 2
%%EndComments
%%BeginProlog
/cairo_eps_state save def
/dict_count countdictstack def
/op_count count 1 sub def
userdict begin
/q { gsave } bind def
/Q { grestore } bind def
/cm { 6 array astore concat } bind def
/w { setlinewidth } bind def
/J { setlinecap } bind def
/j { setlinejoin } bind def
/M { setmiterlimit } bind def
/d { setdash } bind def
/m { moveto } bind def
/l { lineto } bind def
/c { curveto } bind def
/h { closepath } bind def
/re { exch dup neg 3 1 roll 5 3 roll moveto 0 rlineto
      0 exch rlineto 0 rlineto closepath } bind def
/S { stroke } bind def
/f { fill } bind def
/f* { eofill } bind def
/n { newpath } bind def
/W { clip } bind def
/W* { eoclip } bind def
/BT { } bind def
/ET { } bind def
/pdfmark where { pop globaldict /?pdfmark /exec load put }
    { globaldict begin /?pdfmark /pop load def /pdfmark
    /cleartomark load def end } ifelse
/BDC { mark 3 1 roll /BDC pdfmark } bind def
/EMC { mark /EMC pdfmark } bind def
/cairo_store_point { /cairo_point_y exch def /cairo_point_x exch def } def
/Tj { show currentpoint cairo_store_point } bind def
/TJ {
  {
    dup
    type /stringtype eq
    { show } { -0.001 mul 0 cairo_font_matrix dtransform rmoveto } ifelse
  } forall
  currentpoint cairo_store_point
} bind def
/cairo_selectfont { cairo_font_matrix aload pop pop pop 0 0 6 array astore
    cairo_font exch selectfont cairo_point_x cairo_point_y moveto } bind def
/Tf { pop /cairo_font exch def /cairo_font_matrix where
      { pop cairo_selectfont } if } bind def
/Td { matrix translate cairo_font_matrix matrix concatmatrix dup
      /cairo_font_matrix exch def dup 4 get exch 5 get cairo_store_point
      /cairo_font where { pop cairo_selectfont } if } bind def
/Tm { 2 copy 8 2 roll 6 array astore /cairo_font_matrix exch def
      cairo_store_point /cairo_font where { pop cairo_selectfont } if } bind def
/g { setgray } bind def
/rg { setrgbcolor } bind def
/d1 { setcachedevice } bind def
%%EndProlog
%%Page: 1 1
%%BeginPageSetup
%%PageBoundingBox: 0 0 394 395
%%EndPageSetup
q 0 0 394 395 rectclip q
0 g
210.785 310.695 m 211.52 310.042 212.555 309.894 213.426 310.331 c 
293.535 349.929 l 294.344 350.327 294.859 351.148 294.859 352.05 c 
294.859 352.949 294.344 353.777 293.535 354.175 c 213.414 393.769 l 
212.539 394.202 211.504 394.054 210.773 393.402 c 210.055 392.749 
209.812 391.722 210.156 390.812 c 219.852 365.179 l 142.734 365.179 l 
135.48 365.179 129.613 359.3 129.613 352.05 c 129.613 210.136 l 102.902 
210.136 l 97.043 232.675 76.75 249.39 52.375 249.39 c 23.461 249.39 0 
225.941 0 197.011 c 0 168.081 23.457 144.632 52.375 144.632 c 76.75 
144.632 97.043 161.347 102.902 183.886 c 129.613 183.886 l 129.613 
41.968 l 129.613 34.722 135.48 28.843 142.734 28.843 c 219.863 28.843 l 
210.156 3.202 l 209.824 2.292 210.066 1.269 210.785 0.613 c 211.516 
-0.04 212.555 -0.188 213.426 0.249 c 293.535 39.851 l 294.344 40.245 
294.859 41.066 294.859 41.968 c 294.859 42.867 294.344 43.691 293.535 
44.089 c 213.414 83.683 l 212.539 84.12 211.504 83.972 210.773 83.32 c 
210.055 82.663 209.812 81.64 210.156 80.73 c 219.852 55.093 l 155.863 
55.093 l 155.863 338.925 l 219.863 338.925 l 210.156 313.285 l 209.824 
312.374 210.066 311.351 210.785 310.695 c h
210.785 310.695 m f
385.809 393.07 m 319.668 393.07 l 315.285 393.07 311.723 389.503 
311.723 385.113 c 311.723 318.988 l 311.723 314.597 315.285 311.035 
319.668 311.035 c 385.809 311.035 l 390.191 311.035 393.758 314.597 
393.758 318.988 c 393.758 385.113 l 393.758 389.503 390.191 393.07 
385.809 393.07 c h
385.809 393.07 m f
385.809 82.988 m 319.668 82.988 l 315.285 82.988 311.723 79.425 311.723 
75.035 c 311.723 8.91 l 311.723 4.519 315.285 0.956 319.668 0.956 c 
385.809 0.956 l 390.191 0.956 393.758 4.519 393.758 8.91 c 393.758 
75.035 l 393.758 79.425 390.191 82.988 385.809 82.988 c h
385.809 82.988 m f
Q Q
showpage
%%Trailer
count op_count sub {pop} repeat
countdictstack dict_count sub {end} repeat
cairo_eps_state restore
%%EOF
