%!PS-Adobe-3.0 EPSF-3.0
%%Creator: cairo 1.10.2 (http://cairographics.org)
%%CreationDate: Tue Aug 11 08:30:47 2015
%%Pages: 1
%%BoundingBox: 0 -1 390 395
%%DocumentData: Clean7Bit
%%LanguageLevel: 2
%%EndComments
%%BeginProlog
/cairo_eps_state save def
/dict_count countdictstack def
/op_count count 1 sub def
userdict begin
/q { gsave } bind def
/Q { grestore } bind def
/cm { 6 array astore concat } bind def
/w { setlinewidth } bind def
/J { setlinecap } bind def
/j { setlinejoin } bind def
/M { setmiterlimit } bind def
/d { setdash } bind def
/m { moveto } bind def
/l { lineto } bind def
/c { curveto } bind def
/h { closepath } bind def
/re { exch dup neg 3 1 roll 5 3 roll moveto 0 rlineto
      0 exch rlineto 0 rlineto closepath } bind def
/S { stroke } bind def
/f { fill } bind def
/f* { eofill } bind def
/n { newpath } bind def
/W { clip } bind def
/W* { eoclip } bind def
/BT { } bind def
/ET { } bind def
/pdfmark where { pop globaldict /?pdfmark /exec load put }
    { globaldict begin /?pdfmark /pop load def /pdfmark
    /cleartomark load def end } ifelse
/BDC { mark 3 1 roll /BDC pdfmark } bind def
/EMC { mark /EMC pdfmark } bind def
/cairo_store_point { /cairo_point_y exch def /cairo_point_x exch def } def
/Tj { show currentpoint cairo_store_point } bind def
/TJ {
  {
    dup
    type /stringtype eq
    { show } { -0.001 mul 0 cairo_font_matrix dtransform rmoveto } ifelse
  } forall
  currentpoint cairo_store_point
} bind def
/cairo_selectfont { cairo_font_matrix aload pop pop pop 0 0 6 array astore
    cairo_font exch selectfont cairo_point_x cairo_point_y moveto } bind def
/Tf { pop /cairo_font exch def /cairo_font_matrix where
      { pop cairo_selectfont } if } bind def
/Td { matrix translate cairo_font_matrix matrix concatmatrix dup
      /cairo_font_matrix exch def dup 4 get exch 5 get cairo_store_point
      /cairo_font where { pop cairo_selectfont } if } bind def
/Tm { 2 copy 8 2 roll 6 array astore /cairo_font_matrix exch def
      cairo_store_point /cairo_font where { pop cairo_selectfont } if } bind def
/g { setgray } bind def
/rg { setrgbcolor } bind def
/d1 { setcachedevice } bind def
%%EndProlog
%%Page: 1 1
%%BeginPageSetup
%%PageBoundingBox: 0 -1 390 395
%%EndPageSetup
q 0 -1 390 396 rectclip q
0 394.38 390 -395 re W n
0 g
199.34 133.435 m 200.012 135.259 200.762 137.052 201.57 138.833 c 
197.539 144.661 195.375 151.564 195.375 158.794 c 195.375 168.216 
199.055 177.068 205.684 183.677 c 212.34 190.353 221.199 194.025 
230.625 194.025 c 237.852 194.025 244.738 191.86 250.566 187.849 c 
252.352 188.642 254.141 189.388 255.977 190.075 c 259.008 206.443 
273.383 218.88 290.621 218.88 c 294.594 218.88 298.402 218.153 301.973 
216.931 c 308.41 221.767 312.633 229.396 312.633 238.064 c 312.633 
252.712 300.758 264.583 286.113 264.583 c 269.965 264.583 l 267.023 
277.189 262.055 288.978 255.41 299.65 c 266.859 311.091 l 277.215 
321.443 277.215 338.239 266.859 348.591 c 256.5 358.95 239.691 358.95 
229.355 348.591 c 217.91 337.15 l 207.238 343.802 195.445 348.771 
182.844 351.704 c 182.844 367.86 l 182.844 382.505 170.957 394.38 
156.324 394.38 c 141.668 394.38 129.801 382.505 129.801 367.86 c 
129.801 351.708 l 117.191 348.775 105.395 343.802 94.727 337.153 c 
83.293 348.587 l 72.941 358.946 56.137 358.946 45.789 348.587 c 35.43 
338.232 35.43 321.439 45.789 311.087 c 57.223 299.65 l 50.582 288.982 
45.605 277.193 42.684 264.587 c 26.52 264.587 l 11.871 264.587 0 
252.712 0 238.068 c 0 223.419 11.871 211.544 26.52 211.544 c 42.68 
211.544 l 45.605 198.939 50.578 187.142 57.238 176.474 c 45.785 165.032 
l 35.426 154.681 35.426 137.884 45.785 127.532 c 50.965 122.349 57.75 
119.759 64.535 119.759 c 71.32 119.759 78.105 122.349 83.289 127.532 c 
94.734 138.97 l 105.402 132.329 117.188 127.357 129.801 124.423 c 
129.801 108.271 l 129.801 93.622 141.664 81.751 156.32 81.751 c 162.434 
81.751 168 83.907 172.48 87.388 c 171.266 90.978 170.527 94.794 170.527 
98.79 c 170.527 116.021 182.961 130.403 199.34 133.435 c h
156.32 184.993 m 127.004 184.993 103.234 208.755 103.234 238.064 c 
103.234 267.376 127.008 291.138 156.32 291.138 c 185.625 291.138 
209.387 267.376 209.387 238.064 c 209.387 208.755 185.625 184.993 
156.32 184.993 c h
156.32 184.993 m f
375.477 112.716 m 365.633 112.716 l 363.664 123.431 359.48 133.364 
353.535 142.001 c 360.48 148.935 l 365.914 154.376 365.914 163.2 360.48 
168.638 c 357.762 171.36 354.184 172.724 350.625 172.724 c 347.062 
172.724 343.492 171.36 340.77 168.638 c 333.828 161.696 l 325.207 
167.653 315.262 171.829 304.539 173.81 c 304.539 183.646 l 304.539 
191.337 298.309 197.571 290.621 197.571 c 282.93 197.571 276.699 
191.337 276.699 183.646 c 276.699 173.81 l 265.977 171.829 256.047 
167.653 247.406 161.7 c 240.469 168.63 l 237.75 171.349 234.184 172.716 
230.625 172.716 c 227.051 172.716 223.48 171.349 220.773 168.63 c 
215.32 163.196 215.32 154.372 220.773 148.935 c 227.699 142.001 l 
221.758 133.36 217.574 123.431 215.605 112.716 c 205.766 112.716 l 
198.074 112.716 191.832 106.482 191.832 98.79 c 191.832 91.091 198.074 
84.857 205.766 84.857 c 215.605 84.857 l 217.574 74.142 221.758 64.216 
227.711 55.571 c 220.773 48.63 l 215.32 43.193 215.32 34.372 220.773 
28.935 c 223.492 26.216 227.051 24.849 230.625 24.849 c 234.184 24.849 
237.746 26.216 240.469 28.935 c 247.406 35.868 l 256.047 29.927 265.977 
25.751 276.699 23.771 c 276.699 13.935 l 276.699 6.235 282.93 0.001 
290.621 0.001 c 298.309 0.001 304.539 6.235 304.539 13.935 c 304.539 
23.763 l 315.262 25.747 325.191 29.927 333.828 35.876 c 340.77 28.931 l 
343.492 26.208 347.062 24.849 350.625 24.849 c 354.184 24.849 357.762 
26.208 360.48 28.931 c 365.914 34.368 365.914 43.193 360.48 48.63 c 
353.535 55.571 l 359.484 64.216 363.664 74.142 365.633 84.857 c 375.477 
84.857 l 383.164 84.857 389.406 91.091 389.406 98.79 c 389.406 106.482 
383.164 112.716 375.477 112.716 c h
290.617 70.028 m 274.73 70.028 261.859 82.907 261.859 98.79 c 261.859 
114.673 274.73 127.548 290.617 127.548 c 306.508 127.548 319.375 
114.673 319.375 98.79 c 319.375 82.907 306.508 70.028 290.617 70.028 c 
h
290.617 70.028 m f
Q Q
showpage
%%Trailer
count op_count sub {pop} repeat
countdictstack dict_count sub {end} repeat
cairo_eps_state restore
%%EOF
