%!PS-Adobe-3.0 EPSF-3.0
%%Creator: cairo 1.10.2 (http://cairographics.org)
%%CreationDate: Tue Aug 11 08:30:39 2015
%%Pages: 1
%%BoundingBox: 0 -1 390 352
%%DocumentData: Clean7Bit
%%LanguageLevel: 2
%%EndComments
%%BeginProlog
/cairo_eps_state save def
/dict_count countdictstack def
/op_count count 1 sub def
userdict begin
/q { gsave } bind def
/Q { grestore } bind def
/cm { 6 array astore concat } bind def
/w { setlinewidth } bind def
/J { setlinecap } bind def
/j { setlinejoin } bind def
/M { setmiterlimit } bind def
/d { setdash } bind def
/m { moveto } bind def
/l { lineto } bind def
/c { curveto } bind def
/h { closepath } bind def
/re { exch dup neg 3 1 roll 5 3 roll moveto 0 rlineto
      0 exch rlineto 0 rlineto closepath } bind def
/S { stroke } bind def
/f { fill } bind def
/f* { eofill } bind def
/n { newpath } bind def
/W { clip } bind def
/W* { eoclip } bind def
/BT { } bind def
/ET { } bind def
/pdfmark where { pop globaldict /?pdfmark /exec load put }
    { globaldict begin /?pdfmark /pop load def /pdfmark
    /cleartomark load def end } ifelse
/BDC { mark 3 1 roll /BDC pdfmark } bind def
/EMC { mark /EMC pdfmark } bind def
/cairo_store_point { /cairo_point_y exch def /cairo_point_x exch def } def
/Tj { show currentpoint cairo_store_point } bind def
/TJ {
  {
    dup
    type /stringtype eq
    { show } { -0.001 mul 0 cairo_font_matrix dtransform rmoveto } ifelse
  } forall
  currentpoint cairo_store_point
} bind def
/cairo_selectfont { cairo_font_matrix aload pop pop pop 0 0 6 array astore
    cairo_font exch selectfont cairo_point_x cairo_point_y moveto } bind def
/Tf { pop /cairo_font exch def /cairo_font_matrix where
      { pop cairo_selectfont } if } bind def
/Td { matrix translate cairo_font_matrix matrix concatmatrix dup
      /cairo_font_matrix exch def dup 4 get exch 5 get cairo_store_point
      /cairo_font where { pop cairo_selectfont } if } bind def
/Tm { 2 copy 8 2 roll 6 array astore /cairo_font_matrix exch def
      cairo_store_point /cairo_font where { pop cairo_selectfont } if } bind def
/g { setgray } bind def
/rg { setrgbcolor } bind def
/d1 { setcachedevice } bind def
%%EndProlog
%%Page: 1 1
%%BeginPageSetup
%%PageBoundingBox: 0 -1 390 352
%%EndPageSetup
q 0 -1 390 353 rectclip q
0 351.945 390 -352 re W n
0 g
239.535 107.632 m 249.441 97.714 l 250.348 98.398 251.25 99.039 252.07 
99.859 c 261.859 109.64 261.859 125.507 252.07 135.285 c 241.258 
146.097 l 247.547 156.179 252.242 167.32 255.008 179.23 c 270.262 
179.23 l 284.098 179.23 295.312 190.449 295.312 204.281 c 295.312 
218.117 284.098 229.332 270.262 229.332 c 255.02 229.332 l 252.242 
241.242 247.547 252.378 241.27 262.457 c 252.07 273.265 l 261.859 
283.046 261.859 298.914 252.07 308.691 c 242.289 318.476 226.43 318.476 
216.645 308.691 c 205.844 297.882 l 195.754 304.164 184.621 308.863 
172.707 311.632 c 172.707 326.894 l 172.707 340.73 161.492 351.945 
147.656 351.945 c 133.82 351.945 122.605 340.73 122.605 326.894 c 
122.605 311.632 l 110.703 308.863 99.559 304.164 89.48 297.882 c 78.676 
308.687 l 68.895 318.472 53.035 318.472 43.254 308.687 c 33.465 298.906 
33.465 283.039 43.254 273.261 c 54.055 262.468 l 47.766 252.386 43.07 
241.242 40.293 229.335 c 25.051 229.335 l 11.215 229.332 0 218.117 0 
204.281 c 0 190.449 11.215 179.23 25.051 179.23 c 40.305 179.23 l 43.07 
167.316 47.766 156.179 54.055 146.093 c 43.254 135.292 l 33.465 125.511 
33.465 109.644 43.254 99.867 c 48.145 94.972 54.555 92.527 60.965 
92.527 c 67.375 92.527 73.785 94.972 78.676 99.867 c 89.48 110.675 l 
99.559 104.398 110.703 99.703 122.605 96.929 c 122.605 81.671 l 122.605 
67.835 133.82 56.621 147.656 56.621 c 150.602 56.621 153.406 57.222 
156.035 58.16 c 151.105 75.175 155.121 94.234 168.527 107.64 c 188.133 
127.261 219.926 127.242 239.535 107.632 c h
147.656 154.148 m 119.973 154.148 97.516 176.593 97.516 204.281 c 
97.516 231.968 119.973 254.417 147.656 254.417 c 175.34 254.417 197.785 
231.968 197.785 204.281 c 197.785 176.593 175.34 154.148 147.656 
154.148 c h
147.656 154.148 m f
382.066 155.999 m 372.277 165.785 356.426 165.781 346.641 156.007 c 
251.094 60.484 l 221.734 89.847 l 211.949 99.632 196.094 99.628 186.312 
89.855 c 176.523 80.07 176.523 64.21 186.312 54.421 c 233.383 7.339 l 
238.078 2.644 244.453 -0.001 251.094 -0.001 c 257.734 -0.001 264.109 
2.636 268.805 7.335 c 382.066 120.57 l 391.855 130.355 391.855 146.214 
382.066 155.999 c h
382.066 155.999 m f
Q Q
showpage
%%Trailer
count op_count sub {pop} repeat
countdictstack dict_count sub {end} repeat
cairo_eps_state restore
%%EOF
