%!PS-Adobe-3.0 EPSF-3.0
%%Creator: cairo 1.10.2 (http://cairographics.org)
%%CreationDate: Tue Aug 11 08:30:13 2015
%%Pages: 1
%%BoundingBox: 0 -1 392 390
%%DocumentData: Clean7Bit
%%LanguageLevel: 2
%%EndComments
%%BeginProlog
/cairo_eps_state save def
/dict_count countdictstack def
/op_count count 1 sub def
userdict begin
/q { gsave } bind def
/Q { grestore } bind def
/cm { 6 array astore concat } bind def
/w { setlinewidth } bind def
/J { setlinecap } bind def
/j { setlinejoin } bind def
/M { setmiterlimit } bind def
/d { setdash } bind def
/m { moveto } bind def
/l { lineto } bind def
/c { curveto } bind def
/h { closepath } bind def
/re { exch dup neg 3 1 roll 5 3 roll moveto 0 rlineto
      0 exch rlineto 0 rlineto closepath } bind def
/S { stroke } bind def
/f { fill } bind def
/f* { eofill } bind def
/n { newpath } bind def
/W { clip } bind def
/W* { eoclip } bind def
/BT { } bind def
/ET { } bind def
/pdfmark where { pop globaldict /?pdfmark /exec load put }
    { globaldict begin /?pdfmark /pop load def /pdfmark
    /cleartomark load def end } ifelse
/BDC { mark 3 1 roll /BDC pdfmark } bind def
/EMC { mark /EMC pdfmark } bind def
/cairo_store_point { /cairo_point_y exch def /cairo_point_x exch def } def
/Tj { show currentpoint cairo_store_point } bind def
/TJ {
  {
    dup
    type /stringtype eq
    { show } { -0.001 mul 0 cairo_font_matrix dtransform rmoveto } ifelse
  } forall
  currentpoint cairo_store_point
} bind def
/cairo_selectfont { cairo_font_matrix aload pop pop pop 0 0 6 array astore
    cairo_font exch selectfont cairo_point_x cairo_point_y moveto } bind def
/Tf { pop /cairo_font exch def /cairo_font_matrix where
      { pop cairo_selectfont } if } bind def
/Td { matrix translate cairo_font_matrix matrix concatmatrix dup
      /cairo_font_matrix exch def dup 4 get exch 5 get cairo_store_point
      /cairo_font where { pop cairo_selectfont } if } bind def
/Tm { 2 copy 8 2 roll 6 array astore /cairo_font_matrix exch def
      cairo_store_point /cairo_font where { pop cairo_selectfont } if } bind def
/g { setgray } bind def
/rg { setrgbcolor } bind def
/d1 { setcachedevice } bind def
%%EndProlog
%%Page: 1 1
%%BeginPageSetup
%%PageBoundingBox: 0 -1 392 390
%%EndPageSetup
q 0 -1 392 391 rectclip q
0 389.744 392 -390 re W n
0 g
201.016 55.81 m 144.949 55.81 l 153.113 47.658 l 158.312 42.459 161.605 
36.138 163.301 29.494 c 217.16 29.494 l 211.93 34.72 l 205.965 40.685 
202.367 48.088 201.016 55.81 c h
201.016 55.81 m f
85.621 141.451 m 85.621 363.423 l 304.449 363.423 l 304.449 105.689 l 
330.766 132.017 l 330.766 376.584 l 330.766 383.853 324.883 389.744 
317.609 389.744 c 72.461 389.744 l 65.188 389.744 59.305 383.853 59.305 
376.584 c 59.305 141.455 l 72.461 128.291 l h
85.621 141.451 m f
130.227 308.677 m 207.211 308.677 l 214.484 308.677 220.367 314.568 
220.367 321.838 c 220.367 329.103 214.484 334.994 207.211 334.994 c 
130.227 334.994 l 122.953 334.994 117.066 329.103 117.066 321.838 c 
117.066 314.568 122.953 308.677 130.227 308.677 c h
130.227 308.677 m f
259.848 282.361 m 130.227 282.361 l 122.953 282.361 117.066 276.466 
117.066 269.201 c 117.066 261.935 122.953 256.045 130.227 256.045 c 
259.848 256.045 l 267.121 256.045 273.004 261.935 273.004 269.201 c 
273.004 276.466 267.121 282.361 259.848 282.361 c h
259.848 282.361 m f
259.848 229.724 m 130.227 229.724 l 122.953 229.724 117.066 223.834 
117.066 216.568 c 117.066 209.302 122.953 203.408 130.227 203.408 c 
259.848 203.408 l 267.121 203.408 273.004 209.302 273.004 216.568 c 
273.004 223.834 267.121 229.724 259.848 229.724 c h
259.848 229.724 m f
259.848 177.091 m 182.859 177.091 l 175.586 177.091 169.703 171.201 
169.703 163.931 c 169.703 156.666 175.586 150.775 182.859 150.775 c 
259.848 150.775 l 267.121 150.775 273.004 156.666 273.004 163.931 c 
273.004 171.197 267.121 177.091 259.848 177.091 c h
259.848 177.091 m f
385.547 130.978 m 377.836 138.673 365.344 138.681 357.637 130.97 c 
278.543 51.857 l 253.793 76.595 l 246.082 84.306 233.59 84.306 225.883 
76.595 c 218.172 68.884 218.172 56.388 225.883 48.685 c 264.586 9.986 l 
268.289 6.283 273.312 4.205 278.543 4.205 c 283.785 4.205 288.797 6.283 
292.496 9.986 c 385.547 103.06 l 393.254 110.771 393.254 123.267 
385.547 130.978 c h
385.547 130.978 m f
100.371 72.47 m 117.98 90.08 109.539 81.638 139.145 111.24 c 146.852 
118.947 146.852 131.447 139.145 139.15 c 131.434 146.861 118.941 
146.861 111.23 139.15 c 81.457 109.384 89.926 117.845 72.461 100.381 c 
33.695 139.15 l 25.984 146.861 13.496 146.861 5.785 139.15 c -1.93 
131.439 -1.93 118.943 5.785 111.24 c 44.555 72.47 l 26.895 54.806 
35.375 63.283 5.785 33.693 c -1.93 25.982 -1.93 13.486 5.785 5.783 c 
13.496 -1.928 25.984 -1.928 33.695 5.783 c 63.285 35.373 54.816 26.908 
72.461 44.56 c 111.242 5.783 l 118.953 -1.928 131.445 -1.928 139.156 
5.783 c 146.867 13.494 146.867 25.99 139.156 33.693 c h
100.371 72.47 m f
Q Q
showpage
%%Trailer
count op_count sub {pop} repeat
countdictstack dict_count sub {end} repeat
cairo_eps_state restore
%%EOF
