%!PS-Adobe-3.0 EPSF-3.0
%%Creator: cairo 1.10.2 (http://cairographics.org)
%%CreationDate: Tue Aug 11 08:30:45 2015
%%Pages: 1
%%BoundingBox: 0 -1 321 393
%%DocumentData: Clean7Bit
%%LanguageLevel: 2
%%EndComments
%%BeginProlog
/cairo_eps_state save def
/dict_count countdictstack def
/op_count count 1 sub def
userdict begin
/q { gsave } bind def
/Q { grestore } bind def
/cm { 6 array astore concat } bind def
/w { setlinewidth } bind def
/J { setlinecap } bind def
/j { setlinejoin } bind def
/M { setmiterlimit } bind def
/d { setdash } bind def
/m { moveto } bind def
/l { lineto } bind def
/c { curveto } bind def
/h { closepath } bind def
/re { exch dup neg 3 1 roll 5 3 roll moveto 0 rlineto
      0 exch rlineto 0 rlineto closepath } bind def
/S { stroke } bind def
/f { fill } bind def
/f* { eofill } bind def
/n { newpath } bind def
/W { clip } bind def
/W* { eoclip } bind def
/BT { } bind def
/ET { } bind def
/pdfmark where { pop globaldict /?pdfmark /exec load put }
    { globaldict begin /?pdfmark /pop load def /pdfmark
    /cleartomark load def end } ifelse
/BDC { mark 3 1 roll /BDC pdfmark } bind def
/EMC { mark /EMC pdfmark } bind def
/cairo_store_point { /cairo_point_y exch def /cairo_point_x exch def } def
/Tj { show currentpoint cairo_store_point } bind def
/TJ {
  {
    dup
    type /stringtype eq
    { show } { -0.001 mul 0 cairo_font_matrix dtransform rmoveto } ifelse
  } forall
  currentpoint cairo_store_point
} bind def
/cairo_selectfont { cairo_font_matrix aload pop pop pop 0 0 6 array astore
    cairo_font exch selectfont cairo_point_x cairo_point_y moveto } bind def
/Tf { pop /cairo_font exch def /cairo_font_matrix where
      { pop cairo_selectfont } if } bind def
/Td { matrix translate cairo_font_matrix matrix concatmatrix dup
      /cairo_font_matrix exch def dup 4 get exch 5 get cairo_store_point
      /cairo_font where { pop cairo_selectfont } if } bind def
/Tm { 2 copy 8 2 roll 6 array astore /cairo_font_matrix exch def
      cairo_store_point /cairo_font where { pop cairo_selectfont } if } bind def
/g { setgray } bind def
/rg { setrgbcolor } bind def
/d1 { setcachedevice } bind def
%%EndProlog
%%Page: 1 1
%%BeginPageSetup
%%PageBoundingBox: 0 -1 321 393
%%EndPageSetup
q 0 -1 321 394 rectclip q
0 392.91 321 -393 re W n
0 g
20.324 392.91 m 9.105 392.91 0 383.813 0 372.586 c 0 20.324 l 0 9.098 
9.105 0 20.324 0 c 31.543 0 40.648 9.098 40.648 20.324 c 40.648 372.586 
l 40.648 383.813 31.543 392.91 20.324 392.91 c h
20.324 392.91 m f
311.977 377.528 m 229.031 405.899 146.098 342.664 63.156 371.031 c 
58.43 372.641 54.617 370.469 54.617 365.746 c 54.617 213.457 l 54.617 
208.746 58.43 203.281 63.156 201.672 c 146.098 173.305 229.031 236.539 
311.977 208.168 c 316.703 206.563 320.512 208.735 320.512 213.453 c 
320.512 365.746 l 320.512 370.457 316.703 375.922 311.977 377.528 c h
187.566 220.918 m 175.605 218.379 165.918 226.168 165.918 238.133 c 
165.918 250.074 175.605 261.66 187.566 264.199 c 199.523 266.739 
209.211 258.953 209.211 246.985 c 209.211 235.043 199.523 223.457 
187.566 220.918 c h
166.605 349.207 m 168.234 351.418 170.605 352.985 173.102 353.496 c 
182.746 355.446 192.383 357.547 202.027 359.5 c 204.527 360.012 206.895 
359.383 208.523 357.793 c 210.137 356.211 210.855 353.824 210.457 
351.293 c 206.672 326.914 202.887 302.496 199.105 278.063 c 195.465 
278.594 191.629 278.625 187.566 277.746 c 183.516 276.867 179.68 
275.239 176.043 273.235 c 172.258 296.11 168.461 319.016 164.676 
341.949 c 164.277 344.34 164.992 346.992 166.605 349.207 c h
166.605 349.207 m f
Q Q
showpage
%%Trailer
count op_count sub {pop} repeat
countdictstack dict_count sub {end} repeat
cairo_eps_state restore
%%EOF
