%!PS-Adobe-3.0 EPSF-3.0
%%Creator: cairo 1.10.2 (http://cairographics.org)
%%CreationDate: Tue Aug 11 08:30:22 2015
%%Pages: 1
%%BoundingBox: 0 -1 396 396
%%DocumentData: Clean7Bit
%%LanguageLevel: 2
%%EndComments
%%BeginProlog
/cairo_eps_state save def
/dict_count countdictstack def
/op_count count 1 sub def
userdict begin
/q { gsave } bind def
/Q { grestore } bind def
/cm { 6 array astore concat } bind def
/w { setlinewidth } bind def
/J { setlinecap } bind def
/j { setlinejoin } bind def
/M { setmiterlimit } bind def
/d { setdash } bind def
/m { moveto } bind def
/l { lineto } bind def
/c { curveto } bind def
/h { closepath } bind def
/re { exch dup neg 3 1 roll 5 3 roll moveto 0 rlineto
      0 exch rlineto 0 rlineto closepath } bind def
/S { stroke } bind def
/f { fill } bind def
/f* { eofill } bind def
/n { newpath } bind def
/W { clip } bind def
/W* { eoclip } bind def
/BT { } bind def
/ET { } bind def
/pdfmark where { pop globaldict /?pdfmark /exec load put }
    { globaldict begin /?pdfmark /pop load def /pdfmark
    /cleartomark load def end } ifelse
/BDC { mark 3 1 roll /BDC pdfmark } bind def
/EMC { mark /EMC pdfmark } bind def
/cairo_store_point { /cairo_point_y exch def /cairo_point_x exch def } def
/Tj { show currentpoint cairo_store_point } bind def
/TJ {
  {
    dup
    type /stringtype eq
    { show } { -0.001 mul 0 cairo_font_matrix dtransform rmoveto } ifelse
  } forall
  currentpoint cairo_store_point
} bind def
/cairo_selectfont { cairo_font_matrix aload pop pop pop 0 0 6 array astore
    cairo_font exch selectfont cairo_point_x cairo_point_y moveto } bind def
/Tf { pop /cairo_font exch def /cairo_font_matrix where
      { pop cairo_selectfont } if } bind def
/Td { matrix translate cairo_font_matrix matrix concatmatrix dup
      /cairo_font_matrix exch def dup 4 get exch 5 get cairo_store_point
      /cairo_font where { pop cairo_selectfont } if } bind def
/Tm { 2 copy 8 2 roll 6 array astore /cairo_font_matrix exch def
      cairo_store_point /cairo_font where { pop cairo_selectfont } if } bind def
/g { setgray } bind def
/rg { setrgbcolor } bind def
/d1 { setcachedevice } bind def
%%EndProlog
%%Page: 1 1
%%BeginPageSetup
%%PageBoundingBox: 0 -1 396 396
%%EndPageSetup
q 0 -1 396 397 rectclip q
0 395.036 396 -396 re W n
0 g
367.176 225.376 m 347.508 225.376 l 343.551 246.79 335.199 266.645 
323.312 283.919 c 337.184 297.79 l 348.066 308.665 348.066 326.306 
337.184 337.177 c 326.305 348.059 308.652 348.059 297.801 337.177 c 
283.926 323.306 l 266.637 335.208 246.781 343.563 225.359 347.516 c 
225.359 367.184 l 225.359 382.563 212.891 395.036 197.508 395.036 c 
182.125 395.036 169.652 382.563 169.652 367.184 c 169.652 347.516 l 
148.234 343.563 128.375 335.208 111.09 323.313 c 97.242 337.173 l 
86.363 348.052 68.707 348.052 57.855 337.173 c 46.973 326.298 46.973 
308.657 57.855 297.786 c 71.699 283.927 l 59.816 266.645 51.465 246.79 
47.52 225.376 c 27.852 225.376 l 12.457 225.376 0 212.903 0 197.52 c 0 
182.138 12.457 169.669 27.852 169.669 c 47.52 169.669 l 51.465 148.247 
59.816 128.391 71.727 111.11 c 57.855 97.239 l 46.973 86.364 46.973 
68.723 57.855 57.848 c 63.281 52.411 70.422 49.688 77.547 49.688 c 
84.676 49.688 91.805 52.411 97.242 57.848 c 111.117 71.723 l 128.391 
59.829 148.246 51.47 169.652 47.52 c 169.652 27.852 l 169.652 12.47 
182.125 0.001 197.508 0.001 c 212.891 0.001 225.359 12.473 225.359 
27.852 c 225.359 47.52 l 246.766 51.47 266.625 59.829 283.91 71.723 c 
297.797 57.845 l 303.223 52.403 310.363 49.684 317.492 49.684 c 324.617 
49.684 331.742 52.403 337.184 57.845 c 348.066 68.716 348.066 86.356 
337.184 97.231 c 323.301 111.11 l 334.992 128.102 343.223 147.614 
347.262 168.634 c 347.766 169.669 l 367.176 169.669 l 382.559 169.669 
395.027 182.138 395.027 197.52 c 395.027 212.903 382.559 225.376 
367.176 225.376 c h
197.508 93.095 m 139.922 93.095 93.082 139.942 93.082 197.52 c 93.082 
255.098 139.922 301.946 197.508 301.946 c 252.672 301.946 297.867 
258.915 301.566 204.669 c 336.258 219.173 l 337.215 219.575 338.328 
219.337 339.062 218.575 c 339.77 217.813 339.93 216.684 339.469 215.747 
c 322.66 181.716 334.383 205.423 290.613 116.891 c 290.125 115.903 
289.121 115.27 288.02 115.27 c 287.461 115.27 286.945 115.427 286.484 
115.712 c 286.035 115.993 285.664 116.399 285.422 116.891 c 276.566 
134.798 247.953 192.669 236.539 215.747 c 236.078 216.684 236.242 
217.813 236.961 218.575 c 237.68 219.345 238.797 219.583 239.75 219.173 
c 273.695 204.989 l 269.918 243.723 237.191 274.095 197.508 274.095 c 
155.289 274.095 120.934 239.747 120.934 197.52 c 120.934 155.298 
155.289 120.95 197.508 120.95 c 215.156 120.95 231.387 127.016 244.348 
137.087 c 256.887 111.731 l 240.008 100.013 219.566 93.095 197.508 
93.095 c h
197.508 93.095 m f
Q Q
showpage
%%Trailer
count op_count sub {pop} repeat
countdictstack dict_count sub {end} repeat
cairo_eps_state restore
%%EOF
