%!PS-Adobe-3.0 EPSF-3.0
%%Creator: cairo 1.10.2 (http://cairographics.org)
%%CreationDate: Tue Aug 11 08:30:36 2015
%%Pages: 1
%%BoundingBox: 0 -1 375 397
%%DocumentData: Clean7Bit
%%LanguageLevel: 2
%%EndComments
%%BeginProlog
/cairo_eps_state save def
/dict_count countdictstack def
/op_count count 1 sub def
userdict begin
/q { gsave } bind def
/Q { grestore } bind def
/cm { 6 array astore concat } bind def
/w { setlinewidth } bind def
/J { setlinecap } bind def
/j { setlinejoin } bind def
/M { setmiterlimit } bind def
/d { setdash } bind def
/m { moveto } bind def
/l { lineto } bind def
/c { curveto } bind def
/h { closepath } bind def
/re { exch dup neg 3 1 roll 5 3 roll moveto 0 rlineto
      0 exch rlineto 0 rlineto closepath } bind def
/S { stroke } bind def
/f { fill } bind def
/f* { eofill } bind def
/n { newpath } bind def
/W { clip } bind def
/W* { eoclip } bind def
/BT { } bind def
/ET { } bind def
/pdfmark where { pop globaldict /?pdfmark /exec load put }
    { globaldict begin /?pdfmark /pop load def /pdfmark
    /cleartomark load def end } ifelse
/BDC { mark 3 1 roll /BDC pdfmark } bind def
/EMC { mark /EMC pdfmark } bind def
/cairo_store_point { /cairo_point_y exch def /cairo_point_x exch def } def
/Tj { show currentpoint cairo_store_point } bind def
/TJ {
  {
    dup
    type /stringtype eq
    { show } { -0.001 mul 0 cairo_font_matrix dtransform rmoveto } ifelse
  } forall
  currentpoint cairo_store_point
} bind def
/cairo_selectfont { cairo_font_matrix aload pop pop pop 0 0 6 array astore
    cairo_font exch selectfont cairo_point_x cairo_point_y moveto } bind def
/Tf { pop /cairo_font exch def /cairo_font_matrix where
      { pop cairo_selectfont } if } bind def
/Td { matrix translate cairo_font_matrix matrix concatmatrix dup
      /cairo_font_matrix exch def dup 4 get exch 5 get cairo_store_point
      /cairo_font where { pop cairo_selectfont } if } bind def
/Tm { 2 copy 8 2 roll 6 array astore /cairo_font_matrix exch def
      cairo_store_point /cairo_font where { pop cairo_selectfont } if } bind def
/g { setgray } bind def
/rg { setrgbcolor } bind def
/d1 { setcachedevice } bind def
%%EndProlog
%%Page: 1 1
%%BeginPageSetup
%%PageBoundingBox: 0 -1 375 397
%%EndPageSetup
q 0 -1 375 398 rectclip q
0 396.456 375 -397 re W n
0 g
269.07 292.776 m 247.766 301.515 l 247.02 301.815 246.172 301.632 
245.617 301.05 c 245.086 300.456 244.949 299.601 245.305 298.878 c 
281.547 225.554 l 281.918 224.819 282.66 224.354 283.484 224.354 c 
284.305 224.354 285.051 224.819 285.422 225.554 c 321.664 298.878 l 
322.023 299.601 321.883 300.456 321.348 301.05 c 320.797 301.632 
319.945 301.815 319.207 301.515 c 297.223 292.495 l 293.801 350.378 
245.758 396.456 187.023 396.456 c 126.078 396.456 76.5 346.882 76.5 
285.944 c 76.5 278.175 82.789 271.874 90.566 271.874 c 98.344 271.874 
104.637 278.175 104.637 285.944 c 104.637 331.362 141.59 368.319 
187.023 368.319 c 230.152 368.319 265.582 335.003 269.07 292.776 c h
269.07 292.776 m f
283.484 181.132 m 233.543 181.132 192.922 140.507 192.922 90.565 c 
192.922 40.624 233.543 -0.001 283.484 -0.001 c 333.426 -0.001 374.051 
40.624 374.051 90.565 c 374.051 140.507 333.422 181.132 283.484 181.132 
c h
283.484 28.136 m 249.055 28.136 221.055 56.143 221.055 90.565 c 221.055 
124.987 249.055 152.995 283.484 152.995 c 317.914 152.995 345.914 
124.987 345.914 90.565 c 345.914 56.143 317.914 28.136 283.484 28.136 c 
h
283.484 28.136 m f
90.566 181.132 m 40.625 181.132 0 140.507 0 90.565 c 0 40.624 40.625 
-0.001 90.566 -0.001 c 140.508 -0.001 181.129 40.624 181.129 90.565 c 
181.129 140.507 140.508 181.132 90.566 181.132 c h
90.566 181.132 m f
Q Q
showpage
%%Trailer
count op_count sub {pop} repeat
countdictstack dict_count sub {end} repeat
cairo_eps_state restore
%%EOF
