%!PS-Adobe-3.0 EPSF-3.0
%%Creator: cairo 1.10.2 (http://cairographics.org)
%%CreationDate: Tue Aug 11 08:29:41 2015
%%Pages: 1
%%BoundingBox: 0 -1 393 320
%%DocumentData: Clean7Bit
%%LanguageLevel: 2
%%EndComments
%%BeginProlog
/cairo_eps_state save def
/dict_count countdictstack def
/op_count count 1 sub def
userdict begin
/q { gsave } bind def
/Q { grestore } bind def
/cm { 6 array astore concat } bind def
/w { setlinewidth } bind def
/J { setlinecap } bind def
/j { setlinejoin } bind def
/M { setmiterlimit } bind def
/d { setdash } bind def
/m { moveto } bind def
/l { lineto } bind def
/c { curveto } bind def
/h { closepath } bind def
/re { exch dup neg 3 1 roll 5 3 roll moveto 0 rlineto
      0 exch rlineto 0 rlineto closepath } bind def
/S { stroke } bind def
/f { fill } bind def
/f* { eofill } bind def
/n { newpath } bind def
/W { clip } bind def
/W* { eoclip } bind def
/BT { } bind def
/ET { } bind def
/pdfmark where { pop globaldict /?pdfmark /exec load put }
    { globaldict begin /?pdfmark /pop load def /pdfmark
    /cleartomark load def end } ifelse
/BDC { mark 3 1 roll /BDC pdfmark } bind def
/EMC { mark /EMC pdfmark } bind def
/cairo_store_point { /cairo_point_y exch def /cairo_point_x exch def } def
/Tj { show currentpoint cairo_store_point } bind def
/TJ {
  {
    dup
    type /stringtype eq
    { show } { -0.001 mul 0 cairo_font_matrix dtransform rmoveto } ifelse
  } forall
  currentpoint cairo_store_point
} bind def
/cairo_selectfont { cairo_font_matrix aload pop pop pop 0 0 6 array astore
    cairo_font exch selectfont cairo_point_x cairo_point_y moveto } bind def
/Tf { pop /cairo_font exch def /cairo_font_matrix where
      { pop cairo_selectfont } if } bind def
/Td { matrix translate cairo_font_matrix matrix concatmatrix dup
      /cairo_font_matrix exch def dup 4 get exch 5 get cairo_store_point
      /cairo_font where { pop cairo_selectfont } if } bind def
/Tm { 2 copy 8 2 roll 6 array astore /cairo_font_matrix exch def
      cairo_store_point /cairo_font where { pop cairo_selectfont } if } bind def
/g { setgray } bind def
/rg { setrgbcolor } bind def
/d1 { setcachedevice } bind def
%%EndProlog
%%Page: 1 1
%%BeginPageSetup
%%PageBoundingBox: 0 -1 393 320
%%EndPageSetup
q 0 -1 393 321 rectclip q
0 319.446 393 -320 re W n
0 g
375.75 76.977 m 308.758 76.977 l 306 76.977 303.77 74.742 303.77 71.989 
c 303.77 4.989 l 303.77 2.235 306 0 308.758 0 c 375.75 0 l 378.5 0 
380.738 2.235 380.738 4.989 c 380.738 71.989 l 380.738 74.742 378.496 
76.977 375.75 76.977 c h
375.75 76.977 m f
391.305 251.938 m 346.371 317.282 l 345.441 318.629 343.902 319.446 
342.258 319.446 c 340.617 319.446 339.078 318.629 338.148 317.282 c 
293.203 251.938 l 292.148 250.418 292.031 248.434 292.898 246.789 c 
293.762 245.149 295.457 244.121 297.312 244.121 c 387.203 244.121 l 
389.047 244.121 390.754 245.149 391.609 246.789 c 392.473 248.434 
392.359 250.41 391.305 251.938 c h
391.305 251.938 m f
222.547 249.328 m 223.109 248.813 223.934 248.699 224.625 249.035 c 
287.492 280.114 l 288.129 280.43 288.52 281.074 288.52 281.782 c 288.52 
282.489 288.129 283.129 287.492 283.449 c 224.609 314.52 l 223.922 
314.856 223.109 314.742 222.547 314.227 c 221.973 313.719 221.781 
312.91 222.051 312.196 c 228.633 294.813 l 169.164 294.813 l 161.961 
294.813 156.129 288.977 156.129 281.782 c 156.129 173.168 l 134.953 
173.168 l 130.062 189.75 116.238 202.492 98.953 205.606 c 85.906 
179.532 l 68.504 193.375 l 51.078 179.532 l 38.031 205.606 l 16.418 
201.715 0 182.91 0 160.192 c 0 129.907 l 0 124.746 4.188 120.567 9.344 
120.567 c 62.367 120.567 l 57.574 168.61 l 68.492 179.532 l 79.426 
168.61 l 74.641 120.567 l 127.645 120.567 l 132.801 120.567 136.988 
124.746 136.988 129.907 c 136.988 147.098 l 156.129 147.098 l 156.129 
38.485 l 156.129 31.285 161.961 25.449 169.164 25.449 c 228.633 25.449 
l 222.062 8.063 l 221.797 7.352 221.988 6.543 222.547 6.035 c 223.121 
5.516 223.945 5.403 224.625 5.742 c 287.492 36.817 l 288.109 37.137 
288.508 37.782 288.508 38.485 c 288.508 39.192 288.109 39.836 287.492 
40.153 c 224.613 71.223 l 223.922 71.563 223.109 71.446 222.547 70.934 
c 221.977 70.422 221.781 69.614 222.055 68.903 c 228.633 51.52 l 
182.199 51.52 l 182.199 268.746 l 228.633 268.746 l 222.066 251.356 l 
221.781 250.645 221.988 249.844 222.547 249.328 c h
222.547 249.328 m f
85.867 211.289 m 85.867 212.735 l 94.125 220.313 100.836 229.465 
105.098 240.106 c 108.777 240.172 112.879 243.52 115.066 248.856 c 
117.664 255.254 116.469 261.789 112.395 263.446 c 111.617 263.762 
110.766 263.703 109.926 263.641 c 109.949 264.356 110.051 265.028 
110.051 265.746 c 110.051 296.297 91.441 311.723 68.516 311.723 c 
45.543 311.723 26.934 296.297 26.934 265.746 c 26.934 265.032 27.035 
264.356 27.047 263.641 c 26.207 263.703 25.355 263.762 24.59 263.446 c 
20.52 261.789 19.32 255.254 21.922 248.856 c 24.109 243.512 28.207 
240.164 31.887 240.106 c 36.152 229.465 42.867 220.313 51.121 212.735 c 
51.121 211.297 l 51.121 210.875 50.965 210.5 50.879 210.114 c 68.504 
193.375 l 86.109 210.106 l 86.02 210.492 85.867 210.871 85.867 211.289 
c h
85.867 211.289 m f
Q Q
showpage
%%Trailer
count op_count sub {pop} repeat
countdictstack dict_count sub {end} repeat
cairo_eps_state restore
%%EOF
