%!PS-Adobe-3.0 EPSF-3.0
%%Creator: cairo 1.10.2 (http://cairographics.org)
%%CreationDate: Tue Aug 11 08:29:57 2015
%%Pages: 1
%%BoundingBox: 0 -1 393 388
%%DocumentData: Clean7Bit
%%LanguageLevel: 2
%%EndComments
%%BeginProlog
/cairo_eps_state save def
/dict_count countdictstack def
/op_count count 1 sub def
userdict begin
/q { gsave } bind def
/Q { grestore } bind def
/cm { 6 array astore concat } bind def
/w { setlinewidth } bind def
/J { setlinecap } bind def
/j { setlinejoin } bind def
/M { setmiterlimit } bind def
/d { setdash } bind def
/m { moveto } bind def
/l { lineto } bind def
/c { curveto } bind def
/h { closepath } bind def
/re { exch dup neg 3 1 roll 5 3 roll moveto 0 rlineto
      0 exch rlineto 0 rlineto closepath } bind def
/S { stroke } bind def
/f { fill } bind def
/f* { eofill } bind def
/n { newpath } bind def
/W { clip } bind def
/W* { eoclip } bind def
/BT { } bind def
/ET { } bind def
/pdfmark where { pop globaldict /?pdfmark /exec load put }
    { globaldict begin /?pdfmark /pop load def /pdfmark
    /cleartomark load def end } ifelse
/BDC { mark 3 1 roll /BDC pdfmark } bind def
/EMC { mark /EMC pdfmark } bind def
/cairo_store_point { /cairo_point_y exch def /cairo_point_x exch def } def
/Tj { show currentpoint cairo_store_point } bind def
/TJ {
  {
    dup
    type /stringtype eq
    { show } { -0.001 mul 0 cairo_font_matrix dtransform rmoveto } ifelse
  } forall
  currentpoint cairo_store_point
} bind def
/cairo_selectfont { cairo_font_matrix aload pop pop pop 0 0 6 array astore
    cairo_font exch selectfont cairo_point_x cairo_point_y moveto } bind def
/Tf { pop /cairo_font exch def /cairo_font_matrix where
      { pop cairo_selectfont } if } bind def
/Td { matrix translate cairo_font_matrix matrix concatmatrix dup
      /cairo_font_matrix exch def dup 4 get exch 5 get cairo_store_point
      /cairo_font where { pop cairo_selectfont } if } bind def
/Tm { 2 copy 8 2 roll 6 array astore /cairo_font_matrix exch def
      cairo_store_point /cairo_font where { pop cairo_selectfont } if } bind def
/g { setgray } bind def
/rg { setrgbcolor } bind def
/d1 { setcachedevice } bind def
%%EndProlog
%%Page: 1 1
%%BeginPageSetup
%%PageBoundingBox: 0 -1 393 388
%%EndPageSetup
q 0 -1 393 389 rectclip q
0 387.938 393 -388 re W n
0 g
197.402 35.863 m 161.238 37.441 127.262 50.797 99.879 74.238 c 140.152 
90.77 l 141.207 91.203 141.895 92.25 141.855 93.399 c 141.816 94.547 
141.078 95.555 139.988 95.918 c 139.078 96.231 26.566 134.285 25.512 
134.645 c 24.723 134.902 23.098 134.734 22.246 133.883 c 21.387 133.027 
21.086 131.762 21.48 130.613 c 49.148 48.867 44.066 63.859 60.223 
16.152 c 60.598 15.066 61.602 14.324 62.738 14.285 c 63.898 14.246 
64.945 14.93 65.375 15.992 c 81.426 55.121 l 113.836 26.895 154.332 
10.871 197.453 9.266 c 197.453 9.461 197.402 9.637 197.402 9.832 c h
197.402 35.863 m f
375.547 235.125 m 359.891 240.414 l 363.797 226.402 365.941 211.816 
365.941 196.871 c 365.941 191.367 365.656 185.899 365.109 180.492 c 
365.211 179.789 365.445 179.152 365.539 178.438 c 373.496 168.141 
375.484 153.039 369.602 138.582 c 366.281 130.422 360.906 123.746 
354.383 119.242 c 352.812 116.32 351.098 113.469 349.242 110.707 c 
355.242 108.102 360.758 104.641 365.84 100.637 c 383.109 129.461 
392.523 162.402 392.535 196.871 c 392.535 209.492 391.285 221.922 
388.871 234.027 c 387.496 233.824 386.105 233.617 384.688 233.617 c 
381.484 233.617 378.312 234.156 375.547 235.125 c h
375.547 235.125 m f
33.629 158.617 m 49.352 153.301 l 42.508 177.863 41.512 203.707 46.484 
228.629 c 19.555 228.629 l 15.672 205.816 15.906 182.445 20.449 159.727 
c 21.785 159.918 23.109 160.125 24.488 160.125 c 27.668 160.125 30.797 
159.594 33.629 158.617 c h
33.629 158.617 m f
269.012 302.981 m 267.945 302.543 267.27 301.5 267.309 300.348 c 
267.352 299.199 268.09 298.195 269.18 297.832 c 270.477 297.391 383.598 
258.902 384.965 259.027 c 387.43 259.254 388.219 261.598 387.691 
263.125 c 355.18 359.188 364.5 331.629 348.945 377.594 c 348.566 
378.684 347.566 379.426 346.426 379.465 c 345.27 379.504 344.219 378.82 
343.789 377.758 c 327.73 338.617 l 293.539 368.395 250.367 384.809 
204.582 384.809 c 199.168 384.809 193.805 384.477 188.469 384.024 c 196 
377.738 200.91 368.512 201.34 358.059 c 202.426 358.078 203.492 358.215 
204.582 358.215 c 243.406 358.215 280.09 344.492 309.262 319.504 c h
269.012 302.981 m f
174.891 264.473 m 174.891 356.625 l 174.891 361.734 170.746 365.875 
165.641 365.875 c 79.051 365.875 l 79.051 378.688 l 79.051 383.797 
74.906 387.938 69.805 387.938 c 9.246 387.938 l 4.145 387.938 0 383.797 
0 378.688 c 0 264.473 l 0 259.363 4.145 255.223 9.246 255.223 c 165.641 
255.223 l 170.746 255.223 174.891 259.363 174.891 264.473 c h
174.891 264.473 m f
319.395 90.285 m 316.562 90.285 314.273 92.57 314.273 95.399 c 314.273 
110.629 l 322.973 118.594 330.012 128.215 334.504 139.406 c 338.371 
139.473 342.688 142.992 344.973 148.606 c 347.711 155.34 346.453 
162.203 342.18 163.941 c 341.688 164.149 341.164 164.207 340.633 
164.207 c 340.281 164.207 339.934 164.184 339.578 164.156 c 339.598 
164.91 339.699 165.609 339.699 166.367 c 339.699 198.492 320.129 
214.715 296.02 214.715 c 271.883 214.715 252.305 198.492 252.305 
166.367 c 252.305 165.609 252.406 164.91 252.418 164.156 c 252.07 
164.184 251.727 164.207 251.379 164.207 c 250.844 164.207 250.328 
164.149 249.832 163.941 c 245.562 162.203 244.305 155.34 247.043 
148.606 c 249.328 142.992 253.637 139.473 257.52 139.406 c 262.012 
128.215 269.062 118.594 277.734 110.629 c 277.734 95.402 l 277.734 
92.57 275.449 90.285 272.637 90.285 c 245.742 90.285 223.996 68.52 
223.996 41.668 c 223.996 9.828 l 223.996 4.395 228.395 0 233.809 0 c 
358.203 0 l 363.613 0 368.016 4.395 368.016 9.828 c 368.016 41.668 l 
368.016 68.52 346.242 90.285 319.395 90.285 c h
319.395 90.285 m f
Q Q
showpage
%%Trailer
count op_count sub {pop} repeat
countdictstack dict_count sub {end} repeat
cairo_eps_state restore
%%EOF
