%!PS-Adobe-3.0 EPSF-3.0
%%Creator: cairo 1.10.2 (http://cairographics.org)
%%CreationDate: Tue Aug 11 08:29:48 2015
%%Pages: 1
%%BoundingBox: 0 -1 355 396
%%DocumentData: Clean7Bit
%%LanguageLevel: 2
%%EndComments
%%BeginProlog
/cairo_eps_state save def
/dict_count countdictstack def
/op_count count 1 sub def
userdict begin
/q { gsave } bind def
/Q { grestore } bind def
/cm { 6 array astore concat } bind def
/w { setlinewidth } bind def
/J { setlinecap } bind def
/j { setlinejoin } bind def
/M { setmiterlimit } bind def
/d { setdash } bind def
/m { moveto } bind def
/l { lineto } bind def
/c { curveto } bind def
/h { closepath } bind def
/re { exch dup neg 3 1 roll 5 3 roll moveto 0 rlineto
      0 exch rlineto 0 rlineto closepath } bind def
/S { stroke } bind def
/f { fill } bind def
/f* { eofill } bind def
/n { newpath } bind def
/W { clip } bind def
/W* { eoclip } bind def
/BT { } bind def
/ET { } bind def
/pdfmark where { pop globaldict /?pdfmark /exec load put }
    { globaldict begin /?pdfmark /pop load def /pdfmark
    /cleartomark load def end } ifelse
/BDC { mark 3 1 roll /BDC pdfmark } bind def
/EMC { mark /EMC pdfmark } bind def
/cairo_store_point { /cairo_point_y exch def /cairo_point_x exch def } def
/Tj { show currentpoint cairo_store_point } bind def
/TJ {
  {
    dup
    type /stringtype eq
    { show } { -0.001 mul 0 cairo_font_matrix dtransform rmoveto } ifelse
  } forall
  currentpoint cairo_store_point
} bind def
/cairo_selectfont { cairo_font_matrix aload pop pop pop 0 0 6 array astore
    cairo_font exch selectfont cairo_point_x cairo_point_y moveto } bind def
/Tf { pop /cairo_font exch def /cairo_font_matrix where
      { pop cairo_selectfont } if } bind def
/Td { matrix translate cairo_font_matrix matrix concatmatrix dup
      /cairo_font_matrix exch def dup 4 get exch 5 get cairo_store_point
      /cairo_font where { pop cairo_selectfont } if } bind def
/Tm { 2 copy 8 2 roll 6 array astore /cairo_font_matrix exch def
      cairo_store_point /cairo_font where { pop cairo_selectfont } if } bind def
/g { setgray } bind def
/rg { setrgbcolor } bind def
/d1 { setcachedevice } bind def
%%EndProlog
%%Page: 1 1
%%BeginPageSetup
%%PageBoundingBox: 0 -1 355 396
%%EndPageSetup
q 0 -1 355 397 rectclip q
0 395.325 355 -396 re W n
0 g
177.453 86.192 m 193.137 101.887 218.609 101.883 234.297 86.184 c 
243.566 76.911 l 260.172 93.508 l 260.172 96.797 l 260.172 139.954 229 
175.782 187.961 183.161 c 163.152 133.54 l 130.094 159.825 l 97.008 
133.54 l 72.203 183.161 l 31.137 175.782 0 139.954 0 96.801 c 0 39.282 
l 0 29.481 7.957 21.536 17.746 21.536 c 118.434 21.536 l 109.328 
112.801 l 130.078 133.54 l 150.832 112.801 l 141.77 21.536 l 185.238 
21.536 l 177.438 29.337 l 161.738 45.04 161.738 70.497 177.453 86.192 c 
h
177.453 86.192 m f
163.098 193.848 m 163.098 207.294 l 178.699 221.618 191.391 238.903 
199.48 258.977 c 206.5 259.04 214.367 265.727 218.531 275.911 c 223.473 
288.067 221.223 300.477 213.473 303.622 c 211.988 304.227 210.402 
304.337 208.793 304.212 c 208.82 305.489 209 306.696 209 307.989 c 209 
366.024 173.676 395.325 130.125 395.325 c 86.488 395.325 51.137 366.024 
51.137 307.989 c 51.137 306.696 51.312 305.489 51.34 304.212 c 49.73 
304.333 48.156 304.223 46.684 303.622 c 38.941 300.473 36.688 288.067 
41.633 275.911 c 45.797 265.719 53.66 259.032 60.684 258.977 c 68.801 
238.903 81.504 221.614 97.066 207.294 c 97.066 193.86 l 97.066 193.063 
96.805 192.356 96.609 191.622 c 130.094 159.825 l 163.551 191.61 l 
163.359 192.344 163.098 193.051 163.098 193.848 c h
163.098 193.848 m f
348.441 124.915 m 340.617 132.754 327.926 132.751 320.07 124.922 c 
243.555 48.426 l 220.055 71.942 l 212.223 79.786 199.535 79.778 191.68 
71.95 c 183.852 64.114 183.852 51.415 191.68 43.579 c 229.367 5.879 l 
233.129 2.114 238.223 0.001 243.555 0.001 c 248.871 0.001 253.98 2.114 
257.742 5.872 c 348.441 96.547 l 356.273 104.383 356.273 117.079 
348.441 124.915 c h
348.441 124.915 m f
Q Q
showpage
%%Trailer
count op_count sub {pop} repeat
countdictstack dict_count sub {end} repeat
cairo_eps_state restore
%%EOF
