%!PS-Adobe-3.0 EPSF-3.0
%%Creator: cairo 1.10.2 (http://cairographics.org)
%%CreationDate: Tue Aug 11 08:29:47 2015
%%Pages: 1
%%BoundingBox: 0 -1 325 395
%%DocumentData: Clean7Bit
%%LanguageLevel: 2
%%EndComments
%%BeginProlog
/cairo_eps_state save def
/dict_count countdictstack def
/op_count count 1 sub def
userdict begin
/q { gsave } bind def
/Q { grestore } bind def
/cm { 6 array astore concat } bind def
/w { setlinewidth } bind def
/J { setlinecap } bind def
/j { setlinejoin } bind def
/M { setmiterlimit } bind def
/d { setdash } bind def
/m { moveto } bind def
/l { lineto } bind def
/c { curveto } bind def
/h { closepath } bind def
/re { exch dup neg 3 1 roll 5 3 roll moveto 0 rlineto
      0 exch rlineto 0 rlineto closepath } bind def
/S { stroke } bind def
/f { fill } bind def
/f* { eofill } bind def
/n { newpath } bind def
/W { clip } bind def
/W* { eoclip } bind def
/BT { } bind def
/ET { } bind def
/pdfmark where { pop globaldict /?pdfmark /exec load put }
    { globaldict begin /?pdfmark /pop load def /pdfmark
    /cleartomark load def end } ifelse
/BDC { mark 3 1 roll /BDC pdfmark } bind def
/EMC { mark /EMC pdfmark } bind def
/cairo_store_point { /cairo_point_y exch def /cairo_point_x exch def } def
/Tj { show currentpoint cairo_store_point } bind def
/TJ {
  {
    dup
    type /stringtype eq
    { show } { -0.001 mul 0 cairo_font_matrix dtransform rmoveto } ifelse
  } forall
  currentpoint cairo_store_point
} bind def
/cairo_selectfont { cairo_font_matrix aload pop pop pop 0 0 6 array astore
    cairo_font exch selectfont cairo_point_x cairo_point_y moveto } bind def
/Tf { pop /cairo_font exch def /cairo_font_matrix where
      { pop cairo_selectfont } if } bind def
/Td { matrix translate cairo_font_matrix matrix concatmatrix dup
      /cairo_font_matrix exch def dup 4 get exch 5 get cairo_store_point
      /cairo_font where { pop cairo_selectfont } if } bind def
/Tm { 2 copy 8 2 roll 6 array astore /cairo_font_matrix exch def
      cairo_store_point /cairo_font where { pop cairo_selectfont } if } bind def
/g { setgray } bind def
/rg { setrgbcolor } bind def
/d1 { setcachedevice } bind def
%%EndProlog
%%Page: 1 1
%%BeginPageSetup
%%PageBoundingBox: 0 -1 325 395
%%EndPageSetup
q 0 -1 325 396 rectclip q
0 394.536 325 -395 re W n
0 g
140.645 120.899 m 122.121 83.829 l 97.375 103.509 l 72.609 83.829 l 
54.082 120.899 l 23.344 115.376 0 88.638 0 56.333 c 0 13.282 l 0 5.95 
5.941 0.001 13.281 0.001 c 88.652 0.001 l 81.84 68.306 l 97.363 83.829 
l 112.902 68.306 l 106.105 0.001 l 181.445 0.001 l 188.785 0.001 
194.727 5.95 194.727 13.282 c 194.727 56.333 l 194.73 88.638 171.371 
115.376 140.645 120.899 c h
140.645 120.899 m f
122.07 128.977 m 122.07 136.306 l 133.812 147.083 143.352 160.102 
149.414 175.224 c 154.645 175.309 160.469 180.067 163.566 187.661 c 
167.27 196.763 165.586 206.052 159.785 208.407 c 158.684 208.856 
157.469 208.778 156.262 208.688 c 156.289 209.7 156.434 210.649 156.434 
211.673 c 156.434 255.11 129.992 277.044 97.391 277.044 c 64.723 
277.044 38.27 255.11 38.27 211.673 c 38.27 210.649 38.418 209.7 38.441 
208.688 c 37.25 208.778 36.043 208.856 34.945 208.407 c 29.145 206.052 
27.465 196.763 31.168 187.661 c 34.262 180.075 40.086 175.313 45.316 
175.224 c 51.387 160.095 60.93 147.083 72.645 136.306 c 72.645 128.981 
l 72.645 128.388 72.457 127.856 72.309 127.313 c 97.375 103.509 l 
122.406 127.29 l 122.266 127.845 122.07 128.376 122.07 128.977 c h
122.07 128.977 m f
252.332 394.536 m 212.441 394.536 179.984 362.071 179.984 322.165 c 
179.984 301.876 188.27 283.091 203.34 269.255 c 210.484 262.692 215.809 
254.391 218.809 245.243 c 239.723 245.243 l 237.961 250.766 l 233.934 
263.415 226.621 274.876 216.793 283.899 c 205.879 293.919 199.871 
307.509 199.871 322.165 c 199.871 351.102 223.406 374.649 252.332 
374.649 c 281.273 374.649 304.824 351.102 304.824 322.165 c 304.824 
307.501 298.816 293.915 287.898 283.899 c 278.059 274.88 270.719 
263.415 266.695 250.747 c 264.945 245.243 l 285.855 245.243 l 288.859 
254.391 294.195 262.692 301.34 269.243 c 316.41 283.071 324.707 301.868 
324.707 322.165 c 324.707 362.071 292.238 394.536 252.332 394.536 c h
252.332 394.536 m f
222.109 224.114 m 222.109 210.864 230.699 199.724 242.559 195.638 c 
242.949 190.497 247.129 186.411 252.359 186.411 c 257.586 186.411 
261.773 190.497 262.16 195.638 c 274.023 199.724 282.605 210.864 
282.605 224.114 c 282.605 231.989 l 222.113 231.989 l 222.113 224.114 l 
h
222.109 224.114 m f
271.547 326.075 m 283.461 314.149 l 286.047 311.563 290.246 311.563 
292.832 314.149 c 295.422 316.735 295.422 320.934 292.832 323.524 c 
276.234 340.138 l 274.988 341.38 273.309 342.079 271.547 342.079 c 
269.789 342.079 268.102 341.38 266.859 340.138 c 252.641 325.919 l 
238.426 340.138 l 235.84 342.724 231.641 342.724 229.055 340.138 c 
211.859 322.954 l 209.27 320.372 209.27 316.169 211.859 313.579 c 
214.445 310.993 218.645 310.993 221.23 313.579 c 233.742 326.075 l 
247.957 311.86 l 249.25 310.563 250.949 309.915 252.641 309.915 c 
254.34 309.915 256.035 310.563 257.328 311.86 c h
271.547 326.075 m f
Q Q
showpage
%%Trailer
count op_count sub {pop} repeat
countdictstack dict_count sub {end} repeat
cairo_eps_state restore
%%EOF
