%!PS-Adobe-3.0 EPSF-3.0
%%Creator: cairo 1.10.2 (http://cairographics.org)
%%CreationDate: Tue Aug 11 08:30:24 2015
%%Pages: 1
%%BoundingBox: 0 -1 344 394
%%DocumentData: Clean7Bit
%%LanguageLevel: 2
%%EndComments
%%BeginProlog
/cairo_eps_state save def
/dict_count countdictstack def
/op_count count 1 sub def
userdict begin
/q { gsave } bind def
/Q { grestore } bind def
/cm { 6 array astore concat } bind def
/w { setlinewidth } bind def
/J { setlinecap } bind def
/j { setlinejoin } bind def
/M { setmiterlimit } bind def
/d { setdash } bind def
/m { moveto } bind def
/l { lineto } bind def
/c { curveto } bind def
/h { closepath } bind def
/re { exch dup neg 3 1 roll 5 3 roll moveto 0 rlineto
      0 exch rlineto 0 rlineto closepath } bind def
/S { stroke } bind def
/f { fill } bind def
/f* { eofill } bind def
/n { newpath } bind def
/W { clip } bind def
/W* { eoclip } bind def
/BT { } bind def
/ET { } bind def
/pdfmark where { pop globaldict /?pdfmark /exec load put }
    { globaldict begin /?pdfmark /pop load def /pdfmark
    /cleartomark load def end } ifelse
/BDC { mark 3 1 roll /BDC pdfmark } bind def
/EMC { mark /EMC pdfmark } bind def
/cairo_store_point { /cairo_point_y exch def /cairo_point_x exch def } def
/Tj { show currentpoint cairo_store_point } bind def
/TJ {
  {
    dup
    type /stringtype eq
    { show } { -0.001 mul 0 cairo_font_matrix dtransform rmoveto } ifelse
  } forall
  currentpoint cairo_store_point
} bind def
/cairo_selectfont { cairo_font_matrix aload pop pop pop 0 0 6 array astore
    cairo_font exch selectfont cairo_point_x cairo_point_y moveto } bind def
/Tf { pop /cairo_font exch def /cairo_font_matrix where
      { pop cairo_selectfont } if } bind def
/Td { matrix translate cairo_font_matrix matrix concatmatrix dup
      /cairo_font_matrix exch def dup 4 get exch 5 get cairo_store_point
      /cairo_font where { pop cairo_selectfont } if } bind def
/Tm { 2 copy 8 2 roll 6 array astore /cairo_font_matrix exch def
      cairo_store_point /cairo_font where { pop cairo_selectfont } if } bind def
/g { setgray } bind def
/rg { setrgbcolor } bind def
/d1 { setcachedevice } bind def
%%EndProlog
%%Page: 1 1
%%BeginPageSetup
%%PageBoundingBox: 0 -1 344 394
%%EndPageSetup
q 0 -1 344 395 rectclip q
0 393.892 344 -394 re W n
0 g
269.012 311.49 m 335.426 311.49 l 339.84 311.49 343.422 315.068 343.422 
319.478 c 343.422 385.904 l 343.422 390.314 339.84 393.892 335.426 
393.892 c 269.012 393.892 l 264.594 393.892 261.02 390.314 261.02 
385.904 c 261.02 365.876 l 170.375 365.876 l 163.086 365.876 157.188 
359.97 157.188 352.693 c 157.188 210.13 l 110.477 210.13 l 110.477 
241.47 l 110.477 247.388 105.688 252.181 99.762 252.181 c 10.715 
252.181 l 4.789 252.181 0 247.388 0 241.47 c 0 152.415 l 0 146.497 
4.789 141.704 10.715 141.704 c 99.766 141.704 l 105.688 141.704 110.477 
146.497 110.477 152.415 c 110.477 183.763 l 157.188 183.763 l 157.188 
41.201 l 157.188 33.923 163.086 28.017 170.375 28.017 c 261.02 28.017 l 
261.02 7.99 l 261.02 3.579 264.598 0.001 269.016 0.001 c 335.43 0.001 l 
339.84 0.001 343.422 3.579 343.422 7.99 c 343.422 74.415 l 343.422 
78.826 339.84 82.404 335.43 82.404 c 269.016 82.404 l 264.598 82.404 
261.02 78.826 261.02 74.415 c 261.02 54.388 l 183.559 54.388 l 183.559 
183.759 l 261.02 183.759 l 261.02 163.732 l 261.02 159.322 264.598 
155.744 269.016 155.744 c 335.43 155.744 l 339.84 155.744 343.422 
159.322 343.422 163.732 c 343.422 230.158 l 343.422 234.568 339.84 
238.146 335.43 238.146 c 269.016 238.146 l 264.598 238.146 261.02 
234.568 261.02 230.158 c 261.02 210.13 l 183.559 210.13 l 183.559 
339.505 l 261.02 339.505 l 261.02 319.478 l 261.02 315.068 264.594 
311.49 269.012 311.49 c h
269.012 311.49 m f
Q Q
showpage
%%Trailer
count op_count sub {pop} repeat
countdictstack dict_count sub {end} repeat
cairo_eps_state restore
%%EOF
