%!PS-Adobe-3.0 EPSF-3.0
%%Creator: cairo 1.10.2 (http://cairographics.org)
%%CreationDate: Tue Aug 11 08:30:47 2015
%%Pages: 1
%%BoundingBox: 0 -1 394 367
%%DocumentData: Clean7Bit
%%LanguageLevel: 2
%%EndComments
%%BeginProlog
/cairo_eps_state save def
/dict_count countdictstack def
/op_count count 1 sub def
userdict begin
/q { gsave } bind def
/Q { grestore } bind def
/cm { 6 array astore concat } bind def
/w { setlinewidth } bind def
/J { setlinecap } bind def
/j { setlinejoin } bind def
/M { setmiterlimit } bind def
/d { setdash } bind def
/m { moveto } bind def
/l { lineto } bind def
/c { curveto } bind def
/h { closepath } bind def
/re { exch dup neg 3 1 roll 5 3 roll moveto 0 rlineto
      0 exch rlineto 0 rlineto closepath } bind def
/S { stroke } bind def
/f { fill } bind def
/f* { eofill } bind def
/n { newpath } bind def
/W { clip } bind def
/W* { eoclip } bind def
/BT { } bind def
/ET { } bind def
/pdfmark where { pop globaldict /?pdfmark /exec load put }
    { globaldict begin /?pdfmark /pop load def /pdfmark
    /cleartomark load def end } ifelse
/BDC { mark 3 1 roll /BDC pdfmark } bind def
/EMC { mark /EMC pdfmark } bind def
/cairo_store_point { /cairo_point_y exch def /cairo_point_x exch def } def
/Tj { show currentpoint cairo_store_point } bind def
/TJ {
  {
    dup
    type /stringtype eq
    { show } { -0.001 mul 0 cairo_font_matrix dtransform rmoveto } ifelse
  } forall
  currentpoint cairo_store_point
} bind def
/cairo_selectfont { cairo_font_matrix aload pop pop pop 0 0 6 array astore
    cairo_font exch selectfont cairo_point_x cairo_point_y moveto } bind def
/Tf { pop /cairo_font exch def /cairo_font_matrix where
      { pop cairo_selectfont } if } bind def
/Td { matrix translate cairo_font_matrix matrix concatmatrix dup
      /cairo_font_matrix exch def dup 4 get exch 5 get cairo_store_point
      /cairo_font where { pop cairo_selectfont } if } bind def
/Tm { 2 copy 8 2 roll 6 array astore /cairo_font_matrix exch def
      cairo_store_point /cairo_font where { pop cairo_selectfont } if } bind def
/g { setgray } bind def
/rg { setrgbcolor } bind def
/d1 { setcachedevice } bind def
%%EndProlog
%%Page: 1 1
%%BeginPageSetup
%%PageBoundingBox: 0 -1 394 367
%%EndPageSetup
q 0 -1 394 368 rectclip q
0 366.038 394 -367 re W n
0 g
392.391 193.987 m 300.633 239.343 l 299.73 239.788 298.66 239.632 
297.93 238.948 c 297.184 238.261 296.965 237.198 297.332 236.272 c 
310.188 204.917 l 200.457 204.917 l 200.457 304.659 l 233.5 304.659 l 
220.645 273.304 l 220.266 272.378 220.5 271.315 221.234 270.632 c 
221.961 269.948 223.043 269.792 223.941 270.233 c 315.703 315.593 l 
316.629 316.05 317.203 316.987 317.203 318.011 c 317.203 319.034 
316.629 319.972 315.703 320.429 c 223.941 365.788 l 223.043 366.233 
221.961 366.077 221.234 365.39 c 220.5 364.706 220.266 363.644 220.645 
362.718 c 233.5 331.362 l 187.105 331.362 l 179.738 331.362 173.754 
325.386 173.754 318.011 c 173.754 268.14 l 93.641 268.14 l 86.273 
268.14 80.289 262.163 80.289 254.788 c 80.289 164.765 l 13.355 164.765 
l 5.977 164.765 0 158.784 0 151.413 c 0 144.038 5.977 138.058 13.355 
138.058 c 80.289 138.058 l 80.289 48.026 l 80.289 40.651 86.273 34.675 
93.641 34.675 c 216.723 34.675 l 203.863 3.323 l 203.496 2.394 203.719 
1.331 204.465 0.647 c 205.191 -0.036 206.262 -0.196 207.16 0.249 c 
298.922 45.608 l 299.859 46.062 300.434 47.003 300.434 48.026 c 300.434 
49.05 299.859 49.991 298.922 50.444 c 207.16 95.804 l 206.262 96.249 
205.191 96.089 204.465 95.405 c 203.719 94.722 203.496 93.659 203.863 
92.733 c 216.723 61.378 l 106.992 61.378 l 106.992 241.437 l 173.754 
241.437 l 173.754 191.565 l 173.754 184.19 179.738 178.214 187.105 
178.214 c 310.188 178.214 l 297.332 146.858 l 296.965 145.933 297.184 
144.87 297.93 144.187 c 298.66 143.503 299.73 143.347 300.633 143.788 c 
392.391 189.147 l 393.328 189.605 393.898 190.542 393.898 191.565 c 
393.898 192.589 393.328 193.53 392.391 193.987 c h
392.391 193.987 m f
Q Q
showpage
%%Trailer
count op_count sub {pop} repeat
countdictstack dict_count sub {end} repeat
cairo_eps_state restore
%%EOF
