%!PS-Adobe-3.0 EPSF-3.0
%%Creator: cairo 1.10.2 (http://cairographics.org)
%%CreationDate: Tue Aug 11 08:29:50 2015
%%Pages: 1
%%BoundingBox: 0 -1 344 396
%%DocumentData: Clean7Bit
%%LanguageLevel: 2
%%EndComments
%%BeginProlog
/cairo_eps_state save def
/dict_count countdictstack def
/op_count count 1 sub def
userdict begin
/q { gsave } bind def
/Q { grestore } bind def
/cm { 6 array astore concat } bind def
/w { setlinewidth } bind def
/J { setlinecap } bind def
/j { setlinejoin } bind def
/M { setmiterlimit } bind def
/d { setdash } bind def
/m { moveto } bind def
/l { lineto } bind def
/c { curveto } bind def
/h { closepath } bind def
/re { exch dup neg 3 1 roll 5 3 roll moveto 0 rlineto
      0 exch rlineto 0 rlineto closepath } bind def
/S { stroke } bind def
/f { fill } bind def
/f* { eofill } bind def
/n { newpath } bind def
/W { clip } bind def
/W* { eoclip } bind def
/BT { } bind def
/ET { } bind def
/pdfmark where { pop globaldict /?pdfmark /exec load put }
    { globaldict begin /?pdfmark /pop load def /pdfmark
    /cleartomark load def end } ifelse
/BDC { mark 3 1 roll /BDC pdfmark } bind def
/EMC { mark /EMC pdfmark } bind def
/cairo_store_point { /cairo_point_y exch def /cairo_point_x exch def } def
/Tj { show currentpoint cairo_store_point } bind def
/TJ {
  {
    dup
    type /stringtype eq
    { show } { -0.001 mul 0 cairo_font_matrix dtransform rmoveto } ifelse
  } forall
  currentpoint cairo_store_point
} bind def
/cairo_selectfont { cairo_font_matrix aload pop pop pop 0 0 6 array astore
    cairo_font exch selectfont cairo_point_x cairo_point_y moveto } bind def
/Tf { pop /cairo_font exch def /cairo_font_matrix where
      { pop cairo_selectfont } if } bind def
/Td { matrix translate cairo_font_matrix matrix concatmatrix dup
      /cairo_font_matrix exch def dup 4 get exch 5 get cairo_store_point
      /cairo_font where { pop cairo_selectfont } if } bind def
/Tm { 2 copy 8 2 roll 6 array astore /cairo_font_matrix exch def
      cairo_store_point /cairo_font where { pop cairo_selectfont } if } bind def
/g { setgray } bind def
/rg { setrgbcolor } bind def
/d1 { setcachedevice } bind def
%%EndProlog
%%Page: 1 1
%%BeginPageSetup
%%PageBoundingBox: 0 -1 344 396
%%EndPageSetup
q 0 -1 344 397 rectclip q
0 395.374 344 -396 re W n
0 g
192.066 160.554 m 192.066 143.152 177.953 129.042 160.547 129.042 c 
143.137 129.042 129.027 143.152 129.027 160.554 c 129.027 177.96 
143.137 192.07 160.547 192.07 c 177.953 192.07 192.066 177.96 192.066 
160.554 c h
192.066 160.554 m f
342.855 181.554 m 342.227 182.222 341.25 182.425 340.414 182.078 c 
320.441 173.722 l 316.898 216.937 296.102 255.249 265.109 282.031 c 
276.398 299.066 l 283.039 309.081 280.309 322.585 270.293 329.226 c 
260.246 335.898 246.762 333.14 240.129 323.121 c 228.613 305.757 l 
214.223 312.55 198.664 317.226 182.301 319.456 c 182.301 337.351 l 
185.023 337.351 l 201.047 337.351 214.035 350.339 214.035 366.363 c 
214.035 382.382 201.047 395.374 185.023 395.374 c 136.066 395.374 l 
120.047 395.374 107.051 382.382 107.051 366.363 c 107.051 350.339 
120.043 337.347 136.066 337.347 c 138.785 337.347 l 138.785 319.449 l 
60.543 308.769 0 241.671 0 160.546 c 0 72.019 72.02 -0.001 160.559 
-0.001 c 216.391 -0.001 265.605 28.687 294.375 72.054 c 287.348 73.316 
281.289 77.585 278.109 84.089 c 265.617 109.339 l 246.578 70.441 
206.699 43.519 160.562 43.519 c 96.02 43.519 43.52 96.019 43.52 160.546 
c 43.52 225.081 96.02 277.581 160.562 277.589 c 220.684 277.589 270.32 
231.972 276.809 173.538 c 256.383 182.078 l 255.531 182.425 254.57 
182.222 253.941 181.554 c 253.305 180.89 253.164 179.906 253.574 
179.089 c 268.789 148.292 267.672 150.574 296.133 93.003 c 296.133 
92.996 l 296.555 92.136 297.434 91.593 298.402 91.593 c 299.363 91.593 
300.242 92.136 300.664 92.996 c 335.062 162.566 326.207 144.667 343.223 
179.089 c 343.617 179.906 343.477 180.89 342.855 181.554 c h
342.855 181.554 m f
Q Q
showpage
%%Trailer
count op_count sub {pop} repeat
countdictstack dict_count sub {end} repeat
cairo_eps_state restore
%%EOF
