%!PS-Adobe-3.0 EPSF-3.0
%%Creator: cairo 1.10.2 (http://cairographics.org)
%%CreationDate: Tue Aug 11 08:30:43 2015
%%Pages: 1
%%BoundingBox: 0 -1 154 395
%%DocumentData: Clean7Bit
%%LanguageLevel: 2
%%EndComments
%%BeginProlog
/cairo_eps_state save def
/dict_count countdictstack def
/op_count count 1 sub def
userdict begin
/q { gsave } bind def
/Q { grestore } bind def
/cm { 6 array astore concat } bind def
/w { setlinewidth } bind def
/J { setlinecap } bind def
/j { setlinejoin } bind def
/M { setmiterlimit } bind def
/d { setdash } bind def
/m { moveto } bind def
/l { lineto } bind def
/c { curveto } bind def
/h { closepath } bind def
/re { exch dup neg 3 1 roll 5 3 roll moveto 0 rlineto
      0 exch rlineto 0 rlineto closepath } bind def
/S { stroke } bind def
/f { fill } bind def
/f* { eofill } bind def
/n { newpath } bind def
/W { clip } bind def
/W* { eoclip } bind def
/BT { } bind def
/ET { } bind def
/pdfmark where { pop globaldict /?pdfmark /exec load put }
    { globaldict begin /?pdfmark /pop load def /pdfmark
    /cleartomark load def end } ifelse
/BDC { mark 3 1 roll /BDC pdfmark } bind def
/EMC { mark /EMC pdfmark } bind def
/cairo_store_point { /cairo_point_y exch def /cairo_point_x exch def } def
/Tj { show currentpoint cairo_store_point } bind def
/TJ {
  {
    dup
    type /stringtype eq
    { show } { -0.001 mul 0 cairo_font_matrix dtransform rmoveto } ifelse
  } forall
  currentpoint cairo_store_point
} bind def
/cairo_selectfont { cairo_font_matrix aload pop pop pop 0 0 6 array astore
    cairo_font exch selectfont cairo_point_x cairo_point_y moveto } bind def
/Tf { pop /cairo_font exch def /cairo_font_matrix where
      { pop cairo_selectfont } if } bind def
/Td { matrix translate cairo_font_matrix matrix concatmatrix dup
      /cairo_font_matrix exch def dup 4 get exch 5 get cairo_store_point
      /cairo_font where { pop cairo_selectfont } if } bind def
/Tm { 2 copy 8 2 roll 6 array astore /cairo_font_matrix exch def
      cairo_store_point /cairo_font where { pop cairo_selectfont } if } bind def
/g { setgray } bind def
/rg { setrgbcolor } bind def
/d1 { setcachedevice } bind def
%%EndProlog
%%Page: 1 1
%%BeginPageSetup
%%PageBoundingBox: 0 -1 154 395
%%EndPageSetup
q 0 -1 154 396 rectclip q
0 394.385 154 -395 re W n
0 g
7.949 280.201 m 106.242 280.201 l 110.637 280.201 114.195 283.76 
114.195 288.147 c 114.195 386.439 l 114.195 390.826 110.637 394.385 
106.242 394.385 c 7.949 394.385 l 3.562 394.385 0 390.826 0 386.439 c 0 
288.147 l 0 283.76 3.562 280.201 7.949 280.201 c h
26.223 368.158 m 87.969 368.158 l 87.969 306.428 l 26.223 306.428 l h
26.223 368.158 m f
7.949 140.1 m 106.242 140.1 l 110.637 140.1 114.195 143.662 114.195 
148.049 c 114.195 246.338 l 114.195 250.725 110.637 254.283 106.242 
254.283 c 7.949 254.283 l 3.562 254.283 0 250.725 0 246.338 c 0 148.049 
l 0 143.662 3.562 140.1 7.949 140.1 c h
26.223 228.061 m 87.969 228.061 l 87.969 166.326 l 26.223 166.326 l h
26.223 228.061 m f
81.695 8.178 m 74.984 8.178 68.262 10.736 63.156 15.857 c 52.781 26.225 
l 26.223 26.225 l 26.223 87.959 l 87.969 87.959 l 87.969 77.764 l 
114.195 103.986 l 114.195 106.24 l 114.195 110.623 110.637 114.186 
106.242 114.186 c 7.949 114.186 l 3.562 114.186 0 110.627 0 106.24 c 0 
7.947 l 0 3.561 3.559 -0.002 7.949 -0.002 c 106.242 -0.002 l 110.637 
-0.002 114.195 3.561 114.195 7.947 c 114.195 29.818 l 100.238 15.861 l 
95.113 10.736 88.406 8.178 81.695 8.178 c h
81.695 8.178 m f
150.102 102.818 m 144.98 107.943 136.68 107.943 131.559 102.818 c 
81.695 52.943 l 66.367 68.264 l 61.242 73.385 52.949 73.385 47.828 
68.264 c 42.703 63.143 42.703 54.846 47.828 49.725 c 72.426 25.131 l 
74.984 22.572 78.34 21.287 81.695 21.287 c 85.047 21.287 88.406 22.572 
90.965 25.131 c 150.102 84.279 l 155.223 89.4 155.223 97.697 150.102 
102.818 c h
150.102 102.818 m f
Q Q
showpage
%%Trailer
count op_count sub {pop} repeat
countdictstack dict_count sub {end} repeat
cairo_eps_state restore
%%EOF
