%!PS-Adobe-3.0 EPSF-3.0
%%Creator: cairo 1.10.2 (http://cairographics.org)
%%CreationDate: Tue Aug 11 08:30:05 2015
%%Pages: 1
%%BoundingBox: 0 -1 383 396
%%DocumentData: Clean7Bit
%%LanguageLevel: 2
%%EndComments
%%BeginProlog
/cairo_eps_state save def
/dict_count countdictstack def
/op_count count 1 sub def
userdict begin
/q { gsave } bind def
/Q { grestore } bind def
/cm { 6 array astore concat } bind def
/w { setlinewidth } bind def
/J { setlinecap } bind def
/j { setlinejoin } bind def
/M { setmiterlimit } bind def
/d { setdash } bind def
/m { moveto } bind def
/l { lineto } bind def
/c { curveto } bind def
/h { closepath } bind def
/re { exch dup neg 3 1 roll 5 3 roll moveto 0 rlineto
      0 exch rlineto 0 rlineto closepath } bind def
/S { stroke } bind def
/f { fill } bind def
/f* { eofill } bind def
/n { newpath } bind def
/W { clip } bind def
/W* { eoclip } bind def
/BT { } bind def
/ET { } bind def
/pdfmark where { pop globaldict /?pdfmark /exec load put }
    { globaldict begin /?pdfmark /pop load def /pdfmark
    /cleartomark load def end } ifelse
/BDC { mark 3 1 roll /BDC pdfmark } bind def
/EMC { mark /EMC pdfmark } bind def
/cairo_store_point { /cairo_point_y exch def /cairo_point_x exch def } def
/Tj { show currentpoint cairo_store_point } bind def
/TJ {
  {
    dup
    type /stringtype eq
    { show } { -0.001 mul 0 cairo_font_matrix dtransform rmoveto } ifelse
  } forall
  currentpoint cairo_store_point
} bind def
/cairo_selectfont { cairo_font_matrix aload pop pop pop 0 0 6 array astore
    cairo_font exch selectfont cairo_point_x cairo_point_y moveto } bind def
/Tf { pop /cairo_font exch def /cairo_font_matrix where
      { pop cairo_selectfont } if } bind def
/Td { matrix translate cairo_font_matrix matrix concatmatrix dup
      /cairo_font_matrix exch def dup 4 get exch 5 get cairo_store_point
      /cairo_font where { pop cairo_selectfont } if } bind def
/Tm { 2 copy 8 2 roll 6 array astore /cairo_font_matrix exch def
      cairo_store_point /cairo_font where { pop cairo_selectfont } if } bind def
/g { setgray } bind def
/rg { setrgbcolor } bind def
/d1 { setcachedevice } bind def
%%EndProlog
%%Page: 1 1
%%BeginPageSetup
%%PageBoundingBox: 0 -1 383 396
%%EndPageSetup
q 0 -1 383 397 rectclip q
0 395.268 383 -396 re W n
0 g
369.188 351.19 m 251.516 351.19 l 251.516 387.303 l 251.516 391.702 
247.945 395.268 243.547 395.268 c 145.047 395.268 l 140.645 395.268 
137.078 391.702 137.078 387.303 c 137.078 288.791 l 137.078 284.397 
140.645 280.831 145.047 280.831 c 243.547 280.831 l 247.945 280.831 
251.516 284.397 251.516 288.791 c 251.516 324.909 l 356.047 324.909 l 
356.047 210.245 l 339.992 210.245 l 346.832 226.893 l 347.09 227.514 
346.934 228.221 346.449 228.678 c 345.961 229.135 345.242 229.245 
344.637 228.948 c 283.461 198.713 l 282.844 198.409 282.457 197.788 
282.457 197.1 c 282.457 196.413 282.844 195.791 283.461 195.491 c 
344.637 165.252 l 345.242 164.959 345.961 165.069 346.449 165.522 c 
346.934 165.975 347.094 166.682 346.832 167.307 c 339.992 183.959 l 
369.188 183.959 l 376.453 183.959 382.332 189.842 382.332 197.1 c 
382.332 338.049 l 382.332 345.303 376.453 351.19 369.188 351.19 c h
225.23 307.112 m 163.359 307.112 l 163.359 368.987 l 225.23 368.987 l h
225.23 307.112 m f
243.547 254.854 m 145.047 254.854 l 140.645 254.854 137.078 251.288 
137.078 246.889 c 137.078 210.245 l 13.141 210.245 l 5.879 210.245 0 
204.362 0 197.1 c 0 56.155 l 0 48.897 5.879 43.01 13.141 43.01 c 42.34 
43.01 l 35.496 26.362 l 35.242 25.737 35.395 25.034 35.879 24.577 c 
36.371 24.12 37.09 24.01 37.691 24.307 c 98.871 54.541 l 99.488 54.842 
99.871 55.467 99.871 56.155 c 99.871 56.842 99.488 57.463 98.871 57.764 
c 37.691 87.998 l 37.09 88.295 36.371 88.186 35.879 87.733 c 35.395 
87.276 35.242 86.569 35.496 85.948 c 42.34 69.295 l 26.281 69.295 l 
26.281 183.959 l 137.078 183.959 l 137.078 148.377 l 137.078 143.983 
140.645 140.413 145.047 140.413 c 243.547 140.413 l 247.945 140.413 
251.516 143.983 251.516 148.377 c 251.516 246.889 l 251.516 251.284 
247.945 254.854 243.547 254.854 c h
225.23 166.698 m 163.359 166.698 l 163.359 228.569 l 225.23 228.569 l h
225.23 166.698 m f
243.547 114.44 m 145.047 114.44 l 140.645 114.44 137.078 110.87 137.078 
106.475 c 137.078 7.963 l 137.078 3.569 140.645 -0.002 145.047 -0.002 c 
243.547 -0.002 l 247.945 -0.002 251.516 3.569 251.516 7.963 c 251.516 
106.475 l 251.516 110.87 247.945 114.44 243.547 114.44 c h
225.23 26.284 m 163.359 26.284 l 163.359 88.155 l 225.23 88.155 l h
225.23 26.284 m f
Q Q
showpage
%%Trailer
count op_count sub {pop} repeat
countdictstack dict_count sub {end} repeat
cairo_eps_state restore
%%EOF
