%!PS-Adobe-3.0 EPSF-3.0
%%Creator: cairo 1.10.2 (http://cairographics.org)
%%CreationDate: Tue Aug 11 08:29:48 2015
%%Pages: 1
%%BoundingBox: 0 -1 393 385
%%DocumentData: Clean7Bit
%%LanguageLevel: 2
%%EndComments
%%BeginProlog
/cairo_eps_state save def
/dict_count countdictstack def
/op_count count 1 sub def
userdict begin
/q { gsave } bind def
/Q { grestore } bind def
/cm { 6 array astore concat } bind def
/w { setlinewidth } bind def
/J { setlinecap } bind def
/j { setlinejoin } bind def
/M { setmiterlimit } bind def
/d { setdash } bind def
/m { moveto } bind def
/l { lineto } bind def
/c { curveto } bind def
/h { closepath } bind def
/re { exch dup neg 3 1 roll 5 3 roll moveto 0 rlineto
      0 exch rlineto 0 rlineto closepath } bind def
/S { stroke } bind def
/f { fill } bind def
/f* { eofill } bind def
/n { newpath } bind def
/W { clip } bind def
/W* { eoclip } bind def
/BT { } bind def
/ET { } bind def
/pdfmark where { pop globaldict /?pdfmark /exec load put }
    { globaldict begin /?pdfmark /pop load def /pdfmark
    /cleartomark load def end } ifelse
/BDC { mark 3 1 roll /BDC pdfmark } bind def
/EMC { mark /EMC pdfmark } bind def
/cairo_store_point { /cairo_point_y exch def /cairo_point_x exch def } def
/Tj { show currentpoint cairo_store_point } bind def
/TJ {
  {
    dup
    type /stringtype eq
    { show } { -0.001 mul 0 cairo_font_matrix dtransform rmoveto } ifelse
  } forall
  currentpoint cairo_store_point
} bind def
/cairo_selectfont { cairo_font_matrix aload pop pop pop 0 0 6 array astore
    cairo_font exch selectfont cairo_point_x cairo_point_y moveto } bind def
/Tf { pop /cairo_font exch def /cairo_font_matrix where
      { pop cairo_selectfont } if } bind def
/Td { matrix translate cairo_font_matrix matrix concatmatrix dup
      /cairo_font_matrix exch def dup 4 get exch 5 get cairo_store_point
      /cairo_font where { pop cairo_selectfont } if } bind def
/Tm { 2 copy 8 2 roll 6 array astore /cairo_font_matrix exch def
      cairo_store_point /cairo_font where { pop cairo_selectfont } if } bind def
/g { setgray } bind def
/rg { setrgbcolor } bind def
/d1 { setcachedevice } bind def
%%EndProlog
%%Page: 1 1
%%BeginPageSetup
%%PageBoundingBox: 0 -1 393 385
%%EndPageSetup
q 0 -1 393 386 rectclip q
0 384.755 393 -385 re W n
0 g
335.352 114.829 m 334.676 114.829 334.047 114.447 333.754 113.841 c 
303.719 53.095 l 303.426 52.501 303.543 51.786 303.988 51.302 c 304.438 
50.822 305.148 50.661 305.766 50.919 c 322.273 57.693 l 322.273 26.15 l 
70 26.15 l 70 135.447 l 105.934 135.447 l 110.312 135.447 113.863 
138.993 113.863 143.368 c 113.863 241.388 l 113.863 245.759 110.312 
249.31 105.934 249.31 c 70 249.31 l 70 358.603 l 322.273 358.603 l 
322.273 327.064 l 305.762 333.837 l 305.148 334.095 304.438 333.935 
303.988 333.454 c 303.543 332.97 303.422 332.255 303.719 331.661 c 
333.754 270.915 l 334.047 270.31 334.672 269.927 335.348 269.927 c 
336.023 269.927 336.652 270.31 336.945 270.915 c 366.977 331.661 l 
367.273 332.255 367.16 332.97 366.711 333.454 c 366.262 333.935 365.551 
334.095 364.938 333.837 c 348.426 327.064 l 348.426 371.681 l 348.426 
378.9 342.578 384.755 335.348 384.755 c 56.926 384.755 l 49.699 384.755 
43.848 378.9 43.848 371.681 c 43.848 249.31 l 7.93 249.31 l 3.551 
249.31 0 245.759 0 241.388 c 0 143.368 l 0 138.997 3.551 135.447 7.93 
135.447 c 43.848 135.447 l 43.848 13.076 l 43.848 5.857 49.699 0.001 
56.926 0.001 c 335.348 0.001 l 342.578 0.001 348.426 5.853 348.426 
13.076 c 348.426 57.693 l 364.938 50.919 l 365.551 50.661 366.262 
50.822 366.711 51.302 c 367.16 51.786 367.273 52.501 366.98 53.095 c 
336.945 113.841 l 336.652 114.447 336.023 114.829 335.352 114.829 c h
335.352 114.829 m f
335.336 249.31 m 303.898 249.31 278.41 223.822 278.41 192.376 c 278.41 
160.935 303.898 135.447 335.336 135.447 c 366.785 135.447 392.273 
160.935 392.273 192.376 c 392.273 223.822 366.785 249.31 335.336 249.31 
c h
335.336 249.31 m f
Q Q
showpage
%%Trailer
count op_count sub {pop} repeat
countdictstack dict_count sub {end} repeat
cairo_eps_state restore
%%EOF
