%!PS-Adobe-3.0 EPSF-3.0
%%Creator: cairo 1.10.2 (http://cairographics.org)
%%CreationDate: Tue Aug 11 08:30:19 2015
%%Pages: 1
%%BoundingBox: 0 -1 395 396
%%DocumentData: Clean7Bit
%%LanguageLevel: 2
%%EndComments
%%BeginProlog
/cairo_eps_state save def
/dict_count countdictstack def
/op_count count 1 sub def
userdict begin
/q { gsave } bind def
/Q { grestore } bind def
/cm { 6 array astore concat } bind def
/w { setlinewidth } bind def
/J { setlinecap } bind def
/j { setlinejoin } bind def
/M { setmiterlimit } bind def
/d { setdash } bind def
/m { moveto } bind def
/l { lineto } bind def
/c { curveto } bind def
/h { closepath } bind def
/re { exch dup neg 3 1 roll 5 3 roll moveto 0 rlineto
      0 exch rlineto 0 rlineto closepath } bind def
/S { stroke } bind def
/f { fill } bind def
/f* { eofill } bind def
/n { newpath } bind def
/W { clip } bind def
/W* { eoclip } bind def
/BT { } bind def
/ET { } bind def
/pdfmark where { pop globaldict /?pdfmark /exec load put }
    { globaldict begin /?pdfmark /pop load def /pdfmark
    /cleartomark load def end } ifelse
/BDC { mark 3 1 roll /BDC pdfmark } bind def
/EMC { mark /EMC pdfmark } bind def
/cairo_store_point { /cairo_point_y exch def /cairo_point_x exch def } def
/Tj { show currentpoint cairo_store_point } bind def
/TJ {
  {
    dup
    type /stringtype eq
    { show } { -0.001 mul 0 cairo_font_matrix dtransform rmoveto } ifelse
  } forall
  currentpoint cairo_store_point
} bind def
/cairo_selectfont { cairo_font_matrix aload pop pop pop 0 0 6 array astore
    cairo_font exch selectfont cairo_point_x cairo_point_y moveto } bind def
/Tf { pop /cairo_font exch def /cairo_font_matrix where
      { pop cairo_selectfont } if } bind def
/Td { matrix translate cairo_font_matrix matrix concatmatrix dup
      /cairo_font_matrix exch def dup 4 get exch 5 get cairo_store_point
      /cairo_font where { pop cairo_selectfont } if } bind def
/Tm { 2 copy 8 2 roll 6 array astore /cairo_font_matrix exch def
      cairo_store_point /cairo_font where { pop cairo_selectfont } if } bind def
/g { setgray } bind def
/rg { setrgbcolor } bind def
/d1 { setcachedevice } bind def
%%EndProlog
%%Page: 1 1
%%BeginPageSetup
%%PageBoundingBox: 0 -1 395 396
%%EndPageSetup
q 0 -1 395 397 rectclip q
0 395.95 395 -396 re W n
0 g
14.891 272.282 m 105.047 235.111 l 106.711 234.427 108.426 234.103 
110.117 234.103 c 114.691 234.103 119.113 236.466 121.582 240.615 c 
162.176 308.974 l 236.34 345.47 l 238.625 311.763 l 238.703 310.767 
239.379 309.915 240.332 309.63 c 241.281 309.337 242.32 309.677 242.934 
310.47 c 305.059 391.45 l 305.676 392.263 305.793 393.357 305.328 
394.275 c 304.887 395.197 303.953 395.775 302.934 395.775 c 200.855 
395.95 l 199.855 395.958 198.973 395.341 198.605 394.404 c 198.254 
393.474 198.52 392.415 199.254 391.751 c 224.574 369.361 l 146.871 
331.122 l 144.547 329.978 142.621 328.193 141.293 325.974 c 104.551 
264.111 l 25.055 296.892 l 18.23 299.716 10.465 296.458 7.66 289.665 c 
4.852 282.865 8.102 275.083 14.891 272.282 c h
14.891 272.282 m f
375.02 39.943 m 19.973 39.943 l 8.934 39.943 0 31.005 0 19.97 c 0 8.939 
8.934 0.001 19.973 0.001 c 375.02 0.001 l 386.043 0.001 394.988 8.939 
394.988 19.97 c 394.988 31.005 386.043 39.943 375.02 39.943 c h
375.02 39.943 m f
39.695 202.482 m 35.25 202.482 31.637 198.865 31.637 194.411 c 31.637 
74.638 l 31.637 70.185 35.25 66.572 39.695 66.572 c 86.805 66.572 l 
91.262 66.572 94.879 70.185 94.879 74.638 c 94.879 194.411 l 94.879 
198.865 91.262 202.482 86.805 202.482 c h
39.695 202.482 m f
300.129 330.329 m 300.129 74.638 l 300.129 70.185 303.742 66.572 
308.188 66.572 c 355.309 66.572 l 359.754 66.572 363.367 70.185 363.367 
74.638 c 363.367 330.329 l 363.367 334.782 359.754 338.396 355.309 
338.396 c 308.188 338.396 l 303.742 338.396 300.129 334.782 300.129 
330.329 c h
300.129 330.329 m f
218.695 267.115 m 214.238 267.115 210.621 263.497 210.621 259.044 c 
210.621 74.638 l 210.621 70.185 214.238 66.572 218.695 66.572 c 265.805 
66.572 l 270.25 66.572 273.863 70.185 273.863 74.638 c 273.863 259.044 
l 273.863 263.497 270.246 267.115 265.805 267.115 c h
218.695 267.115 m f
129.203 166.841 m 124.746 166.841 121.129 163.228 121.129 158.775 c 
121.129 74.638 l 121.129 70.185 124.746 66.572 129.203 66.572 c 176.297 
66.572 l 180.754 66.572 184.371 70.185 184.371 74.638 c 184.371 158.775 
l 184.371 163.228 180.754 166.841 176.297 166.841 c h
129.203 166.841 m f
Q Q
showpage
%%Trailer
count op_count sub {pop} repeat
countdictstack dict_count sub {end} repeat
cairo_eps_state restore
%%EOF
