%!PS-Adobe-3.0 EPSF-3.0
%%Creator: cairo 1.10.2 (http://cairographics.org)
%%CreationDate: Thu Aug 13 09:20:24 2015
%%Pages: 1
%%BoundingBox: 0 -1 171 146
%%DocumentData: Clean7Bit
%%LanguageLevel: 2
%%EndComments
%%BeginProlog
/cairo_eps_state save def
/dict_count countdictstack def
/op_count count 1 sub def
userdict begin
/q { gsave } bind def
/Q { grestore } bind def
/cm { 6 array astore concat } bind def
/w { setlinewidth } bind def
/J { setlinecap } bind def
/j { setlinejoin } bind def
/M { setmiterlimit } bind def
/d { setdash } bind def
/m { moveto } bind def
/l { lineto } bind def
/c { curveto } bind def
/h { closepath } bind def
/re { exch dup neg 3 1 roll 5 3 roll moveto 0 rlineto
      0 exch rlineto 0 rlineto closepath } bind def
/S { stroke } bind def
/f { fill } bind def
/f* { eofill } bind def
/n { newpath } bind def
/W { clip } bind def
/W* { eoclip } bind def
/BT { } bind def
/ET { } bind def
/pdfmark where { pop globaldict /?pdfmark /exec load put }
    { globaldict begin /?pdfmark /pop load def /pdfmark
    /cleartomark load def end } ifelse
/BDC { mark 3 1 roll /BDC pdfmark } bind def
/EMC { mark /EMC pdfmark } bind def
/cairo_store_point { /cairo_point_y exch def /cairo_point_x exch def } def
/Tj { show currentpoint cairo_store_point } bind def
/TJ {
  {
    dup
    type /stringtype eq
    { show } { -0.001 mul 0 cairo_font_matrix dtransform rmoveto } ifelse
  } forall
  currentpoint cairo_store_point
} bind def
/cairo_selectfont { cairo_font_matrix aload pop pop pop 0 0 6 array astore
    cairo_font exch selectfont cairo_point_x cairo_point_y moveto } bind def
/Tf { pop /cairo_font exch def /cairo_font_matrix where
      { pop cairo_selectfont } if } bind def
/Td { matrix translate cairo_font_matrix matrix concatmatrix dup
      /cairo_font_matrix exch def dup 4 get exch 5 get cairo_store_point
      /cairo_font where { pop cairo_selectfont } if } bind def
/Tm { 2 copy 8 2 roll 6 array astore /cairo_font_matrix exch def
      cairo_store_point /cairo_font where { pop cairo_selectfont } if } bind def
/g { setgray } bind def
/rg { setrgbcolor } bind def
/d1 { setcachedevice } bind def
%%EndProlog
%%Page: 1 1
%%BeginPageSetup
%%PageBoundingBox: 0 -1 171 146
%%EndPageSetup
q 0 -1 171 147 rectclip q
0 145.6 171 -146 re W n
0 g
76.336 33.6 m 75.223 33.6 74.09 33.913 73.082 34.561 c 70.301 36.362 
69.504 40.077 71.305 42.862 c 88.438 69.334 l 70.93 69.334 l 67.617 
69.334 64.93 72.018 64.93 75.334 c 64.93 78.647 67.617 81.334 70.93 
81.334 c 99.469 81.334 l 101.668 81.334 103.688 80.131 104.738 78.202 c 
105.789 76.268 105.699 73.92 104.504 72.073 c 81.379 36.338 l 80.234 
34.565 78.305 33.6 76.336 33.6 c h
170.398 122.268 m 170.398 5.998 l 170.398 2.686 167.715 -0.002 164.398 
-0.002 c 6 -0.002 l 2.688 -0.002 0 2.686 0 5.998 c 0 122.268 l 0 125.58 
2.688 128.268 6 128.268 c 23.734 128.268 l 23.734 139.6 l 23.734 
142.913 26.422 145.6 29.734 145.6 c 33.047 145.6 35.734 142.913 35.734 
139.6 c 35.734 128.268 l 51.469 128.268 l 51.469 139.6 l 51.469 142.913 
54.152 145.6 57.469 145.6 c 60.781 145.6 63.469 142.913 63.469 139.6 c 
63.469 128.268 l 79.199 128.268 l 79.199 139.6 l 79.199 142.913 81.887 
145.6 85.199 145.6 c 88.512 145.6 91.199 142.913 91.199 139.6 c 91.199 
128.268 l 106.934 128.268 l 106.934 139.6 l 106.934 142.913 109.621 
145.6 112.934 145.6 c 116.246 145.6 118.934 142.913 118.934 139.6 c 
118.934 128.268 l 134.668 128.268 l 134.668 139.6 l 134.668 142.913 
137.355 145.6 140.668 145.6 c 143.98 145.6 146.668 142.913 146.668 
139.6 c 146.668 128.268 l 164.398 128.268 l 167.715 128.268 170.398 
125.58 170.398 122.268 c h
151.582 98.401 m 18.816 98.401 l 18.816 22.401 l 151.582 22.401 l h
151.582 98.401 m f
Q Q
showpage
%%Trailer
count op_count sub {pop} repeat
countdictstack dict_count sub {end} repeat
cairo_eps_state restore
%%EOF
