%!PS-Adobe-3.0 EPSF-3.0
%%Creator: cairo 1.10.2 (http://cairographics.org)
%%CreationDate: Thu Aug 13 09:20:10 2015
%%Pages: 1
%%BoundingBox: 0 -1 187 181
%%DocumentData: Clean7Bit
%%LanguageLevel: 2
%%EndComments
%%BeginProlog
/cairo_eps_state save def
/dict_count countdictstack def
/op_count count 1 sub def
userdict begin
/q { gsave } bind def
/Q { grestore } bind def
/cm { 6 array astore concat } bind def
/w { setlinewidth } bind def
/J { setlinecap } bind def
/j { setlinejoin } bind def
/M { setmiterlimit } bind def
/d { setdash } bind def
/m { moveto } bind def
/l { lineto } bind def
/c { curveto } bind def
/h { closepath } bind def
/re { exch dup neg 3 1 roll 5 3 roll moveto 0 rlineto
      0 exch rlineto 0 rlineto closepath } bind def
/S { stroke } bind def
/f { fill } bind def
/f* { eofill } bind def
/n { newpath } bind def
/W { clip } bind def
/W* { eoclip } bind def
/BT { } bind def
/ET { } bind def
/pdfmark where { pop globaldict /?pdfmark /exec load put }
    { globaldict begin /?pdfmark /pop load def /pdfmark
    /cleartomark load def end } ifelse
/BDC { mark 3 1 roll /BDC pdfmark } bind def
/EMC { mark /EMC pdfmark } bind def
/cairo_store_point { /cairo_point_y exch def /cairo_point_x exch def } def
/Tj { show currentpoint cairo_store_point } bind def
/TJ {
  {
    dup
    type /stringtype eq
    { show } { -0.001 mul 0 cairo_font_matrix dtransform rmoveto } ifelse
  } forall
  currentpoint cairo_store_point
} bind def
/cairo_selectfont { cairo_font_matrix aload pop pop pop 0 0 6 array astore
    cairo_font exch selectfont cairo_point_x cairo_point_y moveto } bind def
/Tf { pop /cairo_font exch def /cairo_font_matrix where
      { pop cairo_selectfont } if } bind def
/Td { matrix translate cairo_font_matrix matrix concatmatrix dup
      /cairo_font_matrix exch def dup 4 get exch 5 get cairo_store_point
      /cairo_font where { pop cairo_selectfont } if } bind def
/Tm { 2 copy 8 2 roll 6 array astore /cairo_font_matrix exch def
      cairo_store_point /cairo_font where { pop cairo_selectfont } if } bind def
/g { setgray } bind def
/rg { setrgbcolor } bind def
/d1 { setcachedevice } bind def
%%EndProlog
%%Page: 1 1
%%BeginPageSetup
%%PageBoundingBox: 0 -1 187 181
%%EndPageSetup
q 0 -1 187 182 rectclip q
0 180.8 187 -181 re W n
0 g
180.934 99.999 m 180.539 99.999 l 158.832 137.601 l 170.242 137.601 l 
173.555 137.601 176.242 140.284 176.242 143.601 c 176.242 152.132 l 
176.242 155.448 173.555 158.132 170.242 158.132 c 99.465 158.132 l 
99.465 174.8 l 99.465 178.113 96.781 180.8 93.465 180.8 c 90.152 180.8 
87.465 178.113 87.465 174.8 c 87.465 158.132 l 16.691 158.132 l 13.379 
158.132 10.691 155.448 10.691 152.132 c 10.691 143.601 l 10.691 140.284 
13.379 137.601 16.691 137.601 c 28.102 137.601 l 6.395 99.999 l 6 
99.999 l 2.688 99.999 0 97.316 0 93.999 c 0 73.636 16.566 57.066 36.934 
57.066 c 57.301 57.066 73.867 73.636 73.867 93.999 c 73.867 97.316 
71.18 99.999 67.867 99.999 c 67.473 99.999 l 45.766 137.601 l 87.469 
137.601 l 87.469 27.468 l 67.867 27.468 l 60.297 27.468 54.133 21.308 
54.133 13.734 c 54.133 6.159 60.297 -0.001 67.867 -0.001 c 119.066 
-0.001 l 126.641 -0.001 132.801 6.159 132.801 13.734 c 132.801 21.308 
126.641 27.468 119.066 27.468 c 99.469 27.468 l 99.469 137.601 l 
141.172 137.601 l 119.461 99.999 l 119.066 99.999 l 115.754 99.999 
113.066 97.316 113.066 93.999 c 113.066 73.636 129.637 57.066 150 
57.066 c 170.367 57.066 186.934 73.636 186.934 93.999 c 186.934 97.316 
184.246 99.999 180.934 99.999 c h
20.25 99.999 m 36.934 128.898 l 53.617 99.999 l h
150 128.898 m 166.684 99.999 l 133.316 99.999 l h
150 128.898 m f
Q Q
showpage
%%Trailer
count op_count sub {pop} repeat
countdictstack dict_count sub {end} repeat
cairo_eps_state restore
%%EOF
