%!PS-Adobe-3.0 EPSF-3.0
%%Creator: cairo 1.10.2 (http://cairographics.org)
%%CreationDate: Thu Aug 13 09:20:59 2015
%%Pages: 1
%%BoundingBox: 0 -1 117 177
%%DocumentData: Clean7Bit
%%LanguageLevel: 2
%%EndComments
%%BeginProlog
/cairo_eps_state save def
/dict_count countdictstack def
/op_count count 1 sub def
userdict begin
/q { gsave } bind def
/Q { grestore } bind def
/cm { 6 array astore concat } bind def
/w { setlinewidth } bind def
/J { setlinecap } bind def
/j { setlinejoin } bind def
/M { setmiterlimit } bind def
/d { setdash } bind def
/m { moveto } bind def
/l { lineto } bind def
/c { curveto } bind def
/h { closepath } bind def
/re { exch dup neg 3 1 roll 5 3 roll moveto 0 rlineto
      0 exch rlineto 0 rlineto closepath } bind def
/S { stroke } bind def
/f { fill } bind def
/f* { eofill } bind def
/n { newpath } bind def
/W { clip } bind def
/W* { eoclip } bind def
/BT { } bind def
/ET { } bind def
/pdfmark where { pop globaldict /?pdfmark /exec load put }
    { globaldict begin /?pdfmark /pop load def /pdfmark
    /cleartomark load def end } ifelse
/BDC { mark 3 1 roll /BDC pdfmark } bind def
/EMC { mark /EMC pdfmark } bind def
/cairo_store_point { /cairo_point_y exch def /cairo_point_x exch def } def
/Tj { show currentpoint cairo_store_point } bind def
/TJ {
  {
    dup
    type /stringtype eq
    { show } { -0.001 mul 0 cairo_font_matrix dtransform rmoveto } ifelse
  } forall
  currentpoint cairo_store_point
} bind def
/cairo_selectfont { cairo_font_matrix aload pop pop pop 0 0 6 array astore
    cairo_font exch selectfont cairo_point_x cairo_point_y moveto } bind def
/Tf { pop /cairo_font exch def /cairo_font_matrix where
      { pop cairo_selectfont } if } bind def
/Td { matrix translate cairo_font_matrix matrix concatmatrix dup
      /cairo_font_matrix exch def dup 4 get exch 5 get cairo_store_point
      /cairo_font where { pop cairo_selectfont } if } bind def
/Tm { 2 copy 8 2 roll 6 array astore /cairo_font_matrix exch def
      cairo_store_point /cairo_font where { pop cairo_selectfont } if } bind def
/g { setgray } bind def
/rg { setrgbcolor } bind def
/d1 { setcachedevice } bind def
%%EndProlog
%%Page: 1 1
%%BeginPageSetup
%%PageBoundingBox: 0 -1 117 177
%%EndPageSetup
q 0 -1 117 178 rectclip q
0 176.165 117 -177 re W n
0 g
79.77 128.614 m 81.074 129.716 81.906 131.36 81.906 133.2 c 81.906 
135.427 80.691 137.364 78.891 138.399 c 80.691 139.434 81.906 141.376 
81.906 143.598 c 81.906 146.887 79.262 149.552 75.984 149.594 c 86.129 
167.165 l 87.199 169.02 87.199 171.309 86.129 173.165 c 85.055 175.02 
83.078 176.165 80.934 176.165 c 35.902 176.165 l 33.762 176.165 31.781 
175.02 30.707 173.165 c 29.637 171.309 29.637 169.02 30.707 167.165 c 
40.852 149.594 l 37.574 149.552 34.93 146.887 34.93 143.598 c 34.93 
141.376 36.145 139.434 37.945 138.399 c 36.145 137.364 34.93 135.427 
34.93 133.2 c 34.93 131.427 35.703 129.841 36.926 128.743 c 14.836 
116.587 0 86.852 0 59.598 c 0 42.091 5.914 27.044 17.098 16.087 c 
27.691 5.712 42.297 0.001 58.23 0.001 c 74.164 0.001 88.77 5.712 99.363 
16.087 c 110.547 27.044 116.461 42.091 116.461 59.598 c 116.461 86.755 
101.73 116.376 79.77 128.614 c h
65.711 73.544 m 75.145 73.544 82.82 65.872 82.82 56.438 c 82.82 55.809 
l 82.82 46.376 75.145 38.704 65.711 38.704 c 64.418 38.704 l 64.418 
32.134 l 64.418 28.821 61.734 26.134 58.418 26.134 c 55.105 26.134 
52.418 28.821 52.418 32.134 c 52.418 38.704 l 40.02 38.704 l 36.703 
38.704 34.02 41.391 34.02 44.704 c 34.02 48.016 36.703 50.704 40.02 
50.704 c 52.418 50.704 l 52.418 61.544 l 51.125 61.544 l 41.695 61.544 
34.02 69.219 34.02 78.653 c 34.02 88.087 41.695 95.759 51.125 95.759 c 
52.418 95.759 l 52.418 103.333 l 52.418 106.645 55.105 109.333 58.418 
109.333 c 61.734 109.333 64.418 106.645 64.418 103.333 c 64.418 95.759 
l 76.82 95.759 l 80.133 95.759 82.82 93.071 82.82 89.759 c 82.82 86.446 
80.133 83.759 76.82 83.759 c 64.418 83.759 l 64.418 73.544 l h
51.125 83.759 m 52.418 83.759 l 52.418 73.544 l 51.125 73.544 l 48.309 
73.544 46.02 75.837 46.02 78.653 c 46.02 81.469 48.309 83.759 51.125 
83.759 c h
64.418 50.704 m 64.418 61.544 l 65.711 61.544 l 68.527 61.544 70.82 
59.255 70.82 56.438 c 70.82 55.809 l 70.82 52.993 68.527 50.704 65.711 
50.704 c h
64.418 50.704 m f
Q Q
showpage
%%Trailer
count op_count sub {pop} repeat
countdictstack dict_count sub {end} repeat
cairo_eps_state restore
%%EOF
