%!PS-Adobe-3.0 EPSF-3.0
%%Creator: cairo 1.10.2 (http://cairographics.org)
%%CreationDate: Thu Aug 13 09:20:06 2015
%%Pages: 1
%%BoundingBox: 0 -1 163 103
%%DocumentData: Clean7Bit
%%LanguageLevel: 2
%%EndComments
%%BeginProlog
/cairo_eps_state save def
/dict_count countdictstack def
/op_count count 1 sub def
userdict begin
/q { gsave } bind def
/Q { grestore } bind def
/cm { 6 array astore concat } bind def
/w { setlinewidth } bind def
/J { setlinecap } bind def
/j { setlinejoin } bind def
/M { setmiterlimit } bind def
/d { setdash } bind def
/m { moveto } bind def
/l { lineto } bind def
/c { curveto } bind def
/h { closepath } bind def
/re { exch dup neg 3 1 roll 5 3 roll moveto 0 rlineto
      0 exch rlineto 0 rlineto closepath } bind def
/S { stroke } bind def
/f { fill } bind def
/f* { eofill } bind def
/n { newpath } bind def
/W { clip } bind def
/W* { eoclip } bind def
/BT { } bind def
/ET { } bind def
/pdfmark where { pop globaldict /?pdfmark /exec load put }
    { globaldict begin /?pdfmark /pop load def /pdfmark
    /cleartomark load def end } ifelse
/BDC { mark 3 1 roll /BDC pdfmark } bind def
/EMC { mark /EMC pdfmark } bind def
/cairo_store_point { /cairo_point_y exch def /cairo_point_x exch def } def
/Tj { show currentpoint cairo_store_point } bind def
/TJ {
  {
    dup
    type /stringtype eq
    { show } { -0.001 mul 0 cairo_font_matrix dtransform rmoveto } ifelse
  } forall
  currentpoint cairo_store_point
} bind def
/cairo_selectfont { cairo_font_matrix aload pop pop pop 0 0 6 array astore
    cairo_font exch selectfont cairo_point_x cairo_point_y moveto } bind def
/Tf { pop /cairo_font exch def /cairo_font_matrix where
      { pop cairo_selectfont } if } bind def
/Td { matrix translate cairo_font_matrix matrix concatmatrix dup
      /cairo_font_matrix exch def dup 4 get exch 5 get cairo_store_point
      /cairo_font where { pop cairo_selectfont } if } bind def
/Tm { 2 copy 8 2 roll 6 array astore /cairo_font_matrix exch def
      cairo_store_point /cairo_font where { pop cairo_selectfont } if } bind def
/g { setgray } bind def
/rg { setrgbcolor } bind def
/d1 { setcachedevice } bind def
%%EndProlog
%%Page: 1 1
%%BeginPageSetup
%%PageBoundingBox: 0 -1 163 103
%%EndPageSetup
q 0 -1 163 104 rectclip q
0 102.4 163 -103 re W n
0 g
156.398 102.4 m 22 102.4 l 18.688 102.4 16 99.713 16 96.4 c 16 83.201 l 
6 83.201 l 2.688 83.201 0 80.513 0 77.201 c 0 25.201 l 0 21.888 2.688 
19.201 6 19.201 c 16 19.201 l 16 6.002 l 16 2.685 18.688 0.002 22 0.002 
c 156.398 0.002 l 159.715 0.002 162.398 2.685 162.398 6.002 c 162.398 
96.4 l 162.398 99.713 159.715 102.4 156.398 102.4 c h
112.859 47.755 m 91.266 19.345 l 90.105 17.822 88.32 16.978 86.484 
16.978 c 85.766 16.978 85.039 17.107 84.34 17.377 c 81.848 18.33 80.289 
20.814 80.508 23.474 c 82.305 45.193 l 69.84 45.193 l 67.559 45.193 
65.477 46.486 64.465 48.525 c 63.453 50.568 63.684 53.009 65.062 54.822 
c 86.656 83.232 l 88.273 85.353 91.094 86.154 93.582 85.201 c 96.07 
84.248 97.633 81.763 97.414 79.103 c 95.613 57.384 l 108.082 57.384 l 
110.359 57.384 112.441 56.095 113.457 54.052 c 114.469 52.009 114.238 
49.568 112.859 47.755 c h
112.859 47.755 m f
Q Q
showpage
%%Trailer
count op_count sub {pop} repeat
countdictstack dict_count sub {end} repeat
cairo_eps_state restore
%%EOF
