%!PS-Adobe-3.0 EPSF-3.0
%%Creator: cairo 1.10.2 (http://cairographics.org)
%%CreationDate: Thu Aug 13 09:20:56 2015
%%Pages: 1
%%BoundingBox: 0 -1 148 177
%%DocumentData: Clean7Bit
%%LanguageLevel: 2
%%EndComments
%%BeginProlog
/cairo_eps_state save def
/dict_count countdictstack def
/op_count count 1 sub def
userdict begin
/q { gsave } bind def
/Q { grestore } bind def
/cm { 6 array astore concat } bind def
/w { setlinewidth } bind def
/J { setlinecap } bind def
/j { setlinejoin } bind def
/M { setmiterlimit } bind def
/d { setdash } bind def
/m { moveto } bind def
/l { lineto } bind def
/c { curveto } bind def
/h { closepath } bind def
/re { exch dup neg 3 1 roll 5 3 roll moveto 0 rlineto
      0 exch rlineto 0 rlineto closepath } bind def
/S { stroke } bind def
/f { fill } bind def
/f* { eofill } bind def
/n { newpath } bind def
/W { clip } bind def
/W* { eoclip } bind def
/BT { } bind def
/ET { } bind def
/pdfmark where { pop globaldict /?pdfmark /exec load put }
    { globaldict begin /?pdfmark /pop load def /pdfmark
    /cleartomark load def end } ifelse
/BDC { mark 3 1 roll /BDC pdfmark } bind def
/EMC { mark /EMC pdfmark } bind def
/cairo_store_point { /cairo_point_y exch def /cairo_point_x exch def } def
/Tj { show currentpoint cairo_store_point } bind def
/TJ {
  {
    dup
    type /stringtype eq
    { show } { -0.001 mul 0 cairo_font_matrix dtransform rmoveto } ifelse
  } forall
  currentpoint cairo_store_point
} bind def
/cairo_selectfont { cairo_font_matrix aload pop pop pop 0 0 6 array astore
    cairo_font exch selectfont cairo_point_x cairo_point_y moveto } bind def
/Tf { pop /cairo_font exch def /cairo_font_matrix where
      { pop cairo_selectfont } if } bind def
/Td { matrix translate cairo_font_matrix matrix concatmatrix dup
      /cairo_font_matrix exch def dup 4 get exch 5 get cairo_store_point
      /cairo_font where { pop cairo_selectfont } if } bind def
/Tm { 2 copy 8 2 roll 6 array astore /cairo_font_matrix exch def
      cairo_store_point /cairo_font where { pop cairo_selectfont } if } bind def
/g { setgray } bind def
/rg { setrgbcolor } bind def
/d1 { setcachedevice } bind def
%%EndProlog
%%Page: 1 1
%%BeginPageSetup
%%PageBoundingBox: 0 -1 148 177
%%EndPageSetup
q 0 -1 148 178 rectclip q
0 176.343 148 -177 re W n
0 g
130.137 122.718 m 138.762 134.374 l 140.734 137.035 140.176 140.792 
137.512 142.765 c 129.051 149.027 l 127.773 149.976 126.168 150.374 
124.598 150.14 c 123.023 149.906 121.605 149.054 120.66 147.777 c 
113.031 137.468 l 107.973 140.636 102.508 143.206 96.734 145.081 c 
96.734 156.078 l 96.734 167.253 87.645 176.343 76.469 176.343 c 69.504 
176.343 l 58.328 176.343 49.238 167.253 49.238 156.078 c 49.238 144.757 
l 49.238 144.636 49.246 144.515 49.254 144.398 c 20.586 134.148 0 
106.617 0 74.339 c 0 33.347 33.195 -0.001 74 -0.001 c 114.805 -0.001 
148 33.347 148 74.339 c 148 92.8 141.266 109.706 130.137 122.718 c h
74 60.179 m 66.215 60.179 59.879 66.531 59.879 74.339 c 59.879 80.085 
63.316 85.031 68.23 87.249 c 68.086 87.765 68 88.312 68 88.878 c 68 
122.167 l 68 125.484 70.688 128.167 74 128.167 c 77.312 128.167 80 
125.484 80 122.167 c 80 88.878 l 80 88.312 79.918 87.769 79.77 87.249 c 
84.688 85.031 88.121 80.081 88.121 74.339 c 88.121 66.531 81.785 60.179 
74 60.179 c h
74 60.179 m f
Q Q
showpage
%%Trailer
count op_count sub {pop} repeat
countdictstack dict_count sub {end} repeat
cairo_eps_state restore
%%EOF
