%!PS-Adobe-3.0 EPSF-3.0
%%Creator: cairo 1.10.2 (http://cairographics.org)
%%CreationDate: Thu Aug 13 09:20:21 2015
%%Pages: 1
%%BoundingBox: 0 -1 107 171
%%DocumentData: Clean7Bit
%%LanguageLevel: 2
%%EndComments
%%BeginProlog
/cairo_eps_state save def
/dict_count countdictstack def
/op_count count 1 sub def
userdict begin
/q { gsave } bind def
/Q { grestore } bind def
/cm { 6 array astore concat } bind def
/w { setlinewidth } bind def
/J { setlinecap } bind def
/j { setlinejoin } bind def
/M { setmiterlimit } bind def
/d { setdash } bind def
/m { moveto } bind def
/l { lineto } bind def
/c { curveto } bind def
/h { closepath } bind def
/re { exch dup neg 3 1 roll 5 3 roll moveto 0 rlineto
      0 exch rlineto 0 rlineto closepath } bind def
/S { stroke } bind def
/f { fill } bind def
/f* { eofill } bind def
/n { newpath } bind def
/W { clip } bind def
/W* { eoclip } bind def
/BT { } bind def
/ET { } bind def
/pdfmark where { pop globaldict /?pdfmark /exec load put }
    { globaldict begin /?pdfmark /pop load def /pdfmark
    /cleartomark load def end } ifelse
/BDC { mark 3 1 roll /BDC pdfmark } bind def
/EMC { mark /EMC pdfmark } bind def
/cairo_store_point { /cairo_point_y exch def /cairo_point_x exch def } def
/Tj { show currentpoint cairo_store_point } bind def
/TJ {
  {
    dup
    type /stringtype eq
    { show } { -0.001 mul 0 cairo_font_matrix dtransform rmoveto } ifelse
  } forall
  currentpoint cairo_store_point
} bind def
/cairo_selectfont { cairo_font_matrix aload pop pop pop 0 0 6 array astore
    cairo_font exch selectfont cairo_point_x cairo_point_y moveto } bind def
/Tf { pop /cairo_font exch def /cairo_font_matrix where
      { pop cairo_selectfont } if } bind def
/Td { matrix translate cairo_font_matrix matrix concatmatrix dup
      /cairo_font_matrix exch def dup 4 get exch 5 get cairo_store_point
      /cairo_font where { pop cairo_selectfont } if } bind def
/Tm { 2 copy 8 2 roll 6 array astore /cairo_font_matrix exch def
      cairo_store_point /cairo_font where { pop cairo_selectfont } if } bind def
/g { setgray } bind def
/rg { setrgbcolor } bind def
/d1 { setcachedevice } bind def
%%EndProlog
%%Page: 1 1
%%BeginPageSetup
%%PageBoundingBox: 0 -1 107 171
%%EndPageSetup
q 0 -1 107 172 rectclip q
0 170.194 107 -171 re W n
0 g
100.871 11.999 m 88.5 11.999 l 88.5 52.698 l 88.5 67.288 79.539 79.823 
66.836 85.097 c 79.539 90.37 88.5 102.905 88.5 117.495 c 88.5 158.194 l 
100.871 158.194 l 104.184 158.194 106.871 160.882 106.871 164.194 c 
106.871 167.507 104.184 170.194 100.871 170.194 c 6 170.194 l 2.688 
170.194 0 167.507 0 164.194 c 0 160.882 2.688 158.194 6 158.194 c 
18.367 158.194 l 18.367 117.499 l 18.367 102.905 27.328 90.37 40.035 
85.097 c 27.328 79.823 18.367 67.288 18.367 52.698 c 18.367 11.999 l 6 
11.999 l 2.688 11.999 0 9.315 0 5.999 c 0 2.687 2.688 -0.001 6 -0.001 c 
100.871 -0.001 l 104.184 -0.001 106.871 2.687 106.871 5.999 c 106.871 
9.315 104.184 11.999 100.871 11.999 c h
76.387 54.995 m 59.434 61.671 l 59.434 74.968 l 68.539 72.511 75.434 
64.616 76.387 54.995 c h
30.367 158.194 m 76.5 158.194 l 76.5 140.386 l 30.367 140.386 l h
47.434 74.968 m 47.434 61.589 l 30.438 54.507 l 31.203 64.347 38.18 
72.468 47.434 74.968 c h
47.434 74.968 m f
Q Q
showpage
%%Trailer
count op_count sub {pop} repeat
countdictstack dict_count sub {end} repeat
cairo_eps_state restore
%%EOF
