%!PS-Adobe-3.0 EPSF-3.0
%%Creator: cairo 1.10.2 (http://cairographics.org)
%%CreationDate: Thu Aug 13 09:21:07 2015
%%Pages: 1
%%BoundingBox: 0 -1 166 167
%%DocumentData: Clean7Bit
%%LanguageLevel: 2
%%EndComments
%%BeginProlog
/cairo_eps_state save def
/dict_count countdictstack def
/op_count count 1 sub def
userdict begin
/q { gsave } bind def
/Q { grestore } bind def
/cm { 6 array astore concat } bind def
/w { setlinewidth } bind def
/J { setlinecap } bind def
/j { setlinejoin } bind def
/M { setmiterlimit } bind def
/d { setdash } bind def
/m { moveto } bind def
/l { lineto } bind def
/c { curveto } bind def
/h { closepath } bind def
/re { exch dup neg 3 1 roll 5 3 roll moveto 0 rlineto
      0 exch rlineto 0 rlineto closepath } bind def
/S { stroke } bind def
/f { fill } bind def
/f* { eofill } bind def
/n { newpath } bind def
/W { clip } bind def
/W* { eoclip } bind def
/BT { } bind def
/ET { } bind def
/pdfmark where { pop globaldict /?pdfmark /exec load put }
    { globaldict begin /?pdfmark /pop load def /pdfmark
    /cleartomark load def end } ifelse
/BDC { mark 3 1 roll /BDC pdfmark } bind def
/EMC { mark /EMC pdfmark } bind def
/cairo_store_point { /cairo_point_y exch def /cairo_point_x exch def } def
/Tj { show currentpoint cairo_store_point } bind def
/TJ {
  {
    dup
    type /stringtype eq
    { show } { -0.001 mul 0 cairo_font_matrix dtransform rmoveto } ifelse
  } forall
  currentpoint cairo_store_point
} bind def
/cairo_selectfont { cairo_font_matrix aload pop pop pop 0 0 6 array astore
    cairo_font exch selectfont cairo_point_x cairo_point_y moveto } bind def
/Tf { pop /cairo_font exch def /cairo_font_matrix where
      { pop cairo_selectfont } if } bind def
/Td { matrix translate cairo_font_matrix matrix concatmatrix dup
      /cairo_font_matrix exch def dup 4 get exch 5 get cairo_store_point
      /cairo_font where { pop cairo_selectfont } if } bind def
/Tm { 2 copy 8 2 roll 6 array astore /cairo_font_matrix exch def
      cairo_store_point /cairo_font where { pop cairo_selectfont } if } bind def
/g { setgray } bind def
/rg { setrgbcolor } bind def
/d1 { setcachedevice } bind def
%%EndProlog
%%Page: 1 1
%%BeginPageSetup
%%PageBoundingBox: 0 -1 166 167
%%EndPageSetup
q 0 -1 166 168 rectclip q
0 166.073 166 -167 re W n
0 g
94.027 166.073 m 54.828 166.073 22.934 134.182 22.934 94.979 c 22.934 
80.495 27.293 67.01 34.762 55.764 c 4.348 25.35 l 1.543 22.545 0 18.819 
0 14.85 c 0 10.881 1.543 7.155 4.348 4.35 c 7.156 1.545 10.883 -0.001 
14.852 -0.001 c 18.816 -0.001 22.547 1.545 25.352 4.35 c 55.965 34.963 
l 66.977 27.956 80.035 23.889 94.027 23.889 c 133.227 23.889 165.117 
55.78 165.117 94.983 c 165.117 134.182 133.227 166.073 94.027 166.073 c 
h
140.852 94.979 m 140.852 69.163 119.844 48.155 94.027 48.155 c 68.207 
48.155 47.203 69.163 47.203 94.979 c 47.203 120.799 68.207 141.807 
94.027 141.807 c 119.844 141.807 140.852 120.799 140.852 94.979 c h
115.477 88.979 m 94.027 88.979 l 90.711 88.979 88.027 91.667 88.027 
94.979 c 88.027 126.917 l 88.027 130.233 90.711 132.917 94.027 132.917 
c 97.34 132.917 100.027 130.233 100.027 126.917 c 100.027 100.983 l 
115.477 100.983 l 118.793 100.983 121.477 98.295 121.477 94.983 c 
121.477 91.667 118.793 88.979 115.477 88.979 c h
115.477 88.979 m f
Q Q
showpage
%%Trailer
count op_count sub {pop} repeat
countdictstack dict_count sub {end} repeat
cairo_eps_state restore
%%EOF
