%!PS-Adobe-3.0 EPSF-3.0
%%Creator: cairo 1.10.2 (http://cairographics.org)
%%CreationDate: Thu Aug 13 09:20:18 2015
%%Pages: 1
%%BoundingBox: 0 -1 159 170
%%DocumentData: Clean7Bit
%%LanguageLevel: 2
%%EndComments
%%BeginProlog
/cairo_eps_state save def
/dict_count countdictstack def
/op_count count 1 sub def
userdict begin
/q { gsave } bind def
/Q { grestore } bind def
/cm { 6 array astore concat } bind def
/w { setlinewidth } bind def
/J { setlinecap } bind def
/j { setlinejoin } bind def
/M { setmiterlimit } bind def
/d { setdash } bind def
/m { moveto } bind def
/l { lineto } bind def
/c { curveto } bind def
/h { closepath } bind def
/re { exch dup neg 3 1 roll 5 3 roll moveto 0 rlineto
      0 exch rlineto 0 rlineto closepath } bind def
/S { stroke } bind def
/f { fill } bind def
/f* { eofill } bind def
/n { newpath } bind def
/W { clip } bind def
/W* { eoclip } bind def
/BT { } bind def
/ET { } bind def
/pdfmark where { pop globaldict /?pdfmark /exec load put }
    { globaldict begin /?pdfmark /pop load def /pdfmark
    /cleartomark load def end } ifelse
/BDC { mark 3 1 roll /BDC pdfmark } bind def
/EMC { mark /EMC pdfmark } bind def
/cairo_store_point { /cairo_point_y exch def /cairo_point_x exch def } def
/Tj { show currentpoint cairo_store_point } bind def
/TJ {
  {
    dup
    type /stringtype eq
    { show } { -0.001 mul 0 cairo_font_matrix dtransform rmoveto } ifelse
  } forall
  currentpoint cairo_store_point
} bind def
/cairo_selectfont { cairo_font_matrix aload pop pop pop 0 0 6 array astore
    cairo_font exch selectfont cairo_point_x cairo_point_y moveto } bind def
/Tf { pop /cairo_font exch def /cairo_font_matrix where
      { pop cairo_selectfont } if } bind def
/Td { matrix translate cairo_font_matrix matrix concatmatrix dup
      /cairo_font_matrix exch def dup 4 get exch 5 get cairo_store_point
      /cairo_font where { pop cairo_selectfont } if } bind def
/Tm { 2 copy 8 2 roll 6 array astore /cairo_font_matrix exch def
      cairo_store_point /cairo_font where { pop cairo_selectfont } if } bind def
/g { setgray } bind def
/rg { setrgbcolor } bind def
/d1 { setcachedevice } bind def
%%EndProlog
%%Page: 1 1
%%BeginPageSetup
%%PageBoundingBox: 0 -1 159 170
%%EndPageSetup
q 0 -1 159 171 rectclip q
0 169.918 159 -170 re W n
0 g
154.336 119.645 m 153.191 117.848 151.25 116.868 149.27 116.868 c 
148.168 116.868 147.051 117.172 146.051 117.809 c 98.234 148.27 l 
96.891 149.125 95.941 150.477 95.598 152.032 c 95.254 153.582 95.539 
155.211 96.395 156.551 c 101.727 164.922 110.84 169.918 120.773 169.918 
c 126.262 169.918 131.617 168.352 136.266 165.395 c 145.496 159.516 l 
152 155.372 156.504 148.942 158.172 141.411 c 159.844 133.879 158.48 
126.149 154.336 119.645 c h
38.078 169.918 m 32.586 169.918 27.23 168.352 22.582 165.395 c 13.355 
159.516 l -0.074 150.961 -4.039 133.075 4.516 119.645 c 5.371 118.301 
6.723 117.356 8.277 117.008 c 8.707 116.914 9.141 116.868 9.574 116.868 
c 10.707 116.868 11.828 117.188 12.797 117.805 c 60.617 148.266 l 
61.961 149.122 62.906 150.477 63.25 152.028 c 63.598 153.582 63.309 
155.211 62.453 156.551 c 57.121 164.922 48.008 169.918 38.078 169.918 c 
h
130.695 9.61 m 132.688 6.961 132.156 3.2 129.508 1.207 c 128.43 0.391 
127.16 0 125.906 0 c 124.086 0 122.285 0.825 121.105 2.391 c 111.621 
14.993 l 102.074 9.688 91.102 6.653 79.426 6.653 c 67.75 6.653 56.773 
9.688 47.23 14.993 c 37.742 2.391 l 36.566 0.825 34.766 0 32.945 0 c 
31.688 0 30.422 0.391 29.344 1.207 c 26.695 3.2 26.164 6.961 28.156 
9.61 c 37.293 21.747 l 22.434 33.95 12.938 52.457 12.938 73.141 c 
12.938 109.805 42.762 139.629 79.426 139.629 c 116.086 139.629 145.914 
109.805 145.914 73.141 c 145.914 52.457 136.418 33.95 121.559 21.747 c 
h
115.355 73.141 m 115.355 76.454 112.672 79.141 109.355 79.141 c 85.375 
79.141 l 85.375 118.02 l 85.375 121.332 82.688 124.02 79.375 124.02 c 
76.059 124.02 73.375 121.332 73.375 118.02 c 73.375 73.141 l 73.375 
69.829 76.059 67.141 79.375 67.141 c 109.355 67.141 l 112.672 67.141 
115.355 69.829 115.355 73.141 c h
115.355 73.141 m f
Q Q
showpage
%%Trailer
count op_count sub {pop} repeat
countdictstack dict_count sub {end} repeat
cairo_eps_state restore
%%EOF
