%!PS-Adobe-3.0 EPSF-3.0
%%Creator: cairo 1.10.2 (http://cairographics.org)
%%CreationDate: Thu Aug 13 09:20:39 2015
%%Pages: 1
%%BoundingBox: 0 -1 179 104
%%DocumentData: Clean7Bit
%%LanguageLevel: 2
%%EndComments
%%BeginProlog
/cairo_eps_state save def
/dict_count countdictstack def
/op_count count 1 sub def
userdict begin
/q { gsave } bind def
/Q { grestore } bind def
/cm { 6 array astore concat } bind def
/w { setlinewidth } bind def
/J { setlinecap } bind def
/j { setlinejoin } bind def
/M { setmiterlimit } bind def
/d { setdash } bind def
/m { moveto } bind def
/l { lineto } bind def
/c { curveto } bind def
/h { closepath } bind def
/re { exch dup neg 3 1 roll 5 3 roll moveto 0 rlineto
      0 exch rlineto 0 rlineto closepath } bind def
/S { stroke } bind def
/f { fill } bind def
/f* { eofill } bind def
/n { newpath } bind def
/W { clip } bind def
/W* { eoclip } bind def
/BT { } bind def
/ET { } bind def
/pdfmark where { pop globaldict /?pdfmark /exec load put }
    { globaldict begin /?pdfmark /pop load def /pdfmark
    /cleartomark load def end } ifelse
/BDC { mark 3 1 roll /BDC pdfmark } bind def
/EMC { mark /EMC pdfmark } bind def
/cairo_store_point { /cairo_point_y exch def /cairo_point_x exch def } def
/Tj { show currentpoint cairo_store_point } bind def
/TJ {
  {
    dup
    type /stringtype eq
    { show } { -0.001 mul 0 cairo_font_matrix dtransform rmoveto } ifelse
  } forall
  currentpoint cairo_store_point
} bind def
/cairo_selectfont { cairo_font_matrix aload pop pop pop 0 0 6 array astore
    cairo_font exch selectfont cairo_point_x cairo_point_y moveto } bind def
/Tf { pop /cairo_font exch def /cairo_font_matrix where
      { pop cairo_selectfont } if } bind def
/Td { matrix translate cairo_font_matrix matrix concatmatrix dup
      /cairo_font_matrix exch def dup 4 get exch 5 get cairo_store_point
      /cairo_font where { pop cairo_selectfont } if } bind def
/Tm { 2 copy 8 2 roll 6 array astore /cairo_font_matrix exch def
      cairo_store_point /cairo_font where { pop cairo_selectfont } if } bind def
/g { setgray } bind def
/rg { setrgbcolor } bind def
/d1 { setcachedevice } bind def
%%EndProlog
%%Page: 1 1
%%BeginPageSetup
%%PageBoundingBox: 0 -1 179 104
%%EndPageSetup
q 0 -1 179 105 rectclip q
0 103.594 179 -104 re W n
0 g
178.238 40.508 m 178.238 18.172 160.066 -0 137.73 -0 c 95.496 -0 l 
95.496 46.973 l 106.855 35.617 l 108.027 34.445 109.562 33.859 111.098 
33.859 c 112.633 33.859 114.168 34.445 115.34 35.617 c 117.684 37.961 
117.684 41.758 115.34 44.101 c 93.359 66.082 l 91.02 68.426 87.219 
68.426 84.875 66.082 c 62.898 44.101 l 60.555 41.758 60.555 37.961 
62.898 35.617 c 64.066 34.445 65.605 33.859 67.141 33.859 c 68.676 
33.859 70.211 34.445 71.383 35.617 c 83.496 47.734 l 83.496 -0 l 31.141 
-0 l 13.969 -0 0 13.969 0 31.14 c 0 47.457 12.613 60.883 28.602 62.176 
c 30.77 72.836 36.262 82.57 44.391 90.015 c 53.957 98.769 66.371 
103.594 79.348 103.594 c 97.59 103.594 114.418 93.922 123.715 78.515 c 
128.184 80.16 132.938 81.015 137.73 81.015 c 160.066 81.015 178.238 
62.844 178.238 40.508 c h
178.238 40.508 m f
Q Q
showpage
%%Trailer
count op_count sub {pop} repeat
countdictstack dict_count sub {end} repeat
cairo_eps_state restore
%%EOF
