%!PS-Adobe-3.0 EPSF-3.0
%%Creator: cairo 1.10.2 (http://cairographics.org)
%%CreationDate: Thu Aug 13 09:20:32 2015
%%Pages: 1
%%BoundingBox: 0 -1 176 158
%%DocumentData: Clean7Bit
%%LanguageLevel: 2
%%EndComments
%%BeginProlog
/cairo_eps_state save def
/dict_count countdictstack def
/op_count count 1 sub def
userdict begin
/q { gsave } bind def
/Q { grestore } bind def
/cm { 6 array astore concat } bind def
/w { setlinewidth } bind def
/J { setlinecap } bind def
/j { setlinejoin } bind def
/M { setmiterlimit } bind def
/d { setdash } bind def
/m { moveto } bind def
/l { lineto } bind def
/c { curveto } bind def
/h { closepath } bind def
/re { exch dup neg 3 1 roll 5 3 roll moveto 0 rlineto
      0 exch rlineto 0 rlineto closepath } bind def
/S { stroke } bind def
/f { fill } bind def
/f* { eofill } bind def
/n { newpath } bind def
/W { clip } bind def
/W* { eoclip } bind def
/BT { } bind def
/ET { } bind def
/pdfmark where { pop globaldict /?pdfmark /exec load put }
    { globaldict begin /?pdfmark /pop load def /pdfmark
    /cleartomark load def end } ifelse
/BDC { mark 3 1 roll /BDC pdfmark } bind def
/EMC { mark /EMC pdfmark } bind def
/cairo_store_point { /cairo_point_y exch def /cairo_point_x exch def } def
/Tj { show currentpoint cairo_store_point } bind def
/TJ {
  {
    dup
    type /stringtype eq
    { show } { -0.001 mul 0 cairo_font_matrix dtransform rmoveto } ifelse
  } forall
  currentpoint cairo_store_point
} bind def
/cairo_selectfont { cairo_font_matrix aload pop pop pop 0 0 6 array astore
    cairo_font exch selectfont cairo_point_x cairo_point_y moveto } bind def
/Tf { pop /cairo_font exch def /cairo_font_matrix where
      { pop cairo_selectfont } if } bind def
/Td { matrix translate cairo_font_matrix matrix concatmatrix dup
      /cairo_font_matrix exch def dup 4 get exch 5 get cairo_store_point
      /cairo_font where { pop cairo_selectfont } if } bind def
/Tm { 2 copy 8 2 roll 6 array astore /cairo_font_matrix exch def
      cairo_store_point /cairo_font where { pop cairo_selectfont } if } bind def
/g { setgray } bind def
/rg { setrgbcolor } bind def
/d1 { setcachedevice } bind def
%%EndProlog
%%Page: 1 1
%%BeginPageSetup
%%PageBoundingBox: 0 -1 176 158
%%EndPageSetup
q 0 -1 176 159 rectclip q
0 157.066 176 -158 re W n
0 g
147.578 84.801 m 146.352 84.801 l 146.324 85.574 146.289 86.359 146.234 
87.148 c 146.027 90.301 143.41 92.754 140.25 92.754 c 6.152 92.754 l 
2.992 92.754 0.371 90.301 0.164 87.145 c 0.055 85.48 0 83.844 0 82.285 
c 0 53.758 16.402 28.996 40.27 16.922 c 39.59 15.418 39.199 13.754 
39.199 12 c 39.199 5.383 44.582 0 51.199 0 c 95.199 0 l 101.816 0 
107.199 5.383 107.199 12 c 107.199 13.754 106.812 15.418 106.133 16.922 
c 112.707 20.246 118.711 24.535 123.965 29.602 c 147.578 29.602 l 
162.797 29.602 175.176 41.98 175.176 57.199 c 175.176 72.418 162.797 
84.801 147.578 84.801 c h
147.578 41.602 m 134.023 41.602 l 140.168 50.758 144.301 61.367 145.785 
72.801 c 147.578 72.801 l 156.18 72.801 163.176 65.801 163.176 57.199 c 
163.176 48.598 156.18 41.602 147.578 41.602 c h
87.734 100.266 m 69.867 100.266 l 60.383 100.266 52.668 107.98 52.668 
117.465 c 52.668 126.949 60.383 134.668 69.867 134.668 c 72.133 134.668 
l 75 134.668 77.332 137 77.332 139.867 c 77.332 151.066 l 77.332 
154.379 80.02 157.066 83.332 157.066 c 86.648 157.066 89.332 154.379 
89.332 151.066 c 89.332 139.867 l 89.332 130.383 81.617 122.668 72.133 
122.668 c 69.867 122.668 l 67 122.668 64.668 120.332 64.668 117.465 c 
64.668 114.598 67 112.266 69.867 112.266 c 87.734 112.266 l 91.047 
112.266 93.734 109.582 93.734 106.266 c 93.734 102.953 91.047 100.266 
87.734 100.266 c h
87.734 100.266 m f
Q Q
showpage
%%Trailer
count op_count sub {pop} repeat
countdictstack dict_count sub {end} repeat
cairo_eps_state restore
%%EOF
