%!PS-Adobe-3.0 EPSF-3.0
%%Creator: cairo 1.10.2 (http://cairographics.org)
%%CreationDate: Thu Aug 13 09:20:20 2015
%%Pages: 1
%%BoundingBox: 0 -1 173 173
%%DocumentData: Clean7Bit
%%LanguageLevel: 2
%%EndComments
%%BeginProlog
/cairo_eps_state save def
/dict_count countdictstack def
/op_count count 1 sub def
userdict begin
/q { gsave } bind def
/Q { grestore } bind def
/cm { 6 array astore concat } bind def
/w { setlinewidth } bind def
/J { setlinecap } bind def
/j { setlinejoin } bind def
/M { setmiterlimit } bind def
/d { setdash } bind def
/m { moveto } bind def
/l { lineto } bind def
/c { curveto } bind def
/h { closepath } bind def
/re { exch dup neg 3 1 roll 5 3 roll moveto 0 rlineto
      0 exch rlineto 0 rlineto closepath } bind def
/S { stroke } bind def
/f { fill } bind def
/f* { eofill } bind def
/n { newpath } bind def
/W { clip } bind def
/W* { eoclip } bind def
/BT { } bind def
/ET { } bind def
/pdfmark where { pop globaldict /?pdfmark /exec load put }
    { globaldict begin /?pdfmark /pop load def /pdfmark
    /cleartomark load def end } ifelse
/BDC { mark 3 1 roll /BDC pdfmark } bind def
/EMC { mark /EMC pdfmark } bind def
/cairo_store_point { /cairo_point_y exch def /cairo_point_x exch def } def
/Tj { show currentpoint cairo_store_point } bind def
/TJ {
  {
    dup
    type /stringtype eq
    { show } { -0.001 mul 0 cairo_font_matrix dtransform rmoveto } ifelse
  } forall
  currentpoint cairo_store_point
} bind def
/cairo_selectfont { cairo_font_matrix aload pop pop pop 0 0 6 array astore
    cairo_font exch selectfont cairo_point_x cairo_point_y moveto } bind def
/Tf { pop /cairo_font exch def /cairo_font_matrix where
      { pop cairo_selectfont } if } bind def
/Td { matrix translate cairo_font_matrix matrix concatmatrix dup
      /cairo_font_matrix exch def dup 4 get exch 5 get cairo_store_point
      /cairo_font where { pop cairo_selectfont } if } bind def
/Tm { 2 copy 8 2 roll 6 array astore /cairo_font_matrix exch def
      cairo_store_point /cairo_font where { pop cairo_selectfont } if } bind def
/g { setgray } bind def
/rg { setrgbcolor } bind def
/d1 { setcachedevice } bind def
%%EndProlog
%%Page: 1 1
%%BeginPageSetup
%%PageBoundingBox: 0 -1 173 173
%%EndPageSetup
q 0 -1 173 174 rectclip q
0 172.266 173 -173 re W n
0 g
86.133 172.266 m 38.641 172.266 0 133.626 0 86.134 c 0 38.637 38.641 
0.001 86.133 0.001 c 133.629 0.001 172.266 38.637 172.266 86.134 c 
172.266 133.626 133.629 172.266 86.133 172.266 c h
95.336 158.755 m 128.355 154.595 154.598 128.356 158.758 95.333 c 
146.641 95.333 l 142.645 121.727 121.73 142.641 95.336 146.637 c h
95.336 129.243 m 112.273 125.634 125.633 112.27 129.246 95.333 c 
116.867 95.333 l 113.777 105.637 105.641 113.774 95.336 116.868 c h
129.246 76.93 m 125.633 59.997 112.273 46.634 95.336 43.02 c 95.336 
55.399 l 105.641 58.489 113.777 66.626 116.867 76.93 c h
76.93 158.755 m 76.93 146.637 l 50.539 142.641 29.625 121.727 25.625 
95.333 c 13.512 95.333 l 17.672 128.356 43.91 154.595 76.93 158.755 c h
76.93 129.243 m 76.93 116.868 l 66.629 113.774 58.492 105.637 55.398 
95.333 c 43.023 95.333 l 46.633 112.27 59.996 125.634 76.93 129.243 c h
76.93 13.509 m 43.91 17.669 17.672 43.911 13.512 76.93 c 25.625 76.93 l 
29.625 50.536 50.539 29.622 76.93 25.626 c h
76.93 43.02 m 59.996 46.634 46.633 59.993 43.023 76.93 c 55.398 76.93 l 
58.492 66.626 66.629 58.489 76.93 55.399 c h
67.383 86.134 m 67.383 96.473 75.793 104.884 86.133 104.884 c 96.473 
104.884 104.887 96.473 104.887 86.134 c 104.887 75.794 96.473 67.38 
86.133 67.38 c 75.793 67.38 67.383 75.794 67.383 86.134 c h
95.336 13.509 m 95.336 25.626 l 121.73 29.622 142.645 50.536 146.641 
76.93 c 158.758 76.93 l 154.598 43.911 128.355 17.669 95.336 13.509 c h
92.887 86.134 m 92.887 82.411 89.855 79.38 86.133 79.38 c 82.41 79.38 
79.383 82.411 79.383 86.134 c 79.383 89.856 82.41 92.884 86.133 92.884 
c 89.855 92.884 92.887 89.856 92.887 86.134 c h
92.887 86.134 m f
Q Q
showpage
%%Trailer
count op_count sub {pop} repeat
countdictstack dict_count sub {end} repeat
cairo_eps_state restore
%%EOF
