%!PS-Adobe-3.0 EPSF-3.0
%%Creator: cairo 1.10.2 (http://cairographics.org)
%%CreationDate: Thu Aug 13 09:20:08 2015
%%Pages: 1
%%BoundingBox: 0 -1 160 160
%%DocumentData: Clean7Bit
%%LanguageLevel: 2
%%EndComments
%%BeginProlog
/cairo_eps_state save def
/dict_count countdictstack def
/op_count count 1 sub def
userdict begin
/q { gsave } bind def
/Q { grestore } bind def
/cm { 6 array astore concat } bind def
/w { setlinewidth } bind def
/J { setlinecap } bind def
/j { setlinejoin } bind def
/M { setmiterlimit } bind def
/d { setdash } bind def
/m { moveto } bind def
/l { lineto } bind def
/c { curveto } bind def
/h { closepath } bind def
/re { exch dup neg 3 1 roll 5 3 roll moveto 0 rlineto
      0 exch rlineto 0 rlineto closepath } bind def
/S { stroke } bind def
/f { fill } bind def
/f* { eofill } bind def
/n { newpath } bind def
/W { clip } bind def
/W* { eoclip } bind def
/BT { } bind def
/ET { } bind def
/pdfmark where { pop globaldict /?pdfmark /exec load put }
    { globaldict begin /?pdfmark /pop load def /pdfmark
    /cleartomark load def end } ifelse
/BDC { mark 3 1 roll /BDC pdfmark } bind def
/EMC { mark /EMC pdfmark } bind def
/cairo_store_point { /cairo_point_y exch def /cairo_point_x exch def } def
/Tj { show currentpoint cairo_store_point } bind def
/TJ {
  {
    dup
    type /stringtype eq
    { show } { -0.001 mul 0 cairo_font_matrix dtransform rmoveto } ifelse
  } forall
  currentpoint cairo_store_point
} bind def
/cairo_selectfont { cairo_font_matrix aload pop pop pop 0 0 6 array astore
    cairo_font exch selectfont cairo_point_x cairo_point_y moveto } bind def
/Tf { pop /cairo_font exch def /cairo_font_matrix where
      { pop cairo_selectfont } if } bind def
/Td { matrix translate cairo_font_matrix matrix concatmatrix dup
      /cairo_font_matrix exch def dup 4 get exch 5 get cairo_store_point
      /cairo_font where { pop cairo_selectfont } if } bind def
/Tm { 2 copy 8 2 roll 6 array astore /cairo_font_matrix exch def
      cairo_store_point /cairo_font where { pop cairo_selectfont } if } bind def
/g { setgray } bind def
/rg { setrgbcolor } bind def
/d1 { setcachedevice } bind def
%%EndProlog
%%Page: 1 1
%%BeginPageSetup
%%PageBoundingBox: 0 -1 160 160
%%EndPageSetup
q 0 -1 160 161 rectclip q
0 159.148 160 -160 re W n
0 g
79.574 159.148 m 35.695 159.148 0 123.453 0 79.574 c 0 35.695 35.695 -0 
79.574 -0 c 123.453 -0 159.148 35.695 159.148 79.574 c 159.148 123.449 
123.453 159.148 79.574 159.148 c h
119.727 88.48 m 104.004 73.156 l 107.715 51.515 l 108.102 49.261 
107.176 46.988 105.328 45.644 c 104.281 44.886 103.043 44.5 101.801 
44.5 c 100.848 44.5 99.887 44.726 99.008 45.187 c 79.574 55.406 l 
60.141 45.187 l 58.117 44.125 55.668 44.304 53.82 45.644 c 51.973 
46.988 51.047 49.261 51.434 51.511 c 55.145 73.152 l 39.422 88.48 l 
37.789 90.074 37.199 92.461 37.906 94.632 c 38.609 96.804 40.488 98.386 
42.75 98.714 c 64.477 101.871 l 74.195 121.562 l 75.203 123.609 77.289 
124.906 79.574 124.906 c 81.859 124.906 83.945 123.609 84.957 121.562 c 
94.672 101.871 l 116.398 98.714 l 118.66 98.386 120.539 96.804 121.242 
94.632 c 121.949 92.461 121.359 90.074 119.727 88.48 c h
119.727 88.48 m f
Q Q
showpage
%%Trailer
count op_count sub {pop} repeat
countdictstack dict_count sub {end} repeat
cairo_eps_state restore
%%EOF
