%!PS-Adobe-3.0 EPSF-3.0
%%Creator: cairo 1.10.2 (http://cairographics.org)
%%CreationDate: Thu Aug 13 09:20:59 2015
%%Pages: 1
%%BoundingBox: 0 -1 118 165
%%DocumentData: Clean7Bit
%%LanguageLevel: 2
%%EndComments
%%BeginProlog
/cairo_eps_state save def
/dict_count countdictstack def
/op_count count 1 sub def
userdict begin
/q { gsave } bind def
/Q { grestore } bind def
/cm { 6 array astore concat } bind def
/w { setlinewidth } bind def
/J { setlinecap } bind def
/j { setlinejoin } bind def
/M { setmiterlimit } bind def
/d { setdash } bind def
/m { moveto } bind def
/l { lineto } bind def
/c { curveto } bind def
/h { closepath } bind def
/re { exch dup neg 3 1 roll 5 3 roll moveto 0 rlineto
      0 exch rlineto 0 rlineto closepath } bind def
/S { stroke } bind def
/f { fill } bind def
/f* { eofill } bind def
/n { newpath } bind def
/W { clip } bind def
/W* { eoclip } bind def
/BT { } bind def
/ET { } bind def
/pdfmark where { pop globaldict /?pdfmark /exec load put }
    { globaldict begin /?pdfmark /pop load def /pdfmark
    /cleartomark load def end } ifelse
/BDC { mark 3 1 roll /BDC pdfmark } bind def
/EMC { mark /EMC pdfmark } bind def
/cairo_store_point { /cairo_point_y exch def /cairo_point_x exch def } def
/Tj { show currentpoint cairo_store_point } bind def
/TJ {
  {
    dup
    type /stringtype eq
    { show } { -0.001 mul 0 cairo_font_matrix dtransform rmoveto } ifelse
  } forall
  currentpoint cairo_store_point
} bind def
/cairo_selectfont { cairo_font_matrix aload pop pop pop 0 0 6 array astore
    cairo_font exch selectfont cairo_point_x cairo_point_y moveto } bind def
/Tf { pop /cairo_font exch def /cairo_font_matrix where
      { pop cairo_selectfont } if } bind def
/Td { matrix translate cairo_font_matrix matrix concatmatrix dup
      /cairo_font_matrix exch def dup 4 get exch 5 get cairo_store_point
      /cairo_font where { pop cairo_selectfont } if } bind def
/Tm { 2 copy 8 2 roll 6 array astore /cairo_font_matrix exch def
      cairo_store_point /cairo_font where { pop cairo_selectfont } if } bind def
/g { setgray } bind def
/rg { setrgbcolor } bind def
/d1 { setcachedevice } bind def
%%EndProlog
%%Page: 1 1
%%BeginPageSetup
%%PageBoundingBox: 0 -1 118 165
%%EndPageSetup
q 0 -1 118 166 rectclip q
0 164.919 118 -165 re W n
0 g
111.781 164.919 m 6 164.919 l 2.688 164.919 0 162.232 0 158.919 c 0 
6.001 l 0 2.685 2.688 0.001 6 0.001 c 90.18 0.001 l 91.773 0.001 93.297 
0.63 94.426 1.759 c 116.023 23.357 l 117.148 24.482 117.781 26.009 
117.781 27.599 c 117.781 158.919 l 117.781 162.232 115.094 164.919 
111.781 164.919 c h
96.266 30.814 m 19.066 30.814 l 15.754 30.814 13.066 33.501 13.066 
36.814 c 13.066 40.13 15.754 42.814 19.066 42.814 c 96.266 42.814 l 
99.582 42.814 102.266 40.13 102.266 36.814 c 102.266 33.501 99.582 
30.814 96.266 30.814 c h
96.266 64.415 m 19.066 64.415 l 15.754 64.415 13.066 67.103 13.066 
70.415 c 13.066 73.728 15.754 76.415 19.066 76.415 c 96.266 76.415 l 
99.582 76.415 102.266 73.728 102.266 70.415 c 102.266 67.103 99.582 
64.415 96.266 64.415 c h
96.266 98.017 m 19.066 98.017 l 15.754 98.017 13.066 100.7 13.066 
104.017 c 13.066 107.329 15.754 110.017 19.066 110.017 c 96.266 110.017 
l 99.582 110.017 102.266 107.329 102.266 104.017 c 102.266 100.7 99.582 
98.017 96.266 98.017 c h
96.266 131.615 m 19.066 131.615 l 15.754 131.615 13.066 134.302 13.066 
137.615 c 13.066 140.927 15.754 143.615 19.066 143.615 c 96.266 143.615 
l 99.582 143.615 102.266 140.927 102.266 137.615 c 102.266 134.302 
99.582 131.615 96.266 131.615 c h
96.266 131.615 m f
Q Q
showpage
%%Trailer
count op_count sub {pop} repeat
countdictstack dict_count sub {end} repeat
cairo_eps_state restore
%%EOF
