%!PS-Adobe-3.0 EPSF-3.0
%%Creator: cairo 1.10.2 (http://cairographics.org)
%%CreationDate: Thu Aug 13 09:20:40 2015
%%Pages: 1
%%BoundingBox: 0 -1 161 134
%%DocumentData: Clean7Bit
%%LanguageLevel: 2
%%EndComments
%%BeginProlog
/cairo_eps_state save def
/dict_count countdictstack def
/op_count count 1 sub def
userdict begin
/q { gsave } bind def
/Q { grestore } bind def
/cm { 6 array astore concat } bind def
/w { setlinewidth } bind def
/J { setlinecap } bind def
/j { setlinejoin } bind def
/M { setmiterlimit } bind def
/d { setdash } bind def
/m { moveto } bind def
/l { lineto } bind def
/c { curveto } bind def
/h { closepath } bind def
/re { exch dup neg 3 1 roll 5 3 roll moveto 0 rlineto
      0 exch rlineto 0 rlineto closepath } bind def
/S { stroke } bind def
/f { fill } bind def
/f* { eofill } bind def
/n { newpath } bind def
/W { clip } bind def
/W* { eoclip } bind def
/BT { } bind def
/ET { } bind def
/pdfmark where { pop globaldict /?pdfmark /exec load put }
    { globaldict begin /?pdfmark /pop load def /pdfmark
    /cleartomark load def end } ifelse
/BDC { mark 3 1 roll /BDC pdfmark } bind def
/EMC { mark /EMC pdfmark } bind def
/cairo_store_point { /cairo_point_y exch def /cairo_point_x exch def } def
/Tj { show currentpoint cairo_store_point } bind def
/TJ {
  {
    dup
    type /stringtype eq
    { show } { -0.001 mul 0 cairo_font_matrix dtransform rmoveto } ifelse
  } forall
  currentpoint cairo_store_point
} bind def
/cairo_selectfont { cairo_font_matrix aload pop pop pop 0 0 6 array astore
    cairo_font exch selectfont cairo_point_x cairo_point_y moveto } bind def
/Tf { pop /cairo_font exch def /cairo_font_matrix where
      { pop cairo_selectfont } if } bind def
/Td { matrix translate cairo_font_matrix matrix concatmatrix dup
      /cairo_font_matrix exch def dup 4 get exch 5 get cairo_store_point
      /cairo_font where { pop cairo_selectfont } if } bind def
/Tm { 2 copy 8 2 roll 6 array astore /cairo_font_matrix exch def
      cairo_store_point /cairo_font where { pop cairo_selectfont } if } bind def
/g { setgray } bind def
/rg { setrgbcolor } bind def
/d1 { setcachedevice } bind def
%%EndProlog
%%Page: 1 1
%%BeginPageSetup
%%PageBoundingBox: 0 -1 161 134
%%EndPageSetup
q 0 -1 161 135 rectclip q
0 133.184 161 -134 re W n
0 g
154.984 133.184 m 97.168 133.184 l 95.574 133.184 94.051 132.551 92.926 
131.426 c 74.008 112.508 l 6 112.508 l 2.688 112.508 0 109.825 0 
106.508 c 0 6 l 0 2.688 2.688 0 6 0 c 154.984 0 l 158.297 0 160.984 
2.688 160.984 6 c 160.984 127.184 l 160.984 130.497 158.297 133.184 
154.984 133.184 c h
140.719 76.032 m 140.719 72.719 138.031 70.032 134.719 70.032 c 131.402 
70.032 128.719 72.719 128.719 76.032 c 128.719 76.7 l 118.582 76.7 l 
118.582 35.368 l 119.484 35.368 l 122.797 35.368 125.484 32.68 125.484 
29.368 c 125.484 26.051 122.797 23.368 119.484 23.368 c 105.684 23.368 
l 102.367 23.368 99.684 26.051 99.684 29.368 c 99.684 32.68 102.367 
35.368 105.684 35.368 c 106.582 35.368 l 106.582 76.7 l 96.449 76.7 l 
96.449 76.032 l 96.449 72.719 93.766 70.032 90.449 70.032 c 87.137 
70.032 84.449 72.719 84.449 76.032 c 84.449 82.7 l 84.449 86.012 87.137 
88.7 90.449 88.7 c 134.719 88.7 l 138.031 88.7 140.719 86.012 140.719 
82.7 c h
140.719 76.032 m f
Q Q
showpage
%%Trailer
count op_count sub {pop} repeat
countdictstack dict_count sub {end} repeat
cairo_eps_state restore
%%EOF
