%!PS-Adobe-3.0 EPSF-3.0
%%Creator: cairo 1.10.2 (http://cairographics.org)
%%CreationDate: Thu Aug 13 09:20:31 2015
%%Pages: 1
%%BoundingBox: 0 -1 139 176
%%DocumentData: Clean7Bit
%%LanguageLevel: 2
%%EndComments
%%BeginProlog
/cairo_eps_state save def
/dict_count countdictstack def
/op_count count 1 sub def
userdict begin
/q { gsave } bind def
/Q { grestore } bind def
/cm { 6 array astore concat } bind def
/w { setlinewidth } bind def
/J { setlinecap } bind def
/j { setlinejoin } bind def
/M { setmiterlimit } bind def
/d { setdash } bind def
/m { moveto } bind def
/l { lineto } bind def
/c { curveto } bind def
/h { closepath } bind def
/re { exch dup neg 3 1 roll 5 3 roll moveto 0 rlineto
      0 exch rlineto 0 rlineto closepath } bind def
/S { stroke } bind def
/f { fill } bind def
/f* { eofill } bind def
/n { newpath } bind def
/W { clip } bind def
/W* { eoclip } bind def
/BT { } bind def
/ET { } bind def
/pdfmark where { pop globaldict /?pdfmark /exec load put }
    { globaldict begin /?pdfmark /pop load def /pdfmark
    /cleartomark load def end } ifelse
/BDC { mark 3 1 roll /BDC pdfmark } bind def
/EMC { mark /EMC pdfmark } bind def
/cairo_store_point { /cairo_point_y exch def /cairo_point_x exch def } def
/Tj { show currentpoint cairo_store_point } bind def
/TJ {
  {
    dup
    type /stringtype eq
    { show } { -0.001 mul 0 cairo_font_matrix dtransform rmoveto } ifelse
  } forall
  currentpoint cairo_store_point
} bind def
/cairo_selectfont { cairo_font_matrix aload pop pop pop 0 0 6 array astore
    cairo_font exch selectfont cairo_point_x cairo_point_y moveto } bind def
/Tf { pop /cairo_font exch def /cairo_font_matrix where
      { pop cairo_selectfont } if } bind def
/Td { matrix translate cairo_font_matrix matrix concatmatrix dup
      /cairo_font_matrix exch def dup 4 get exch 5 get cairo_store_point
      /cairo_font where { pop cairo_selectfont } if } bind def
/Tm { 2 copy 8 2 roll 6 array astore /cairo_font_matrix exch def
      cairo_store_point /cairo_font where { pop cairo_selectfont } if } bind def
/g { setgray } bind def
/rg { setrgbcolor } bind def
/d1 { setcachedevice } bind def
%%EndProlog
%%Page: 1 1
%%BeginPageSetup
%%PageBoundingBox: 0 -1 139 176
%%EndPageSetup
q 0 -1 139 177 rectclip q
0 175.841 139 -176 re W n
0 g
133.953 16.606 m 133.953 6.001 l 133.953 2.685 131.266 0.001 127.953 
0.001 c 6 0.001 l 2.688 0.001 0 2.685 0 6.001 c 0 16.606 l 0 19.919 
2.688 22.606 6 22.606 c 16.57 22.606 l 16.57 163.544 l 16.57 170.325 
22.086 175.841 28.867 175.841 c 35.648 175.841 41.164 170.325 41.164 
163.544 c 41.164 22.606 l 127.953 22.606 l 131.266 22.606 133.953 
19.919 133.953 16.606 c h
135.094 131.989 m 60.531 175.036 l 58.676 176.11 56.387 176.11 54.531 
175.036 c 52.676 173.966 51.531 171.985 51.531 169.841 c 51.531 83.743 
l 51.531 81.599 52.676 79.618 54.531 78.548 c 55.461 78.013 56.496 
77.743 57.531 77.743 c 58.566 77.743 59.602 78.013 60.531 78.548 c 
135.094 121.599 l 136.949 122.669 138.094 124.649 138.094 126.794 c 
138.094 128.938 136.953 130.915 135.094 131.989 c h
135.094 131.989 m f
Q Q
showpage
%%Trailer
count op_count sub {pop} repeat
countdictstack dict_count sub {end} repeat
cairo_eps_state restore
%%EOF
