%!PS-Adobe-3.0 EPSF-3.0
%%Creator: cairo 1.10.2 (http://cairographics.org)
%%CreationDate: Thu Aug 13 09:20:43 2015
%%Pages: 1
%%BoundingBox: 0 -1 134 170
%%DocumentData: Clean7Bit
%%LanguageLevel: 2
%%EndComments
%%BeginProlog
/cairo_eps_state save def
/dict_count countdictstack def
/op_count count 1 sub def
userdict begin
/q { gsave } bind def
/Q { grestore } bind def
/cm { 6 array astore concat } bind def
/w { setlinewidth } bind def
/J { setlinecap } bind def
/j { setlinejoin } bind def
/M { setmiterlimit } bind def
/d { setdash } bind def
/m { moveto } bind def
/l { lineto } bind def
/c { curveto } bind def
/h { closepath } bind def
/re { exch dup neg 3 1 roll 5 3 roll moveto 0 rlineto
      0 exch rlineto 0 rlineto closepath } bind def
/S { stroke } bind def
/f { fill } bind def
/f* { eofill } bind def
/n { newpath } bind def
/W { clip } bind def
/W* { eoclip } bind def
/BT { } bind def
/ET { } bind def
/pdfmark where { pop globaldict /?pdfmark /exec load put }
    { globaldict begin /?pdfmark /pop load def /pdfmark
    /cleartomark load def end } ifelse
/BDC { mark 3 1 roll /BDC pdfmark } bind def
/EMC { mark /EMC pdfmark } bind def
/cairo_store_point { /cairo_point_y exch def /cairo_point_x exch def } def
/Tj { show currentpoint cairo_store_point } bind def
/TJ {
  {
    dup
    type /stringtype eq
    { show } { -0.001 mul 0 cairo_font_matrix dtransform rmoveto } ifelse
  } forall
  currentpoint cairo_store_point
} bind def
/cairo_selectfont { cairo_font_matrix aload pop pop pop 0 0 6 array astore
    cairo_font exch selectfont cairo_point_x cairo_point_y moveto } bind def
/Tf { pop /cairo_font exch def /cairo_font_matrix where
      { pop cairo_selectfont } if } bind def
/Td { matrix translate cairo_font_matrix matrix concatmatrix dup
      /cairo_font_matrix exch def dup 4 get exch 5 get cairo_store_point
      /cairo_font where { pop cairo_selectfont } if } bind def
/Tm { 2 copy 8 2 roll 6 array astore /cairo_font_matrix exch def
      cairo_store_point /cairo_font where { pop cairo_selectfont } if } bind def
/g { setgray } bind def
/rg { setrgbcolor } bind def
/d1 { setcachedevice } bind def
%%EndProlog
%%Page: 1 1
%%BeginPageSetup
%%PageBoundingBox: 0 -1 134 170
%%EndPageSetup
q 0 -1 134 171 rectclip q
0 169.067 134 -170 re W n
0 g
133.391 91.954 m 132.496 89.454 130.125 87.782 127.469 87.782 c 64.477 
87.782 l 61.004 87.782 58.188 90.598 58.188 94.071 c 58.188 98.138 l 
21.859 98.138 l 21.859 29.805 l 27.32 27.384 31.141 21.919 31.141 
15.571 c 31.141 6.985 24.156 0.001 15.57 0.001 c 6.984 0.001 0 6.985 0 
15.571 c 0 21.919 3.824 27.384 9.281 29.805 c 9.281 162.778 l 9.281 
166.251 12.098 169.067 15.57 169.067 c 19.043 169.067 21.859 166.255 
21.859 162.778 c 21.859 157.794 l 78.566 157.794 l 82.039 157.794 
84.855 154.981 84.855 151.505 c 84.855 147.438 l 127.469 147.438 l 
130.125 147.438 132.496 145.77 133.391 143.27 c 134.285 140.77 133.512 
137.977 131.457 136.29 c 108.699 117.61 l 131.457 98.93 l 133.512 
97.247 134.285 94.454 133.391 91.954 c h
133.391 91.954 m f
Q Q
showpage
%%Trailer
count op_count sub {pop} repeat
countdictstack dict_count sub {end} repeat
cairo_eps_state restore
%%EOF
