%!PS-Adobe-3.0 EPSF-3.0
%%Creator: cairo 1.10.2 (http://cairographics.org)
%%CreationDate: Thu Aug 13 09:20:51 2015
%%Pages: 1
%%BoundingBox: 0 -1 124 166
%%DocumentData: Clean7Bit
%%LanguageLevel: 2
%%EndComments
%%BeginProlog
/cairo_eps_state save def
/dict_count countdictstack def
/op_count count 1 sub def
userdict begin
/q { gsave } bind def
/Q { grestore } bind def
/cm { 6 array astore concat } bind def
/w { setlinewidth } bind def
/J { setlinecap } bind def
/j { setlinejoin } bind def
/M { setmiterlimit } bind def
/d { setdash } bind def
/m { moveto } bind def
/l { lineto } bind def
/c { curveto } bind def
/h { closepath } bind def
/re { exch dup neg 3 1 roll 5 3 roll moveto 0 rlineto
      0 exch rlineto 0 rlineto closepath } bind def
/S { stroke } bind def
/f { fill } bind def
/f* { eofill } bind def
/n { newpath } bind def
/W { clip } bind def
/W* { eoclip } bind def
/BT { } bind def
/ET { } bind def
/pdfmark where { pop globaldict /?pdfmark /exec load put }
    { globaldict begin /?pdfmark /pop load def /pdfmark
    /cleartomark load def end } ifelse
/BDC { mark 3 1 roll /BDC pdfmark } bind def
/EMC { mark /EMC pdfmark } bind def
/cairo_store_point { /cairo_point_y exch def /cairo_point_x exch def } def
/Tj { show currentpoint cairo_store_point } bind def
/TJ {
  {
    dup
    type /stringtype eq
    { show } { -0.001 mul 0 cairo_font_matrix dtransform rmoveto } ifelse
  } forall
  currentpoint cairo_store_point
} bind def
/cairo_selectfont { cairo_font_matrix aload pop pop pop 0 0 6 array astore
    cairo_font exch selectfont cairo_point_x cairo_point_y moveto } bind def
/Tf { pop /cairo_font exch def /cairo_font_matrix where
      { pop cairo_selectfont } if } bind def
/Td { matrix translate cairo_font_matrix matrix concatmatrix dup
      /cairo_font_matrix exch def dup 4 get exch 5 get cairo_store_point
      /cairo_font where { pop cairo_selectfont } if } bind def
/Tm { 2 copy 8 2 roll 6 array astore /cairo_font_matrix exch def
      cairo_store_point /cairo_font where { pop cairo_selectfont } if } bind def
/g { setgray } bind def
/rg { setrgbcolor } bind def
/d1 { setcachedevice } bind def
%%EndProlog
%%Page: 1 1
%%BeginPageSetup
%%PageBoundingBox: 0 -1 124 166
%%EndPageSetup
q 0 -1 124 167 rectclip q
0 165.622 124 -166 re W n
0 g
26.367 110.598 m 26.367 139.223 l 44.934 139.223 l 44.934 136.954 l 
44.934 133.641 47.621 130.954 50.934 130.954 c 73.066 130.954 l 76.383 
130.954 79.066 133.641 79.066 136.954 c 79.066 139.223 l 97.633 139.223 
l 97.633 110.598 l h
79.066 57.844 m 79.066 55.442 l 79.066 52.129 76.383 49.442 73.066 
49.442 c 50.934 49.442 l 47.621 49.442 44.934 52.129 44.934 55.442 c 
44.934 57.844 l 26.367 57.844 l 26.367 29.223 l 97.633 29.223 l 97.633 
57.844 l h
79.066 98.465 m 79.066 96.2 l 79.066 92.883 76.383 90.2 73.066 90.2 c 
50.934 90.2 l 47.621 90.2 44.934 92.883 44.934 96.2 c 44.934 98.465 l 
26.367 98.465 l 26.367 69.977 l 97.633 69.977 l 97.633 98.465 l h
124 159.622 m 124 6.001 l 124 2.688 121.312 0.001 118 0.001 c 6 0.001 l 
2.688 0.001 0 2.688 0 6.001 c 0 159.622 l 0 162.934 2.688 165.622 6 
165.622 c 118 165.622 l 121.312 165.622 124 162.934 124 159.622 c h
109.633 145.223 m 109.633 148.536 106.949 151.223 103.633 151.223 c 
20.367 151.223 l 17.055 151.223 14.367 148.536 14.367 145.223 c 14.367 
23.223 l 14.367 19.907 17.055 17.223 20.367 17.223 c 103.633 17.223 l 
106.949 17.223 109.633 19.907 109.633 23.223 c h
109.633 145.223 m f
Q Q
showpage
%%Trailer
count op_count sub {pop} repeat
countdictstack dict_count sub {end} repeat
cairo_eps_state restore
%%EOF
