%!PS-Adobe-3.0 EPSF-3.0
%%Creator: cairo 1.10.2 (http://cairographics.org)
%%CreationDate: Thu Aug 13 09:21:03 2015
%%Pages: 1
%%BoundingBox: 0 -1 160 145
%%DocumentData: Clean7Bit
%%LanguageLevel: 2
%%EndComments
%%BeginProlog
/cairo_eps_state save def
/dict_count countdictstack def
/op_count count 1 sub def
userdict begin
/q { gsave } bind def
/Q { grestore } bind def
/cm { 6 array astore concat } bind def
/w { setlinewidth } bind def
/J { setlinecap } bind def
/j { setlinejoin } bind def
/M { setmiterlimit } bind def
/d { setdash } bind def
/m { moveto } bind def
/l { lineto } bind def
/c { curveto } bind def
/h { closepath } bind def
/re { exch dup neg 3 1 roll 5 3 roll moveto 0 rlineto
      0 exch rlineto 0 rlineto closepath } bind def
/S { stroke } bind def
/f { fill } bind def
/f* { eofill } bind def
/n { newpath } bind def
/W { clip } bind def
/W* { eoclip } bind def
/BT { } bind def
/ET { } bind def
/pdfmark where { pop globaldict /?pdfmark /exec load put }
    { globaldict begin /?pdfmark /pop load def /pdfmark
    /cleartomark load def end } ifelse
/BDC { mark 3 1 roll /BDC pdfmark } bind def
/EMC { mark /EMC pdfmark } bind def
/cairo_store_point { /cairo_point_y exch def /cairo_point_x exch def } def
/Tj { show currentpoint cairo_store_point } bind def
/TJ {
  {
    dup
    type /stringtype eq
    { show } { -0.001 mul 0 cairo_font_matrix dtransform rmoveto } ifelse
  } forall
  currentpoint cairo_store_point
} bind def
/cairo_selectfont { cairo_font_matrix aload pop pop pop 0 0 6 array astore
    cairo_font exch selectfont cairo_point_x cairo_point_y moveto } bind def
/Tf { pop /cairo_font exch def /cairo_font_matrix where
      { pop cairo_selectfont } if } bind def
/Td { matrix translate cairo_font_matrix matrix concatmatrix dup
      /cairo_font_matrix exch def dup 4 get exch 5 get cairo_store_point
      /cairo_font where { pop cairo_selectfont } if } bind def
/Tm { 2 copy 8 2 roll 6 array astore /cairo_font_matrix exch def
      cairo_store_point /cairo_font where { pop cairo_selectfont } if } bind def
/g { setgray } bind def
/rg { setrgbcolor } bind def
/d1 { setcachedevice } bind def
%%EndProlog
%%Page: 1 1
%%BeginPageSetup
%%PageBoundingBox: 0 -1 160 145
%%EndPageSetup
q 0 -1 160 146 rectclip q
0 144.753 160 -145 re W n
0 g
137.531 116.315 m 118.801 116.315 l 118.801 138.753 l 118.801 142.065 
116.113 144.753 112.801 144.753 c 42.801 144.753 l 42.801 101.675 l 
47.984 100.983 52 96.546 52 91.175 c 52 72.776 l 52 66.932 47.246 
62.175 41.398 62.175 c 32.199 62.175 l 26.355 62.175 21.602 66.932 
21.602 72.776 c 21.602 91.175 l 21.602 96.546 25.617 100.983 30.801 
101.675 c 30.801 144.753 l 6 144.753 l 2.688 144.753 0 142.065 0 
138.753 c 0 5.999 l 0 2.686 2.688 -0.001 6 -0.001 c 112.801 -0.001 l 
116.113 -0.001 118.801 2.686 118.801 5.999 c 118.801 29.776 l 137.531 
29.776 l 149.922 29.776 160 39.854 160 52.245 c 160 93.847 l 160 
106.233 149.922 116.315 137.531 116.315 c h
148 52.245 m 148 46.472 143.305 41.776 137.531 41.776 c 119.199 41.776 
l 119.199 104.315 l 137.531 104.315 l 143.305 104.315 148 99.616 148 
93.847 c h
148 52.245 m f
Q Q
showpage
%%Trailer
count op_count sub {pop} repeat
countdictstack dict_count sub {end} repeat
cairo_eps_state restore
%%EOF
