%!PS-Adobe-3.0 EPSF-3.0
%%Creator: cairo 1.10.2 (http://cairographics.org)
%%CreationDate: Thu Aug 13 09:20:39 2015
%%Pages: 1
%%BoundingBox: 0 -1 166 148
%%DocumentData: Clean7Bit
%%LanguageLevel: 2
%%EndComments
%%BeginProlog
/cairo_eps_state save def
/dict_count countdictstack def
/op_count count 1 sub def
userdict begin
/q { gsave } bind def
/Q { grestore } bind def
/cm { 6 array astore concat } bind def
/w { setlinewidth } bind def
/J { setlinecap } bind def
/j { setlinejoin } bind def
/M { setmiterlimit } bind def
/d { setdash } bind def
/m { moveto } bind def
/l { lineto } bind def
/c { curveto } bind def
/h { closepath } bind def
/re { exch dup neg 3 1 roll 5 3 roll moveto 0 rlineto
      0 exch rlineto 0 rlineto closepath } bind def
/S { stroke } bind def
/f { fill } bind def
/f* { eofill } bind def
/n { newpath } bind def
/W { clip } bind def
/W* { eoclip } bind def
/BT { } bind def
/ET { } bind def
/pdfmark where { pop globaldict /?pdfmark /exec load put }
    { globaldict begin /?pdfmark /pop load def /pdfmark
    /cleartomark load def end } ifelse
/BDC { mark 3 1 roll /BDC pdfmark } bind def
/EMC { mark /EMC pdfmark } bind def
/cairo_store_point { /cairo_point_y exch def /cairo_point_x exch def } def
/Tj { show currentpoint cairo_store_point } bind def
/TJ {
  {
    dup
    type /stringtype eq
    { show } { -0.001 mul 0 cairo_font_matrix dtransform rmoveto } ifelse
  } forall
  currentpoint cairo_store_point
} bind def
/cairo_selectfont { cairo_font_matrix aload pop pop pop 0 0 6 array astore
    cairo_font exch selectfont cairo_point_x cairo_point_y moveto } bind def
/Tf { pop /cairo_font exch def /cairo_font_matrix where
      { pop cairo_selectfont } if } bind def
/Td { matrix translate cairo_font_matrix matrix concatmatrix dup
      /cairo_font_matrix exch def dup 4 get exch 5 get cairo_store_point
      /cairo_font where { pop cairo_selectfont } if } bind def
/Tm { 2 copy 8 2 roll 6 array astore /cairo_font_matrix exch def
      cairo_store_point /cairo_font where { pop cairo_selectfont } if } bind def
/g { setgray } bind def
/rg { setrgbcolor } bind def
/d1 { setcachedevice } bind def
%%EndProlog
%%Page: 1 1
%%BeginPageSetup
%%PageBoundingBox: 0 -1 166 148
%%EndPageSetup
q 0 -1 166 149 rectclip q
0 147.33 166 -148 re W n
0 g
164.203 113.08 m 133.695 79.638 l 132.559 78.392 130.945 77.681 129.266 
77.681 c 129.188 77.681 129.109 77.685 129.031 77.689 c 127.266 77.756 
125.617 78.603 124.531 79.998 c 106.617 102.99 l 99.414 109.908 98.125 
120.916 102.836 129.884 c 98.473 133.373 l 28.398 66.756 l 28.398 
20.795 l 84.734 20.795 l 89.152 20.795 92.734 17.213 92.734 12.795 c 
92.734 8.002 l 92.734 3.584 89.152 0.002 84.734 0.002 c 8 0.002 l 3.582 
0.002 0 3.584 0 8.002 c 0 12.795 l 0 17.213 3.582 20.795 8 20.795 c 
16.398 20.795 l 16.398 69.33 l 16.398 70.974 17.074 72.545 18.266 
73.677 c 94 145.677 l 96.176 147.744 99.539 147.888 101.883 146.013 c 
110.824 138.861 l 114.816 141.599 119.512 143.115 124.305 143.115 c 
129.578 143.115 134.59 141.271 138.473 137.908 c 163.012 122.174 l 
164.5 121.22 165.492 119.658 165.723 117.904 c 165.949 116.15 165.395 
114.384 164.203 113.08 c h
164.203 113.08 m f
Q Q
showpage
%%Trailer
count op_count sub {pop} repeat
countdictstack dict_count sub {end} repeat
cairo_eps_state restore
%%EOF
