%!PS-Adobe-3.0 EPSF-3.0
%%Creator: cairo 1.10.2 (http://cairographics.org)
%%CreationDate: Thu Aug 13 09:21:01 2015
%%Pages: 1
%%BoundingBox: 0 -1 179 112
%%DocumentData: Clean7Bit
%%LanguageLevel: 2
%%EndComments
%%BeginProlog
/cairo_eps_state save def
/dict_count countdictstack def
/op_count count 1 sub def
userdict begin
/q { gsave } bind def
/Q { grestore } bind def
/cm { 6 array astore concat } bind def
/w { setlinewidth } bind def
/J { setlinecap } bind def
/j { setlinejoin } bind def
/M { setmiterlimit } bind def
/d { setdash } bind def
/m { moveto } bind def
/l { lineto } bind def
/c { curveto } bind def
/h { closepath } bind def
/re { exch dup neg 3 1 roll 5 3 roll moveto 0 rlineto
      0 exch rlineto 0 rlineto closepath } bind def
/S { stroke } bind def
/f { fill } bind def
/f* { eofill } bind def
/n { newpath } bind def
/W { clip } bind def
/W* { eoclip } bind def
/BT { } bind def
/ET { } bind def
/pdfmark where { pop globaldict /?pdfmark /exec load put }
    { globaldict begin /?pdfmark /pop load def /pdfmark
    /cleartomark load def end } ifelse
/BDC { mark 3 1 roll /BDC pdfmark } bind def
/EMC { mark /EMC pdfmark } bind def
/cairo_store_point { /cairo_point_y exch def /cairo_point_x exch def } def
/Tj { show currentpoint cairo_store_point } bind def
/TJ {
  {
    dup
    type /stringtype eq
    { show } { -0.001 mul 0 cairo_font_matrix dtransform rmoveto } ifelse
  } forall
  currentpoint cairo_store_point
} bind def
/cairo_selectfont { cairo_font_matrix aload pop pop pop 0 0 6 array astore
    cairo_font exch selectfont cairo_point_x cairo_point_y moveto } bind def
/Tf { pop /cairo_font exch def /cairo_font_matrix where
      { pop cairo_selectfont } if } bind def
/Td { matrix translate cairo_font_matrix matrix concatmatrix dup
      /cairo_font_matrix exch def dup 4 get exch 5 get cairo_store_point
      /cairo_font where { pop cairo_selectfont } if } bind def
/Tm { 2 copy 8 2 roll 6 array astore /cairo_font_matrix exch def
      cairo_store_point /cairo_font where { pop cairo_selectfont } if } bind def
/g { setgray } bind def
/rg { setrgbcolor } bind def
/d1 { setcachedevice } bind def
%%EndProlog
%%Page: 1 1
%%BeginPageSetup
%%PageBoundingBox: 0 -1 179 112
%%EndPageSetup
q 0 -1 179 113 rectclip q
0 111.114 179 -112 re W n
0 g
35.688 88.043 m 142.711 88.043 l 142.711 40.493 l 35.688 40.493 l h
178.398 19.578 m 178.398 8.782 169.617 0 158.824 0 c 19.578 0 l 8.781 0 
0 8.782 0 19.578 c 0 22.891 2.688 25.578 6 25.578 c 13.051 25.578 l 
13.051 105.114 l 13.051 108.426 15.738 111.114 19.051 111.114 c 159.348 
111.114 l 162.664 111.114 165.348 108.426 165.348 105.114 c 165.348 
25.578 l 172.398 25.578 l 175.715 25.578 178.398 22.891 178.398 19.578 
c h
154.711 94.043 m 154.711 97.356 152.027 100.043 148.711 100.043 c 
29.688 100.043 l 26.371 100.043 23.688 97.356 23.688 94.043 c 23.688 
34.493 l 23.688 31.18 26.371 28.493 29.688 28.493 c 148.711 28.493 l 
152.027 28.493 154.711 31.18 154.711 34.493 c h
154.711 94.043 m f
Q Q
showpage
%%Trailer
count op_count sub {pop} repeat
countdictstack dict_count sub {end} repeat
cairo_eps_state restore
%%EOF
