%!PS-Adobe-3.0 EPSF-3.0
%%Creator: cairo 1.10.2 (http://cairographics.org)
%%CreationDate: Thu Aug 13 09:20:22 2015
%%Pages: 1
%%BoundingBox: 0 -1 128 176
%%DocumentData: Clean7Bit
%%LanguageLevel: 2
%%EndComments
%%BeginProlog
/cairo_eps_state save def
/dict_count countdictstack def
/op_count count 1 sub def
userdict begin
/q { gsave } bind def
/Q { grestore } bind def
/cm { 6 array astore concat } bind def
/w { setlinewidth } bind def
/J { setlinecap } bind def
/j { setlinejoin } bind def
/M { setmiterlimit } bind def
/d { setdash } bind def
/m { moveto } bind def
/l { lineto } bind def
/c { curveto } bind def
/h { closepath } bind def
/re { exch dup neg 3 1 roll 5 3 roll moveto 0 rlineto
      0 exch rlineto 0 rlineto closepath } bind def
/S { stroke } bind def
/f { fill } bind def
/f* { eofill } bind def
/n { newpath } bind def
/W { clip } bind def
/W* { eoclip } bind def
/BT { } bind def
/ET { } bind def
/pdfmark where { pop globaldict /?pdfmark /exec load put }
    { globaldict begin /?pdfmark /pop load def /pdfmark
    /cleartomark load def end } ifelse
/BDC { mark 3 1 roll /BDC pdfmark } bind def
/EMC { mark /EMC pdfmark } bind def
/cairo_store_point { /cairo_point_y exch def /cairo_point_x exch def } def
/Tj { show currentpoint cairo_store_point } bind def
/TJ {
  {
    dup
    type /stringtype eq
    { show } { -0.001 mul 0 cairo_font_matrix dtransform rmoveto } ifelse
  } forall
  currentpoint cairo_store_point
} bind def
/cairo_selectfont { cairo_font_matrix aload pop pop pop 0 0 6 array astore
    cairo_font exch selectfont cairo_point_x cairo_point_y moveto } bind def
/Tf { pop /cairo_font exch def /cairo_font_matrix where
      { pop cairo_selectfont } if } bind def
/Td { matrix translate cairo_font_matrix matrix concatmatrix dup
      /cairo_font_matrix exch def dup 4 get exch 5 get cairo_store_point
      /cairo_font where { pop cairo_selectfont } if } bind def
/Tm { 2 copy 8 2 roll 6 array astore /cairo_font_matrix exch def
      cairo_store_point /cairo_font where { pop cairo_selectfont } if } bind def
/g { setgray } bind def
/rg { setrgbcolor } bind def
/d1 { setcachedevice } bind def
%%EndProlog
%%Page: 1 1
%%BeginPageSetup
%%PageBoundingBox: 0 -1 128 176
%%EndPageSetup
q 0 -1 128 177 rectclip q
0 175.596 128 -176 re W n
0 g
63.801 175.596 m 63.285 175.596 62.777 175.592 62.262 175.576 c 45.691 
175.186 30.105 168.405 18.379 156.479 c 6.652 144.553 0.125 128.858 0 
112.284 c -0.133 94.393 7.32 77.159 20.453 64.994 c 29.57 56.549 34.801 
44.83 34.801 32.846 c 34.801 17.198 l 34.801 7.717 42.516 -0.002 52 
-0.002 c 75.602 -0.002 l 85.086 -0.002 92.801 7.717 92.801 17.198 c 
92.801 32.17 l 92.801 44.475 98.141 56.541 107.453 65.28 c 120.258 
77.295 127.602 94.248 127.602 111.795 c 127.602 146.975 98.98 175.596 
63.801 175.596 c h
80.801 17.198 m 80.801 14.33 78.469 11.998 75.602 11.998 c 52 11.998 l 
49.133 11.998 46.801 14.33 46.801 17.198 c 46.801 24.998 l 80.801 
24.998 l h
94.703 121.139 m 73 86.092 l 73 43.666 l 73 40.35 70.316 37.666 67 
37.666 c 60.602 37.666 l 57.285 37.666 54.602 40.35 54.602 43.666 c 
54.602 86.092 l 32.898 121.139 l 31.152 123.955 32.023 127.655 34.84 
129.397 c 37.66 131.143 41.355 130.272 43.102 127.455 c 63.801 94.03 l 
84.5 127.455 l 86.246 130.272 89.945 131.143 92.758 129.397 c 95.574 
127.655 96.445 123.955 94.703 121.139 c h
94.703 121.139 m f
Q Q
showpage
%%Trailer
count op_count sub {pop} repeat
countdictstack dict_count sub {end} repeat
cairo_eps_state restore
%%EOF
