%!PS-Adobe-3.0 EPSF-3.0
%%Creator: cairo 1.10.2 (http://cairographics.org)
%%CreationDate: Thu Aug 13 09:20:05 2015
%%Pages: 1
%%BoundingBox: 0 -1 127 182
%%DocumentData: Clean7Bit
%%LanguageLevel: 2
%%EndComments
%%BeginProlog
/cairo_eps_state save def
/dict_count countdictstack def
/op_count count 1 sub def
userdict begin
/q { gsave } bind def
/Q { grestore } bind def
/cm { 6 array astore concat } bind def
/w { setlinewidth } bind def
/J { setlinecap } bind def
/j { setlinejoin } bind def
/M { setmiterlimit } bind def
/d { setdash } bind def
/m { moveto } bind def
/l { lineto } bind def
/c { curveto } bind def
/h { closepath } bind def
/re { exch dup neg 3 1 roll 5 3 roll moveto 0 rlineto
      0 exch rlineto 0 rlineto closepath } bind def
/S { stroke } bind def
/f { fill } bind def
/f* { eofill } bind def
/n { newpath } bind def
/W { clip } bind def
/W* { eoclip } bind def
/BT { } bind def
/ET { } bind def
/pdfmark where { pop globaldict /?pdfmark /exec load put }
    { globaldict begin /?pdfmark /pop load def /pdfmark
    /cleartomark load def end } ifelse
/BDC { mark 3 1 roll /BDC pdfmark } bind def
/EMC { mark /EMC pdfmark } bind def
/cairo_store_point { /cairo_point_y exch def /cairo_point_x exch def } def
/Tj { show currentpoint cairo_store_point } bind def
/TJ {
  {
    dup
    type /stringtype eq
    { show } { -0.001 mul 0 cairo_font_matrix dtransform rmoveto } ifelse
  } forall
  currentpoint cairo_store_point
} bind def
/cairo_selectfont { cairo_font_matrix aload pop pop pop 0 0 6 array astore
    cairo_font exch selectfont cairo_point_x cairo_point_y moveto } bind def
/Tf { pop /cairo_font exch def /cairo_font_matrix where
      { pop cairo_selectfont } if } bind def
/Td { matrix translate cairo_font_matrix matrix concatmatrix dup
      /cairo_font_matrix exch def dup 4 get exch 5 get cairo_store_point
      /cairo_font where { pop cairo_selectfont } if } bind def
/Tm { 2 copy 8 2 roll 6 array astore /cairo_font_matrix exch def
      cairo_store_point /cairo_font where { pop cairo_selectfont } if } bind def
/g { setgray } bind def
/rg { setrgbcolor } bind def
/d1 { setcachedevice } bind def
%%EndProlog
%%Page: 1 1
%%BeginPageSetup
%%PageBoundingBox: 0 -1 127 182
%%EndPageSetup
q 0 -1 127 183 rectclip q
0 181.467 127 -182 re W n
0 g
36.539 145.514 m 36.539 153.311 l 36.539 154.721 37.684 155.866 39.094 
155.866 c 87.133 155.866 l 88.543 155.866 89.688 154.721 89.688 153.311 
c 89.688 145.514 l 89.688 144.108 88.543 142.963 87.133 142.963 c 
39.094 142.963 l 37.684 142.959 36.539 144.108 36.539 145.514 c h
77.852 167.866 m 77.238 175.467 70.871 181.467 63.113 181.467 c 55.359 
181.467 48.988 175.467 48.375 167.866 c h
126.227 137.202 m 126.227 16.135 l 126.227 7.237 118.988 -0.002 110.094 
-0.002 c 16.133 -0.002 l 7.238 -0.002 0 7.237 0 16.135 c 0 137.202 l 0 
146.096 7.238 153.334 16.133 153.334 c 24.539 153.334 l 24.539 153.327 
24.539 153.319 24.539 153.311 c 24.539 145.514 l 24.539 137.491 31.066 
130.963 39.094 130.963 c 87.133 130.963 l 95.16 130.963 101.688 137.491 
101.688 145.514 c 101.688 153.311 l 101.688 153.319 101.688 153.327 
101.688 153.334 c 110.094 153.334 l 118.988 153.334 126.227 146.096 
126.227 137.202 c h
42.926 66.709 m 40.105 68.448 36.41 67.569 34.672 64.748 c 28.996 
55.545 l 26.066 57.854 l 23.465 59.905 19.691 59.455 17.641 56.85 c 
15.594 54.248 16.039 50.475 18.645 48.424 c 26.859 41.955 l 27.926 
41.116 29.234 40.666 30.574 40.666 c 30.922 40.666 31.273 40.698 31.621 
40.76 c 33.305 41.061 34.781 42.065 35.68 43.518 c 44.887 58.452 l 
46.625 61.272 45.746 64.967 42.926 66.709 c h
42.926 109.909 m 40.105 111.647 36.41 110.768 34.672 107.948 c 28.996 
98.745 l 26.066 101.053 l 23.465 103.104 19.691 102.655 17.641 100.053 
c 15.594 97.448 16.039 93.674 18.645 91.623 c 26.859 85.155 l 27.926 
84.315 29.234 83.87 30.574 83.87 c 30.922 83.87 31.273 83.897 31.621 
83.959 c 33.305 84.26 34.781 85.264 35.68 86.721 c 44.887 101.651 l 
46.625 104.471 45.746 108.17 42.926 109.909 c h
105.066 46.666 m 105.066 49.983 102.379 52.666 99.066 52.666 c 59.867 
52.666 l 56.555 52.666 53.867 49.983 53.867 46.666 c 53.867 43.354 
56.555 40.666 59.867 40.666 c 99.066 40.666 l 102.379 40.666 105.066 
43.354 105.066 46.666 c h
105.066 89.866 m 105.066 93.182 102.379 95.866 99.066 95.866 c 59.867 
95.866 l 56.555 95.866 53.867 93.182 53.867 89.866 c 53.867 86.553 
56.555 83.866 59.867 83.866 c 99.066 83.866 l 102.379 83.866 105.066 
86.553 105.066 89.866 c h
105.066 89.866 m f
Q Q
showpage
%%Trailer
count op_count sub {pop} repeat
countdictstack dict_count sub {end} repeat
cairo_eps_state restore
%%EOF
