%!PS-Adobe-3.0 EPSF-3.0
%%Creator: cairo 1.10.2 (http://cairographics.org)
%%CreationDate: Thu Aug 13 09:20:29 2015
%%Pages: 1
%%BoundingBox: 0 -1 152 152
%%DocumentData: Clean7Bit
%%LanguageLevel: 2
%%EndComments
%%BeginProlog
/cairo_eps_state save def
/dict_count countdictstack def
/op_count count 1 sub def
userdict begin
/q { gsave } bind def
/Q { grestore } bind def
/cm { 6 array astore concat } bind def
/w { setlinewidth } bind def
/J { setlinecap } bind def
/j { setlinejoin } bind def
/M { setmiterlimit } bind def
/d { setdash } bind def
/m { moveto } bind def
/l { lineto } bind def
/c { curveto } bind def
/h { closepath } bind def
/re { exch dup neg 3 1 roll 5 3 roll moveto 0 rlineto
      0 exch rlineto 0 rlineto closepath } bind def
/S { stroke } bind def
/f { fill } bind def
/f* { eofill } bind def
/n { newpath } bind def
/W { clip } bind def
/W* { eoclip } bind def
/BT { } bind def
/ET { } bind def
/pdfmark where { pop globaldict /?pdfmark /exec load put }
    { globaldict begin /?pdfmark /pop load def /pdfmark
    /cleartomark load def end } ifelse
/BDC { mark 3 1 roll /BDC pdfmark } bind def
/EMC { mark /EMC pdfmark } bind def
/cairo_store_point { /cairo_point_y exch def /cairo_point_x exch def } def
/Tj { show currentpoint cairo_store_point } bind def
/TJ {
  {
    dup
    type /stringtype eq
    { show } { -0.001 mul 0 cairo_font_matrix dtransform rmoveto } ifelse
  } forall
  currentpoint cairo_store_point
} bind def
/cairo_selectfont { cairo_font_matrix aload pop pop pop 0 0 6 array astore
    cairo_font exch selectfont cairo_point_x cairo_point_y moveto } bind def
/Tf { pop /cairo_font exch def /cairo_font_matrix where
      { pop cairo_selectfont } if } bind def
/Td { matrix translate cairo_font_matrix matrix concatmatrix dup
      /cairo_font_matrix exch def dup 4 get exch 5 get cairo_store_point
      /cairo_font where { pop cairo_selectfont } if } bind def
/Tm { 2 copy 8 2 roll 6 array astore /cairo_font_matrix exch def
      cairo_store_point /cairo_font where { pop cairo_selectfont } if } bind def
/g { setgray } bind def
/rg { setrgbcolor } bind def
/d1 { setcachedevice } bind def
%%EndProlog
%%Page: 1 1
%%BeginPageSetup
%%PageBoundingBox: 0 -1 152 152
%%EndPageSetup
q 0 -1 152 153 rectclip q
0 151.2 152 -152 re W n
0 g
145.199 151.2 m 6 151.2 l 2.688 151.2 0 148.512 0 145.2 c 0 6.001 l 0 
2.684 2.688 0.001 6 0.001 c 145.199 0.001 l 148.512 0.001 151.199 2.684 
151.199 6.001 c 151.199 145.2 l 151.199 148.512 148.512 151.2 145.199 
151.2 c h
50.789 30.649 m 50.789 27.337 48.102 24.649 44.789 24.649 c 27.387 
24.649 l 24.074 24.649 21.387 27.337 21.387 30.649 c 21.387 48.048 l 
21.387 51.364 24.074 54.048 27.387 54.048 c 44.789 54.048 l 48.102 
54.048 50.789 51.364 50.789 48.048 c h
50.789 69.255 m 50.789 65.942 48.102 63.255 44.789 63.255 c 27.387 
63.255 l 24.074 63.255 21.387 65.942 21.387 69.255 c 21.387 86.657 l 
21.387 89.97 24.074 92.657 27.387 92.657 c 44.789 92.657 l 48.102 
92.657 50.789 89.97 50.789 86.657 c h
50.789 107.864 m 50.789 104.548 48.102 101.864 44.789 101.864 c 27.387 
101.864 l 24.074 101.864 21.387 104.548 21.387 107.864 c 21.387 125.262 
l 21.387 128.575 24.074 131.262 27.387 131.262 c 44.789 131.262 l 
48.102 131.262 50.789 128.575 50.789 125.262 c h
128.887 33.348 m 71.066 33.348 l 67.754 33.348 65.066 36.036 65.066 
39.348 c 65.066 42.665 67.754 45.348 71.066 45.348 c 128.887 45.348 l 
132.199 45.348 134.887 42.665 134.887 39.348 c 134.887 36.036 132.199 
33.348 128.887 33.348 c h
128.887 71.958 m 71.066 71.958 l 67.754 71.958 65.066 74.641 65.066 
77.958 c 65.066 81.27 67.754 83.958 71.066 83.958 c 128.887 83.958 l 
132.199 83.958 134.887 81.27 134.887 77.958 c 134.887 74.641 132.199 
71.958 128.887 71.958 c h
128.887 110.563 m 71.066 110.563 l 67.754 110.563 65.066 113.247 65.066 
116.563 c 65.066 119.876 67.754 122.563 71.066 122.563 c 128.887 
122.563 l 132.199 122.563 134.887 119.876 134.887 116.563 c 134.887 
113.247 132.199 110.563 128.887 110.563 c h
128.887 110.563 m f
Q Q
showpage
%%Trailer
count op_count sub {pop} repeat
countdictstack dict_count sub {end} repeat
cairo_eps_state restore
%%EOF
