%!PS-Adobe-3.0 EPSF-3.0
%%Creator: cairo 1.10.2 (http://cairographics.org)
%%CreationDate: Thu Aug 13 09:20:42 2015
%%Pages: 1
%%BoundingBox: 0 -1 149 149
%%DocumentData: Clean7Bit
%%LanguageLevel: 2
%%EndComments
%%BeginProlog
/cairo_eps_state save def
/dict_count countdictstack def
/op_count count 1 sub def
userdict begin
/q { gsave } bind def
/Q { grestore } bind def
/cm { 6 array astore concat } bind def
/w { setlinewidth } bind def
/J { setlinecap } bind def
/j { setlinejoin } bind def
/M { setmiterlimit } bind def
/d { setdash } bind def
/m { moveto } bind def
/l { lineto } bind def
/c { curveto } bind def
/h { closepath } bind def
/re { exch dup neg 3 1 roll 5 3 roll moveto 0 rlineto
      0 exch rlineto 0 rlineto closepath } bind def
/S { stroke } bind def
/f { fill } bind def
/f* { eofill } bind def
/n { newpath } bind def
/W { clip } bind def
/W* { eoclip } bind def
/BT { } bind def
/ET { } bind def
/pdfmark where { pop globaldict /?pdfmark /exec load put }
    { globaldict begin /?pdfmark /pop load def /pdfmark
    /cleartomark load def end } ifelse
/BDC { mark 3 1 roll /BDC pdfmark } bind def
/EMC { mark /EMC pdfmark } bind def
/cairo_store_point { /cairo_point_y exch def /cairo_point_x exch def } def
/Tj { show currentpoint cairo_store_point } bind def
/TJ {
  {
    dup
    type /stringtype eq
    { show } { -0.001 mul 0 cairo_font_matrix dtransform rmoveto } ifelse
  } forall
  currentpoint cairo_store_point
} bind def
/cairo_selectfont { cairo_font_matrix aload pop pop pop 0 0 6 array astore
    cairo_font exch selectfont cairo_point_x cairo_point_y moveto } bind def
/Tf { pop /cairo_font exch def /cairo_font_matrix where
      { pop cairo_selectfont } if } bind def
/Td { matrix translate cairo_font_matrix matrix concatmatrix dup
      /cairo_font_matrix exch def dup 4 get exch 5 get cairo_store_point
      /cairo_font where { pop cairo_selectfont } if } bind def
/Tm { 2 copy 8 2 roll 6 array astore /cairo_font_matrix exch def
      cairo_store_point /cairo_font where { pop cairo_selectfont } if } bind def
/g { setgray } bind def
/rg { setrgbcolor } bind def
/d1 { setcachedevice } bind def
%%EndProlog
%%Page: 1 1
%%BeginPageSetup
%%PageBoundingBox: 0 -1 149 149
%%EndPageSetup
q 0 -1 149 150 rectclip q
0 148.781 149 -149 re W n
0 g
143.633 118.539 m 30.238 5.144 l 26.922 1.828 22.508 -0 17.816 -0 c 
13.125 -0 8.711 1.828 5.395 5.144 c 5.141 5.402 l 1.828 8.714 0 13.125 
0 17.816 c 0 22.511 1.828 26.921 5.145 30.242 c 118.539 143.636 l 
121.859 146.953 126.27 148.781 130.961 148.781 c 135.656 148.781 
140.066 146.953 143.387 143.636 c 143.641 143.378 l 150.484 136.535 
150.484 125.39 143.633 118.539 c h
148.621 29.441 m 149.227 21.761 146.695 14.437 141.492 8.808 c 136.363 
3.257 129.086 0.074 121.531 0.074 c 120.805 0.074 120.066 0.101 119.34 
0.16 c 106.184 1.195 95.48 11.902 94.441 25.058 c 93.836 32.734 96.367 
40.062 101.57 45.691 c 107.191 51.773 115.422 54.996 123.719 54.339 c 
136.879 53.3 147.582 42.597 148.621 29.441 c h
113.285 26.562 m 113.602 22.57 116.848 19.32 120.844 19.003 c 123.453 
18.8 125.867 19.753 127.609 21.636 c 129.191 23.351 129.961 25.589 
129.777 27.937 c 129.461 31.929 126.211 35.179 122.219 35.496 c 121.984 
35.511 121.758 35.523 121.531 35.523 c 119.195 35.523 117.039 34.578 
115.453 32.863 c 113.867 31.148 113.098 28.91 113.285 26.562 c h
0.16 119.343 m -0.445 127.019 2.086 134.347 7.285 139.972 c 12.91 
146.058 21.133 149.281 29.438 148.621 c 42.594 147.585 53.301 136.878 
54.336 123.722 c 54.941 116.046 52.41 108.718 47.207 103.089 c 42.078 
97.539 34.805 94.355 27.25 94.355 c 27.246 94.355 l 26.523 94.355 
25.785 94.382 25.059 94.441 c 11.902 95.48 1.195 106.183 0.16 119.343 c 
h
35.492 122.218 m 35.18 126.214 31.93 129.46 27.934 129.777 c 27.703 
129.796 27.477 129.804 27.25 129.804 c 24.914 129.804 22.758 128.859 
21.172 127.144 c 19.586 125.429 18.816 123.195 19.004 120.847 c 19.316 
116.851 22.566 113.601 26.562 113.285 c 29.176 113.082 31.586 114.039 
33.324 115.921 c 34.91 117.632 35.68 119.871 35.492 122.218 c h
35.492 122.218 m f
Q Q
showpage
%%Trailer
count op_count sub {pop} repeat
countdictstack dict_count sub {end} repeat
cairo_eps_state restore
%%EOF
