%!PS-Adobe-3.0 EPSF-3.0
%%Creator: cairo 1.10.2 (http://cairographics.org)
%%CreationDate: Thu Aug 13 09:20:08 2015
%%Pages: 1
%%BoundingBox: 0 -1 152 176
%%DocumentData: Clean7Bit
%%LanguageLevel: 2
%%EndComments
%%BeginProlog
/cairo_eps_state save def
/dict_count countdictstack def
/op_count count 1 sub def
userdict begin
/q { gsave } bind def
/Q { grestore } bind def
/cm { 6 array astore concat } bind def
/w { setlinewidth } bind def
/J { setlinecap } bind def
/j { setlinejoin } bind def
/M { setmiterlimit } bind def
/d { setdash } bind def
/m { moveto } bind def
/l { lineto } bind def
/c { curveto } bind def
/h { closepath } bind def
/re { exch dup neg 3 1 roll 5 3 roll moveto 0 rlineto
      0 exch rlineto 0 rlineto closepath } bind def
/S { stroke } bind def
/f { fill } bind def
/f* { eofill } bind def
/n { newpath } bind def
/W { clip } bind def
/W* { eoclip } bind def
/BT { } bind def
/ET { } bind def
/pdfmark where { pop globaldict /?pdfmark /exec load put }
    { globaldict begin /?pdfmark /pop load def /pdfmark
    /cleartomark load def end } ifelse
/BDC { mark 3 1 roll /BDC pdfmark } bind def
/EMC { mark /EMC pdfmark } bind def
/cairo_store_point { /cairo_point_y exch def /cairo_point_x exch def } def
/Tj { show currentpoint cairo_store_point } bind def
/TJ {
  {
    dup
    type /stringtype eq
    { show } { -0.001 mul 0 cairo_font_matrix dtransform rmoveto } ifelse
  } forall
  currentpoint cairo_store_point
} bind def
/cairo_selectfont { cairo_font_matrix aload pop pop pop 0 0 6 array astore
    cairo_font exch selectfont cairo_point_x cairo_point_y moveto } bind def
/Tf { pop /cairo_font exch def /cairo_font_matrix where
      { pop cairo_selectfont } if } bind def
/Td { matrix translate cairo_font_matrix matrix concatmatrix dup
      /cairo_font_matrix exch def dup 4 get exch 5 get cairo_store_point
      /cairo_font where { pop cairo_selectfont } if } bind def
/Tm { 2 copy 8 2 roll 6 array astore /cairo_font_matrix exch def
      cairo_store_point /cairo_font where { pop cairo_selectfont } if } bind def
/g { setgray } bind def
/rg { setrgbcolor } bind def
/d1 { setcachedevice } bind def
%%EndProlog
%%Page: 1 1
%%BeginPageSetup
%%PageBoundingBox: 0 -1 152 176
%%EndPageSetup
q 0 -1 152 177 rectclip q
0 175.2 152 -176 re W n
0 g
137.977 175.2 m 14 175.2 l 6.281 175.2 0 168.919 0 161.2 c 0 14.001 l 0 
6.282 6.281 0.001 14 0.001 c 137.977 0.001 l 145.695 0.001 151.977 
6.282 151.977 14.001 c 151.977 161.2 l 151.977 168.919 145.695 175.2 
137.977 175.2 c h
49.348 30.274 m 49.348 24.766 44.867 20.286 39.359 20.286 c 30.578 
20.286 l 25.07 20.286 20.59 24.766 20.59 30.274 c 20.59 31.391 l 20.59 
36.899 25.074 41.38 30.578 41.38 c 39.359 41.38 l 44.867 41.38 49.348 
36.895 49.348 31.391 c h
49.348 68.341 m 49.348 62.833 44.867 58.352 39.359 58.352 c 30.578 
58.352 l 25.07 58.352 20.59 62.833 20.59 68.341 c 20.59 69.454 l 20.59 
74.962 25.074 79.442 30.578 79.442 c 39.359 79.442 l 44.867 79.442 
49.348 74.962 49.348 69.454 c h
49.348 106.403 m 49.348 100.895 44.867 96.415 39.359 96.415 c 30.578 
96.415 l 25.07 96.415 20.59 100.895 20.59 106.403 c 20.59 107.52 l 
20.59 113.028 25.074 117.509 30.578 117.509 c 39.359 117.509 l 44.867 
117.509 49.348 113.028 49.348 107.52 c h
90.367 30.274 m 90.367 24.766 85.887 20.286 80.379 20.286 c 71.598 
20.286 l 66.09 20.286 61.609 24.766 61.609 30.274 c 61.609 31.391 l 
61.609 36.899 66.09 41.38 71.598 41.38 c 80.379 41.38 l 85.887 41.38 
90.367 36.895 90.367 31.391 c h
90.367 68.341 m 90.367 62.833 85.887 58.352 80.379 58.352 c 71.598 
58.352 l 66.09 58.352 61.609 62.833 61.609 68.341 c 61.609 69.454 l 
61.609 74.962 66.09 79.442 71.598 79.442 c 80.379 79.442 l 85.887 
79.442 90.367 74.962 90.367 69.454 c h
90.367 106.403 m 90.367 100.895 85.887 96.415 80.379 96.415 c 71.598 
96.415 l 66.09 96.415 61.609 100.895 61.609 106.403 c 61.609 107.52 l 
61.609 113.028 66.09 117.509 71.598 117.509 c 80.379 117.509 l 85.887 
117.509 90.367 113.028 90.367 107.52 c h
131.387 30.274 m 131.387 24.766 126.902 20.286 121.395 20.286 c 112.617 
20.286 l 107.109 20.286 102.629 24.766 102.629 30.274 c 102.629 31.391 
l 102.629 36.899 107.109 41.38 112.617 41.38 c 121.395 41.38 l 126.902 
41.38 131.387 36.895 131.387 31.391 c h
131.387 68.341 m 131.387 62.833 126.902 58.352 121.395 58.352 c 112.617 
58.352 l 107.109 58.352 102.629 62.833 102.629 68.341 c 102.629 69.454 
l 102.629 74.962 107.109 79.442 112.617 79.442 c 121.395 79.442 l 
126.902 79.442 131.387 74.962 131.387 69.454 c h
131.387 106.403 m 131.387 100.895 126.902 96.415 121.395 96.415 c 
112.617 96.415 l 107.109 96.415 102.629 100.895 102.629 106.403 c 
102.629 107.52 l 102.629 113.028 107.109 117.509 112.617 117.509 c 
121.395 117.509 l 126.902 117.509 131.387 113.028 131.387 107.52 c h
136.691 140.934 m 136.691 137.981 134.289 135.575 131.336 135.575 c 
20.641 135.575 l 17.688 135.575 15.285 137.981 15.285 140.934 c 15.285 
153.223 l 15.285 156.18 17.688 158.583 20.641 158.583 c 131.332 158.583 
l 134.289 158.583 136.691 156.18 136.691 153.223 c h
136.691 140.934 m f
Q Q
showpage
%%Trailer
count op_count sub {pop} repeat
countdictstack dict_count sub {end} repeat
cairo_eps_state restore
%%EOF
