%!PS-Adobe-3.0 EPSF-3.0
%%Creator: cairo 1.10.2 (http://cairographics.org)
%%CreationDate: Thu Aug 13 09:20:06 2015
%%Pages: 1
%%BoundingBox: 0 -1 170 134
%%DocumentData: Clean7Bit
%%LanguageLevel: 2
%%EndComments
%%BeginProlog
/cairo_eps_state save def
/dict_count countdictstack def
/op_count count 1 sub def
userdict begin
/q { gsave } bind def
/Q { grestore } bind def
/cm { 6 array astore concat } bind def
/w { setlinewidth } bind def
/J { setlinecap } bind def
/j { setlinejoin } bind def
/M { setmiterlimit } bind def
/d { setdash } bind def
/m { moveto } bind def
/l { lineto } bind def
/c { curveto } bind def
/h { closepath } bind def
/re { exch dup neg 3 1 roll 5 3 roll moveto 0 rlineto
      0 exch rlineto 0 rlineto closepath } bind def
/S { stroke } bind def
/f { fill } bind def
/f* { eofill } bind def
/n { newpath } bind def
/W { clip } bind def
/W* { eoclip } bind def
/BT { } bind def
/ET { } bind def
/pdfmark where { pop globaldict /?pdfmark /exec load put }
    { globaldict begin /?pdfmark /pop load def /pdfmark
    /cleartomark load def end } ifelse
/BDC { mark 3 1 roll /BDC pdfmark } bind def
/EMC { mark /EMC pdfmark } bind def
/cairo_store_point { /cairo_point_y exch def /cairo_point_x exch def } def
/Tj { show currentpoint cairo_store_point } bind def
/TJ {
  {
    dup
    type /stringtype eq
    { show } { -0.001 mul 0 cairo_font_matrix dtransform rmoveto } ifelse
  } forall
  currentpoint cairo_store_point
} bind def
/cairo_selectfont { cairo_font_matrix aload pop pop pop 0 0 6 array astore
    cairo_font exch selectfont cairo_point_x cairo_point_y moveto } bind def
/Tf { pop /cairo_font exch def /cairo_font_matrix where
      { pop cairo_selectfont } if } bind def
/Td { matrix translate cairo_font_matrix matrix concatmatrix dup
      /cairo_font_matrix exch def dup 4 get exch 5 get cairo_store_point
      /cairo_font where { pop cairo_selectfont } if } bind def
/Tm { 2 copy 8 2 roll 6 array astore /cairo_font_matrix exch def
      cairo_store_point /cairo_font where { pop cairo_selectfont } if } bind def
/g { setgray } bind def
/rg { setrgbcolor } bind def
/d1 { setcachedevice } bind def
%%EndProlog
%%Page: 1 1
%%BeginPageSetup
%%PageBoundingBox: 0 -1 170 134
%%EndPageSetup
q 0 -1 170 135 rectclip q
0 133.012 170 -134 re W n
0 g
169.691 125.012 m 169.691 14.532 l 169.691 11.782 168.277 9.223 165.945 
7.758 c 164.652 6.946 163.172 6.532 161.691 6.532 c 160.508 6.532 
159.32 6.793 158.219 7.325 c 88.586 40.864 l 87.133 39.356 85.094 
38.414 82.832 38.414 c 56.562 38.414 l 66.258 16.176 l 68.027 12.125 
66.176 7.414 62.125 5.645 c 50.707 0.668 l 49.691 0.223 48.598 0 47.508 
0 c 46.52 0 45.527 0.184 44.586 0.551 c 42.609 1.329 41.023 2.856 
40.176 4.801 c 25.52 38.414 l 21.723 38.414 l 17.305 38.414 13.723 
41.996 13.723 46.414 c 13.723 52.668 l 5.953 53.95 0 60.7 0 68.829 c 0 
70.715 l 0 78.848 5.953 85.594 13.723 86.879 c 13.723 93.133 l 13.723 
97.551 17.305 101.133 21.723 101.133 c 82.832 101.133 l 85.094 101.133 
87.133 100.192 88.586 98.68 c 158.219 132.219 l 160.699 133.414 163.617 
133.25 165.945 131.786 c 168.277 130.325 169.691 127.766 169.691 
125.012 c h
169.691 125.012 m f
Q Q
showpage
%%Trailer
count op_count sub {pop} repeat
countdictstack dict_count sub {end} repeat
cairo_eps_state restore
%%EOF
