%!PS-Adobe-3.0 EPSF-3.0
%%Creator: cairo 1.10.2 (http://cairographics.org)
%%CreationDate: Thu Aug 13 09:20:25 2015
%%Pages: 1
%%BoundingBox: 0 -1 173 145
%%DocumentData: Clean7Bit
%%LanguageLevel: 2
%%EndComments
%%BeginProlog
/cairo_eps_state save def
/dict_count countdictstack def
/op_count count 1 sub def
userdict begin
/q { gsave } bind def
/Q { grestore } bind def
/cm { 6 array astore concat } bind def
/w { setlinewidth } bind def
/J { setlinecap } bind def
/j { setlinejoin } bind def
/M { setmiterlimit } bind def
/d { setdash } bind def
/m { moveto } bind def
/l { lineto } bind def
/c { curveto } bind def
/h { closepath } bind def
/re { exch dup neg 3 1 roll 5 3 roll moveto 0 rlineto
      0 exch rlineto 0 rlineto closepath } bind def
/S { stroke } bind def
/f { fill } bind def
/f* { eofill } bind def
/n { newpath } bind def
/W { clip } bind def
/W* { eoclip } bind def
/BT { } bind def
/ET { } bind def
/pdfmark where { pop globaldict /?pdfmark /exec load put }
    { globaldict begin /?pdfmark /pop load def /pdfmark
    /cleartomark load def end } ifelse
/BDC { mark 3 1 roll /BDC pdfmark } bind def
/EMC { mark /EMC pdfmark } bind def
/cairo_store_point { /cairo_point_y exch def /cairo_point_x exch def } def
/Tj { show currentpoint cairo_store_point } bind def
/TJ {
  {
    dup
    type /stringtype eq
    { show } { -0.001 mul 0 cairo_font_matrix dtransform rmoveto } ifelse
  } forall
  currentpoint cairo_store_point
} bind def
/cairo_selectfont { cairo_font_matrix aload pop pop pop 0 0 6 array astore
    cairo_font exch selectfont cairo_point_x cairo_point_y moveto } bind def
/Tf { pop /cairo_font exch def /cairo_font_matrix where
      { pop cairo_selectfont } if } bind def
/Td { matrix translate cairo_font_matrix matrix concatmatrix dup
      /cairo_font_matrix exch def dup 4 get exch 5 get cairo_store_point
      /cairo_font where { pop cairo_selectfont } if } bind def
/Tm { 2 copy 8 2 roll 6 array astore /cairo_font_matrix exch def
      cairo_store_point /cairo_font where { pop cairo_selectfont } if } bind def
/g { setgray } bind def
/rg { setrgbcolor } bind def
/d1 { setcachedevice } bind def
%%EndProlog
%%Page: 1 1
%%BeginPageSetup
%%PageBoundingBox: 0 -1 173 145
%%EndPageSetup
q 0 -1 173 146 rectclip q
0 144.753 173 -145 re W n
0 g
47.137 144.753 m 6 144.753 l 2.688 144.753 0 142.065 0 138.753 c 0 
5.999 l 0 2.686 2.688 -0.001 6 -0.001 c 47.137 -0.001 l 50.449 -0.001 
53.137 2.686 53.137 5.999 c 53.137 138.753 l 53.137 142.065 50.449 
144.753 47.137 144.753 c h
12.527 127.534 m 12.527 130.847 15.211 133.534 18.527 133.534 c 34.609 
133.534 l 37.922 133.534 40.609 130.847 40.609 127.534 c 40.609 70.694 
l 40.609 67.378 37.922 64.694 34.609 64.694 c 18.527 64.694 l 15.211 
64.694 12.527 67.378 12.527 70.694 c h
26.566 21.354 m 18.723 21.354 12.34 27.737 12.34 35.581 c 12.34 43.429 
18.723 49.807 26.566 49.807 c 34.414 49.807 40.793 43.425 40.793 35.581 
c 40.793 27.737 34.414 21.354 26.566 21.354 c h
106.969 144.753 m 65.832 144.753 l 62.52 144.753 59.832 142.065 59.832 
138.753 c 59.832 5.999 l 59.832 2.686 62.52 -0.001 65.832 -0.001 c 
106.969 -0.001 l 110.281 -0.001 112.969 2.686 112.969 5.999 c 112.969 
138.753 l 112.969 142.065 110.281 144.753 106.969 144.753 c h
72.359 127.534 m 72.359 130.847 75.047 133.534 78.359 133.534 c 94.441 
133.534 l 97.754 133.534 100.441 130.847 100.441 127.534 c 100.441 
70.694 l 100.441 67.378 97.754 64.694 94.441 64.694 c 78.359 64.694 l 
75.047 64.694 72.359 67.378 72.359 70.694 c h
86.398 21.354 m 78.555 21.354 72.172 27.737 72.172 35.581 c 72.172 
43.429 78.555 49.807 86.398 49.807 c 94.246 49.807 100.625 43.425 
100.625 35.581 c 100.625 27.737 94.246 21.354 86.398 21.354 c h
166.801 144.753 m 125.664 144.753 l 122.352 144.753 119.664 142.065 
119.664 138.753 c 119.664 5.999 l 119.664 2.686 122.352 -0.001 125.664 
-0.001 c 166.801 -0.001 l 170.113 -0.001 172.801 2.686 172.801 5.999 c 
172.801 138.753 l 172.801 142.065 170.113 144.753 166.801 144.753 c h
132.191 127.534 m 132.191 130.847 134.879 133.534 138.191 133.534 c 
154.273 133.534 l 157.586 133.534 160.273 130.847 160.273 127.534 c 
160.273 70.694 l 160.273 67.378 157.586 64.694 154.273 64.694 c 138.191 
64.694 l 134.879 64.694 132.191 67.378 132.191 70.694 c h
146.234 21.354 m 138.387 21.354 132.004 27.737 132.004 35.581 c 132.004 
43.429 138.387 49.807 146.234 49.807 c 154.078 49.807 160.461 43.425 
160.461 35.581 c 160.461 27.737 154.078 21.354 146.234 21.354 c h
146.234 21.354 m f
Q Q
showpage
%%Trailer
count op_count sub {pop} repeat
countdictstack dict_count sub {end} repeat
cairo_eps_state restore
%%EOF
