%!PS-Adobe-3.0 EPSF-3.0
%%Creator: cairo 1.10.2 (http://cairographics.org)
%%CreationDate: Thu Aug 13 09:21:08 2015
%%Pages: 1
%%BoundingBox: 0 -1 162 163
%%DocumentData: Clean7Bit
%%LanguageLevel: 2
%%EndComments
%%BeginProlog
/cairo_eps_state save def
/dict_count countdictstack def
/op_count count 1 sub def
userdict begin
/q { gsave } bind def
/Q { grestore } bind def
/cm { 6 array astore concat } bind def
/w { setlinewidth } bind def
/J { setlinecap } bind def
/j { setlinejoin } bind def
/M { setmiterlimit } bind def
/d { setdash } bind def
/m { moveto } bind def
/l { lineto } bind def
/c { curveto } bind def
/h { closepath } bind def
/re { exch dup neg 3 1 roll 5 3 roll moveto 0 rlineto
      0 exch rlineto 0 rlineto closepath } bind def
/S { stroke } bind def
/f { fill } bind def
/f* { eofill } bind def
/n { newpath } bind def
/W { clip } bind def
/W* { eoclip } bind def
/BT { } bind def
/ET { } bind def
/pdfmark where { pop globaldict /?pdfmark /exec load put }
    { globaldict begin /?pdfmark /pop load def /pdfmark
    /cleartomark load def end } ifelse
/BDC { mark 3 1 roll /BDC pdfmark } bind def
/EMC { mark /EMC pdfmark } bind def
/cairo_store_point { /cairo_point_y exch def /cairo_point_x exch def } def
/Tj { show currentpoint cairo_store_point } bind def
/TJ {
  {
    dup
    type /stringtype eq
    { show } { -0.001 mul 0 cairo_font_matrix dtransform rmoveto } ifelse
  } forall
  currentpoint cairo_store_point
} bind def
/cairo_selectfont { cairo_font_matrix aload pop pop pop 0 0 6 array astore
    cairo_font exch selectfont cairo_point_x cairo_point_y moveto } bind def
/Tf { pop /cairo_font exch def /cairo_font_matrix where
      { pop cairo_selectfont } if } bind def
/Td { matrix translate cairo_font_matrix matrix concatmatrix dup
      /cairo_font_matrix exch def dup 4 get exch 5 get cairo_store_point
      /cairo_font where { pop cairo_selectfont } if } bind def
/Tm { 2 copy 8 2 roll 6 array astore /cairo_font_matrix exch def
      cairo_store_point /cairo_font where { pop cairo_selectfont } if } bind def
/g { setgray } bind def
/rg { setrgbcolor } bind def
/d1 { setcachedevice } bind def
%%EndProlog
%%Page: 1 1
%%BeginPageSetup
%%PageBoundingBox: 0 -1 162 163
%%EndPageSetup
q 0 -1 162 164 rectclip q
0 162.033 163 -163 re W n
0 g
161.98 120.447 m 161.125 100.205 153.672 69.638 123.031 38.998 c 92.387 
8.353 61.824 0.9 41.578 0.045 c 40.879 0.013 40.18 0.002 39.48 0.002 c 
39.477 0.002 l 26.168 0.002 13.645 5.197 4.211 14.63 c -1.402 20.244 
-1.402 29.377 4.211 34.994 c 27.746 58.529 l 30.465 61.248 34.082 
62.744 37.93 62.744 c 41.773 62.744 45.387 61.248 48.109 58.529 c 
57.469 49.17 l 58.078 49.127 58.848 49.091 59.754 49.091 c 67.082 
49.091 81.555 51.271 96.152 65.873 c 113.004 82.72 113.27 99.373 
112.871 104.545 c 103.496 113.92 l 97.883 119.533 97.883 128.666 
103.496 134.279 c 127.035 157.814 l 129.75 160.537 133.367 162.033 
137.215 162.033 c 141.059 162.033 144.676 160.537 147.395 157.814 c 
157.25 147.959 162.566 134.337 161.98 120.447 c h
161.98 120.447 m f
Q Q
showpage
%%Trailer
count op_count sub {pop} repeat
countdictstack dict_count sub {end} repeat
cairo_eps_state restore
%%EOF
