%!PS-Adobe-3.0 EPSF-3.0
%%Creator: cairo 1.10.2 (http://cairographics.org)
%%CreationDate: Thu Aug 13 09:20:44 2015
%%Pages: 1
%%BoundingBox: 0 -1 168 109
%%DocumentData: Clean7Bit
%%LanguageLevel: 2
%%EndComments
%%BeginProlog
/cairo_eps_state save def
/dict_count countdictstack def
/op_count count 1 sub def
userdict begin
/q { gsave } bind def
/Q { grestore } bind def
/cm { 6 array astore concat } bind def
/w { setlinewidth } bind def
/J { setlinecap } bind def
/j { setlinejoin } bind def
/M { setmiterlimit } bind def
/d { setdash } bind def
/m { moveto } bind def
/l { lineto } bind def
/c { curveto } bind def
/h { closepath } bind def
/re { exch dup neg 3 1 roll 5 3 roll moveto 0 rlineto
      0 exch rlineto 0 rlineto closepath } bind def
/S { stroke } bind def
/f { fill } bind def
/f* { eofill } bind def
/n { newpath } bind def
/W { clip } bind def
/W* { eoclip } bind def
/BT { } bind def
/ET { } bind def
/pdfmark where { pop globaldict /?pdfmark /exec load put }
    { globaldict begin /?pdfmark /pop load def /pdfmark
    /cleartomark load def end } ifelse
/BDC { mark 3 1 roll /BDC pdfmark } bind def
/EMC { mark /EMC pdfmark } bind def
/cairo_store_point { /cairo_point_y exch def /cairo_point_x exch def } def
/Tj { show currentpoint cairo_store_point } bind def
/TJ {
  {
    dup
    type /stringtype eq
    { show } { -0.001 mul 0 cairo_font_matrix dtransform rmoveto } ifelse
  } forall
  currentpoint cairo_store_point
} bind def
/cairo_selectfont { cairo_font_matrix aload pop pop pop 0 0 6 array astore
    cairo_font exch selectfont cairo_point_x cairo_point_y moveto } bind def
/Tf { pop /cairo_font exch def /cairo_font_matrix where
      { pop cairo_selectfont } if } bind def
/Td { matrix translate cairo_font_matrix matrix concatmatrix dup
      /cairo_font_matrix exch def dup 4 get exch 5 get cairo_store_point
      /cairo_font where { pop cairo_selectfont } if } bind def
/Tm { 2 copy 8 2 roll 6 array astore /cairo_font_matrix exch def
      cairo_store_point /cairo_font where { pop cairo_selectfont } if } bind def
/g { setgray } bind def
/rg { setrgbcolor } bind def
/d1 { setcachedevice } bind def
%%EndProlog
%%Page: 1 1
%%BeginPageSetup
%%PageBoundingBox: 0 -1 168 109
%%EndPageSetup
q 0 -1 168 110 rectclip q
0 108.903 168 -109 re W n
0 g
25 26.461 m 25 23.145 22.312 20.461 19 20.461 c 6 20.461 l 2.688 20.461 
0 23.145 0 26.461 c 0 29.774 2.688 32.461 6 32.461 c 19 32.461 l 22.312 
32.461 25 29.774 25 26.461 c h
167.867 10.957 m 167.867 6 l 167.867 2.688 165.18 0 161.867 0 c 70.41 0 
l 67.098 0 64.41 2.688 64.41 6 c 64.41 9.313 67.098 12 70.41 12 c 
82.809 12 l 68.066 20.461 l 39.035 20.461 l 35.723 20.461 33.035 23.145 
33.035 26.461 c 33.035 29.774 35.723 32.461 39.035 32.461 c 47.156 
32.461 l 20.633 47.684 l 19.238 48.485 18.227 49.809 17.816 51.36 c 
17.406 52.911 17.637 54.563 18.457 55.946 c 32.676 79.953 l 19 79.953 l 
15.688 79.953 13 82.641 13 85.953 c 13 89.27 15.688 91.953 19 91.953 c 
39.781 91.953 l 46.172 102.743 l 47.488 104.965 50.07 106.094 52.598 
105.551 c 93.789 96.684 l 94.996 103.891 l 95.543 107.161 98.633 
109.368 101.902 108.821 c 105.172 108.274 107.375 105.18 106.828 
101.911 c 104.336 87.012 l 109.297 77.946 l 101.707 72.848 l 98.957 71 
98.223 67.27 100.07 64.52 c 101.23 62.797 103.125 61.868 105.059 61.868 
c 106.207 61.868 107.371 62.196 108.398 62.887 c 115.082 67.375 l 
119.848 58.672 l 114.363 54.989 l 111.609 53.141 110.879 49.411 112.727 
46.661 c 113.887 44.938 115.781 44.008 117.711 44.008 c 118.863 44.008 
120.027 44.336 121.055 45.028 c 125.633 48.102 l 129.762 40.559 l 
138.266 40.559 l 154.59 40.559 167.867 27.282 167.867 10.957 c h
61.094 57.184 m 67.363 57.184 72.465 62.282 72.465 68.551 c 72.465 
74.821 67.363 79.922 61.094 79.922 c 54.824 79.922 49.723 74.821 49.723 
68.551 c 49.723 62.282 54.824 57.184 61.094 57.184 c h
155.836 12 m 155.297 21.223 147.621 28.559 138.266 28.559 c 129.246 
28.559 l 117.137 12 l h
155.836 12 m f
Q Q
showpage
%%Trailer
count op_count sub {pop} repeat
countdictstack dict_count sub {end} repeat
cairo_eps_state restore
%%EOF
