%!PS-Adobe-3.0 EPSF-3.0
%%Creator: cairo 1.10.2 (http://cairographics.org)
%%CreationDate: Thu Aug 13 09:20:53 2015
%%Pages: 1
%%BoundingBox: 0 -1 165 152
%%DocumentData: Clean7Bit
%%LanguageLevel: 2
%%EndComments
%%BeginProlog
/cairo_eps_state save def
/dict_count countdictstack def
/op_count count 1 sub def
userdict begin
/q { gsave } bind def
/Q { grestore } bind def
/cm { 6 array astore concat } bind def
/w { setlinewidth } bind def
/J { setlinecap } bind def
/j { setlinejoin } bind def
/M { setmiterlimit } bind def
/d { setdash } bind def
/m { moveto } bind def
/l { lineto } bind def
/c { curveto } bind def
/h { closepath } bind def
/re { exch dup neg 3 1 roll 5 3 roll moveto 0 rlineto
      0 exch rlineto 0 rlineto closepath } bind def
/S { stroke } bind def
/f { fill } bind def
/f* { eofill } bind def
/n { newpath } bind def
/W { clip } bind def
/W* { eoclip } bind def
/BT { } bind def
/ET { } bind def
/pdfmark where { pop globaldict /?pdfmark /exec load put }
    { globaldict begin /?pdfmark /pop load def /pdfmark
    /cleartomark load def end } ifelse
/BDC { mark 3 1 roll /BDC pdfmark } bind def
/EMC { mark /EMC pdfmark } bind def
/cairo_store_point { /cairo_point_y exch def /cairo_point_x exch def } def
/Tj { show currentpoint cairo_store_point } bind def
/TJ {
  {
    dup
    type /stringtype eq
    { show } { -0.001 mul 0 cairo_font_matrix dtransform rmoveto } ifelse
  } forall
  currentpoint cairo_store_point
} bind def
/cairo_selectfont { cairo_font_matrix aload pop pop pop 0 0 6 array astore
    cairo_font exch selectfont cairo_point_x cairo_point_y moveto } bind def
/Tf { pop /cairo_font exch def /cairo_font_matrix where
      { pop cairo_selectfont } if } bind def
/Td { matrix translate cairo_font_matrix matrix concatmatrix dup
      /cairo_font_matrix exch def dup 4 get exch 5 get cairo_store_point
      /cairo_font where { pop cairo_selectfont } if } bind def
/Tm { 2 copy 8 2 roll 6 array astore /cairo_font_matrix exch def
      cairo_store_point /cairo_font where { pop cairo_selectfont } if } bind def
/g { setgray } bind def
/rg { setrgbcolor } bind def
/d1 { setcachedevice } bind def
%%EndProlog
%%Page: 1 1
%%BeginPageSetup
%%PageBoundingBox: 0 -1 165 152
%%EndPageSetup
q 0 -1 165 153 rectclip q
0 151.6 165 -152 re W n
0 g
158.398 43.6 m 148.602 43.6 l 148.602 63.065 l 148.602 66.381 145.914 
69.065 142.602 69.065 c 88.199 69.065 l 88.199 91.998 l 122.801 91.998 
l 126.113 91.998 128.801 94.686 128.801 97.998 c 128.801 145.6 l 
128.801 148.913 126.113 151.6 122.801 151.6 c 41.602 151.6 l 38.285 
151.6 35.602 148.913 35.602 145.6 c 35.602 97.998 l 35.602 94.686 
38.285 91.998 41.602 91.998 c 76.199 91.998 l 76.199 69.065 l 21.801 
69.065 l 18.484 69.065 15.801 66.381 15.801 63.065 c 15.801 43.6 l 6 
43.6 l 2.688 43.6 0 40.913 0 37.6 c 0 5.998 l 0 2.686 2.688 -0.002 6 
-0.002 c 37.602 -0.002 l 40.914 -0.002 43.602 2.686 43.602 5.998 c 
43.602 37.6 l 43.602 40.913 40.914 43.6 37.602 43.6 c 27.801 43.6 l 
27.801 57.065 l 76.199 57.065 l 76.199 43.6 l 66.398 43.6 l 63.086 43.6 
60.398 40.913 60.398 37.6 c 60.398 5.998 l 60.398 2.686 63.086 -0.002 
66.398 -0.002 c 98 -0.002 l 101.312 -0.002 104 2.686 104 5.998 c 104 
37.6 l 104 40.913 101.312 43.6 98 43.6 c 88.199 43.6 l 88.199 57.065 l 
136.602 57.065 l 136.602 43.6 l 126.801 43.6 l 123.484 43.6 120.801 
40.913 120.801 37.6 c 120.801 5.998 l 120.801 2.686 123.484 -0.002 
126.801 -0.002 c 158.398 -0.002 l 161.715 -0.002 164.398 2.686 164.398 
5.998 c 164.398 37.6 l 164.398 40.913 161.715 43.6 158.398 43.6 c h
158.398 43.6 m f
Q Q
showpage
%%Trailer
count op_count sub {pop} repeat
countdictstack dict_count sub {end} repeat
cairo_eps_state restore
%%EOF
