%!PS-Adobe-3.0 EPSF-3.0
%%Creator: cairo 1.10.2 (http://cairographics.org)
%%CreationDate: Thu Aug 13 09:20:55 2015
%%Pages: 1
%%BoundingBox: 0 -1 149 179
%%DocumentData: Clean7Bit
%%LanguageLevel: 2
%%EndComments
%%BeginProlog
/cairo_eps_state save def
/dict_count countdictstack def
/op_count count 1 sub def
userdict begin
/q { gsave } bind def
/Q { grestore } bind def
/cm { 6 array astore concat } bind def
/w { setlinewidth } bind def
/J { setlinecap } bind def
/j { setlinejoin } bind def
/M { setmiterlimit } bind def
/d { setdash } bind def
/m { moveto } bind def
/l { lineto } bind def
/c { curveto } bind def
/h { closepath } bind def
/re { exch dup neg 3 1 roll 5 3 roll moveto 0 rlineto
      0 exch rlineto 0 rlineto closepath } bind def
/S { stroke } bind def
/f { fill } bind def
/f* { eofill } bind def
/n { newpath } bind def
/W { clip } bind def
/W* { eoclip } bind def
/BT { } bind def
/ET { } bind def
/pdfmark where { pop globaldict /?pdfmark /exec load put }
    { globaldict begin /?pdfmark /pop load def /pdfmark
    /cleartomark load def end } ifelse
/BDC { mark 3 1 roll /BDC pdfmark } bind def
/EMC { mark /EMC pdfmark } bind def
/cairo_store_point { /cairo_point_y exch def /cairo_point_x exch def } def
/Tj { show currentpoint cairo_store_point } bind def
/TJ {
  {
    dup
    type /stringtype eq
    { show } { -0.001 mul 0 cairo_font_matrix dtransform rmoveto } ifelse
  } forall
  currentpoint cairo_store_point
} bind def
/cairo_selectfont { cairo_font_matrix aload pop pop pop 0 0 6 array astore
    cairo_font exch selectfont cairo_point_x cairo_point_y moveto } bind def
/Tf { pop /cairo_font exch def /cairo_font_matrix where
      { pop cairo_selectfont } if } bind def
/Td { matrix translate cairo_font_matrix matrix concatmatrix dup
      /cairo_font_matrix exch def dup 4 get exch 5 get cairo_store_point
      /cairo_font where { pop cairo_selectfont } if } bind def
/Tm { 2 copy 8 2 roll 6 array astore /cairo_font_matrix exch def
      cairo_store_point /cairo_font where { pop cairo_selectfont } if } bind def
/g { setgray } bind def
/rg { setrgbcolor } bind def
/d1 { setcachedevice } bind def
%%EndProlog
%%Page: 1 1
%%BeginPageSetup
%%PageBoundingBox: 0 -1 149 179
%%EndPageSetup
q 0 -1 149 180 rectclip q
0 178.409 149 -179 re W n
0 g
148.266 102.553 m 148.266 99.241 145.578 96.553 142.266 96.553 c 
139.465 96.553 l 139.465 86.94 l 139.465 76.131 130.672 67.338 119.863 
67.338 c 118.664 67.338 l 116.684 63.78 112.891 61.366 108.539 61.366 c 
85.934 61.366 l 85.934 30.682 l 101.895 30.682 l 110.273 30.682 117.094 
23.866 117.094 15.483 c 117.094 14.835 l 117.094 14.616 117.078 14.401 
117.055 14.19 c 117.066 13.956 117.094 13.725 117.094 13.487 c 117.094 
6.049 111.043 -0.001 103.605 -0.001 c 97.809 -0.001 92.867 3.686 90.965 
8.835 c 57.301 8.835 l 55.402 3.686 50.461 -0.001 44.66 -0.001 c 37.223 
-0.001 31.176 6.049 31.176 13.487 c 31.176 13.721 31.199 13.956 31.211 
14.19 c 31.188 14.401 31.176 14.616 31.176 14.835 c 31.176 15.483 l 
31.176 23.866 37.992 30.682 46.371 30.682 c 62.332 30.682 l 62.332 
61.366 l 39.727 61.366 l 35.375 61.366 31.582 63.78 29.602 67.338 c 
28.402 67.338 l 17.594 67.338 8.801 76.131 8.801 86.94 c 8.801 96.553 l 
6 96.553 l 2.688 96.553 0 99.241 0 102.553 c 0 105.87 2.688 108.553 6 
108.553 c 23.602 108.553 l 26.914 108.553 29.602 105.87 29.602 102.553 
c 29.602 99.241 26.914 96.553 23.602 96.553 c 20.801 96.553 l 20.801 
86.94 l 20.801 82.749 24.211 79.338 28.402 79.338 c 29.602 79.338 l 
31.582 82.897 35.375 85.311 39.727 85.311 c 65.434 85.311 l 65.434 
92.987 l 52.363 93.268 41.812 103.979 41.812 117.116 c 41.812 146.088 l 
41.812 163.909 56.312 178.409 74.133 178.409 c 91.953 178.409 106.453 
163.909 106.453 146.088 c 106.453 117.116 l 106.453 103.979 95.902 
93.268 82.832 92.987 c 82.832 85.311 l 108.539 85.311 l 112.891 85.311 
116.684 82.897 118.664 79.338 c 119.863 79.338 l 124.059 79.338 127.465 
82.749 127.465 86.94 c 127.465 96.553 l 124.668 96.553 l 121.352 96.553 
118.668 99.241 118.668 102.553 c 118.668 105.87 121.352 108.553 124.668 
108.553 c 142.266 108.553 l 145.578 108.553 148.266 105.87 148.266 
102.553 c h
148.266 102.553 m f
Q Q
showpage
%%Trailer
count op_count sub {pop} repeat
countdictstack dict_count sub {end} repeat
cairo_eps_state restore
%%EOF
