%!PS-Adobe-3.0 EPSF-3.0
%%Creator: cairo 1.10.2 (http://cairographics.org)
%%CreationDate: Thu Aug 13 09:20:19 2015
%%Pages: 1
%%BoundingBox: 0 -1 161 170
%%DocumentData: Clean7Bit
%%LanguageLevel: 2
%%EndComments
%%BeginProlog
/cairo_eps_state save def
/dict_count countdictstack def
/op_count count 1 sub def
userdict begin
/q { gsave } bind def
/Q { grestore } bind def
/cm { 6 array astore concat } bind def
/w { setlinewidth } bind def
/J { setlinecap } bind def
/j { setlinejoin } bind def
/M { setmiterlimit } bind def
/d { setdash } bind def
/m { moveto } bind def
/l { lineto } bind def
/c { curveto } bind def
/h { closepath } bind def
/re { exch dup neg 3 1 roll 5 3 roll moveto 0 rlineto
      0 exch rlineto 0 rlineto closepath } bind def
/S { stroke } bind def
/f { fill } bind def
/f* { eofill } bind def
/n { newpath } bind def
/W { clip } bind def
/W* { eoclip } bind def
/BT { } bind def
/ET { } bind def
/pdfmark where { pop globaldict /?pdfmark /exec load put }
    { globaldict begin /?pdfmark /pop load def /pdfmark
    /cleartomark load def end } ifelse
/BDC { mark 3 1 roll /BDC pdfmark } bind def
/EMC { mark /EMC pdfmark } bind def
/cairo_store_point { /cairo_point_y exch def /cairo_point_x exch def } def
/Tj { show currentpoint cairo_store_point } bind def
/TJ {
  {
    dup
    type /stringtype eq
    { show } { -0.001 mul 0 cairo_font_matrix dtransform rmoveto } ifelse
  } forall
  currentpoint cairo_store_point
} bind def
/cairo_selectfont { cairo_font_matrix aload pop pop pop 0 0 6 array astore
    cairo_font exch selectfont cairo_point_x cairo_point_y moveto } bind def
/Tf { pop /cairo_font exch def /cairo_font_matrix where
      { pop cairo_selectfont } if } bind def
/Td { matrix translate cairo_font_matrix matrix concatmatrix dup
      /cairo_font_matrix exch def dup 4 get exch 5 get cairo_store_point
      /cairo_font where { pop cairo_selectfont } if } bind def
/Tm { 2 copy 8 2 roll 6 array astore /cairo_font_matrix exch def
      cairo_store_point /cairo_font where { pop cairo_selectfont } if } bind def
/g { setgray } bind def
/rg { setrgbcolor } bind def
/d1 { setcachedevice } bind def
%%EndProlog
%%Page: 1 1
%%BeginPageSetup
%%PageBoundingBox: 0 -1 161 170
%%EndPageSetup
q 0 -1 161 171 rectclip q
0 169.04 161 -170 re W n
0 g
83.23 92.505 m 104.387 92.505 l 101.234 82.302 91.715 74.864 80.492 
74.864 c 76.727 74.864 73.156 75.704 69.953 77.2 c h
74.492 124.13 m 63.594 121.435 55.492 111.579 55.492 99.864 c 55.492 
94.181 57.398 88.938 60.605 84.735 c 74.492 100.743 l h
86.492 124.13 m 86.492 104.505 l 105.051 104.505 l 103.238 114.118 
95.91 121.802 86.492 124.13 c h
160.984 47.415 m 160.984 44.102 158.297 41.415 154.984 41.415 c 144.73 
41.415 l 144.477 41.38 144.223 41.36 143.957 41.36 c 94.992 41.36 l 
126.078 10.27 l 128.422 7.931 128.422 4.13 126.078 1.786 c 123.734 
-0.558 119.938 -0.558 117.594 1.786 c 80.508 38.876 l 43.391 1.759 l 
42.219 0.587 40.68 0.001 39.145 0.001 c 37.609 0.001 36.074 0.587 
34.902 1.759 c 32.559 4.102 32.559 7.899 34.902 10.243 c 66.02 41.36 l 
17.023 41.36 l 16.762 41.36 16.504 41.38 16.25 41.415 c 6 41.415 l 
2.688 41.415 0 44.102 0 47.415 c 0 50.727 2.688 53.415 6 53.415 c 
11.023 53.415 l 11.023 149.649 l 11.023 152.966 13.711 155.649 17.023 
155.649 c 62.691 155.649 l 64.926 163.376 72.059 169.04 80.492 169.04 c 
88.926 169.04 96.059 163.376 98.293 155.649 c 143.957 155.649 l 147.273 
155.649 149.957 152.966 149.957 149.649 c 149.957 53.415 l 154.984 
53.415 l 158.297 53.415 160.984 50.727 160.984 47.415 c h
117.469 98.958 m 117.477 99.263 117.492 99.56 117.492 99.864 c 117.492 
120.267 100.895 136.864 80.492 136.864 c 60.09 136.864 43.492 120.267 
43.492 99.864 c 43.492 88.501 48.645 78.317 56.734 71.528 c 56.797 
71.466 56.859 71.399 56.926 71.341 c 57.105 71.185 57.293 71.048 57.484 
70.919 c 63.805 65.884 71.801 62.864 80.492 62.864 c 100.129 62.864 
116.238 78.247 117.414 97.595 c 117.461 97.892 117.492 98.196 117.492 
98.505 c 117.492 98.657 117.48 98.81 117.469 98.958 c h
117.469 98.958 m f
Q Q
showpage
%%Trailer
count op_count sub {pop} repeat
countdictstack dict_count sub {end} repeat
cairo_eps_state restore
%%EOF
