%!PS-Adobe-3.0 EPSF-3.0
%%Creator: cairo 1.10.2 (http://cairographics.org)
%%CreationDate: Thu Aug 13 09:20:23 2015
%%Pages: 1
%%BoundingBox: 0 -1 170 155
%%DocumentData: Clean7Bit
%%LanguageLevel: 2
%%EndComments
%%BeginProlog
/cairo_eps_state save def
/dict_count countdictstack def
/op_count count 1 sub def
userdict begin
/q { gsave } bind def
/Q { grestore } bind def
/cm { 6 array astore concat } bind def
/w { setlinewidth } bind def
/J { setlinecap } bind def
/j { setlinejoin } bind def
/M { setmiterlimit } bind def
/d { setdash } bind def
/m { moveto } bind def
/l { lineto } bind def
/c { curveto } bind def
/h { closepath } bind def
/re { exch dup neg 3 1 roll 5 3 roll moveto 0 rlineto
      0 exch rlineto 0 rlineto closepath } bind def
/S { stroke } bind def
/f { fill } bind def
/f* { eofill } bind def
/n { newpath } bind def
/W { clip } bind def
/W* { eoclip } bind def
/BT { } bind def
/ET { } bind def
/pdfmark where { pop globaldict /?pdfmark /exec load put }
    { globaldict begin /?pdfmark /pop load def /pdfmark
    /cleartomark load def end } ifelse
/BDC { mark 3 1 roll /BDC pdfmark } bind def
/EMC { mark /EMC pdfmark } bind def
/cairo_store_point { /cairo_point_y exch def /cairo_point_x exch def } def
/Tj { show currentpoint cairo_store_point } bind def
/TJ {
  {
    dup
    type /stringtype eq
    { show } { -0.001 mul 0 cairo_font_matrix dtransform rmoveto } ifelse
  } forall
  currentpoint cairo_store_point
} bind def
/cairo_selectfont { cairo_font_matrix aload pop pop pop 0 0 6 array astore
    cairo_font exch selectfont cairo_point_x cairo_point_y moveto } bind def
/Tf { pop /cairo_font exch def /cairo_font_matrix where
      { pop cairo_selectfont } if } bind def
/Td { matrix translate cairo_font_matrix matrix concatmatrix dup
      /cairo_font_matrix exch def dup 4 get exch 5 get cairo_store_point
      /cairo_font where { pop cairo_selectfont } if } bind def
/Tm { 2 copy 8 2 roll 6 array astore /cairo_font_matrix exch def
      cairo_store_point /cairo_font where { pop cairo_selectfont } if } bind def
/g { setgray } bind def
/rg { setrgbcolor } bind def
/d1 { setcachedevice } bind def
%%EndProlog
%%Page: 1 1
%%BeginPageSetup
%%PageBoundingBox: 0 -1 170 155
%%EndPageSetup
q 0 -1 170 156 rectclip q
0 154.4 170 -155 re W n
0 g
163.293 0.002 m 6 0.002 l 2.688 0.002 0 2.685 0 6.002 c 0 148.4 l 0 
151.712 2.688 154.4 6 154.4 c 9.312 154.4 12 151.712 12 148.4 c 12 
12.002 l 163.293 12.002 l 166.609 12.002 169.293 9.314 169.293 6.002 c 
169.293 2.685 166.609 0.002 163.293 0.002 c h
151.082 86.845 m 149.539 87.974 147.543 88.298 145.723 87.716 c 107.422 
75.513 l 94.367 113.88 l 93.773 115.623 92.418 116.994 90.684 117.607 c 
88.953 118.22 87.031 118.002 85.477 117.017 c 63.016 102.798 l 34.559 
139.24 l 32.984 141.255 30.301 142.052 27.879 141.22 c 25.457 140.384 
23.832 138.107 23.832 135.545 c 23.832 28.455 l 23.832 25.142 26.52 
22.455 29.832 22.455 c 147.543 22.455 l 150.855 22.455 153.543 25.142 
153.543 28.455 c 153.543 82.002 l 153.543 83.916 152.629 85.712 151.082 
86.845 c h
151.082 86.845 m f
Q Q
showpage
%%Trailer
count op_count sub {pop} repeat
countdictstack dict_count sub {end} repeat
cairo_eps_state restore
%%EOF
