%!PS-Adobe-3.0 EPSF-3.0
%%Creator: cairo 1.10.2 (http://cairographics.org)
%%CreationDate: Thu Aug 13 09:20:29 2015
%%Pages: 1
%%BoundingBox: 0 -1 178 146
%%DocumentData: Clean7Bit
%%LanguageLevel: 2
%%EndComments
%%BeginProlog
/cairo_eps_state save def
/dict_count countdictstack def
/op_count count 1 sub def
userdict begin
/q { gsave } bind def
/Q { grestore } bind def
/cm { 6 array astore concat } bind def
/w { setlinewidth } bind def
/J { setlinecap } bind def
/j { setlinejoin } bind def
/M { setmiterlimit } bind def
/d { setdash } bind def
/m { moveto } bind def
/l { lineto } bind def
/c { curveto } bind def
/h { closepath } bind def
/re { exch dup neg 3 1 roll 5 3 roll moveto 0 rlineto
      0 exch rlineto 0 rlineto closepath } bind def
/S { stroke } bind def
/f { fill } bind def
/f* { eofill } bind def
/n { newpath } bind def
/W { clip } bind def
/W* { eoclip } bind def
/BT { } bind def
/ET { } bind def
/pdfmark where { pop globaldict /?pdfmark /exec load put }
    { globaldict begin /?pdfmark /pop load def /pdfmark
    /cleartomark load def end } ifelse
/BDC { mark 3 1 roll /BDC pdfmark } bind def
/EMC { mark /EMC pdfmark } bind def
/cairo_store_point { /cairo_point_y exch def /cairo_point_x exch def } def
/Tj { show currentpoint cairo_store_point } bind def
/TJ {
  {
    dup
    type /stringtype eq
    { show } { -0.001 mul 0 cairo_font_matrix dtransform rmoveto } ifelse
  } forall
  currentpoint cairo_store_point
} bind def
/cairo_selectfont { cairo_font_matrix aload pop pop pop 0 0 6 array astore
    cairo_font exch selectfont cairo_point_x cairo_point_y moveto } bind def
/Tf { pop /cairo_font exch def /cairo_font_matrix where
      { pop cairo_selectfont } if } bind def
/Td { matrix translate cairo_font_matrix matrix concatmatrix dup
      /cairo_font_matrix exch def dup 4 get exch 5 get cairo_store_point
      /cairo_font where { pop cairo_selectfont } if } bind def
/Tm { 2 copy 8 2 roll 6 array astore /cairo_font_matrix exch def
      cairo_store_point /cairo_font where { pop cairo_selectfont } if } bind def
/g { setgray } bind def
/rg { setrgbcolor } bind def
/d1 { setcachedevice } bind def
%%EndProlog
%%Page: 1 1
%%BeginPageSetup
%%PageBoundingBox: 0 -1 178 146
%%EndPageSetup
q 0 -1 178 147 rectclip q
0 145.133 178 -146 re W n
0 g
177.332 17.641 m 177.332 6 l 177.332 2.688 174.648 0 171.332 0 c 6 0 l 
2.688 0 0 2.688 0 6 c 0 17.641 l 0 20.957 2.688 23.641 6 23.641 c 
171.332 23.641 l 174.648 23.641 177.332 20.957 177.332 17.641 c h
171.41 145.133 m 134.988 145.133 l 131.676 145.133 128.988 142.445 
128.988 139.133 c 128.988 39.934 l 128.988 36.617 131.676 33.934 
134.988 33.934 c 171.41 33.934 l 174.727 33.934 177.41 36.617 177.41 
39.934 c 177.41 139.133 l 177.41 142.445 174.727 145.133 171.41 145.133 
c h
106.879 107.801 m 70.457 107.801 l 67.141 107.801 64.457 105.113 64.457 
101.801 c 64.457 39.934 l 64.457 36.617 67.141 33.934 70.457 33.934 c 
106.879 33.934 l 110.191 33.934 112.879 36.617 112.879 39.934 c 112.879 
101.801 l 112.879 105.113 110.191 107.801 106.879 107.801 c h
43.145 68.332 m 6.723 68.332 l 3.406 68.332 0.723 65.648 0.723 62.332 c 
0.723 39.934 l 0.723 36.617 3.406 33.934 6.723 33.934 c 43.145 33.934 l 
46.457 33.934 49.145 36.617 49.145 39.934 c 49.145 62.332 l 49.145 
65.648 46.457 68.332 43.145 68.332 c h
43.145 68.332 m f
Q Q
showpage
%%Trailer
count op_count sub {pop} repeat
countdictstack dict_count sub {end} repeat
cairo_eps_state restore
%%EOF
