%!PS-Adobe-3.0 EPSF-3.0
%%Creator: cairo 1.10.2 (http://cairographics.org)
%%CreationDate: Thu Aug 13 09:20:17 2015
%%Pages: 1
%%BoundingBox: 0 -1 190 177
%%DocumentData: Clean7Bit
%%LanguageLevel: 2
%%EndComments
%%BeginProlog
/cairo_eps_state save def
/dict_count countdictstack def
/op_count count 1 sub def
userdict begin
/q { gsave } bind def
/Q { grestore } bind def
/cm { 6 array astore concat } bind def
/w { setlinewidth } bind def
/J { setlinecap } bind def
/j { setlinejoin } bind def
/M { setmiterlimit } bind def
/d { setdash } bind def
/m { moveto } bind def
/l { lineto } bind def
/c { curveto } bind def
/h { closepath } bind def
/re { exch dup neg 3 1 roll 5 3 roll moveto 0 rlineto
      0 exch rlineto 0 rlineto closepath } bind def
/S { stroke } bind def
/f { fill } bind def
/f* { eofill } bind def
/n { newpath } bind def
/W { clip } bind def
/W* { eoclip } bind def
/BT { } bind def
/ET { } bind def
/pdfmark where { pop globaldict /?pdfmark /exec load put }
    { globaldict begin /?pdfmark /pop load def /pdfmark
    /cleartomark load def end } ifelse
/BDC { mark 3 1 roll /BDC pdfmark } bind def
/EMC { mark /EMC pdfmark } bind def
/cairo_store_point { /cairo_point_y exch def /cairo_point_x exch def } def
/Tj { show currentpoint cairo_store_point } bind def
/TJ {
  {
    dup
    type /stringtype eq
    { show } { -0.001 mul 0 cairo_font_matrix dtransform rmoveto } ifelse
  } forall
  currentpoint cairo_store_point
} bind def
/cairo_selectfont { cairo_font_matrix aload pop pop pop 0 0 6 array astore
    cairo_font exch selectfont cairo_point_x cairo_point_y moveto } bind def
/Tf { pop /cairo_font exch def /cairo_font_matrix where
      { pop cairo_selectfont } if } bind def
/Td { matrix translate cairo_font_matrix matrix concatmatrix dup
      /cairo_font_matrix exch def dup 4 get exch 5 get cairo_store_point
      /cairo_font where { pop cairo_selectfont } if } bind def
/Tm { 2 copy 8 2 roll 6 array astore /cairo_font_matrix exch def
      cairo_store_point /cairo_font where { pop cairo_selectfont } if } bind def
/g { setgray } bind def
/rg { setrgbcolor } bind def
/d1 { setcachedevice } bind def
%%EndProlog
%%Page: 1 1
%%BeginPageSetup
%%PageBoundingBox: 0 -1 190 177
%%EndPageSetup
q 0 -1 190 178 rectclip q
0 176.108 190 -177 re W n
0 g
141.102 129.889 m 124.508 95.854 l 124.969 94.471 125.32 93.034 125.531 
91.557 c 126.469 85.088 124.828 78.639 120.914 73.405 c 116.32 67.256 
108.988 63.581 101.301 63.581 c 95.992 63.581 90.93 65.268 86.668 
68.452 c 81.43 72.366 78.031 78.081 77.098 84.549 c 76.16 91.018 77.801 
97.463 81.715 102.702 c 86.309 108.85 93.645 112.522 101.328 112.522 c 
102.465 112.522 103.59 112.432 104.699 112.276 c 131.656 136.944 l 
133.785 138.889 136.992 139.046 139.301 137.323 c 141.609 135.6 142.363 
132.479 141.102 129.889 c h
101.316 176.108 m 82.664 176.108 64.836 170.346 49.766 159.448 c 45.289 
156.21 44.285 149.96 47.52 145.483 c 50.758 141.006 57.008 140.003 
61.484 143.241 c 73.125 151.659 86.898 156.108 101.316 156.108 c 138.84 
156.108 169.367 125.581 169.367 88.053 c 169.367 50.53 138.84 20.003 
101.316 20.003 c 64.625 20.003 34.637 49.194 33.324 85.573 c 40.793 
84.299 l 41.242 84.225 41.691 84.186 42.137 84.186 c 42.227 84.186 l 
46.613 84.229 50.152 87.796 50.152 92.186 c 50.152 93.35 49.902 94.452 
49.457 95.452 c 37.602 127.432 l 36.605 130.112 34.258 132.057 31.441 
132.538 c 28.625 133.014 25.766 131.956 23.941 129.756 c 1.84 103.1 l 
0.016 100.901 -0.496 97.893 0.5 95.213 c 1.492 92.534 3.84 90.588 6.656 
90.108 c 13.309 88.975 l 13.281 88.674 13.262 88.366 13.262 88.053 c 
13.262 39.503 52.762 -0.001 101.316 -0.001 c 149.867 -0.001 189.367 
39.503 189.367 88.053 c 189.367 136.608 149.867 176.108 101.316 176.108 
c h
101.316 176.108 m f
Q Q
showpage
%%Trailer
count op_count sub {pop} repeat
countdictstack dict_count sub {end} repeat
cairo_eps_state restore
%%EOF
