%!PS-Adobe-3.0 EPSF-3.0
%%Creator: cairo 1.10.2 (http://cairographics.org)
%%CreationDate: Thu Aug 13 09:21:05 2015
%%Pages: 1
%%BoundingBox: 0 -1 150 149
%%DocumentData: Clean7Bit
%%LanguageLevel: 2
%%EndComments
%%BeginProlog
/cairo_eps_state save def
/dict_count countdictstack def
/op_count count 1 sub def
userdict begin
/q { gsave } bind def
/Q { grestore } bind def
/cm { 6 array astore concat } bind def
/w { setlinewidth } bind def
/J { setlinecap } bind def
/j { setlinejoin } bind def
/M { setmiterlimit } bind def
/d { setdash } bind def
/m { moveto } bind def
/l { lineto } bind def
/c { curveto } bind def
/h { closepath } bind def
/re { exch dup neg 3 1 roll 5 3 roll moveto 0 rlineto
      0 exch rlineto 0 rlineto closepath } bind def
/S { stroke } bind def
/f { fill } bind def
/f* { eofill } bind def
/n { newpath } bind def
/W { clip } bind def
/W* { eoclip } bind def
/BT { } bind def
/ET { } bind def
/pdfmark where { pop globaldict /?pdfmark /exec load put }
    { globaldict begin /?pdfmark /pop load def /pdfmark
    /cleartomark load def end } ifelse
/BDC { mark 3 1 roll /BDC pdfmark } bind def
/EMC { mark /EMC pdfmark } bind def
/cairo_store_point { /cairo_point_y exch def /cairo_point_x exch def } def
/Tj { show currentpoint cairo_store_point } bind def
/TJ {
  {
    dup
    type /stringtype eq
    { show } { -0.001 mul 0 cairo_font_matrix dtransform rmoveto } ifelse
  } forall
  currentpoint cairo_store_point
} bind def
/cairo_selectfont { cairo_font_matrix aload pop pop pop 0 0 6 array astore
    cairo_font exch selectfont cairo_point_x cairo_point_y moveto } bind def
/Tf { pop /cairo_font exch def /cairo_font_matrix where
      { pop cairo_selectfont } if } bind def
/Td { matrix translate cairo_font_matrix matrix concatmatrix dup
      /cairo_font_matrix exch def dup 4 get exch 5 get cairo_store_point
      /cairo_font where { pop cairo_selectfont } if } bind def
/Tm { 2 copy 8 2 roll 6 array astore /cairo_font_matrix exch def
      cairo_store_point /cairo_font where { pop cairo_selectfont } if } bind def
/g { setgray } bind def
/rg { setrgbcolor } bind def
/d1 { setcachedevice } bind def
%%EndProlog
%%Page: 1 1
%%BeginPageSetup
%%PageBoundingBox: 0 -1 150 149
%%EndPageSetup
q 0 -1 150 150 rectclip q
0 148.534 150 -149 re W n
0 g
142.23 59.335 m 142.23 5.999 l 142.23 2.687 139.547 -0.001 136.23 
-0.001 c 13.57 -0.001 l 10.254 -0.001 7.57 2.687 7.57 5.999 c 7.57 
59.335 l 30.602 59.335 l 30.602 55.132 l 30.602 51.82 33.285 49.132 
36.602 49.132 c 39.914 49.132 42.602 51.82 42.602 55.132 c 42.602 
59.335 l 107.199 59.335 l 107.199 55.132 l 107.199 51.82 109.887 49.132 
113.199 49.132 c 116.516 49.132 119.199 51.82 119.199 55.132 c 119.199 
59.335 l h
0 71.335 m 0 103.007 l 0 113.995 8.941 122.933 19.93 122.933 c 40.5 
122.933 l 40.5 129.288 l 40.5 139.902 49.133 148.534 59.746 148.534 c 
90.055 148.534 l 100.668 148.534 109.301 139.902 109.301 129.288 c 
109.301 122.933 l 129.875 122.933 l 140.863 122.933 149.801 113.995 
149.801 103.007 c 149.801 71.335 l 119.203 71.335 l 119.203 75.534 l 
119.203 78.847 116.516 81.534 113.203 81.534 c 109.887 81.534 107.203 
78.847 107.203 75.534 c 107.203 71.335 l 42.602 71.335 l 42.602 75.534 
l 42.602 78.847 39.914 81.534 36.602 81.534 c 33.289 81.534 30.602 
78.847 30.602 75.534 c 30.602 71.335 l h
52.5 122.933 m 97.301 122.933 l 97.301 129.288 l 97.301 133.284 94.051 
136.534 90.055 136.534 c 59.746 136.534 l 55.754 136.534 52.5 133.284 
52.5 129.288 c h
52.5 122.933 m f
Q Q
showpage
%%Trailer
count op_count sub {pop} repeat
countdictstack dict_count sub {end} repeat
cairo_eps_state restore
%%EOF
