%!PS-Adobe-3.0 EPSF-3.0
%%Creator: cairo 1.10.2 (http://cairographics.org)
%%CreationDate: Thu Aug 13 09:20:32 2015
%%Pages: 1
%%BoundingBox: 0 -1 163 148
%%DocumentData: Clean7Bit
%%LanguageLevel: 2
%%EndComments
%%BeginProlog
/cairo_eps_state save def
/dict_count countdictstack def
/op_count count 1 sub def
userdict begin
/q { gsave } bind def
/Q { grestore } bind def
/cm { 6 array astore concat } bind def
/w { setlinewidth } bind def
/J { setlinecap } bind def
/j { setlinejoin } bind def
/M { setmiterlimit } bind def
/d { setdash } bind def
/m { moveto } bind def
/l { lineto } bind def
/c { curveto } bind def
/h { closepath } bind def
/re { exch dup neg 3 1 roll 5 3 roll moveto 0 rlineto
      0 exch rlineto 0 rlineto closepath } bind def
/S { stroke } bind def
/f { fill } bind def
/f* { eofill } bind def
/n { newpath } bind def
/W { clip } bind def
/W* { eoclip } bind def
/BT { } bind def
/ET { } bind def
/pdfmark where { pop globaldict /?pdfmark /exec load put }
    { globaldict begin /?pdfmark /pop load def /pdfmark
    /cleartomark load def end } ifelse
/BDC { mark 3 1 roll /BDC pdfmark } bind def
/EMC { mark /EMC pdfmark } bind def
/cairo_store_point { /cairo_point_y exch def /cairo_point_x exch def } def
/Tj { show currentpoint cairo_store_point } bind def
/TJ {
  {
    dup
    type /stringtype eq
    { show } { -0.001 mul 0 cairo_font_matrix dtransform rmoveto } ifelse
  } forall
  currentpoint cairo_store_point
} bind def
/cairo_selectfont { cairo_font_matrix aload pop pop pop 0 0 6 array astore
    cairo_font exch selectfont cairo_point_x cairo_point_y moveto } bind def
/Tf { pop /cairo_font exch def /cairo_font_matrix where
      { pop cairo_selectfont } if } bind def
/Td { matrix translate cairo_font_matrix matrix concatmatrix dup
      /cairo_font_matrix exch def dup 4 get exch 5 get cairo_store_point
      /cairo_font where { pop cairo_selectfont } if } bind def
/Tm { 2 copy 8 2 roll 6 array astore /cairo_font_matrix exch def
      cairo_store_point /cairo_font where { pop cairo_selectfont } if } bind def
/g { setgray } bind def
/rg { setrgbcolor } bind def
/d1 { setcachedevice } bind def
%%EndProlog
%%Page: 1 1
%%BeginPageSetup
%%PageBoundingBox: 0 -1 163 148
%%EndPageSetup
q 0 -1 163 149 rectclip q
0 147.294 163 -148 re W n
0 g
123.598 122.001 m 123.598 114.532 l 123.598 111.219 120.914 108.532 
117.598 108.532 c 45.066 108.532 l 41.75 108.532 39.066 111.219 39.066 
114.532 c 39.066 122.001 l 39.066 125.313 41.75 128.001 45.066 128.001 
c 59.145 128.001 l 56.727 130.001 55.18 133.024 55.18 136.399 c 55.18 
142.407 60.066 147.294 66.074 147.294 c 72.078 147.294 76.965 142.407 
76.965 136.399 c 76.965 133.024 75.422 130.001 73 128.001 c 89.664 
128.001 l 87.242 130.001 85.699 133.024 85.699 136.399 c 85.699 142.407 
90.582 147.294 96.59 147.294 c 102.598 147.294 107.484 142.407 107.484 
136.399 c 107.484 133.024 105.941 130.001 103.52 128.001 c 117.598 
128.001 l 120.914 128.001 123.598 125.313 123.598 122.001 c h
157.863 44.864 m 125.059 94.954 l 123.949 96.645 122.062 97.665 120.039 
97.665 c 42.629 97.665 l 40.605 97.665 38.715 96.649 37.609 94.954 c 
4.805 44.864 l -1.125 35.813 -1.594 24.723 3.551 15.204 c 8.699 5.684 
18.23 0.001 29.051 0.001 c 133.613 0.001 l 144.434 0.001 153.969 5.684 
159.113 15.204 c 164.258 24.723 163.789 35.813 157.863 44.864 c h
157.863 44.864 m f
Q Q
showpage
%%Trailer
count op_count sub {pop} repeat
countdictstack dict_count sub {end} repeat
cairo_eps_state restore
%%EOF
