%!PS-Adobe-3.0 EPSF-3.0
%%Creator: cairo 1.10.2 (http://cairographics.org)
%%CreationDate: Thu Aug 13 09:20:26 2015
%%Pages: 1
%%BoundingBox: 0 -1 154 160
%%DocumentData: Clean7Bit
%%LanguageLevel: 2
%%EndComments
%%BeginProlog
/cairo_eps_state save def
/dict_count countdictstack def
/op_count count 1 sub def
userdict begin
/q { gsave } bind def
/Q { grestore } bind def
/cm { 6 array astore concat } bind def
/w { setlinewidth } bind def
/J { setlinecap } bind def
/j { setlinejoin } bind def
/M { setmiterlimit } bind def
/d { setdash } bind def
/m { moveto } bind def
/l { lineto } bind def
/c { curveto } bind def
/h { closepath } bind def
/re { exch dup neg 3 1 roll 5 3 roll moveto 0 rlineto
      0 exch rlineto 0 rlineto closepath } bind def
/S { stroke } bind def
/f { fill } bind def
/f* { eofill } bind def
/n { newpath } bind def
/W { clip } bind def
/W* { eoclip } bind def
/BT { } bind def
/ET { } bind def
/pdfmark where { pop globaldict /?pdfmark /exec load put }
    { globaldict begin /?pdfmark /pop load def /pdfmark
    /cleartomark load def end } ifelse
/BDC { mark 3 1 roll /BDC pdfmark } bind def
/EMC { mark /EMC pdfmark } bind def
/cairo_store_point { /cairo_point_y exch def /cairo_point_x exch def } def
/Tj { show currentpoint cairo_store_point } bind def
/TJ {
  {
    dup
    type /stringtype eq
    { show } { -0.001 mul 0 cairo_font_matrix dtransform rmoveto } ifelse
  } forall
  currentpoint cairo_store_point
} bind def
/cairo_selectfont { cairo_font_matrix aload pop pop pop 0 0 6 array astore
    cairo_font exch selectfont cairo_point_x cairo_point_y moveto } bind def
/Tf { pop /cairo_font exch def /cairo_font_matrix where
      { pop cairo_selectfont } if } bind def
/Td { matrix translate cairo_font_matrix matrix concatmatrix dup
      /cairo_font_matrix exch def dup 4 get exch 5 get cairo_store_point
      /cairo_font where { pop cairo_selectfont } if } bind def
/Tm { 2 copy 8 2 roll 6 array astore /cairo_font_matrix exch def
      cairo_store_point /cairo_font where { pop cairo_selectfont } if } bind def
/g { setgray } bind def
/rg { setrgbcolor } bind def
/d1 { setcachedevice } bind def
%%EndProlog
%%Page: 1 1
%%BeginPageSetup
%%PageBoundingBox: 0 -1 154 160
%%EndPageSetup
q 0 -1 154 161 rectclip q
0 159.638 154 -160 re W n
0 g
147.867 144.107 m 126.891 144.107 l 126.891 153.638 l 126.891 156.951 
124.203 159.638 120.891 159.638 c 32.977 159.638 l 29.664 159.638 
26.977 156.951 26.977 153.638 c 26.977 144.107 l 6 144.107 l 2.688 
144.107 0 141.42 0 138.107 c 0 121.506 l 0 118.193 2.688 115.506 6 
115.506 c 9.312 115.506 12 118.193 12 121.506 c 12 132.107 l 26.977 
132.107 l 26.977 108.174 l 26.977 84.24 43.898 64.193 66.406 59.342 c 
66.406 53.943 l 63.617 51.209 61.879 47.408 61.879 43.201 c 61.879 
39.568 63.172 36.228 65.324 33.627 c 63.953 29.494 61.324 25.818 57.73 
23.205 c 40.73 10.853 l 38.629 9.326 37.746 6.619 38.551 4.146 c 39.355 
1.674 41.66 0.002 44.258 0.002 c 109.609 0.002 l 112.207 0.002 114.512 
1.674 115.316 4.146 c 116.117 6.619 115.238 9.326 113.137 10.853 c 
96.137 23.205 l 92.543 25.818 89.914 29.494 88.543 33.623 c 90.695 
36.228 91.988 39.564 91.988 43.201 c 91.988 47.404 90.25 51.209 87.461 
53.943 c 87.461 59.342 l 109.965 64.189 126.891 84.24 126.891 108.174 c 
126.891 132.107 l 141.867 132.107 l 141.867 121.506 l 141.867 118.193 
144.555 115.506 147.867 115.506 c 151.18 115.506 153.867 118.193 
153.867 121.506 c 153.867 138.107 l 153.867 141.42 151.18 144.107 
147.867 144.107 c h
88.398 86.357 m 65.465 86.357 l 62.152 86.357 59.465 89.041 59.465 
92.357 c 59.465 95.67 62.152 98.357 65.465 98.357 c 70.934 98.357 l 
70.934 124.33 l 68.402 122.654 64.965 123.131 62.996 125.521 c 60.887 
128.08 61.254 131.861 63.812 133.967 c 73.117 141.634 l 74.91 143.111 
77.395 143.42 79.492 142.427 c 81.594 141.439 82.934 139.326 82.934 
137.002 c 82.934 98.353 l 88.398 98.353 l 91.711 98.353 94.398 95.67 
94.398 92.353 c 94.398 89.041 91.715 86.357 88.398 86.357 c h
88.398 86.357 m f
Q Q
showpage
%%Trailer
count op_count sub {pop} repeat
countdictstack dict_count sub {end} repeat
cairo_eps_state restore
%%EOF
