%!PS-Adobe-3.0 EPSF-3.0
%%Creator: cairo 1.10.2 (http://cairographics.org)
%%CreationDate: Thu Aug 13 09:20:27 2015
%%Pages: 1
%%BoundingBox: 0 -1 168 100
%%DocumentData: Clean7Bit
%%LanguageLevel: 2
%%EndComments
%%BeginProlog
/cairo_eps_state save def
/dict_count countdictstack def
/op_count count 1 sub def
userdict begin
/q { gsave } bind def
/Q { grestore } bind def
/cm { 6 array astore concat } bind def
/w { setlinewidth } bind def
/J { setlinecap } bind def
/j { setlinejoin } bind def
/M { setmiterlimit } bind def
/d { setdash } bind def
/m { moveto } bind def
/l { lineto } bind def
/c { curveto } bind def
/h { closepath } bind def
/re { exch dup neg 3 1 roll 5 3 roll moveto 0 rlineto
      0 exch rlineto 0 rlineto closepath } bind def
/S { stroke } bind def
/f { fill } bind def
/f* { eofill } bind def
/n { newpath } bind def
/W { clip } bind def
/W* { eoclip } bind def
/BT { } bind def
/ET { } bind def
/pdfmark where { pop globaldict /?pdfmark /exec load put }
    { globaldict begin /?pdfmark /pop load def /pdfmark
    /cleartomark load def end } ifelse
/BDC { mark 3 1 roll /BDC pdfmark } bind def
/EMC { mark /EMC pdfmark } bind def
/cairo_store_point { /cairo_point_y exch def /cairo_point_x exch def } def
/Tj { show currentpoint cairo_store_point } bind def
/TJ {
  {
    dup
    type /stringtype eq
    { show } { -0.001 mul 0 cairo_font_matrix dtransform rmoveto } ifelse
  } forall
  currentpoint cairo_store_point
} bind def
/cairo_selectfont { cairo_font_matrix aload pop pop pop 0 0 6 array astore
    cairo_font exch selectfont cairo_point_x cairo_point_y moveto } bind def
/Tf { pop /cairo_font exch def /cairo_font_matrix where
      { pop cairo_selectfont } if } bind def
/Td { matrix translate cairo_font_matrix matrix concatmatrix dup
      /cairo_font_matrix exch def dup 4 get exch 5 get cairo_store_point
      /cairo_font where { pop cairo_selectfont } if } bind def
/Tm { 2 copy 8 2 roll 6 array astore /cairo_font_matrix exch def
      cairo_store_point /cairo_font where { pop cairo_selectfont } if } bind def
/g { setgray } bind def
/rg { setrgbcolor } bind def
/d1 { setcachedevice } bind def
%%EndProlog
%%Page: 1 1
%%BeginPageSetup
%%PageBoundingBox: 0 -1 168 100
%%EndPageSetup
q 0 -1 168 101 rectclip q
0 99.009 168 -100 re W n
0 g
161.836 70.591 m 115.891 70.591 l 115.891 93.009 l 115.891 96.321 
113.203 99.009 109.891 99.009 c 57.945 99.009 l 54.633 99.009 51.945 
96.321 51.945 93.009 c 51.945 40.821 l 6 40.821 l 2.688 40.821 0 38.138 
0 34.821 c 0 6.001 l 0 2.685 2.688 0.001 6 0.001 c 161.836 0.001 l 
165.148 0.001 167.836 2.685 167.836 6.001 c 167.836 64.591 l 167.836 
67.903 165.148 70.591 161.836 70.591 c h
93.516 54.259 m 96.832 54.259 99.516 51.571 99.516 48.259 c 99.516 
44.946 96.832 42.259 93.516 42.259 c 74.316 42.259 l 71.004 42.259 
68.316 44.946 68.316 48.259 c 68.316 51.571 71.004 54.259 74.316 54.259 
c 77.918 54.259 l 77.918 74.923 l 74.316 74.923 l 71.004 74.923 68.316 
77.61 68.316 80.923 c 68.316 84.239 71.004 86.923 74.316 86.923 c 
93.516 86.923 l 96.832 86.923 99.516 84.239 99.516 80.923 c 99.516 
77.61 96.832 74.923 93.516 74.923 c 89.918 74.923 l 89.918 54.259 l h
93.516 54.259 m f
Q Q
showpage
%%Trailer
count op_count sub {pop} repeat
countdictstack dict_count sub {end} repeat
cairo_eps_state restore
%%EOF
