%!PS-Adobe-3.0 EPSF-3.0
%%Creator: cairo 1.10.2 (http://cairographics.org)
%%CreationDate: Thu Aug 13 09:21:00 2015
%%Pages: 1
%%BoundingBox: 0 -1 142 172
%%DocumentData: Clean7Bit
%%LanguageLevel: 2
%%EndComments
%%BeginProlog
/cairo_eps_state save def
/dict_count countdictstack def
/op_count count 1 sub def
userdict begin
/q { gsave } bind def
/Q { grestore } bind def
/cm { 6 array astore concat } bind def
/w { setlinewidth } bind def
/J { setlinecap } bind def
/j { setlinejoin } bind def
/M { setmiterlimit } bind def
/d { setdash } bind def
/m { moveto } bind def
/l { lineto } bind def
/c { curveto } bind def
/h { closepath } bind def
/re { exch dup neg 3 1 roll 5 3 roll moveto 0 rlineto
      0 exch rlineto 0 rlineto closepath } bind def
/S { stroke } bind def
/f { fill } bind def
/f* { eofill } bind def
/n { newpath } bind def
/W { clip } bind def
/W* { eoclip } bind def
/BT { } bind def
/ET { } bind def
/pdfmark where { pop globaldict /?pdfmark /exec load put }
    { globaldict begin /?pdfmark /pop load def /pdfmark
    /cleartomark load def end } ifelse
/BDC { mark 3 1 roll /BDC pdfmark } bind def
/EMC { mark /EMC pdfmark } bind def
/cairo_store_point { /cairo_point_y exch def /cairo_point_x exch def } def
/Tj { show currentpoint cairo_store_point } bind def
/TJ {
  {
    dup
    type /stringtype eq
    { show } { -0.001 mul 0 cairo_font_matrix dtransform rmoveto } ifelse
  } forall
  currentpoint cairo_store_point
} bind def
/cairo_selectfont { cairo_font_matrix aload pop pop pop 0 0 6 array astore
    cairo_font exch selectfont cairo_point_x cairo_point_y moveto } bind def
/Tf { pop /cairo_font exch def /cairo_font_matrix where
      { pop cairo_selectfont } if } bind def
/Td { matrix translate cairo_font_matrix matrix concatmatrix dup
      /cairo_font_matrix exch def dup 4 get exch 5 get cairo_store_point
      /cairo_font where { pop cairo_selectfont } if } bind def
/Tm { 2 copy 8 2 roll 6 array astore /cairo_font_matrix exch def
      cairo_store_point /cairo_font where { pop cairo_selectfont } if } bind def
/g { setgray } bind def
/rg { setrgbcolor } bind def
/d1 { setcachedevice } bind def
%%EndProlog
%%Page: 1 1
%%BeginPageSetup
%%PageBoundingBox: 0 -1 142 172
%%EndPageSetup
q 0 -1 142 173 rectclip q
0 171.457 142 -172 re W n
0 g
131.875 68.512 m 125.238 61.071 116.098 56.657 106.141 56.086 c 96.195 
55.516 86.602 58.86 79.156 65.496 c 49.988 91.508 l 42.852 97.871 
31.867 97.242 25.504 90.106 c 24.383 88.848 l 18.02 81.711 18.648 
70.731 25.785 64.367 c 53.938 39.262 l 57.953 43.688 l 59.871 45.801 
62.777 46.735 65.57 46.129 c 68.363 45.524 70.621 43.477 71.492 40.754 
c 81.055 10.942 l 81.414 10.032 81.613 9.039 81.613 8 c 81.613 3.61 
78.074 0.047 73.695 0 c 73.66 0 73.629 0 73.594 0 c 73.031 0 72.465 
0.059 71.902 0.18 c 40.793 6.918 l 38 7.524 35.742 9.574 34.867 12.297 
c 33.996 15.016 34.641 17.996 36.562 20.114 c 40.496 24.449 l 12.473 
49.438 l -2.895 63.141 -4.25 86.793 9.453 102.157 c 10.578 103.418 l 
24.277 118.782 47.926 120.137 63.297 106.434 c 92.465 80.422 l 99.602 
74.059 110.582 74.684 116.949 81.821 c 123.312 88.957 122.684 99.942 
115.547 106.305 c 86.508 132.203 l 82.484 127.774 l 80.953 126.082 
78.789 125.149 76.559 125.149 c 75.996 125.149 75.43 125.207 74.867 
125.328 c 72.074 125.934 69.816 127.985 68.941 130.707 c 59.223 161.016 
l 58.352 163.735 58.996 166.715 60.918 168.832 c 62.836 170.949 65.742 
171.879 68.531 171.278 c 99.645 164.539 l 102.438 163.934 104.695 
161.887 105.566 159.164 c 106.441 156.442 105.793 153.461 103.875 
151.344 c 99.945 147.016 l 128.859 121.231 l 144.227 107.528 145.578 
83.879 131.875 68.512 c h
131.875 68.512 m f
Q Q
showpage
%%Trailer
count op_count sub {pop} repeat
countdictstack dict_count sub {end} repeat
cairo_eps_state restore
%%EOF
