<?xml version="1.0" encoding="iso-8859-1"?>
<!-- Generator: Adobe Illustrator 18.0.0, SVG Export Plug-In . SVG Version: 6.00 Build 0)  -->
<!DOCTYPE svg PUBLIC "-//W3C//DTD SVG 1.1//EN" "http://www.w3.org/Graphics/SVG/1.1/DTD/svg11.dtd">
<svg version="1.1" id="Capa_1" xmlns="http://www.w3.org/2000/svg" xmlns:xlink="http://www.w3.org/1999/xlink" x="0px" y="0px"
	 viewBox="0 0 494.514 494.514" style="enable-background:new 0 0 494.514 494.514;" xml:space="preserve">
<g id="XMLID_40_">
	<path id="XMLID_42_" d="M472.644,103.955l-43.273-43.282l-0.019-0.018c-29.191-29.148-76.306-29.141-105.481,0.009l-133.84,133.83
		c-14.098,14.09-21.852,32.821-21.852,52.753c0,19.457,7.486,37.698,20.957,51.662l38.913-38.914
		c-7.396-8.504-6.146-19.779,0.786-26.685l133.84-133.83c7.682-7.709,20.172-7.709,27.873-0.009l0.016,0.009l43.275,43.29
		c7.663,7.639,7.736,20.154,0,27.864l-80.453,80.444c-0.965,25.809-11.149,49.982-29.516,68.34l-45.007,45.006
		c24.584,2.385,44.952-6.163,59.94-21.145l133.84-133.83C501.785,180.327,501.823,133.087,472.644,103.955z"/>
	<path id="XMLID_41_" d="M326.318,247.255c0-19.921-7.757-38.653-21.852-52.743l-38.806,38.807c3.714,3.726,5.77,8.674,5.77,13.936
		c0,5.262-2.036,10.211-5.77,13.936l-133.84,133.84l-0.019,0.007c-7.166,7.174-20.188,7.667-27.854-0.007l-43.272-43.293
		c-7.667-7.637-7.737-20.145,0-27.853l80.452-80.454c0.947-25.808,11.15-49.981,29.516-68.34l44.989-44.988
		c-24.585-2.386-44.953,6.164-59.942,21.146L21.869,285.07c-29.141,29.105-29.176,76.354,0,105.485l43.271,43.282
		c29.141,29.132,76.291,29.212,105.485,0l133.841-133.83C318.561,285.92,326.318,267.186,326.318,247.255z"/>
</g>
<g>
</g>
<g>
</g>
<g>
</g>
<g>
</g>
<g>
</g>
<g>
</g>
<g>
</g>
<g>
</g>
<g>
</g>
<g>
</g>
<g>
</g>
<g>
</g>
<g>
</g>
<g>
</g>
<g>
</g>
</svg>
