<?xml version="1.0" encoding="iso-8859-1"?>
<!-- Generator: Adobe Illustrator 18.0.0, SVG Export Plug-In . SVG Version: 6.00 Build 0)  -->
<!DOCTYPE svg PUBLIC "-//W3C//DTD SVG 1.1//EN" "http://www.w3.org/Graphics/SVG/1.1/DTD/svg11.dtd">
<svg version="1.1" id="Capa_1" xmlns="http://www.w3.org/2000/svg" xmlns:xlink="http://www.w3.org/1999/xlink" x="0px" y="0px"
	 viewBox="0 0 487.159 487.159" style="enable-background:new 0 0 487.159 487.159;" xml:space="preserve">
<path id="XMLID_183_" d="M457.23,0.561c-16.53,0-29.928,13.398-29.928,29.929v3.298l-37.69,29.289
	c-72.877,56.625-164.133,84.28-256.182,77.636l-54.664-3.947c-20.353-1.468-40.397,5.595-55.343,19.493
	C8.481,170.156,0,189.649,0,210.061s8.481,39.896,23.423,53.794c14.939,13.899,34.99,20.962,55.343,19.493l41.186-2.978
	l52.924,170.908c6.505,21.003,25.925,35.32,47.911,35.32c15.933,0,30.915-7.573,40.374-20.396
	c9.45-12.824,12.247-29.379,7.54-44.597l-10.881-35.123h7.901c13.923,0,25.203-11.28,25.203-25.202
	c0-13.922-11.28-25.203-25.203-25.203h-23.505l-15.94-51.457c59.062,10.6,115.228,35.048,163.329,72.418l37.697,29.289v3.305
	c0,16.533,13.398,29.93,29.928,29.93c16.532,0,29.929-13.397,29.929-29.93V30.49C487.159,13.959,473.762,0.561,457.23,0.561z"/>
<g>
</g>
<g>
</g>
<g>
</g>
<g>
</g>
<g>
</g>
<g>
</g>
<g>
</g>
<g>
</g>
<g>
</g>
<g>
</g>
<g>
</g>
<g>
</g>
<g>
</g>
<g>
</g>
<g>
</g>
</svg>
